1,1.57E-01,0.014258,0.024233
-2,-1.07E-01,0.004713,0.015571
-1,1.38E-02,0.016563,0.023299
0,-8.28E-02,0.022879,0.044665
-3,2.41E-01,0.003531,0.012135
3,2.54E-01,0.015371,0.021841
-2,-1.55E-01,0.007657,0.007973
-5,8.23E-02,0.006718,0.009769
-4,4.35E-01,0.01389,0.011516
-8,1.01E-01,0.005005,0.005737
0,2.38E-03,0.033613,0.043452
-3,5.66E-02,0.015845,0.005875
8,5,0.097417,0.009273
0,2.11E-02,0.007247,0.006514
-6,9.49E-02,0.014347,0.01255
6,1.40E-01,0.007947,0.007581
-5,-3.77E-02,0.027758,0.008602
3,-4.94E-03,0.015191,0.006739
-3,8.21E-02,0.010047,0.014602
-4,3.96E-01,0.016826,0.017696
4,1.14E-01,0.004854,0.006174
0,-1.56E-01,0.015573,0.010609
1,-2,0.131792,0.004243
-2,1.11E-01,0.01427,0.017712
-2,3.22E-01,0.004823,0.004103
-3,1.25E-01,0.009123,0.020466
-1,6.64E-02,0.009834,0.02457
0,-2.13E-02,0.005358,0.013898
-1,9.64E-02,0.004071,0.005863
9,1.23E-01,0.010849,0.009028
4,1.03E-01,0.009719,0.025952
-4,1.84E-01,0.009083,0.011548
4,-1.29E-01,0.006851,0.006981
4,7.19E-02,0.017388,0.034703
-8,2.78E-01,0.013016,0.01332
-5,1.11E-01,0.007559,0.005709
-3,3.53E-01,0.010473,0.010484
0,4.14E-01,0.00867,0.012346
-5,-5.48E-02,0.004746,0.00877
4,6.97E-02,0.011523,0.020705
-2,-7.52E-02,0.006645,0.011734
5,1.43E-01,0.003751,0.004312
0,3.15E-01,0.020549,0.01999
7,2.65E-01,0.011072,0.012966
-1,-1.05E-02,0.021032,0.015419
1,1.73E-01,0.004585,0.020743
-2,1.19E-01,0.011444,0.023666
0,2.21E-01,0.005763,0.011847
-5,-1.18E-01,0.013963,0.017082
2,3.32E-01,0.010465,0.009095
2,1.15E-02,0.009158,0.015616
3,7.76E-02,0.011091,0.010529
-5,-4.44E-03,0.016074,0.040534
2,2.20E-01,0.012326,0.010126
1,9.99E-02,0.047986,0.055651
-2,-5.66E-03,0.008656,0.00811
-5,1.26E-01,0.011871,0.008655
0,8.65E-02,0.01592,0.00656
1,1.03E-01,0.004775,0.006752
3,-1.19E-01,0.014119,0.017665
-4,-1.31E-01,0.011516,0.008305
4,1.87E-01,0.063699,0.085776
1,-3.02E-01,0.018809,0.018415
-2,2.13E-01,0.033592,0.021444
-1,4.27E-02,0.006792,0.006122
-3,-2.42E-01,0.016596,0.030196
-1,2.29E-01,0.012411,0.016873
5,-5.60E-03,0.009025,0.003667
-3,7.44E-02,0.006261,0.011932
-4,-2.54E-01,0.008971,0.018528
2,-1.05E-01,0.009468,0.011481
9,1,0.361062,0.007142
-3,9.43E-02,0.00401,0.006516
-1,5.20E-02,0.00732,0.006855
-2,2.88E-01,0.026016,0.021723
3,-3.41E-01,0.018624,0.022475
1,2.02E-01,0.03339,0.02686
5,-1.89E-02,0.034964,0.019907
1,1.78E-01,0.074308,0.067225
-1,1.27E-01,0.01157,0.018087
1,1.83E-01,0.015743,0.016263
-6,-6.40E-02,0.05591,0.073374
2,2.76E-01,0.016692,0.01137
5,-8.96E-02,0.019059,0.009277
-2,6.41E-02,0.010455,0.02203
-5,9.03E-02,0.013179,0.01402
3,3.99E-01,0.036283,0.046503
-8,2.68E-01,0.002888,0.011487
3,4.87E-02,0.009326,0.011361
-3,-2.07E-01,0.01316,0.011324
0,3.59E-01,0.006009,0.00725
1,3.20E-01,0.007674,0.018973
2,-2.56E-02,0.00252,0.009719
1,3.06E-02,0.00778,0.006652
3,2.69E-02,0.04499,0.059708
-2,2.02E-01,0.025688,0.015985
6,2.46E-01,0.012423,0.008651
-1,1.20E-01,0.0311,0.030464
2,3.47E-01,0.009271,0.018841
-2,-1.53E-01,0.009439,0.005954
1,2.73E-02,0.012259,0.013172
-3,-1.48E-01,0.006759,0.015843
-3,6.92E-02,0.013936,0.006372
-2,-9.28E-02,0.00588,0.013295
0,1.50E-01,0.008324,0.022902
-3,2.09E-01,0.003995,0.012168
-1,1.49E-01,0.01488,0.018221
-2,1.08E-01,0.018136,0.010272
3,1.17E-02,0.009211,0.008148
-5,2.79E-01,0.008255,0.020671
-3,-1.65E-01,0.009936,0.00906
0,-2.01E-01,0.029005,0.041908
1,-1.42E-01,0.01047,0.008583
-2,-3.12E-02,0.004267,0.012442
-2,2.43E-01,0.008161,0.008785
-4,-4.53E-02,0.013446,0.023056
-2,-1.14E-01,0.016175,0.007072
4,6.74E-02,0.010418,0.010711
4,4.86E-02,0.006928,0.004594
5,1.03E-01,0.010524,0.022597
-5,8.13E-02,0.029719,0.016099
2,-1.64E-01,0.030127,0.063097
-3,5.67E-02,0.010616,0.012201
-2,-1.74E-02,0.006501,0.030963
0,-6.46E-02,0.015762,0.023228
-2,-9.86E-03,0.009142,0.00419
3,1.65E-01,0.032579,0.019359
-2,1.73E-01,0.01704,0.006984
4,2.57E-01,0.010132,0.006542
2,2.18E-01,0.011489,0.011953
-3,3.93E-01,0.005508,0.007518
-5,1.71E-01,0.011782,0.011564
-3,5.77E-02,0.012165,0.018
2,3.23E-01,0.008077,0.011112
-2,-1.10E-01,0.010184,0.007463
0,2.23E-02,0.029691,0.020929
4,1.27E-01,0.018779,0.032482
4,1.73E-01,0.011825,0.022713
1,2.00E-01,0.049245,0.074284
4,7.04E-02,0.006339,0.007892
-1,1.71E-01,0.013419,0.019079
0,-2.30E-01,0.013363,0.016186
2,3.05E-01,0.014908,0.019698
-4,2.88E-01,0.021247,0.013008
-3,-1.95E-01,0.025085,0.0158
1,2.53E-01,0.010406,0.01212
-4,-2.66E-01,0.005872,0.019439
-3,1.37E-01,0.014346,0.012111
4,1.56E-01,0.008961,0.007024
-1,3.07E-01,0.009998,0.011377
0,-2.26E-02,0.01049,0.011272
-1,7.21E-02,0.012251,0.016592
4,8.65E-02,0.008438,0.007561
5,5.02E-02,0.012389,0.022408
-7,-2.91E-02,0.010661,0.011216
1,9.82E-02,0.015836,0.012586
1,2.20E-02,0.017821,0.013483
7,2.38E-01,0.02895,0.016855
2,-2.15E-01,0.005768,0.014388
-1,3.18E-01,0.01457,0.013302
-7,-8.50E-02,0.014587,0.023662
3,1.56E-01,0.00683,0.013351
6,1.12E-01,0.011501,0.015089
0,-2.10E-03,0.008272,0.01341
-1,2.87E-01,0.010508,0.008943
2,4.73E-03,0.01495,0.010686
3,2.62E-01,0.003751,0.010389
-6,-4.00E-02,0.006466,0.01253
-3,2.80E-01,0.009134,0.023291
4,1.16E-01,0.025352,0.047245
1,-2.26E-01,0.023829,0.015547
0,-7.90E-02,0.015841,0.016024
-3,-5.65E-02,0.01016,0.008345
-8,-3.74E-01,0.004527,0.005957
0,-1.32E-02,0.016302,0.012468
4,-2.44E-02,0.017172,0.009798
-1,1.87E-01,0.027923,0.027471
2,-6.15E-02,0.017884,0.013183
-6,-4.97E-02,0.007873,0.01068
5,-3.18E-03,0.013822,0.020415
3,4.45E-02,0.004857,0.00439
-6,-7.21E-02,0.007947,0.019024
-1,2.35E-01,0.00255,0.01695
-4,4.81E-02,0.02157,0.023422
-1,-1.67E-01,0.008922,0.011721
-3,-1.02E-01,0.006551,0.009356
-5,-9.84E-03,0.00566,0.007286
0,2.23E-01,0.004099,0.00717
2,1.52E-01,0.005385,0.010317
-3,1.01E-01,0.052092,0.061504
-3,-2.68E-02,0.009162,0.018336
0,2.33E-01,0.00989,0.011239
-5,4.95E-02,0.060059,0.060139
1,1.55E-01,0.014961,0.013596
0,3.56E-02,0.020314,0.011
2,-1.84E-01,0.012117,0.01332
1,1.09E-01,0.043689,0.057947
-1,2.34E-01,0.013085,0.009326
-3,9.69E-02,0.010635,0.007953
5,1.62E-02,0.010751,0.011236
-1,3.07E-01,0.004075,0.006965
3,6.19E-02,0.006578,0.010453
-2,9.02E-02,0.034444,0.043726
-1,-6.18E-02,0.008305,0.012126
-4,4.96E-02,0.00571,0.006779
-2,1.90E-01,0.005202,0.011203
-3,2.76E-02,0.010673,0.009272
4,-2.10E-02,0.029221,0.046135
-1,-1.81E-01,0.054912,0.07503
-3,4.65E-02,0.011131,0.013171
3,-1.20E-02,0.0211,0.016591
-1,1.48E-02,0.016742,0.022361
-5,1.40E-01,0.01034,0.014257
-5,-1.36E-02,0.007515,0.013019
2,1.44E-01,0.010941,0.012968
-1,2.29E-01,0.047146,0.055646
1,5.34E-02,0.016617,0.017141
-3,2.10E-01,0.005404,0.00962
-2,1.16E-01,0.016628,0.00824
3,3.98E-02,0.011965,0.016207
3,-1.27E-03,0.006488,0.011878
1,-8.33E-02,0.007612,0.015082
-4,2.07E-01,0.024895,0.010989
-3,-3.01E-01,0.01258,0.020046
0,-4.42E-02,0.013982,0.014822
0,-2.51E-01,0.006766,0.00412
-1,1.92E-01,0.015255,0.01482
-1,-1.54E-01,0.005606,0.014145
2,2.64E-01,0.016994,0.015861
-3,3.88E-01,0.010982,0.009509
1,2.82E-01,0.00792,0.008279
-6,2.70E-01,0.011949,0.007561
-2,-1.45E-01,0.002927,0.010168
-6,2.53E-01,0.009678,0.012161
13,1.15E-02,0.007131,0.01576
6,1.16E-01,0.014925,0.01438
6,1.30E-01,0.007707,0.018943
1,3.28E-01,0.008158,0.007166
0,4.73E-01,0.008618,0.012241
3,4.99E-02,0.022619,0.021044
-1,-1.83E-02,0.01641,0.004646
0,1.47E-01,0.011275,0.012791
0,1.57E-01,0.014758,0.008823
1,2.53E-02,0.003004,0.015765
1,0,-0.098877,0.008521
-2,-4,0.019309,0.010554
-8,4.13E-02,0.025949,0.019666
1,-1.00E-01,0.008343,0.007425
2,4.77E-01,0.009908,0.011489
0,5.33E-01,0.020637,0.012146
6,1.20E-01,0.011574,0.018923
2,1.02E-01,0.010259,0.012042
3,1.41E-01,0.019031,0.010452
-1,2.43E-02,0.016923,0.023805
1,-4.03E-03,0.012279,0.027793
4,6.18E-02,0.018729,0.018833
2,1.21E-01,0.013498,0.030006
0,3.88E-02,0.009433,0.022418
2,1.38E-01,0.006159,0.016151
-2,1.50E-01,0.010691,0.011204
-6,-7.44E-02,0.008722,0.024506
3,4.22E-01,0.020377,0.013362
-3,-2.39E-01,0.084157,0.076637
3,-7.60E-02,0.021252,0.018497
0,2.05E-01,0.010151,0.006667
8,-5.32E-02,0.028638,0.022758
-2,7.10E-02,0.010868,0.014679
0,2.59E-01,0.019734,0.035426
5,1.89E-01,0.012018,0.014088
-1,2.28E-01,0.005451,0.01951
3,2.41E-03,0.034876,0.036748
1,3.63E-03,0.005616,0.008581
0,1.18E-01,0.011689,0.00798
3,1.83E-01,0.018995,0.022185
-5,-2.80E-01,0.005811,0.003973
-7,1.00E-01,0.042558,0.03785
5,2.67E-01,0.00831,0.021392
-5,2.35E-01,0.006228,0.010993
0,1.56E-01,0.010096,0.007891
1,-1.33E-01,0.009235,0.024028
-1,5.64E-02,0.005356,0.011032
-1,2.44E-01,0.015187,0.011048
-1,-7.49E-02,0.014742,0.012083
-2,6.04E-02,0.011409,0.010186
-1,1.09E-01,0.017511,0.017137
-4,3.17E-01,0.015529,0.015402
-4,-2.23E-01,0.010431,0.016407
1,1.80E-01,0.008727,0.006858
-1,-9.47E-02,0.008656,0.008182
-3,-5.16E-02,0.010222,0.03269
1,1.35E-01,0.009971,0.011316
-4,7.79E-02,0.011561,0.023199
4,-1.19E-01,0.006857,0.00995
3,2.02E-01,0.006658,0.010732
0,-3.48E-02,0.049124,0.023743
1,2.97E-02,0.020142,0.014701
6,1.81E-01,0.007655,0.004991
4,1.33E-01,0.008114,0.006946
-1,4.28E-02,0.006779,0.00524
-2,-3.68E-03,0.010549,0.012555
4,7.46E-02,0.057269,0.030549
-4,1.68E-01,0.010572,0.008508
1,-5.57E-02,0.012037,0.01822
-2,-8.17E-02,0.030399,0.027676
2,-1.07E-01,0.0065,0.004779
2,-1.43E-01,0.008416,0.006443
4,3.30E-01,0.010135,0.007114
2,2.24E-01,0.02048,0.019353
1,-3.80E-01,0.029371,0.043843
3,3.90E-02,0.00245,0.008971
5,-5.14E-01,0.007885,0.014824
-3,-4.02E-02,0.026595,0.016098
-7,2.18E-01,0.01437,0.024424
-4,5.63E-02,0.00795,0.011845
-4,9.13E-02,0.005588,0.010846
1,-8.22E-02,0.004487,0.008869
-2,1.73E-01,0.013943,0.009357
-1,-5.07E-02,0.010757,0.009443
4,2.26E-01,0.012633,0.017981
1,-8.95E-02,0.024661,0.010766
0,-1.14E-02,0.005799,0.013512
4,-5.51E-02,0.008008,0.005602
1,1.68E-01,0.013277,0.004372
-2,4.55E-02,0.013494,0.029814
4,7.54E-02,0.050517,0.065348
0,3.55E-01,0.019586,0.007808
11,5,0.03368,0.007041
2,2.61E-01,0.006016,0.015549
2,2.00E-01,0.028557,0.039066
0,2.90E-02,0.006777,0.010931
1,2.72E-01,0.009262,0.017466
-10,4.07E-01,0.017304,0.00759
-7,1.29E-01,0.004718,0.007361
1,3.25E-01,0.009633,0.024188
-3,9.60E-03,0.018691,0.020428
-3,-3.16E-01,0.010093,0.012746
1,-2.36E-02,0.008473,0.016053
-6,9.41E-02,0.00916,0.014619
-1,7.50E-02,0.008674,0.015157
0,1.18E-01,0.009737,0.006719
1,6.62E-02,0.004387,0.008476
-5,2.11E-01,0.005861,0.00877
1,-1.64E-01,0.057513,0.071691
0,-1.99E-01,0.032775,0.054628
6,4.02E-01,0.008286,0.015451
-5,-2.73E-02,0.015985,0.037017
1,5.40E-02,0.012311,0.022393
0,-4.22E-03,0.021532,0.014537
-1,-4,0.332167,0.004777
3,2.52E-01,0.013926,0.01081
3,-5.53E-02,0.020122,0.013677
-8,4.44E-01,0.014315,0.009117
0,-3.70E-02,0.011579,0.024179
0,2.25E-01,0.01593,0.023713
2,-3.30E-01,0.015317,0.006417
5,4,-0.183718,0.037197
-6,8.68E-02,0.008351,0.011702
4,4.62E-02,0.016437,0.019794
1,1.14E-01,0.015656,0.029521
2,-2.57E-01,0.014218,0.020116
2,5.02E-02,0.009502,0.016566
-2,2.63E-01,0.005561,0.008406
1,-9.16E-02,0.005685,0.011071
-3,1.54E-01,0.046366,0.038012
0,2.40E-01,0.003013,0.004079
-2,-1.97E-02,0.027127,0.018574
6,2.05E-01,0.021333,0.017918
1,2.06E-01,0.008747,0.005003
-6,2.33E-01,0.009837,0.009619
4,-2.97E-02,0.009936,0.018522
2,1.99E-01,0.018348,0.010307
6,2.00E-01,0.008571,0.00669
5,8.39E-02,0.021122,0.024795
0,-1.20E-01,0.016967,0.013524
6,-1.79E-01,0.01965,0.024988
-8,3.46E-01,0.030042,0.008646
-5,-2.75E-02,0.010099,0.012964
-7,-2.79E-02,0.011204,0.013588
-4,1.59E-01,0.010328,0.008875
7,-1.50E-01,0.005437,0.01391
-6,2.81E-01,0.022369,0.011088
4,-3.00E-02,0.020088,0.009777
-3,6.30E-02,0.006215,0.007464
-1,1.73E-01,0.067956,0.069153
3,1.94E-01,0.018372,0.02625
-1,3.72E-01,0.010388,0.007943
-5,-9.59E-02,0.022935,0.034512
0,1.76E-01,0.003636,0.012462
-1,5.14E-01,0.021974,0.01572
3,1.51E-02,0.009224,0.010669
-4,-2.64E-01,0.004106,0.011369
3,-3.66E-02,0.010739,0.010361
0,-2.16E-01,0.008322,0.007862
-3,3.39E-02,0.006753,0.010875
0,1.59E-01,0.016097,0.01136
6,5.90E-02,0.01586,0.013208
-3,1.37E-01,0.020915,0.016768
1,-1.68E-01,0.009645,0.015274
4,6.01E-03,0.007312,0.006616
3,-1.58E-02,0.005236,0.009
8,-2.46E-01,0.004106,0.014063
1,3.11E-01,0.007949,0.009465
1,3.30E-01,0.006176,0.007
-4,-2.55E-02,0.01004,0.008274
2,-1.38E-01,0.018873,0.01798
0,7.34E-02,0.015931,0.034723
-4,1.40E-01,0.009489,0.01794
5,3.33E-01,0.006366,0.00938
-5,9.32E-03,0.015449,0.00918
-3,1.84E-01,0.01439,0.01119
-5,1.17E-01,0.029563,0.01451
-5,2.17E-02,0.00699,0.006036
3,-2.07E-03,0.008285,0.007788
1,2.33E-01,0.008718,0.011989
1,-9.79E-02,0.324533,0.366074
3,2.67E-01,0.020395,0.010513
4,9.62E-03,0.004735,0.005019
5,-1.66E-01,0.022676,0.045242
3,-6.37E-03,0.030386,0.007732
-1,1.08E-01,0.006728,0.014863
-8,-3.18E-01,0.004458,0.010907
1,2.21E-01,0.009789,0.011901
2,1.31E-01,0.027223,0.018308
-3,8.61E-02,0.005663,0.004834
3,-6.17E-03,0.005778,0.018303
3,-5.69E-03,0.015933,0.017634
-4,1.55E-02,0.006996,0.007465
-5,-6.17E-02,0.005277,0.00688
3,8.86E-02,0.004885,0.013712
1,6.92E-02,0.006263,0.00943
-3,1.65E-01,0.008741,0.005315
-3,-2.10E-02,0.016868,0.018515
-1,8.15E-02,0.011155,0.00996
2,1.12E-01,0.030744,0.018711
3,1.45E-01,0.016693,0.015708
-3,1.74E-01,0.014504,0.012763
-5,3.85E-02,0.008139,0.009649
-5,1.21E-01,0.01487,0.018181
2,-1.00E-02,0.013474,0.013414
-3,1.70E-01,0.004422,0.005313
2,-1.08E-02,0.012897,0.012145
-2,1.71E-01,0.011415,0.010916
-5,2.44E-01,0.052629,0.05478
-3,-2.81E-01,0.007855,0.007987
-4,-1.62E-01,0.009663,0.011043
-1,1.51E-01,0.024272,0.015968
-2,-5.07E-02,0.004118,0.007746
-1,-3.88E-01,0.042069,0.044986
-1,-3.40E-02,0.009448,0.010113
0,-3.49E-01,0.008679,0.011605
0,1.06E-02,0.010284,0.006779
-5,-2.59E-02,0.014844,0.029174
-1,-1.60E-01,0.015791,0.028977
3,-7.49E-02,0.008889,0.013939
2,1.13E-01,0.013484,0.022002
-2,1.12E-01,0.012562,0.009841
5,2.00E-01,0.010667,0.015895
-1,2.52E-01,0.007169,0.011343
-3,-7.47E-02,0.027824,0.017069
-4,5.21E-02,0.008255,0.016048
1,1.96E-01,0.009562,0.015822
-3,2.29E-01,0.005232,0.007715
-3,-5.43E-02,0.010897,0.020454
-2,1.99E-01,0.014873,0.018055
-8,3.08E-02,0.012078,0.00786
1,1.86E-02,0.030584,0.025982
-1,3.32E-01,0.011508,0.019622
1,1.08E-02,0.009258,0.008751
1,-7.08E-03,0.005988,0.010614
2,1.85E-03,0.011792,0.012972
2,6.21E-02,0.006222,0.012996
1,4.99E-02,0.041091,0.025547
1,-7.33E-02,0.015485,0.020773
-3,1.37E-01,0.006092,0.009416
0,1.81E-01,0.057663,0.058373
-2,-3.68E-02,0.013451,0.00997
3,1.01E-01,0.018114,0.021183
-2,8.83E-02,0.006514,0.008577
-1,-2.43E-02,0.012629,0.00965
3,-1.83E-01,0.010066,0.015595
-1,2.98E-01,0.009471,0.010402
-1,-1.69E-01,0.011487,0.014293
-2,2.85E-01,0.005851,0.009155
-5,-5.42E-02,0.022164,0.020885
7,9.08E-02,0.012916,0.021946
-3,2.51E-01,0.006286,0.009942
1,-3.69E-02,0.010063,0.007908
0,1.86E-01,0.006412,0.012276
4,8.66E-02,0.006662,0.008318
1,-1.11E-01,0.008257,0.014794
2,6.15E-02,0.009425,0.011803
-2,-7.51E-03,0.0285,0.027866
6,4.37E-01,0.004508,0.007832
-3,2.10E-01,0.006798,0.009628
-1,-1.05E-01,0.008986,0.022902
-3,1.51E-01,0.009228,0.02061
7,1.12E-01,0.008133,0.010286
8,4.21E-02,0.021132,0.020587
-3,8.17E-02,0.021653,0.020041
-4,-3.35E-01,0.007063,0.013015
-1,7.67E-02,0.037277,0.037321
-4,-2.59E-01,0.00479,0.006691
1,-1.57E-01,0.007981,0.004866
4,1.16E-03,0.015058,0.017618
4,-4.09E-03,0.03072,0.038869
-2,-1.65E-01,0.013993,0.016963
0,6.32E-03,0.011807,0.015214
-3,2.20E-02,0.01144,0.035152
3,1.29E-02,0.02477,0.045493
3,-5.90E-02,0.010312,0.007893
2,1.82E-01,0.015524,0.011376
4,2.40E-01,0.005257,0.005887
1,-9.62E-02,0.012265,0.01072
-4,1.13E-01,0.011517,0.013491
-5,2.28E-01,0.007939,0.014175
0,1.41E-01,0.006205,0.00859
4,-2.70E-01,0.013513,0.010105
4,-9.93E-02,0.005101,0.007799
3,-1.76E-01,0.015116,0.007339
-3,1.48E-01,0.008291,0.007928
-2,2.79E-02,0.06471,0.083872
3,2.40E-01,0.004571,0.007549
0,5.98E-02,0.018961,0.009229
-4,2.19E-01,0.005373,0.008181
-1,1.66E-01,0.005363,0.010022
1,-2.61E-01,0.01599,0.023877
4,3.71E-02,0.004985,0.004709
7,-1.13E-01,0.006208,0.011222
-2,-2.13E-01,0.010388,0.018065
-3,-3.41E-02,0.01018,0.010334
-1,3.51E-01,0.020645,0.017377
7,3.48E-01,0.004423,0.005714
1,1.67E-02,0.018561,0.029068
-7,-8.37E-02,0.008825,0.033659
1,2.22E-01,0.013543,0.006543
0,3.80E-01,0.01211,0.017349
-5,4.11E-01,0.016979,0.010898
0,1.63E-01,0.016834,0.023321
-1,1.94E-01,0.00593,0.01791
-1,8.34E-02,0.006045,0.007412
0,-7.30E-02,0.011392,0.010497
0,1.87E-01,0.00565,0.01037
-3,2.29E-01,0.005025,0.012924
-5,-1.47E-01,0.006689,0.004071
3,-3.94E-02,0.013212,0.008978
2,2.76E-01,0.031522,0.021318
0,2.35E-01,0.008965,0.024993
-2,-8.13E-02,0.017546,0.028415
-3,1.15E-01,0.020422,0.017098
4,2.50E-01,0.014194,0.005411
4,1.33E-01,0.008182,0.007319
1,-2.61E-01,0.016568,0.027034
4,8.50E-02,0.005407,0.005075
-1,7.78E-02,0.00863,0.013178
0,-1.53E-01,0.007976,0.00927
-2,-5.17E-02,0.025528,0.032408
-5,1.98E-01,0.016207,0.007068
8,2.92E-01,0.047088,0.029052
0,2.13E-01,0.032772,0.018981
-3,2.51E-01,0.009893,0.010578
7,2.05E-01,0.027126,0.021566
-2,-2.42E-01,0.010275,0.016011
-1,-1.27E-01,0.005641,0.008395
-4,2.20E-01,0.01131,0.016854
-3,-3.09E-02,0.008824,0.007844
-3,-1.09E-01,0.00709,0.007431
6,1.36E-01,0.005828,0.012326
4,6.76E-02,0.031047,0.052592
2,2.21E-01,0.018912,0.014252
5,-7.77E-02,0.014403,0.015056
1,-1.07E-01,0.012665,0.021911
-2,-3.69E-02,0.034604,0.03501
-7,1.19E-01,0.005722,0.014737
-3,-2.68E-01,0.059622,0.071612
5,2.95E-01,0.011306,0.008935
3,3.51E-01,0.011652,0.011041
4,-1.85E-01,0.012613,0.01672
-1,3.95E-01,0.008017,0.008243
-6,-2.23E-01,0.022293,0.009548
-4,3.16E-01,0.005097,0.009214
-6,-1.57E-01,0.009675,0.009567
-2,-1.35E-01,0.006834,0.005207
4,3.63E-01,0.005349,0.005165
-3,2.50E-01,0.011085,0.00685
2,1.89E-01,0.008385,0.013772
2,2.87E-01,0.006607,0.016307
9,1,0.187324,0.007295
1,2.34E-02,0.005396,0.015231
3,-1.48E-02,0.010385,0.014469
2,5.71E-02,0.013909,0.030465
3,-6.73E-02,0.007789,0.009798
-6,1.90E-01,0.010393,0.009439
-1,2.73E-01,0.010024,0.009665
6,-2.06E-02,0.003314,0.00743
-2,-1.62E-03,0.008526,0.011092
-2,7.93E-02,0.007963,0.010205
-3,1.40E-01,0.008029,0.012241
1,1.95E-01,0.00748,0.007881
-3,1.44E-01,0.01004,0.010142
-3,-1.93E-01,0.005277,0.010161
0,1.99E-01,0.008392,0.014391
-1,2.23E-01,0.00667,0.008118
1,3.40E-01,0.006484,0.016306
2,2.48E-01,0.007929,0.010616
3,-3.69E-01,0.004659,0.004044
-7,2.62E-01,0.005635,0.007309
2,1.60E-01,0.017155,0.008023
3,2.91E-01,0.033968,0.027421
7,2.74E-02,0.041878,0.046733
0,1.12E-01,0.005838,0.011783
-1,2.56E-01,0.009259,0.01633
-7,-1.23E-02,0.005541,0.011495
2,-2.01E-02,0.00526,0.003834
2,1.76E-02,0.02833,0.032558
-3,-2.13E-01,0.017206,0.01303
-1,-7.14E-02,0.016332,0.016328
1,8.11E-02,0.028717,0.058301
4,4.75E-01,0.008332,0.016305
6,9.00E-02,0.006188,0.009289
-2,-1.67E-02,0.017109,0.019542
-2,-3.01E-02,0.006292,0.013321
4,4.64E-01,0.024477,0.00436
5,1.65E-01,0.00704,0.015407
0,1.64E-01,0.006039,0.010368
4,9.76E-02,0.008975,0.004767
-1,-7.71E-02,0.007972,0.007976
-3,8.54E-02,0.013096,0.009734
-7,1.73E-01,0.009587,0.009069
0,-2,0.090996,0.004057
6,1.29E-01,0.014603,0.023204
-4,3.14E-02,0.012081,0.01683
-1,7.60E-02,0.004303,0.009252
-5,6.05E-02,0.010162,0.006424
0,-6.83E-02,0.007358,0.012152
-5,2.59E-01,0.01125,0.021096
10,4.19E-01,0.032199,0.01068
3,2.96E-01,0.013129,0.014556
0,-6.15E-02,0.005429,0.017697
-3,2.35E-01,0.007626,0.018648
1,-2.69E-01,0.009252,0.020551
0,9.36E-02,0.004922,0.008227
-3,-2.79E-02,0.004445,0.01409
2,1.56E-01,0.006148,0.007852
-2,-2.11E-01,0.018732,0.011445
4,9.96E-02,0.011317,0.01554
1,1.21E-01,0.009105,0.012746
-3,-5.67E-02,0.014187,0.023798
-9,-8.48E-03,0.012025,0.016746
-7,-1.09E-01,0.008916,0.013603
-4,3.35E-01,0.049729,0.050748
0,1.82E-01,0.009418,0.011309
2,-2.54E-01,0.014425,0.016139
0,1.06E-01,0.005605,0.012595
2,3.23E-02,0.025041,0.034719
-1,-2.96E-01,0.059809,0.069381
-1,-1.26E-01,0.065646,0.039344
1,2.42E-01,0.009404,0.004566
-7,1.74E-01,0.009673,0.005455
-2,3.06E-01,0.008408,0.011737
-4,1.43E-01,0.049644,0.055075
-1,5.40E-02,0.01788,0.018995
-1,1.98E-01,0.008782,0.017958
4,2.75E-02,0.002818,0.005562
-4,3.54E-01,0.007164,0.007503
4,3.65E-01,0.007137,0.0091
1,2.52E-01,0.009825,0.007373
-3,1.42E-01,0.017513,0.031089
6,-1.35E-02,0.005878,0.01299
0,3.75E-01,0.016668,0.02245
-4,1.04E-01,0.008102,0.010793
0,-1.82E-01,0.007284,0.004789
0,-4.19E-02,0.007328,0.01736
-3,-6.27E-02,0.018395,0.009641
6,2.56E-01,0.008088,0.008015
-1,6.44E-01,0.013887,0.009524
4,-5.13E-02,0.008394,0.020878
7,3.51E-01,0.007048,0.003926
4,-2.24E-01,0.006214,0.017794
1,2.04E-01,0.006795,0.010782
2,2.31E-02,0.017831,0.018745
3,2.51E-02,0.015404,0.010372
-5,3.24E-02,0.016048,0.014486
-3,9.64E-02,0.007259,0.018257
3,2.76E-01,0.021456,0.023169
0,2.02E-01,0.057243,0.039688
-2,7.79E-02,0.020583,0.021097
-6,1.19E-01,0.019591,0.0197
2,0,-0.046011,0.009479
4,-7.69E-03,0.002958,0.006201
-2,1.54E-01,0.00771,0.00901
2,1.22E-01,0.008636,0.019122
0,-1.98E-02,0.007842,0.006192
-2,1.82E-01,0.005527,0.015504
1,-1.09E-01,0.006493,0.006844
3,1.12E-01,0.014142,0.016101
1,-2.95E-03,0.008045,0.009559
0,5.45E-02,0.006982,0.016935
2,7.11E-02,0.008766,0.012665
2,3.88E-01,0.013533,0.012083
2,5.70E-02,0.016034,0.01786
3,5.11E-01,0.008101,0.006016
-4,-1.54E-01,0.00699,0.012721
0,9.10E-02,0.006582,0.016109
3,-5.85E-03,0.006091,0.006364
3,6.83E-02,0.030337,0.039976
-3,1.56E-01,0.008801,0.01255
0,3.53E-01,0.017382,0.01736
3,2.29E-01,0.010227,0.006495
7,-1.32E-03,0.007401,0.007697
2,2.08E-02,0.014297,0.010711
4,1,0.415114,0.009568
-3,-5.07E-02,0.008663,0.012016
1,-9.45E-02,0.004481,0.006977
-6,-1.43E-01,0.008975,0.005396
4,3.46E-01,0.044453,0.07006
0,4.48E-02,0.019151,0.012269
-1,-6,0.18499,0.007201
4,2,0.14084,0.024941
-3,-5.26E-02,0.031313,0.040098
-4,2.16E-01,0.031687,0.031067
3,1.54E-01,0.016744,0.014351
2,-2.91E-01,0.013852,0.009077
-5,1.91E-01,0.004222,0.009143
2,1.67E-01,0.008752,0.030626
6,1.33E-01,0.006045,0.012743
1,5.84E-03,0.008159,0.015627
-3,2.34E-01,0.019197,0.021494
0,2.25E-01,0.007845,0.005784
-3,2.36E-01,0.010508,0.007568
0,-8.51E-02,0.015703,0.030265
-1,-6.66E-02,0.018284,0.020195
3,1.10E-01,0.01682,0.0063
1,1.55E-01,0.015291,0.011358
0,1.53E-01,0.0058,0.005639
0,1.50E-01,0.006861,0.010356
0,2.13E-01,0.028464,0.022485
1,9.67E-02,0.010202,0.007318
5,2.08E-03,0.034374,0.02802
-1,2.72E-01,0.012707,0.008923
1,3.94E-03,0.009137,0.005686
-3,-1.53E-01,0.006826,0.007979
6,3.71E-01,0.004944,0.011949
1,4.93E-02,0.018247,0.013916
-2,9.70E-02,0.011528,0.01076
-6,-8.45E-02,0.021827,0.031922
1,3.41E-02,0.010015,0.022508
3,-1.38E-01,0.00726,0.00792
1,2.02E-01,0.057509,0.055415
-9,2.26E-01,0.004489,0.009094
2,-1.47E-01,0.037233,0.057296