%!PS-Adobe-3.0 EPSF-3.0
%%Creator: MATLAB, The MathWorks, Inc. Version 7.13.0.564 (R2011b). Operating System: Darwin 13.3.0 Darwin Kernel Version 13.3.0: Tue Jun  3 21:27:35 PDT 2014; root:xnu-2422.110.17~1/RELEASE_X86_64 x86_64.
%%Title: /Users/huijuans/2015Fall/GodBlessPLoSOne/GodBlessPlosOneMatlabCode/parameterSummaryMiami.eps
%%CreationDate: 09/02/2015  01:18:41
%%DocumentNeededFonts: Helvetica
%%DocumentProcessColors: Cyan Magenta Yellow Black
%%LanguageLevel: 2
%%Pages: 1
%%BoundingBox:   728   729   944   945
%%EndComments

%%BeginProlog
% MathWorks dictionary
/MathWorks 160 dict begin
% definition operators
/bdef {bind def} bind def
/ldef {load def} bind def
/xdef {exch def} bdef
/xstore {exch store} bdef
% operator abbreviations
/c  /clip ldef
/cc /concat ldef
/cp /closepath ldef
/gr /grestore ldef
/gs /gsave ldef
/mt /moveto ldef
/np /newpath ldef
/cm /currentmatrix ldef
/sm /setmatrix ldef
/rm /rmoveto ldef
/rl /rlineto ldef
/s {show newpath} bdef
/sc {setcmykcolor} bdef
/sr /setrgbcolor ldef
/sg /setgray ldef
/w /setlinewidth ldef
/j /setlinejoin ldef
/cap /setlinecap ldef
/rc {rectclip} bdef
/rf {rectfill} bdef
% page state control
/pgsv () def
/bpage {/pgsv save def} bdef
/epage {pgsv restore} bdef
/bplot /gsave ldef
/eplot {stroke grestore} bdef
% orientation switch
/portraitMode 0 def /landscapeMode 1 def /rotateMode 2 def
% coordinate system mappings
/dpi2point 0 def
% font control
/FontSize 0 def
/FMS {/FontSize xstore findfont [FontSize 0 0 FontSize neg 0 0]
  makefont setfont} bdef
/reencode {exch dup where {pop load} {pop StandardEncoding} ifelse
  exch dup 3 1 roll findfont dup length dict begin
  { 1 index /FID ne {def}{pop pop} ifelse } forall
  /Encoding exch def currentdict end definefont pop} bdef
/isroman {findfont /CharStrings get /Agrave known} bdef
/FMSR {3 1 roll 1 index dup isroman {reencode} {pop pop} ifelse
  exch FMS} bdef
/csm {1 dpi2point div -1 dpi2point div scale neg translate
 dup landscapeMode eq {pop -90 rotate}
  {rotateMode eq {90 rotate} if} ifelse} bdef
% line types: solid, dotted, dashed, dotdash
/SO { [] 0 setdash } bdef
/DO { [.5 dpi2point mul 4 dpi2point mul] 0 setdash } bdef
/DA { [6 dpi2point mul] 0 setdash } bdef
/DD { [.5 dpi2point mul 4 dpi2point mul 6 dpi2point mul 4
  dpi2point mul] 0 setdash } bdef
% macros for lines and objects
/L {lineto stroke} bdef
/MP {3 1 roll moveto 1 sub {rlineto} repeat} bdef
/AP {{rlineto} repeat} bdef
/PDlw -1 def
/W {/PDlw currentlinewidth def setlinewidth} def
/PP {closepath eofill} bdef
/DP {closepath stroke} bdef
/MR {4 -2 roll moveto dup  0 exch rlineto exch 0 rlineto
  neg 0 exch rlineto closepath} bdef
/FR {MR stroke} bdef
/PR {MR fill} bdef
/L1i {{currentfile picstr readhexstring pop} image} bdef
/tMatrix matrix def
/MakeOval {newpath tMatrix currentmatrix pop translate scale
0 0 1 0 360 arc tMatrix setmatrix} bdef
/FO {MakeOval stroke} bdef
/PO {MakeOval fill} bdef
/PD {currentlinewidth 2 div 0 360 arc fill
   PDlw -1 eq not {PDlw w /PDlw -1 def} if} def
/FA {newpath tMatrix currentmatrix pop translate scale
  0 0 1 5 -2 roll arc tMatrix setmatrix stroke} bdef
/PA {newpath tMatrix currentmatrix pop	translate 0 0 moveto scale
  0 0 1 5 -2 roll arc closepath tMatrix setmatrix fill} bdef
/FAn {newpath tMatrix currentmatrix pop translate scale
  0 0 1 5 -2 roll arcn tMatrix setmatrix stroke} bdef
/PAn {newpath tMatrix currentmatrix pop translate 0 0 moveto scale
  0 0 1 5 -2 roll arcn closepath tMatrix setmatrix fill} bdef
/vradius 0 def /hradius 0 def /lry 0 def
/lrx 0 def /uly 0 def /ulx 0 def /rad 0 def
/MRR {/vradius xdef /hradius xdef /lry xdef /lrx xdef /uly xdef
  /ulx xdef newpath tMatrix currentmatrix pop ulx hradius add uly
  vradius add translate hradius vradius scale 0 0 1 180 270 arc 
  tMatrix setmatrix lrx hradius sub uly vradius add translate
  hradius vradius scale 0 0 1 270 360 arc tMatrix setmatrix
  lrx hradius sub lry vradius sub translate hradius vradius scale
  0 0 1 0 90 arc tMatrix setmatrix ulx hradius add lry vradius sub
  translate hradius vradius scale 0 0 1 90 180 arc tMatrix setmatrix
  closepath} bdef
/FRR {MRR stroke } bdef
/PRR {MRR fill } bdef
/MlrRR {/lry xdef /lrx xdef /uly xdef /ulx xdef /rad lry uly sub 2 div def
  newpath tMatrix currentmatrix pop ulx rad add uly rad add translate
  rad rad scale 0 0 1 90 270 arc tMatrix setmatrix lrx rad sub lry rad
  sub translate rad rad scale 0 0 1 270 90 arc tMatrix setmatrix
  closepath} bdef
/FlrRR {MlrRR stroke } bdef
/PlrRR {MlrRR fill } bdef
/MtbRR {/lry xdef /lrx xdef /uly xdef /ulx xdef /rad lrx ulx sub 2 div def
  newpath tMatrix currentmatrix pop ulx rad add uly rad add translate
  rad rad scale 0 0 1 180 360 arc tMatrix setmatrix lrx rad sub lry rad
  sub translate rad rad scale 0 0 1 0 180 arc tMatrix setmatrix
  closepath} bdef
/FtbRR {MtbRR stroke } bdef
/PtbRR {MtbRR fill } bdef
/stri 6 array def /dtri 6 array def
/smat 6 array def /dmat 6 array def
/tmat1 6 array def /tmat2 6 array def /dif 3 array def
/asub {/ind2 exch def /ind1 exch def dup dup
  ind1 get exch ind2 get sub exch } bdef
/tri_to_matrix {
  2 0 asub 3 1 asub 4 0 asub 5 1 asub
  dup 0 get exch 1 get 7 -1 roll astore } bdef
/compute_transform {
  dmat dtri tri_to_matrix tmat1 invertmatrix 
  smat stri tri_to_matrix tmat2 concatmatrix } bdef
/ds {stri astore pop} bdef
/dt {dtri astore pop} bdef
/db {2 copy /cols xdef /rows xdef mul dup 3 mul string
  currentfile 
  3 index 0 eq {/ASCIIHexDecode filter}
  {/ASCII85Decode filter 3 index 2 eq {/RunLengthDecode filter} if }
  ifelse exch readstring pop
  dup 0 3 index getinterval /rbmap xdef
  dup 2 index dup getinterval /gbmap xdef
  1 index dup 2 mul exch getinterval /bbmap xdef pop pop}bdef
/it {gs np dtri aload pop moveto lineto lineto cp c
  cols rows 8 compute_transform 
  rbmap gbmap bbmap true 3 colorimage gr}bdef
/il {newpath moveto lineto stroke}bdef
currentdict end def
%%EndProlog

%%BeginSetup
MathWorks begin

0 cap

end
%%EndSetup

%%Page: 1 1
%%BeginPageSetup
%%PageBoundingBox:   728   729   944   945
MathWorks begin
bpage
%%EndPageSetup

%%BeginObject: obj1
bplot

/dpi2point 12 def
portraitMode 8736 11340 csm

    0     0  2602  2590 rc
88 dict begin %Colortable dictionary
/c0 { 0.000000 0.000000 0.000000 sr} bdef
/c1 { 1.000000 1.000000 1.000000 sr} bdef
/c2 { 0.900000 0.000000 0.000000 sr} bdef
/c3 { 0.000000 0.820000 0.000000 sr} bdef
/c4 { 0.000000 0.000000 0.800000 sr} bdef
/c5 { 0.910000 0.820000 0.320000 sr} bdef
/c6 { 1.000000 0.260000 0.820000 sr} bdef
/c7 { 0.000000 0.820000 0.820000 sr} bdef
c0
1 j
1 sg
   0    0 2603 2591 rf
6 w
0 1814 1815 0 0 -1814 518 2158 4 MP
PP
-1815 0 0 1814 1815 0 0 -1814 518 2158 5 MP stroke
4 w
DO
SO
6 w
0 sg
 518 2158 mt 2333 2158 L
 518  344 mt 2333  344 L
 518 2158 mt  518  344 L
2333 2158 mt 2333  344 L
 518 2158 mt 2333 2158 L
 518 2158 mt  518  344 L
 518 2158 mt  518 2139 L
 518  344 mt  518  362 L
%%IncludeResource: font Helvetica
/Helvetica /ISOLatin1Encoding 144 FMSR

 418 2326 mt 
(3.5) s
 971 2158 mt  971 2139 L
 971  344 mt  971  362 L
 931 2326 mt 
(4) s
1425 2158 mt 1425 2139 L
1425  344 mt 1425  362 L
1325 2326 mt 
(4.5) s
1879 2158 mt 1879 2139 L
1879  344 mt 1879  362 L
1839 2326 mt 
(5) s
2333 2158 mt 2333 2139 L
2333  344 mt 2333  362 L
2233 2326 mt 
(5.5) s
 518 2158 mt  536 2158 L
2333 2158 mt 2314 2158 L
 403 2211 mt 
(0) s
 518 1855 mt  536 1855 L
2333 1855 mt 2314 1855 L
 403 1908 mt 
(2) s
 518 1553 mt  536 1553 L
2333 1553 mt 2314 1553 L
 403 1606 mt 
(4) s
 518 1251 mt  536 1251 L
2333 1251 mt 2314 1251 L
 403 1304 mt 
(6) s
 518  948 mt  536  948 L
2333  948 mt 2314  948 L
 403 1001 mt 
(8) s
 518  646 mt  536  646 L
2333  646 mt 2314  646 L
 323  699 mt 
(10) s
 518  344 mt  536  344 L
2333  344 mt 2314  344 L
 323  397 mt 
(12) s
 518 2158 mt 2333 2158 L
 518  344 mt 2333  344 L
 518 2158 mt  518  344 L
2333 2158 mt 2333  344 L
gs 518 344 1816 1815 rc
12 w
/c8 { 1.000000 0.000000 0.000000 sr} bdef
c8
454 0 454 0 907 4 518 2097 4 MP stroke
gr

12 w
c8
gs 469 2048 1914 103 rc
 502 2081 mt  534 2113 L
 534 2081 mt  502 2113 L
1409 2085 mt 1441 2117 L
1441 2085 mt 1409 2117 L
1863 2085 mt 1895 2117 L
1895 2085 mt 1863 2117 L
2317 2085 mt 2349 2117 L
2349 2085 mt 2317 2117 L
gr

gs 518 344 1816 1815 rc
/c9 { 0.000000 1.000000 0.000000 sr} bdef
c9
454 7 454 7 907 5 518 1643 4 MP stroke
gr

c9
gs 469 1594 1914 118 rc
 494 1643 mt  542 1643 L
 518 1619 mt  518 1667 L
1401 1648 mt 1449 1648 L
1425 1624 mt 1425 1672 L
1855 1655 mt 1903 1655 L
1879 1631 mt 1879 1679 L
2309 1662 mt 2357 1662 L
2333 1638 mt 2333 1686 L
gr

gs 518 344 1816 1815 rc
/c10 { 1.000000 0.000000 1.000000 sr} bdef
c10
454 62 454 135 907 -56 518 673 4 MP stroke
gr

c10
gs 469 568 1914 296 rc
 494  673 mt  542  673 L
 518  649 mt  518  697 L
1401  617 mt 1449  617 L
1425  593 mt 1425  641 L
1855  752 mt 1903  752 L
1879  728 mt 1879  776 L
2309  814 mt 2357  814 L
2333  790 mt 2333  838 L
 502  657 mt  534  689 L
 534  657 mt  502  689 L
1409  601 mt 1441  633 L
1441  601 mt 1409  633 L
1863  736 mt 1895  768 L
1895  736 mt 1863  768 L
2317  798 mt 2349  830 L
2349  798 mt 2317  830 L
gr

gs 518 344 1816 1815 rc
/c11 { 0.000000 1.000000 1.000000 sr} bdef
c11
454 79 454 118 907 -39 518 662 4 MP stroke
gr

c11
gs 469 574 1914 296 rc
0 j
0 -38 -38 0 0 38 38 0 499 643 5 MP
DP
0 -38 -38 0 0 38 38 0 1406 604 5 MP
DP
0 -38 -38 0 0 38 38 0 1860 722 5 MP
DP
0 -38 -38 0 0 38 38 0 2314 801 5 MP
DP
gr

gs 518 344 1816 1815 rc
gr

0 sg
 632 2522 mt 
(SEIR Transmission Rate) s
 236 1770 mt  -90 rotate
(Lead Time \(day\)) s
90 rotate
%%IncludeResource: font Helvetica
/Helvetica /ISOLatin1Encoding 96 FMSR

 505 2193 mt 
( ) s
2321  378 mt 
( ) s
6 w
1 sg
0 510 1762 0 0 -510 552 1552 4 MP
PP
-1762 0 0 510 1762 0 0 -510 552 1552 5 MP stroke
4 w
DO
SO
6 w
0 sg
 552 1552 mt 2314 1552 L
 552 1042 mt 2314 1042 L
 552 1552 mt  552 1042 L
2314 1552 mt 2314 1042 L
 552 1552 mt 2314 1552 L
 552 1552 mt  552 1042 L
 552 1552 mt 2314 1552 L
 552 1042 mt 2314 1042 L
 552 1552 mt  552 1042 L
2314 1552 mt 2314 1042 L
%%IncludeResource: font Helvetica
/Helvetica /ISOLatin1Encoding 132 FMSR

1014 1163 mt 
(Top-3 Degree) s
gs 552 1042 1763 511 rc
12 w
c8
355 0 622 1115 2 MP stroke
gs 751 1066 99 99 rc
 784 1099 mt  816 1131 L
 816 1099 mt  784 1131 L
gr

gr

12 w
c8
0 sg
1014 1284 mt 
(Top-3 Weight Degree) s
gs 552 1042 1763 511 rc
c9
355 0 622 1236 2 MP stroke
gs 751 1187 99 99 rc
 776 1236 mt  824 1236 L
 800 1212 mt  800 1260 L
gr

gr

c9
0 sg
1014 1405 mt 
( Transmission Tree) s
gs 552 1042 1763 511 rc
c10
355 0 622 1357 2 MP stroke
gs 751 1308 99 99 rc
 776 1357 mt  824 1357 L
 800 1333 mt  800 1381 L
 784 1341 mt  816 1373 L
 816 1341 mt  784 1373 L
gr

gr

c10
0 sg
1014 1526 mt 
( Dominator Tree) s
gs 552 1042 1763 511 rc
c11
355 0 622 1478 2 MP stroke
gs 751 1429 99 99 rc
0 j
0 -38 -38 0 0 38 38 0 781 1459 5 MP
DP
gr

6 w
gr

6 w
c11

end %%Color Dict

eplot
%%EndObject

epage
end

showpage

%%Trailer
%%EOF
