%!PS-Adobe-3.0 EPSF-3.0
%%Creator: MATLAB, The MathWorks, Inc. Version 7.13.0.564 (R2011b). Operating System: Darwin 13.3.0 Darwin Kernel Version 13.3.0: Tue Jun  3 21:27:35 PDT 2014; root:xnu-2422.110.17~1/RELEASE_X86_64 x86_64.
%%Title: /Users/huijuans/2015Fall/GodBlessPLoSOne/parameterSummaryOregon.eps
%%CreationDate: 09/02/2015  00:53:39
%%DocumentNeededFonts: Helvetica
%%DocumentProcessColors: Cyan Magenta Yellow Black
%%LanguageLevel: 2
%%Pages: 1
%%BoundingBox:   728   729   943   945
%%EndComments

%%BeginProlog
% MathWorks dictionary
/MathWorks 160 dict begin
% definition operators
/bdef {bind def} bind def
/ldef {load def} bind def
/xdef {exch def} bdef
/xstore {exch store} bdef
% operator abbreviations
/c  /clip ldef
/cc /concat ldef
/cp /closepath ldef
/gr /grestore ldef
/gs /gsave ldef
/mt /moveto ldef
/np /newpath ldef
/cm /currentmatrix ldef
/sm /setmatrix ldef
/rm /rmoveto ldef
/rl /rlineto ldef
/s {show newpath} bdef
/sc {setcmykcolor} bdef
/sr /setrgbcolor ldef
/sg /setgray ldef
/w /setlinewidth ldef
/j /setlinejoin ldef
/cap /setlinecap ldef
/rc {rectclip} bdef
/rf {rectfill} bdef
% page state control
/pgsv () def
/bpage {/pgsv save def} bdef
/epage {pgsv restore} bdef
/bplot /gsave ldef
/eplot {stroke grestore} bdef
% orientation switch
/portraitMode 0 def /landscapeMode 1 def /rotateMode 2 def
% coordinate system mappings
/dpi2point 0 def
% font control
/FontSize 0 def
/FMS {/FontSize xstore findfont [FontSize 0 0 FontSize neg 0 0]
  makefont setfont} bdef
/reencode {exch dup where {pop load} {pop StandardEncoding} ifelse
  exch dup 3 1 roll findfont dup length dict begin
  { 1 index /FID ne {def}{pop pop} ifelse } forall
  /Encoding exch def currentdict end definefont pop} bdef
/isroman {findfont /CharStrings get /Agrave known} bdef
/FMSR {3 1 roll 1 index dup isroman {reencode} {pop pop} ifelse
  exch FMS} bdef
/csm {1 dpi2point div -1 dpi2point div scale neg translate
 dup landscapeMode eq {pop -90 rotate}
  {rotateMode eq {90 rotate} if} ifelse} bdef
% line types: solid, dotted, dashed, dotdash
/SO { [] 0 setdash } bdef
/DO { [.5 dpi2point mul 4 dpi2point mul] 0 setdash } bdef
/DA { [6 dpi2point mul] 0 setdash } bdef
/DD { [.5 dpi2point mul 4 dpi2point mul 6 dpi2point mul 4
  dpi2point mul] 0 setdash } bdef
% macros for lines and objects
/L {lineto stroke} bdef
/MP {3 1 roll moveto 1 sub {rlineto} repeat} bdef
/AP {{rlineto} repeat} bdef
/PDlw -1 def
/W {/PDlw currentlinewidth def setlinewidth} def
/PP {closepath eofill} bdef
/DP {closepath stroke} bdef
/MR {4 -2 roll moveto dup  0 exch rlineto exch 0 rlineto
  neg 0 exch rlineto closepath} bdef
/FR {MR stroke} bdef
/PR {MR fill} bdef
/L1i {{currentfile picstr readhexstring pop} image} bdef
/tMatrix matrix def
/MakeOval {newpath tMatrix currentmatrix pop translate scale
0 0 1 0 360 arc tMatrix setmatrix} bdef
/FO {MakeOval stroke} bdef
/PO {MakeOval fill} bdef
/PD {currentlinewidth 2 div 0 360 arc fill
   PDlw -1 eq not {PDlw w /PDlw -1 def} if} def
/FA {newpath tMatrix currentmatrix pop translate scale
  0 0 1 5 -2 roll arc tMatrix setmatrix stroke} bdef
/PA {newpath tMatrix currentmatrix pop	translate 0 0 moveto scale
  0 0 1 5 -2 roll arc closepath tMatrix setmatrix fill} bdef
/FAn {newpath tMatrix currentmatrix pop translate scale
  0 0 1 5 -2 roll arcn tMatrix setmatrix stroke} bdef
/PAn {newpath tMatrix currentmatrix pop translate 0 0 moveto scale
  0 0 1 5 -2 roll arcn closepath tMatrix setmatrix fill} bdef
/vradius 0 def /hradius 0 def /lry 0 def
/lrx 0 def /uly 0 def /ulx 0 def /rad 0 def
/MRR {/vradius xdef /hradius xdef /lry xdef /lrx xdef /uly xdef
  /ulx xdef newpath tMatrix currentmatrix pop ulx hradius add uly
  vradius add translate hradius vradius scale 0 0 1 180 270 arc 
  tMatrix setmatrix lrx hradius sub uly vradius add translate
  hradius vradius scale 0 0 1 270 360 arc tMatrix setmatrix
  lrx hradius sub lry vradius sub translate hradius vradius scale
  0 0 1 0 90 arc tMatrix setmatrix ulx hradius add lry vradius sub
  translate hradius vradius scale 0 0 1 90 180 arc tMatrix setmatrix
  closepath} bdef
/FRR {MRR stroke } bdef
/PRR {MRR fill } bdef
/MlrRR {/lry xdef /lrx xdef /uly xdef /ulx xdef /rad lry uly sub 2 div def
  newpath tMatrix currentmatrix pop ulx rad add uly rad add translate
  rad rad scale 0 0 1 90 270 arc tMatrix setmatrix lrx rad sub lry rad
  sub translate rad rad scale 0 0 1 270 90 arc tMatrix setmatrix
  closepath} bdef
/FlrRR {MlrRR stroke } bdef
/PlrRR {MlrRR fill } bdef
/MtbRR {/lry xdef /lrx xdef /uly xdef /ulx xdef /rad lrx ulx sub 2 div def
  newpath tMatrix currentmatrix pop ulx rad add uly rad add translate
  rad rad scale 0 0 1 180 360 arc tMatrix setmatrix lrx rad sub lry rad
  sub translate rad rad scale 0 0 1 0 180 arc tMatrix setmatrix
  closepath} bdef
/FtbRR {MtbRR stroke } bdef
/PtbRR {MtbRR fill } bdef
/stri 6 array def /dtri 6 array def
/smat 6 array def /dmat 6 array def
/tmat1 6 array def /tmat2 6 array def /dif 3 array def
/asub {/ind2 exch def /ind1 exch def dup dup
  ind1 get exch ind2 get sub exch } bdef
/tri_to_matrix {
  2 0 asub 3 1 asub 4 0 asub 5 1 asub
  dup 0 get exch 1 get 7 -1 roll astore } bdef
/compute_transform {
  dmat dtri tri_to_matrix tmat1 invertmatrix 
  smat stri tri_to_matrix tmat2 concatmatrix } bdef
/ds {stri astore pop} bdef
/dt {dtri astore pop} bdef
/db {2 copy /cols xdef /rows xdef mul dup 3 mul string
  currentfile 
  3 index 0 eq {/ASCIIHexDecode filter}
  {/ASCII85Decode filter 3 index 2 eq {/RunLengthDecode filter} if }
  ifelse exch readstring pop
  dup 0 3 index getinterval /rbmap xdef
  dup 2 index dup getinterval /gbmap xdef
  1 index dup 2 mul exch getinterval /bbmap xdef pop pop}bdef
/it {gs np dtri aload pop moveto lineto lineto cp c
  cols rows 8 compute_transform 
  rbmap gbmap bbmap true 3 colorimage gr}bdef
/il {newpath moveto lineto stroke}bdef
currentdict end def
%%EndProlog

%%BeginSetup
MathWorks begin

0 cap

end
%%EndSetup

%%Page: 1 1
%%BeginPageSetup
%%PageBoundingBox:   728   729   943   945
MathWorks begin
bpage
%%EndPageSetup

%%BeginObject: obj1
bplot

/dpi2point 12 def
portraitMode 8736 11340 csm

    0     0  2590  2590 rc
87 dict begin %Colortable dictionary
/c0 { 0.000000 0.000000 0.000000 sr} bdef
/c1 { 1.000000 1.000000 1.000000 sr} bdef
/c2 { 0.900000 0.000000 0.000000 sr} bdef
/c3 { 0.000000 0.820000 0.000000 sr} bdef
/c4 { 0.000000 0.000000 0.800000 sr} bdef
/c5 { 0.910000 0.820000 0.320000 sr} bdef
/c6 { 1.000000 0.260000 0.820000 sr} bdef
/c7 { 0.000000 0.820000 0.820000 sr} bdef
c0
1 j
1 sg
   0    0 2591 2591 rf
6 w
0 1901 1901 0 0 -1901 518 2158 4 MP
PP
-1901 0 0 1901 1901 0 0 -1901 518 2158 5 MP stroke
4 w
DO
SO
6 w
0 sg
 518 2158 mt 2419 2158 L
 518  257 mt 2419  257 L
 518 2158 mt  518  257 L
2419 2158 mt 2419  257 L
 518 2158 mt 2419 2158 L
 518 2158 mt  518  257 L
 518 2158 mt  518 2138 L
 518  257 mt  518  276 L
%%IncludeResource: font Helvetica
/Helvetica /ISOLatin1Encoding 144 FMSR

 478 2326 mt 
(0) s
 898 2158 mt  898 2138 L
 898  257 mt  898  276 L
 798 2326 mt 
(0.1) s
1278 2158 mt 1278 2138 L
1278  257 mt 1278  276 L
1178 2326 mt 
(0.2) s
1658 2158 mt 1658 2138 L
1658  257 mt 1658  276 L
1558 2326 mt 
(0.3) s
2038 2158 mt 2038 2138 L
2038  257 mt 2038  276 L
1938 2326 mt 
(0.4) s
2419 2158 mt 2419 2138 L
2419  257 mt 2419  276 L
2319 2326 mt 
(0.5) s
 518 2158 mt  537 2158 L
2419 2158 mt 2399 2158 L
 403 2211 mt 
(0) s
 518 1920 mt  537 1920 L
2419 1920 mt 2399 1920 L
 403 1973 mt 
(1) s
 518 1682 mt  537 1682 L
2419 1682 mt 2399 1682 L
 403 1735 mt 
(2) s
 518 1445 mt  537 1445 L
2419 1445 mt 2399 1445 L
 403 1498 mt 
(3) s
 518 1207 mt  537 1207 L
2419 1207 mt 2399 1207 L
 403 1260 mt 
(4) s
 518  969 mt  537  969 L
2419  969 mt 2399  969 L
 403 1022 mt 
(5) s
 518  732 mt  537  732 L
2419  732 mt 2399  732 L
 403  785 mt 
(6) s
 518  494 mt  537  494 L
2419  494 mt 2399  494 L
 403  547 mt 
(7) s
 518  257 mt  537  257 L
2419  257 mt 2399  257 L
 403  310 mt 
(8) s
 518 2158 mt 2419 2158 L
 518  257 mt 2419  257 L
 518 2158 mt  518  257 L
2419 2158 mt 2419  257 L
gs 518 257 1902 1902 rc
12 w
/c8 { 1.000000 0.000000 0.000000 sr} bdef
c8
761 81 380 164 380 478 190 942 708 267 5 MP stroke
gr

12 w
c8
 692  251 mt  724  283 L
 724  251 mt  692  283 L
 882 1193 mt  914 1225 L
 914 1193 mt  882 1225 L
1262 1671 mt 1294 1703 L
1294 1671 mt 1262 1703 L
1642 1835 mt 1674 1867 L
1674 1835 mt 1642 1867 L
2403 1916 mt 2435 1948 L
2435 1916 mt 2403 1948 L
gs 518 257 1902 1902 rc
/c9 { 0.000000 1.000000 0.000000 sr} bdef
c9
761 185 380 214 380 214 190 -568 708 1813 5 MP stroke
gr

c9
 684 1813 mt  732 1813 L
 708 1789 mt  708 1837 L
 874 1245 mt  922 1245 L
 898 1221 mt  898 1269 L
1254 1459 mt 1302 1459 L
1278 1435 mt 1278 1483 L
1634 1673 mt 1682 1673 L
1658 1649 mt 1658 1697 L
2395 1858 mt 2443 1858 L
2419 1834 mt 2419 1882 L
gs 518 257 1902 1902 rc
/c10 { 1.000000 0.000000 1.000000 sr} bdef
c10
761 47 380 43 380 19 190 -202 708 2148 5 MP stroke
gr

c10
 684 2148 mt  732 2148 L
 708 2124 mt  708 2172 L
 874 1946 mt  922 1946 L
 898 1922 mt  898 1970 L
1254 1965 mt 1302 1965 L
1278 1941 mt 1278 1989 L
1634 2008 mt 1682 2008 L
1658 1984 mt 1658 2032 L
2395 2055 mt 2443 2055 L
2419 2031 mt 2419 2079 L
 692 2132 mt  724 2164 L
 724 2132 mt  692 2164 L
 882 1930 mt  914 1962 L
 914 1930 mt  882 1962 L
1262 1949 mt 1294 1981 L
1294 1949 mt 1262 1981 L
1642 1992 mt 1674 2024 L
1674 1992 mt 1642 2024 L
2403 2039 mt 2435 2071 L
2435 2039 mt 2403 2071 L
gs 518 257 1902 1902 rc
gr

0 sg
 799 2509 mt 
(SI Transmission Rate) s
 204 1687 mt  -90 rotate
(Lead Time \(day\)) s
90 rotate
%%IncludeResource: font Helvetica
/Helvetica /ISOLatin1Encoding 96 FMSR

 505 2193 mt 
( ) s
2407  291 mt 
( ) s
6 w
1 sg
0 461 1607 0 0 -461 815 719 4 MP
PP
-1607 0 0 461 1607 0 0 -461 815 719 5 MP stroke
4 w
DO
SO
6 w
0 sg
 815  719 mt 2422  719 L
 815  258 mt 2422  258 L
 815  719 mt  815  258 L
2422  719 mt 2422  258 L
 815  719 mt 2422  719 L
 815  719 mt  815  258 L
 815  719 mt 2422  719 L
 815  258 mt 2422  258 L
 815  719 mt  815  258 L
2422  719 mt 2422  258 L
%%IncludeResource: font Helvetica
/Helvetica /ISOLatin1Encoding 132 FMSR

1263  392 mt 
(Top-3 Degree) s
gs 815 258 1608 462 rc
12 w
c8
345 0 883 344 2 MP stroke
gs 1007 295 99 99 rc
1040  328 mt 1072  360 L
1072  328 mt 1040  360 L
gr

gr

12 w
c8
0 sg
1263  536 mt 
( Transmission Tree) s
gs 815 258 1608 462 rc
c9
345 0 883 488 2 MP stroke
gs 1007 439 99 99 rc
1032  488 mt 1080  488 L
1056  464 mt 1056  512 L
gr

gr

c9
0 sg
1263  680 mt 
( Dominator Tree) s
gs 815 258 1608 462 rc
c10
345 0 883 632 2 MP stroke
gs 1007 583 99 99 rc
1032  632 mt 1080  632 L
1056  608 mt 1056  656 L
1040  616 mt 1072  648 L
1072  616 mt 1040  648 L
gr

6 w
gr

6 w
c10

end %%Color Dict

eplot
%%EndObject

epage
end

showpage

%%Trailer
%%EOF
