%!PS-Adobe-3.0 EPSF-3.0
%%Creator: MATLAB, The MathWorks, Inc. Version 8.3.0.532 (R2014a). Operating System: Darwin 13.3.0 Darwin Kernel Version 13.3.0: Tue Jun  3 21:27:35 PDT 2014; root:xnu-2422.110.17~1/RELEASE_X86_64 x86_64.
%%Title: /Users/huijuans/2015Fall/PLoSOne/MatLabFig/dominator_age_sensor1_08272015.eps
%%CreationDate: 08/28/2015  16:57:25
%%DocumentNeededFonts: Helvetica
%%DocumentProcessColors: Cyan Magenta Yellow Black
%%LanguageLevel: 2
%%Pages: 1
%%BoundingBox:   198   288   414   504
%%EndComments

%%BeginProlog
% MathWorks dictionary
/MathWorks 160 dict begin
% definition operators
/bdef {bind def} bind def
/ldef {load def} bind def
/xdef {exch def} bdef
/xstore {exch store} bdef
% operator abbreviations
/c  /clip ldef
/cc /concat ldef
/cp /closepath ldef
/gr /grestore ldef
/gs /gsave ldef
/mt /moveto ldef
/np /newpath ldef
/cm /currentmatrix ldef
/sm /setmatrix ldef
/rm /rmoveto ldef
/rl /rlineto ldef
/s {show newpath} bdef
/sc {setcmykcolor} bdef
/sr /setrgbcolor ldef
/sg /setgray ldef
/w /setlinewidth ldef
/j /setlinejoin ldef
/cap /setlinecap ldef
/rc {rectclip} bdef
/rf {rectfill} bdef
% page state control
/pgsv () def
/bpage {/pgsv save def} bdef
/epage {pgsv restore} bdef
/bplot /gsave ldef
/eplot {stroke grestore} bdef
% orientation switch
/portraitMode 0 def /landscapeMode 1 def /rotateMode 2 def
% coordinate system mappings
/dpi2point 0 def
% font control
/FontSize 0 def
/FMS {/FontSize xstore findfont [FontSize 0 0 FontSize neg 0 0]
  makefont setfont} bdef
/reencode {exch dup where {pop load} {pop StandardEncoding} ifelse
  exch dup 3 1 roll findfont dup length dict begin
  { 1 index /FID ne {def}{pop pop} ifelse } forall
  /Encoding exch def currentdict end definefont pop} bdef
/isroman {findfont /CharStrings get /Agrave known} bdef
/FMSR {3 1 roll 1 index dup isroman {reencode} {pop pop} ifelse
  exch FMS} bdef
/csm {1 dpi2point div -1 dpi2point div scale neg translate
 dup landscapeMode eq {pop -90 rotate}
  {rotateMode eq {90 rotate} if} ifelse} bdef
% line types: solid, dotted, dashed, dotdash
/SO { [] 0 setdash } bdef
/DO { [.5 dpi2point mul 4 dpi2point mul] 0 setdash } bdef
/DA { [6 dpi2point mul] 0 setdash } bdef
/DD { [.5 dpi2point mul 4 dpi2point mul 6 dpi2point mul 4
  dpi2point mul] 0 setdash } bdef
% macros for lines and objects
/L {lineto stroke} bdef
/MP {3 1 roll moveto 1 sub {rlineto} repeat} bdef
/AP {{rlineto} repeat} bdef
/PDlw -1 def
/W {/PDlw currentlinewidth def setlinewidth} def
/PP {closepath eofill} bdef
/DP {closepath stroke} bdef
/MR {4 -2 roll moveto dup  0 exch rlineto exch 0 rlineto
  neg 0 exch rlineto closepath} bdef
/FR {MR stroke} bdef
/PR {MR fill} bdef
/L1i {{currentfile picstr readhexstring pop} image} bdef
/tMatrix matrix def
/MakeOval {newpath tMatrix currentmatrix pop translate scale
0 0 1 0 360 arc tMatrix setmatrix} bdef
/FO {MakeOval stroke} bdef
/PO {MakeOval fill} bdef
/PD {currentlinewidth 2 div 0 360 arc fill
   PDlw -1 eq not {PDlw w /PDlw -1 def} if} def
/FA {newpath tMatrix currentmatrix pop translate scale
  0 0 1 5 -2 roll arc tMatrix setmatrix stroke} bdef
/PA {newpath tMatrix currentmatrix pop	translate 0 0 moveto scale
  0 0 1 5 -2 roll arc closepath tMatrix setmatrix fill} bdef
/FAn {newpath tMatrix currentmatrix pop translate scale
  0 0 1 5 -2 roll arcn tMatrix setmatrix stroke} bdef
/PAn {newpath tMatrix currentmatrix pop translate 0 0 moveto scale
  0 0 1 5 -2 roll arcn closepath tMatrix setmatrix fill} bdef
/vradius 0 def /hradius 0 def /lry 0 def
/lrx 0 def /uly 0 def /ulx 0 def /rad 0 def
/MRR {/vradius xdef /hradius xdef /lry xdef /lrx xdef /uly xdef
  /ulx xdef newpath tMatrix currentmatrix pop ulx hradius add uly
  vradius add translate hradius vradius scale 0 0 1 180 270 arc 
  tMatrix setmatrix lrx hradius sub uly vradius add translate
  hradius vradius scale 0 0 1 270 360 arc tMatrix setmatrix
  lrx hradius sub lry vradius sub translate hradius vradius scale
  0 0 1 0 90 arc tMatrix setmatrix ulx hradius add lry vradius sub
  translate hradius vradius scale 0 0 1 90 180 arc tMatrix setmatrix
  closepath} bdef
/FRR {MRR stroke } bdef
/PRR {MRR fill } bdef
/MlrRR {/lry xdef /lrx xdef /uly xdef /ulx xdef /rad lry uly sub 2 div def
  newpath tMatrix currentmatrix pop ulx rad add uly rad add translate
  rad rad scale 0 0 1 90 270 arc tMatrix setmatrix lrx rad sub lry rad
  sub translate rad rad scale 0 0 1 270 90 arc tMatrix setmatrix
  closepath} bdef
/FlrRR {MlrRR stroke } bdef
/PlrRR {MlrRR fill } bdef
/MtbRR {/lry xdef /lrx xdef /uly xdef /ulx xdef /rad lrx ulx sub 2 div def
  newpath tMatrix currentmatrix pop ulx rad add uly rad add translate
  rad rad scale 0 0 1 180 360 arc tMatrix setmatrix lrx rad sub lry rad
  sub translate rad rad scale 0 0 1 0 180 arc tMatrix setmatrix
  closepath} bdef
/FtbRR {MtbRR stroke } bdef
/PtbRR {MtbRR fill } bdef
/stri 6 array def /dtri 6 array def
/smat 6 array def /dmat 6 array def
/tmat1 6 array def /tmat2 6 array def /dif 3 array def
/asub {/ind2 exch def /ind1 exch def dup dup
  ind1 get exch ind2 get sub exch } bdef
/tri_to_matrix {
  2 0 asub 3 1 asub 4 0 asub 5 1 asub
  dup 0 get exch 1 get 7 -1 roll astore } bdef
/compute_transform {
  dmat dtri tri_to_matrix tmat1 invertmatrix 
  smat stri tri_to_matrix tmat2 concatmatrix } bdef
/ds {stri astore pop} bdef
/dt {dtri astore pop} bdef
/db {2 copy /cols xdef /rows xdef mul dup 3 mul string
  currentfile 
  3 index 0 eq {/ASCIIHexDecode filter}
  {/ASCII85Decode filter 3 index 2 eq {/RunLengthDecode filter} if }
  ifelse exch readstring pop
  dup 0 3 index getinterval /rbmap xdef
  dup 2 index dup getinterval /gbmap xdef
  1 index dup 2 mul exch getinterval /bbmap xdef pop pop}bdef
/it {gs np dtri aload pop moveto lineto lineto cp c
  cols rows 8 compute_transform 
  rbmap gbmap bbmap true 3 colorimage gr}bdef
/il {newpath moveto lineto stroke}bdef
currentdict end def
%%EndProlog

%%BeginSetup
MathWorks begin

0 cap

end
%%EndSetup

%%Page: 1 1
%%BeginPageSetup
%%PageBoundingBox:   198   288   414   504
MathWorks begin
bpage
%%EndPageSetup

%%BeginObject: obj1
bplot

/dpi2point 12 def
portraitMode 2376 6048 csm

    0     0  2592  2592 rc
85 dict begin %Colortable dictionary
/c0 { 0.000000 0.000000 0.000000 sr} bdef
/c1 { 1.000000 1.000000 1.000000 sr} bdef
/c2 { 0.900000 0.000000 0.000000 sr} bdef
/c3 { 0.000000 0.820000 0.000000 sr} bdef
/c4 { 0.000000 0.000000 0.800000 sr} bdef
/c5 { 0.910000 0.820000 0.320000 sr} bdef
/c6 { 1.000000 0.260000 0.820000 sr} bdef
/c7 { 0.000000 0.820000 0.820000 sr} bdef
c0
1 j
1 sg
   0    0 2593 2593 rf
6 w
0 1814 1814 0 0 -1814 605 2160 4 MP
PP
-1814 0 0 1814 1814 0 0 -1814 605 2160 5 MP stroke
4 w
DO
SO
6 w
0 sg
 605 2160 mt 2419 2160 L
 605  346 mt 2419  346 L
 605 2160 mt  605  346 L
2419 2160 mt 2419  346 L
 605 2160 mt 2419 2160 L
 605 2160 mt  605  346 L
 953 2160 mt  953 2141 L
 953  346 mt  953  364 L
%%IncludeResource: font Helvetica
/Helvetica /ISOLatin1Encoding 144 FMSR

 873 2328 mt 
(20) s
1319 2160 mt 1319 2141 L
1319  346 mt 1319  364 L
1239 2328 mt 
(40) s
1686 2160 mt 1686 2141 L
1686  346 mt 1686  364 L
1606 2328 mt 
(60) s
2052 2160 mt 2052 2141 L
2052  346 mt 2052  364 L
1972 2328 mt 
(80) s
2419 2160 mt 2419 2141 L
2419  346 mt 2419  364 L
2299 2328 mt 
(100) s
 605 2160 mt  623 2160 L
2419 2160 mt 2400 2160 L
 490 2213 mt 
(0) s
 605 1706 mt  623 1706 L
2419 1706 mt 2400 1706 L
 250 1759 mt 
(2000) s
 605 1253 mt  623 1253 L
2419 1253 mt 2400 1253 L
 250 1306 mt 
(4000) s
 605  799 mt  623  799 L
2419  799 mt 2400  799 L
 250  852 mt 
(6000) s
 605  346 mt  623  346 L
2419  346 mt 2400  346 L
 250  399 mt 
(8000) s
 605 2160 mt 2419 2160 L
 605  346 mt 2419  346 L
 605 2160 mt  605  346 L
2419 2160 mt 2419  346 L
gs 605 346 1815 1815 rc
/c8 { 0.000000 0.000000 0.562500 sr} bdef
c8
0 79 17 0 0 -79 586 2160 4 MP
PP
0 sg
-17 0 0 79 17 0 0 -79 586 2160 5 MP stroke
c8
0 79 17 0 0 -79 603 2160 4 MP
PP
0 sg
-17 0 0 79 17 0 0 -79 603 2160 5 MP stroke
c8
0 90 17 0 0 -90 620 2160 4 MP
PP
0 sg
-17 0 0 90 17 0 0 -90 620 2160 5 MP stroke
c8
0 86 17 0 0 -86 637 2160 4 MP
PP
0 sg
-17 0 0 86 17 0 0 -86 637 2160 5 MP stroke
c8
0 126 17 0 0 -126 654 2160 4 MP
PP
0 sg
-17 0 0 126 17 0 0 -126 654 2160 5 MP stroke
c8
0 959 17 0 0 -959 671 2160 4 MP
PP
0 sg
-17 0 0 959 17 0 0 -959 671 2160 5 MP stroke
c8
0 956 17 0 0 -956 688 2160 4 MP
PP
0 sg
-17 0 0 956 17 0 0 -956 688 2160 5 MP stroke
c8
0 1082 18 0 0 -1082 705 2160 4 MP
PP
0 sg
-18 0 0 1082 18 0 0 -1082 705 2160 5 MP stroke
c8
0 1045 17 0 0 -1045 723 2160 4 MP
PP
0 sg
-17 0 0 1045 17 0 0 -1045 723 2160 5 MP stroke
c8
0 1067 17 0 0 -1067 740 2160 4 MP
PP
0 sg
-17 0 0 1067 17 0 0 -1067 740 2160 5 MP stroke
c8
0 1078 17 0 0 -1078 757 2160 4 MP
PP
0 sg
-17 0 0 1078 17 0 0 -1078 757 2160 5 MP stroke
c8
0 1034 17 0 0 -1034 774 2160 4 MP
PP
0 sg
-17 0 0 1034 17 0 0 -1034 774 2160 5 MP stroke
c8
0 1113 17 0 0 -1113 791 2160 4 MP
PP
0 sg
-17 0 0 1113 17 0 0 -1113 791 2160 5 MP stroke
c8
0 1200 17 0 0 -1200 808 2160 4 MP
PP
0 sg
-17 0 0 1200 17 0 0 -1200 808 2160 5 MP stroke
c8
0 0 17 0 0 0 825 2160 4 MP
PP
0 sg
-17 0 0 0 17 0 0 0 825 2160 5 MP stroke
c8
0 1236 17 0 0 -1236 842 2160 4 MP
PP
0 sg
-17 0 0 1236 17 0 0 -1236 842 2160 5 MP stroke
c8
0 1251 17 0 0 -1251 859 2160 4 MP
PP
0 sg
-17 0 0 1251 17 0 0 -1251 859 2160 5 MP stroke
c8
0 1447 17 0 0 -1447 876 2160 4 MP
PP
0 sg
-17 0 0 1447 17 0 0 -1447 876 2160 5 MP stroke
c8
0 1421 17 0 0 -1421 893 2160 4 MP
PP
0 sg
-17 0 0 1421 17 0 0 -1421 893 2160 5 MP stroke
c8
0 600 17 0 0 -600 910 2160 4 MP
PP
0 sg
-17 0 0 600 17 0 0 -600 910 2160 5 MP stroke
c8
0 81 17 0 0 -81 927 2160 4 MP
PP
0 sg
-17 0 0 81 17 0 0 -81 927 2160 5 MP stroke
c8
0 65 17 0 0 -65 944 2160 4 MP
PP
0 sg
-17 0 0 65 17 0 0 -65 944 2160 5 MP stroke
c8
0 70 17 0 0 -70 961 2160 4 MP
PP
0 sg
-17 0 0 70 17 0 0 -70 961 2160 5 MP stroke
c8
0 49 17 0 0 -49 978 2160 4 MP
PP
0 sg
-17 0 0 49 17 0 0 -49 978 2160 5 MP stroke
c8
0 52 17 0 0 -52 995 2160 4 MP
PP
0 sg
-17 0 0 52 17 0 0 -52 995 2160 5 MP stroke
c8
0 52 17 0 0 -52 1012 2160 4 MP
PP
0 sg
-17 0 0 52 17 0 0 -52 1012 2160 5 MP stroke
c8
0 51 17 0 0 -51 1029 2160 4 MP
PP
0 sg
-17 0 0 51 17 0 0 -51 1029 2160 5 MP stroke
c8
0 57 17 0 0 -57 1046 2160 4 MP
PP
0 sg
-17 0 0 57 17 0 0 -57 1046 2160 5 MP stroke
c8
0 0 17 0 0 0 1063 2160 4 MP
PP
0 sg
-17 0 0 0 17 0 0 0 1063 2160 5 MP stroke
c8
0 75 17 0 0 -75 1080 2160 4 MP
PP
0 sg
-17 0 0 75 17 0 0 -75 1080 2160 5 MP stroke
c8
0 70 17 0 0 -70 1097 2160 4 MP
PP
0 sg
-17 0 0 70 17 0 0 -70 1097 2160 5 MP stroke
c8
0 64 17 0 0 -64 1114 2160 4 MP
PP
0 sg
-17 0 0 64 17 0 0 -64 1114 2160 5 MP stroke
c8
0 79 18 0 0 -79 1131 2160 4 MP
PP
0 sg
-18 0 0 79 18 0 0 -79 1131 2160 5 MP stroke
c8
0 66 17 0 0 -66 1149 2160 4 MP
PP
0 sg
-17 0 0 66 17 0 0 -66 1149 2160 5 MP stroke
c8
0 87 17 0 0 -87 1166 2160 4 MP
PP
0 sg
-17 0 0 87 17 0 0 -87 1166 2160 5 MP stroke
c8
0 78 17 0 0 -78 1183 2160 4 MP
PP
0 sg
-17 0 0 78 17 0 0 -78 1183 2160 5 MP stroke
c8
0 89 17 0 0 -89 1200 2160 4 MP
PP
0 sg
-17 0 0 89 17 0 0 -89 1200 2160 5 MP stroke
c8
0 124 17 0 0 -124 1217 2160 4 MP
PP
0 sg
-17 0 0 124 17 0 0 -124 1217 2160 5 MP stroke
c8
0 119 17 0 0 -119 1234 2160 4 MP
PP
0 sg
-17 0 0 119 17 0 0 -119 1234 2160 5 MP stroke
c8
0 95 17 0 0 -95 1251 2160 4 MP
PP
0 sg
-17 0 0 95 17 0 0 -95 1251 2160 5 MP stroke
c8
0 98 17 0 0 -98 1268 2160 4 MP
PP
0 sg
-17 0 0 98 17 0 0 -98 1268 2160 5 MP stroke
c8
0 87 17 0 0 -87 1285 2160 4 MP
PP
0 sg
-17 0 0 87 17 0 0 -87 1285 2160 5 MP stroke
c8
0 0 17 0 0 0 1302 2160 4 MP
PP
0 sg
-17 0 0 0 17 0 0 0 1302 2160 5 MP stroke
c8
0 98 17 0 0 -98 1319 2160 4 MP
PP
0 sg
-17 0 0 98 17 0 0 -98 1319 2160 5 MP stroke
c8
0 89 17 0 0 -89 1336 2160 4 MP
PP
0 sg
-17 0 0 89 17 0 0 -89 1336 2160 5 MP stroke
c8
0 92 17 0 0 -92 1353 2160 4 MP
PP
0 sg
-17 0 0 92 17 0 0 -92 1353 2160 5 MP stroke
c8
0 82 17 0 0 -82 1370 2160 4 MP
PP
0 sg
-17 0 0 82 17 0 0 -82 1370 2160 5 MP stroke
c8
0 76 17 0 0 -76 1387 2160 4 MP
PP
0 sg
-17 0 0 76 17 0 0 -76 1387 2160 5 MP stroke
c8
0 80 17 0 0 -80 1404 2160 4 MP
PP
0 sg
-17 0 0 80 17 0 0 -80 1404 2160 5 MP stroke
c8
0 76 17 0 0 -76 1421 2160 4 MP
PP
0 sg
-17 0 0 76 17 0 0 -76 1421 2160 5 MP stroke
c8
0 74 17 0 0 -74 1438 2160 4 MP
PP
0 sg
-17 0 0 74 17 0 0 -74 1438 2160 5 MP stroke
c8
0 58 17 0 0 -58 1455 2160 4 MP
PP
0 sg
-17 0 0 58 17 0 0 -58 1455 2160 5 MP stroke
c8
0 56 17 0 0 -56 1472 2160 4 MP
PP
0 sg
-17 0 0 56 17 0 0 -56 1472 2160 5 MP stroke
c8
0 58 17 0 0 -58 1489 2160 4 MP
PP
0 sg
-17 0 0 58 17 0 0 -58 1489 2160 5 MP stroke
c8
0 44 17 0 0 -44 1506 2160 4 MP
PP
0 sg
-17 0 0 44 17 0 0 -44 1506 2160 5 MP stroke
c8
0 44 17 0 0 -44 1523 2160 4 MP
PP
0 sg
-17 0 0 44 17 0 0 -44 1523 2160 5 MP stroke
c8
0 40 17 0 0 -40 1540 2160 4 MP
PP
0 sg
-17 0 0 40 17 0 0 -40 1540 2160 5 MP stroke
c8
0 0 18 0 0 0 1557 2160 4 MP
PP
0 sg
-18 0 0 0 18 0 0 0 1557 2160 5 MP stroke
c8
0 47 17 0 0 -47 1575 2160 4 MP
PP
0 sg
-17 0 0 47 17 0 0 -47 1575 2160 5 MP stroke
c8
0 50 17 0 0 -50 1592 2160 4 MP
PP
0 sg
-17 0 0 50 17 0 0 -50 1592 2160 5 MP stroke
c8
0 43 17 0 0 -43 1609 2160 4 MP
PP
0 sg
-17 0 0 43 17 0 0 -43 1609 2160 5 MP stroke
c8
0 43 17 0 0 -43 1626 2160 4 MP
PP
0 sg
-17 0 0 43 17 0 0 -43 1626 2160 5 MP stroke
c8
0 29 17 0 0 -29 1643 2160 4 MP
PP
0 sg
-17 0 0 29 17 0 0 -29 1643 2160 5 MP stroke
c8
0 25 17 0 0 -25 1660 2160 4 MP
PP
0 sg
-17 0 0 25 17 0 0 -25 1660 2160 5 MP stroke
c8
0 30 17 0 0 -30 1677 2160 4 MP
PP
0 sg
-17 0 0 30 17 0 0 -30 1677 2160 5 MP stroke
c8
0 30 17 0 0 -30 1694 2160 4 MP
PP
0 sg
-17 0 0 30 17 0 0 -30 1694 2160 5 MP stroke
c8
0 26 17 0 0 -26 1711 2160 4 MP
PP
0 sg
-17 0 0 26 17 0 0 -26 1711 2160 5 MP stroke
c8
0 20 17 0 0 -20 1728 2160 4 MP
PP
0 sg
-17 0 0 20 17 0 0 -20 1728 2160 5 MP stroke
c8
0 23 17 0 0 -23 1745 2160 4 MP
PP
0 sg
-17 0 0 23 17 0 0 -23 1745 2160 5 MP stroke
c8
0 22 17 0 0 -22 1762 2160 4 MP
PP
0 sg
-17 0 0 22 17 0 0 -22 1762 2160 5 MP stroke
c8
0 19 17 0 0 -19 1779 2160 4 MP
PP
0 sg
-17 0 0 19 17 0 0 -19 1779 2160 5 MP stroke
c8
0 0 17 0 0 0 1796 2160 4 MP
PP
0 sg
-17 0 0 0 17 0 0 0 1796 2160 5 MP stroke
c8
0 24 17 0 0 -24 1813 2160 4 MP
PP
0 sg
-17 0 0 24 17 0 0 -24 1813 2160 5 MP stroke
c8
0 18 17 0 0 -18 1830 2160 4 MP
PP
0 sg
-17 0 0 18 17 0 0 -18 1830 2160 5 MP stroke
c8
0 16 17 0 0 -16 1847 2160 4 MP
PP
0 sg
-17 0 0 16 17 0 0 -16 1847 2160 5 MP stroke
c8
0 22 17 0 0 -22 1864 2160 4 MP
PP
0 sg
-17 0 0 22 17 0 0 -22 1864 2160 5 MP stroke
c8
0 13 17 0 0 -13 1881 2160 4 MP
PP
0 sg
-17 0 0 13 17 0 0 -13 1881 2160 5 MP stroke
c8
0 17 17 0 0 -17 1898 2160 4 MP
PP
0 sg
-17 0 0 17 17 0 0 -17 1898 2160 5 MP stroke
c8
0 13 17 0 0 -13 1915 2160 4 MP
PP
0 sg
-17 0 0 13 17 0 0 -13 1915 2160 5 MP stroke
c8
0 14 17 0 0 -14 1932 2160 4 MP
PP
0 sg
-17 0 0 14 17 0 0 -14 1932 2160 5 MP stroke
c8
0 14 17 0 0 -14 1949 2160 4 MP
PP
0 sg
-17 0 0 14 17 0 0 -14 1949 2160 5 MP stroke
c8
0 10 18 0 0 -10 1966 2160 4 MP
PP
0 sg
-18 0 0 10 18 0 0 -10 1966 2160 5 MP stroke
c8
0 10 17 0 0 -10 1984 2160 4 MP
PP
0 sg
-17 0 0 10 17 0 0 -10 1984 2160 5 MP stroke
c8
0 8 17 0 0 -8 2001 2160 4 MP
PP
0 sg
-17 0 0 8 17 0 0 -8 2001 2160 5 MP stroke
c8
0 12 17 0 0 -12 2018 2160 4 MP
PP
0 sg
-17 0 0 12 17 0 0 -12 2018 2160 5 MP stroke
c8
0 0 17 0 0 0 2035 2160 4 MP
PP
0 sg
-17 0 0 0 17 0 0 0 2035 2160 5 MP stroke
c8
0 6 17 0 0 -6 2052 2160 4 MP
PP
0 sg
-17 0 0 6 17 0 0 -6 2052 2160 5 MP stroke
c8
0 9 17 0 0 -9 2069 2160 4 MP
PP
0 sg
-17 0 0 9 17 0 0 -9 2069 2160 5 MP stroke
c8
0 8 17 0 0 -8 2086 2160 4 MP
PP
0 sg
-17 0 0 8 17 0 0 -8 2086 2160 5 MP stroke
c8
0 6 17 0 0 -6 2103 2160 4 MP
PP
0 sg
-17 0 0 6 17 0 0 -6 2103 2160 5 MP stroke
c8
0 4 17 0 0 -4 2120 2160 4 MP
PP
0 sg
-17 0 0 4 17 0 0 -4 2120 2160 5 MP stroke
c8
0 4 17 0 0 -4 2137 2160 4 MP
PP
0 sg
-17 0 0 4 17 0 0 -4 2137 2160 5 MP stroke
c8
0 5 17 0 0 -5 2154 2160 4 MP
PP
0 sg
-17 0 0 5 17 0 0 -5 2154 2160 5 MP stroke
c8
0 5 17 0 0 -5 2171 2160 4 MP
PP
0 sg
-17 0 0 5 17 0 0 -5 2171 2160 5 MP stroke
c8
0 4 17 0 0 -4 2188 2160 4 MP
PP
0 sg
-17 0 0 4 17 0 0 -4 2188 2160 5 MP stroke
c8
0 3 17 0 0 -3 2205 2160 4 MP
PP
0 sg
-17 0 0 3 17 0 0 -3 2205 2160 5 MP stroke
c8
0 0 17 0 0 0 2222 2160 4 MP
PP
0 sg
-17 0 0 0 17 0 0 0 2222 2160 5 MP stroke
c8
0 0 17 0 0 0 2239 2160 4 MP
PP
0 sg
-17 0 0 0 17 0 0 0 2239 2160 5 MP stroke
c8
0 0 17 0 0 0 2256 2160 4 MP
PP
0 sg
-17 0 0 0 17 0 0 0 2256 2160 5 MP stroke
c8
0 9 17 0 0 -9 2273 2160 4 MP
PP
0 sg
-17 0 0 9 17 0 0 -9 2273 2160 5 MP stroke
gr

1378 2500 mt 
(Age) s
 161 1602 mt  -90 rotate
(Frequency) s
90 rotate

end %%Color Dict

eplot
%%EndObject

epage
end

showpage

%%Trailer
%%EOF
