%!PS-Adobe-3.0 EPSF-3.0
%%Creator: MATLAB, The MathWorks, Inc. Version 8.3.0.532 (R2014a). Operating System: Darwin 13.3.0 Darwin Kernel Version 13.3.0: Tue Jun  3 21:27:35 PDT 2014; root:xnu-2422.110.17~1/RELEASE_X86_64 x86_64.
%%Title: /Users/huijuans/2015Fall/PLoSOne/MatLabFig/dominator_age_random1_08272015.eps
%%CreationDate: 08/28/2015  16:54:41
%%DocumentNeededFonts: Helvetica
%%DocumentProcessColors: Cyan Magenta Yellow Black
%%LanguageLevel: 2
%%Pages: 1
%%BoundingBox:   198   288   414   504
%%EndComments

%%BeginProlog
% MathWorks dictionary
/MathWorks 160 dict begin
% definition operators
/bdef {bind def} bind def
/ldef {load def} bind def
/xdef {exch def} bdef
/xstore {exch store} bdef
% operator abbreviations
/c  /clip ldef
/cc /concat ldef
/cp /closepath ldef
/gr /grestore ldef
/gs /gsave ldef
/mt /moveto ldef
/np /newpath ldef
/cm /currentmatrix ldef
/sm /setmatrix ldef
/rm /rmoveto ldef
/rl /rlineto ldef
/s {show newpath} bdef
/sc {setcmykcolor} bdef
/sr /setrgbcolor ldef
/sg /setgray ldef
/w /setlinewidth ldef
/j /setlinejoin ldef
/cap /setlinecap ldef
/rc {rectclip} bdef
/rf {rectfill} bdef
% page state control
/pgsv () def
/bpage {/pgsv save def} bdef
/epage {pgsv restore} bdef
/bplot /gsave ldef
/eplot {stroke grestore} bdef
% orientation switch
/portraitMode 0 def /landscapeMode 1 def /rotateMode 2 def
% coordinate system mappings
/dpi2point 0 def
% font control
/FontSize 0 def
/FMS {/FontSize xstore findfont [FontSize 0 0 FontSize neg 0 0]
  makefont setfont} bdef
/reencode {exch dup where {pop load} {pop StandardEncoding} ifelse
  exch dup 3 1 roll findfont dup length dict begin
  { 1 index /FID ne {def}{pop pop} ifelse } forall
  /Encoding exch def currentdict end definefont pop} bdef
/isroman {findfont /CharStrings get /Agrave known} bdef
/FMSR {3 1 roll 1 index dup isroman {reencode} {pop pop} ifelse
  exch FMS} bdef
/csm {1 dpi2point div -1 dpi2point div scale neg translate
 dup landscapeMode eq {pop -90 rotate}
  {rotateMode eq {90 rotate} if} ifelse} bdef
% line types: solid, dotted, dashed, dotdash
/SO { [] 0 setdash } bdef
/DO { [.5 dpi2point mul 4 dpi2point mul] 0 setdash } bdef
/DA { [6 dpi2point mul] 0 setdash } bdef
/DD { [.5 dpi2point mul 4 dpi2point mul 6 dpi2point mul 4
  dpi2point mul] 0 setdash } bdef
% macros for lines and objects
/L {lineto stroke} bdef
/MP {3 1 roll moveto 1 sub {rlineto} repeat} bdef
/AP {{rlineto} repeat} bdef
/PDlw -1 def
/W {/PDlw currentlinewidth def setlinewidth} def
/PP {closepath eofill} bdef
/DP {closepath stroke} bdef
/MR {4 -2 roll moveto dup  0 exch rlineto exch 0 rlineto
  neg 0 exch rlineto closepath} bdef
/FR {MR stroke} bdef
/PR {MR fill} bdef
/L1i {{currentfile picstr readhexstring pop} image} bdef
/tMatrix matrix def
/MakeOval {newpath tMatrix currentmatrix pop translate scale
0 0 1 0 360 arc tMatrix setmatrix} bdef
/FO {MakeOval stroke} bdef
/PO {MakeOval fill} bdef
/PD {currentlinewidth 2 div 0 360 arc fill
   PDlw -1 eq not {PDlw w /PDlw -1 def} if} def
/FA {newpath tMatrix currentmatrix pop translate scale
  0 0 1 5 -2 roll arc tMatrix setmatrix stroke} bdef
/PA {newpath tMatrix currentmatrix pop	translate 0 0 moveto scale
  0 0 1 5 -2 roll arc closepath tMatrix setmatrix fill} bdef
/FAn {newpath tMatrix currentmatrix pop translate scale
  0 0 1 5 -2 roll arcn tMatrix setmatrix stroke} bdef
/PAn {newpath tMatrix currentmatrix pop translate 0 0 moveto scale
  0 0 1 5 -2 roll arcn closepath tMatrix setmatrix fill} bdef
/vradius 0 def /hradius 0 def /lry 0 def
/lrx 0 def /uly 0 def /ulx 0 def /rad 0 def
/MRR {/vradius xdef /hradius xdef /lry xdef /lrx xdef /uly xdef
  /ulx xdef newpath tMatrix currentmatrix pop ulx hradius add uly
  vradius add translate hradius vradius scale 0 0 1 180 270 arc 
  tMatrix setmatrix lrx hradius sub uly vradius add translate
  hradius vradius scale 0 0 1 270 360 arc tMatrix setmatrix
  lrx hradius sub lry vradius sub translate hradius vradius scale
  0 0 1 0 90 arc tMatrix setmatrix ulx hradius add lry vradius sub
  translate hradius vradius scale 0 0 1 90 180 arc tMatrix setmatrix
  closepath} bdef
/FRR {MRR stroke } bdef
/PRR {MRR fill } bdef
/MlrRR {/lry xdef /lrx xdef /uly xdef /ulx xdef /rad lry uly sub 2 div def
  newpath tMatrix currentmatrix pop ulx rad add uly rad add translate
  rad rad scale 0 0 1 90 270 arc tMatrix setmatrix lrx rad sub lry rad
  sub translate rad rad scale 0 0 1 270 90 arc tMatrix setmatrix
  closepath} bdef
/FlrRR {MlrRR stroke } bdef
/PlrRR {MlrRR fill } bdef
/MtbRR {/lry xdef /lrx xdef /uly xdef /ulx xdef /rad lrx ulx sub 2 div def
  newpath tMatrix currentmatrix pop ulx rad add uly rad add translate
  rad rad scale 0 0 1 180 360 arc tMatrix setmatrix lrx rad sub lry rad
  sub translate rad rad scale 0 0 1 0 180 arc tMatrix setmatrix
  closepath} bdef
/FtbRR {MtbRR stroke } bdef
/PtbRR {MtbRR fill } bdef
/stri 6 array def /dtri 6 array def
/smat 6 array def /dmat 6 array def
/tmat1 6 array def /tmat2 6 array def /dif 3 array def
/asub {/ind2 exch def /ind1 exch def dup dup
  ind1 get exch ind2 get sub exch } bdef
/tri_to_matrix {
  2 0 asub 3 1 asub 4 0 asub 5 1 asub
  dup 0 get exch 1 get 7 -1 roll astore } bdef
/compute_transform {
  dmat dtri tri_to_matrix tmat1 invertmatrix 
  smat stri tri_to_matrix tmat2 concatmatrix } bdef
/ds {stri astore pop} bdef
/dt {dtri astore pop} bdef
/db {2 copy /cols xdef /rows xdef mul dup 3 mul string
  currentfile 
  3 index 0 eq {/ASCIIHexDecode filter}
  {/ASCII85Decode filter 3 index 2 eq {/RunLengthDecode filter} if }
  ifelse exch readstring pop
  dup 0 3 index getinterval /rbmap xdef
  dup 2 index dup getinterval /gbmap xdef
  1 index dup 2 mul exch getinterval /bbmap xdef pop pop}bdef
/it {gs np dtri aload pop moveto lineto lineto cp c
  cols rows 8 compute_transform 
  rbmap gbmap bbmap true 3 colorimage gr}bdef
/il {newpath moveto lineto stroke}bdef
currentdict end def
%%EndProlog

%%BeginSetup
MathWorks begin

0 cap

end
%%EndSetup

%%Page: 1 1
%%BeginPageSetup
%%PageBoundingBox:   198   288   414   504
MathWorks begin
bpage
%%EndPageSetup

%%BeginObject: obj1
bplot

/dpi2point 12 def
portraitMode 2376 6048 csm

    0     0  2592  2592 rc
85 dict begin %Colortable dictionary
/c0 { 0.000000 0.000000 0.000000 sr} bdef
/c1 { 1.000000 1.000000 1.000000 sr} bdef
/c2 { 0.900000 0.000000 0.000000 sr} bdef
/c3 { 0.000000 0.820000 0.000000 sr} bdef
/c4 { 0.000000 0.000000 0.800000 sr} bdef
/c5 { 0.910000 0.820000 0.320000 sr} bdef
/c6 { 1.000000 0.260000 0.820000 sr} bdef
/c7 { 0.000000 0.820000 0.820000 sr} bdef
c0
1 j
1 sg
   0    0 2593 2593 rf
6 w
0 1815 1814 0 0 -1815 605 2160 4 MP
PP
-1814 0 0 1815 1814 0 0 -1815 605 2160 5 MP stroke
4 w
DO
SO
6 w
0 sg
 605 2160 mt 2419 2160 L
 605  345 mt 2419  345 L
 605 2160 mt  605  345 L
2419 2160 mt 2419  345 L
 605 2160 mt 2419 2160 L
 605 2160 mt  605  345 L
 953 2160 mt  953 2141 L
 953  345 mt  953  364 L
%%IncludeResource: font Helvetica
/Helvetica /ISOLatin1Encoding 144 FMSR

 873 2328 mt 
(20) s
1319 2160 mt 1319 2141 L
1319  345 mt 1319  364 L
1239 2328 mt 
(40) s
1686 2160 mt 1686 2141 L
1686  345 mt 1686  364 L
1606 2328 mt 
(60) s
2052 2160 mt 2052 2141 L
2052  345 mt 2052  364 L
1972 2328 mt 
(80) s
2419 2160 mt 2419 2141 L
2419  345 mt 2419  364 L
2299 2328 mt 
(100) s
 605 2160 mt  623 2160 L
2419 2160 mt 2400 2160 L
 490 2213 mt 
(0) s
 605 1797 mt  623 1797 L
2419 1797 mt 2400 1797 L
 330 1850 mt 
(500) s
 605 1434 mt  623 1434 L
2419 1434 mt 2400 1434 L
 250 1487 mt 
(1000) s
 605 1071 mt  623 1071 L
2419 1071 mt 2400 1071 L
 250 1124 mt 
(1500) s
 605  708 mt  623  708 L
2419  708 mt 2400  708 L
 250  761 mt 
(2000) s
 605  345 mt  623  345 L
2419  345 mt 2400  345 L
 250  398 mt 
(2500) s
 605 2160 mt 2419 2160 L
 605  345 mt 2419  345 L
 605 2160 mt  605  345 L
2419 2160 mt 2419  345 L
gs 605 346 1815 1815 rc
/c8 { 0.000000 0.000000 0.562500 sr} bdef
c8
0 984 17 0 0 -984 586 2160 4 MP
PP
0 sg
-17 0 0 984 17 0 0 -984 586 2160 5 MP stroke
c8
0 968 17 0 0 -968 603 2160 4 MP
PP
0 sg
-17 0 0 968 17 0 0 -968 603 2160 5 MP stroke
c8
0 1013 17 0 0 -1013 620 2160 4 MP
PP
0 sg
-17 0 0 1013 17 0 0 -1013 620 2160 5 MP stroke
c8
0 933 17 0 0 -933 637 2160 4 MP
PP
0 sg
-17 0 0 933 17 0 0 -933 637 2160 5 MP stroke
c8
0 958 17 0 0 -958 654 2160 4 MP
PP
0 sg
-17 0 0 958 17 0 0 -958 654 2160 5 MP stroke
c8
0 870 17 0 0 -870 671 2160 4 MP
PP
0 sg
-17 0 0 870 17 0 0 -870 671 2160 5 MP stroke
c8
0 897 17 0 0 -897 688 2160 4 MP
PP
0 sg
-17 0 0 897 17 0 0 -897 688 2160 5 MP stroke
c8
0 961 18 0 0 -961 705 2160 4 MP
PP
0 sg
-18 0 0 961 18 0 0 -961 705 2160 5 MP stroke
c8
0 939 17 0 0 -939 723 2160 4 MP
PP
0 sg
-17 0 0 939 17 0 0 -939 723 2160 5 MP stroke
c8
0 1013 17 0 0 -1013 740 2160 4 MP
PP
0 sg
-17 0 0 1013 17 0 0 -1013 740 2160 5 MP stroke
c8
0 963 17 0 0 -963 757 2160 4 MP
PP
0 sg
-17 0 0 963 17 0 0 -963 757 2160 5 MP stroke
c8
0 889 17 0 0 -889 774 2160 4 MP
PP
0 sg
-17 0 0 889 17 0 0 -889 774 2160 5 MP stroke
c8
0 1000 17 0 0 -1000 791 2160 4 MP
PP
0 sg
-17 0 0 1000 17 0 0 -1000 791 2160 5 MP stroke
c8
0 919 17 0 0 -919 808 2160 4 MP
PP
0 sg
-17 0 0 919 17 0 0 -919 808 2160 5 MP stroke
c8
0 0 17 0 0 0 825 2160 4 MP
PP
0 sg
-17 0 0 0 17 0 0 0 825 2160 5 MP stroke
c8
0 905 17 0 0 -905 842 2160 4 MP
PP
0 sg
-17 0 0 905 17 0 0 -905 842 2160 5 MP stroke
c8
0 804 17 0 0 -804 859 2160 4 MP
PP
0 sg
-17 0 0 804 17 0 0 -804 859 2160 5 MP stroke
c8
0 890 17 0 0 -890 876 2160 4 MP
PP
0 sg
-17 0 0 890 17 0 0 -890 876 2160 5 MP stroke
c8
0 859 17 0 0 -859 893 2160 4 MP
PP
0 sg
-17 0 0 859 17 0 0 -859 893 2160 5 MP stroke
c8
0 930 17 0 0 -930 910 2160 4 MP
PP
0 sg
-17 0 0 930 17 0 0 -930 910 2160 5 MP stroke
c8
0 880 17 0 0 -880 927 2160 4 MP
PP
0 sg
-17 0 0 880 17 0 0 -880 927 2160 5 MP stroke
c8
0 818 17 0 0 -818 944 2160 4 MP
PP
0 sg
-17 0 0 818 17 0 0 -818 944 2160 5 MP stroke
c8
0 933 17 0 0 -933 961 2160 4 MP
PP
0 sg
-17 0 0 933 17 0 0 -933 961 2160 5 MP stroke
c8
0 836 17 0 0 -836 978 2160 4 MP
PP
0 sg
-17 0 0 836 17 0 0 -836 978 2160 5 MP stroke
c8
0 902 17 0 0 -902 995 2160 4 MP
PP
0 sg
-17 0 0 902 17 0 0 -902 995 2160 5 MP stroke
c8
0 827 17 0 0 -827 1012 2160 4 MP
PP
0 sg
-17 0 0 827 17 0 0 -827 1012 2160 5 MP stroke
c8
0 925 17 0 0 -925 1029 2160 4 MP
PP
0 sg
-17 0 0 925 17 0 0 -925 1029 2160 5 MP stroke
c8
0 918 17 0 0 -918 1046 2160 4 MP
PP
0 sg
-17 0 0 918 17 0 0 -918 1046 2160 5 MP stroke
c8
0 0 17 0 0 0 1063 2160 4 MP
PP
0 sg
-17 0 0 0 17 0 0 0 1063 2160 5 MP stroke
c8
0 1016 17 0 0 -1016 1080 2160 4 MP
PP
0 sg
-17 0 0 1016 17 0 0 -1016 1080 2160 5 MP stroke
c8
0 1053 17 0 0 -1053 1097 2160 4 MP
PP
0 sg
-17 0 0 1053 17 0 0 -1053 1097 2160 5 MP stroke
c8
0 995 17 0 0 -995 1114 2160 4 MP
PP
0 sg
-17 0 0 995 17 0 0 -995 1114 2160 5 MP stroke
c8
0 1066 18 0 0 -1066 1131 2160 4 MP
PP
0 sg
-18 0 0 1066 18 0 0 -1066 1131 2160 5 MP stroke
c8
0 1003 17 0 0 -1003 1149 2160 4 MP
PP
0 sg
-17 0 0 1003 17 0 0 -1003 1149 2160 5 MP stroke
c8
0 1035 17 0 0 -1035 1166 2160 4 MP
PP
0 sg
-17 0 0 1035 17 0 0 -1035 1166 2160 5 MP stroke
c8
0 1076 17 0 0 -1076 1183 2160 4 MP
PP
0 sg
-17 0 0 1076 17 0 0 -1076 1183 2160 5 MP stroke
c8
0 1189 17 0 0 -1189 1200 2160 4 MP
PP
0 sg
-17 0 0 1189 17 0 0 -1189 1200 2160 5 MP stroke
c8
0 1227 17 0 0 -1227 1217 2160 4 MP
PP
0 sg
-17 0 0 1227 17 0 0 -1227 1217 2160 5 MP stroke
c8
0 1267 17 0 0 -1267 1234 2160 4 MP
PP
0 sg
-17 0 0 1267 17 0 0 -1267 1234 2160 5 MP stroke
c8
0 1225 17 0 0 -1225 1251 2160 4 MP
PP
0 sg
-17 0 0 1225 17 0 0 -1225 1251 2160 5 MP stroke
c8
0 1124 17 0 0 -1124 1268 2160 4 MP
PP
0 sg
-17 0 0 1124 17 0 0 -1124 1268 2160 5 MP stroke
c8
0 1078 17 0 0 -1078 1285 2160 4 MP
PP
0 sg
-17 0 0 1078 17 0 0 -1078 1285 2160 5 MP stroke
c8
0 0 17 0 0 0 1302 2160 4 MP
PP
0 sg
-17 0 0 0 17 0 0 0 1302 2160 5 MP stroke
c8
0 1120 17 0 0 -1120 1319 2160 4 MP
PP
0 sg
-17 0 0 1120 17 0 0 -1120 1319 2160 5 MP stroke
c8
0 1100 17 0 0 -1100 1336 2160 4 MP
PP
0 sg
-17 0 0 1100 17 0 0 -1100 1336 2160 5 MP stroke
c8
0 1128 17 0 0 -1128 1353 2160 4 MP
PP
0 sg
-17 0 0 1128 17 0 0 -1128 1353 2160 5 MP stroke
c8
0 1065 17 0 0 -1065 1370 2160 4 MP
PP
0 sg
-17 0 0 1065 17 0 0 -1065 1370 2160 5 MP stroke
c8
0 1013 17 0 0 -1013 1387 2160 4 MP
PP
0 sg
-17 0 0 1013 17 0 0 -1013 1387 2160 5 MP stroke
c8
0 975 17 0 0 -975 1404 2160 4 MP
PP
0 sg
-17 0 0 975 17 0 0 -975 1404 2160 5 MP stroke
c8
0 999 17 0 0 -999 1421 2160 4 MP
PP
0 sg
-17 0 0 999 17 0 0 -999 1421 2160 5 MP stroke
c8
0 1012 17 0 0 -1012 1438 2160 4 MP
PP
0 sg
-17 0 0 1012 17 0 0 -1012 1438 2160 5 MP stroke
c8
0 893 17 0 0 -893 1455 2160 4 MP
PP
0 sg
-17 0 0 893 17 0 0 -893 1455 2160 5 MP stroke
c8
0 841 17 0 0 -841 1472 2160 4 MP
PP
0 sg
-17 0 0 841 17 0 0 -841 1472 2160 5 MP stroke
c8
0 911 17 0 0 -911 1489 2160 4 MP
PP
0 sg
-17 0 0 911 17 0 0 -911 1489 2160 5 MP stroke
c8
0 833 17 0 0 -833 1506 2160 4 MP
PP
0 sg
-17 0 0 833 17 0 0 -833 1506 2160 5 MP stroke
c8
0 865 17 0 0 -865 1523 2160 4 MP
PP
0 sg
-17 0 0 865 17 0 0 -865 1523 2160 5 MP stroke
c8
0 826 17 0 0 -826 1540 2160 4 MP
PP
0 sg
-17 0 0 826 17 0 0 -826 1540 2160 5 MP stroke
c8
0 0 18 0 0 0 1557 2160 4 MP
PP
0 sg
-18 0 0 0 18 0 0 0 1557 2160 5 MP stroke
c8
0 709 17 0 0 -709 1575 2160 4 MP
PP
0 sg
-17 0 0 709 17 0 0 -709 1575 2160 5 MP stroke
c8
0 736 17 0 0 -736 1592 2160 4 MP
PP
0 sg
-17 0 0 736 17 0 0 -736 1592 2160 5 MP stroke
c8
0 681 17 0 0 -681 1609 2160 4 MP
PP
0 sg
-17 0 0 681 17 0 0 -681 1609 2160 5 MP stroke
c8
0 691 17 0 0 -691 1626 2160 4 MP
PP
0 sg
-17 0 0 691 17 0 0 -691 1626 2160 5 MP stroke
c8
0 625 17 0 0 -625 1643 2160 4 MP
PP
0 sg
-17 0 0 625 17 0 0 -625 1643 2160 5 MP stroke
c8
0 663 17 0 0 -663 1660 2160 4 MP
PP
0 sg
-17 0 0 663 17 0 0 -663 1660 2160 5 MP stroke
c8
0 683 17 0 0 -683 1677 2160 4 MP
PP
0 sg
-17 0 0 683 17 0 0 -683 1677 2160 5 MP stroke
c8
0 640 17 0 0 -640 1694 2160 4 MP
PP
0 sg
-17 0 0 640 17 0 0 -640 1694 2160 5 MP stroke
c8
0 696 17 0 0 -696 1711 2160 4 MP
PP
0 sg
-17 0 0 696 17 0 0 -696 1711 2160 5 MP stroke
c8
0 662 17 0 0 -662 1728 2160 4 MP
PP
0 sg
-17 0 0 662 17 0 0 -662 1728 2160 5 MP stroke
c8
0 625 17 0 0 -625 1745 2160 4 MP
PP
0 sg
-17 0 0 625 17 0 0 -625 1745 2160 5 MP stroke
c8
0 618 17 0 0 -618 1762 2160 4 MP
PP
0 sg
-17 0 0 618 17 0 0 -618 1762 2160 5 MP stroke
c8
0 532 17 0 0 -532 1779 2160 4 MP
PP
0 sg
-17 0 0 532 17 0 0 -532 1779 2160 5 MP stroke
c8
0 0 17 0 0 0 1796 2160 4 MP
PP
0 sg
-17 0 0 0 17 0 0 0 1796 2160 5 MP stroke
c8
0 558 17 0 0 -558 1813 2160 4 MP
PP
0 sg
-17 0 0 558 17 0 0 -558 1813 2160 5 MP stroke
c8
0 593 17 0 0 -593 1830 2160 4 MP
PP
0 sg
-17 0 0 593 17 0 0 -593 1830 2160 5 MP stroke
c8
0 550 17 0 0 -550 1847 2160 4 MP
PP
0 sg
-17 0 0 550 17 0 0 -550 1847 2160 5 MP stroke
c8
0 561 17 0 0 -561 1864 2160 4 MP
PP
0 sg
-17 0 0 561 17 0 0 -561 1864 2160 5 MP stroke
c8
0 546 17 0 0 -546 1881 2160 4 MP
PP
0 sg
-17 0 0 546 17 0 0 -546 1881 2160 5 MP stroke
c8
0 551 17 0 0 -551 1898 2160 4 MP
PP
0 sg
-17 0 0 551 17 0 0 -551 1898 2160 5 MP stroke
c8
0 453 17 0 0 -453 1915 2160 4 MP
PP
0 sg
-17 0 0 453 17 0 0 -453 1915 2160 5 MP stroke
c8
0 467 17 0 0 -467 1932 2160 4 MP
PP
0 sg
-17 0 0 467 17 0 0 -467 1932 2160 5 MP stroke
c8
0 412 17 0 0 -412 1949 2160 4 MP
PP
0 sg
-17 0 0 412 17 0 0 -412 1949 2160 5 MP stroke
c8
0 381 18 0 0 -381 1966 2160 4 MP
PP
0 sg
-18 0 0 381 18 0 0 -381 1966 2160 5 MP stroke
c8
0 345 17 0 0 -345 1984 2160 4 MP
PP
0 sg
-17 0 0 345 17 0 0 -345 1984 2160 5 MP stroke
c8
0 347 17 0 0 -347 2001 2160 4 MP
PP
0 sg
-17 0 0 347 17 0 0 -347 2001 2160 5 MP stroke
c8
0 337 17 0 0 -337 2018 2160 4 MP
PP
0 sg
-17 0 0 337 17 0 0 -337 2018 2160 5 MP stroke
c8
0 0 17 0 0 0 2035 2160 4 MP
PP
0 sg
-17 0 0 0 17 0 0 0 2035 2160 5 MP stroke
c8
0 280 17 0 0 -280 2052 2160 4 MP
PP
0 sg
-17 0 0 280 17 0 0 -280 2052 2160 5 MP stroke
c8
0 282 17 0 0 -282 2069 2160 4 MP
PP
0 sg
-17 0 0 282 17 0 0 -282 2069 2160 5 MP stroke
c8
0 249 17 0 0 -249 2086 2160 4 MP
PP
0 sg
-17 0 0 249 17 0 0 -249 2086 2160 5 MP stroke
c8
0 228 17 0 0 -228 2103 2160 4 MP
PP
0 sg
-17 0 0 228 17 0 0 -228 2103 2160 5 MP stroke
c8
0 199 17 0 0 -199 2120 2160 4 MP
PP
0 sg
-17 0 0 199 17 0 0 -199 2120 2160 5 MP stroke
c8
0 183 17 0 0 -183 2137 2160 4 MP
PP
0 sg
-17 0 0 183 17 0 0 -183 2137 2160 5 MP stroke
c8
0 171 17 0 0 -171 2154 2160 4 MP
PP
0 sg
-17 0 0 171 17 0 0 -171 2154 2160 5 MP stroke
c8
0 155 17 0 0 -155 2171 2160 4 MP
PP
0 sg
-17 0 0 155 17 0 0 -155 2171 2160 5 MP stroke
c8
0 117 17 0 0 -117 2188 2160 4 MP
PP
0 sg
-17 0 0 117 17 0 0 -117 2188 2160 5 MP stroke
c8
0 94 17 0 0 -94 2205 2160 4 MP
PP
0 sg
-17 0 0 94 17 0 0 -94 2205 2160 5 MP stroke
c8
0 0 17 0 0 0 2222 2160 4 MP
PP
0 sg
-17 0 0 0 17 0 0 0 2222 2160 5 MP stroke
c8
0 0 17 0 0 0 2239 2160 4 MP
PP
0 sg
-17 0 0 0 17 0 0 0 2239 2160 5 MP stroke
c8
0 0 17 0 0 0 2256 2160 4 MP
PP
0 sg
-17 0 0 0 17 0 0 0 2256 2160 5 MP stroke
c8
0 362 17 0 0 -362 2273 2160 4 MP
PP
0 sg
-17 0 0 362 17 0 0 -362 2273 2160 5 MP stroke
gr

1378 2476 mt 
(Age) s
 173 1602 mt  -90 rotate
(Frequency) s
90 rotate

end %%Color Dict

eplot
%%EndObject

epage
end

showpage

%%Trailer
%%EOF
