%!PS-Adobe-3.0 EPSF-3.0
%Produced by poppler pdftops version: 0.24.5 (http://poppler.freedesktop.org)
%%LanguageLevel: 2
%%DocumentSuppliedResources: (atend)
%%BoundingBox: 0 0 450 450
%%HiResBoundingBox: 0 0 450 450
%%DocumentSuppliedResources: (atend)
%%EndComments
%%BeginProlog
%%BeginResource: procset xpdf 3.00 0
%%Copyright: Copyright 1996-2011 Glyph & Cog, LLC
/xpdf 75 dict def xpdf begin
% PDF special state
/pdfDictSize 15 def
/pdfSetup {
  /setpagedevice where {
    pop 2 dict begin
      /Policies 1 dict dup begin /PageSize 6 def end def
      { /Duplex true def } if
    currentdict end setpagedevice
  } {
    pop
  } ifelse
} def
/pdfSetupPaper {
  2 array astore
  /setpagedevice where {
    pop 2 dict begin
      /PageSize exch def
      /ImagingBBox null def
    currentdict end setpagedevice
  } {
    pop
  } ifelse
} def
/pdfStartPage {
  pdfDictSize dict begin
  /pdfFillCS [] def
  /pdfFillXform {} def
  /pdfStrokeCS [] def
  /pdfStrokeXform {} def
  /pdfFill [0] def
  /pdfStroke [0] def
  /pdfFillOP false def
  /pdfStrokeOP false def
  /pdfLastFill false def
  /pdfLastStroke false def
  /pdfTextMat [1 0 0 1 0 0] def
  /pdfFontSize 0 def
  /pdfCharSpacing 0 def
  /pdfTextRender 0 def
  /pdfPatternCS false def
  /pdfTextRise 0 def
  /pdfWordSpacing 0 def
  /pdfHorizScaling 1 def
  /pdfTextClipPath [] def
} def
/pdfEndPage { end } def
% PDF color state
/cs { /pdfFillXform exch def dup /pdfFillCS exch def
      setcolorspace } def
/CS { /pdfStrokeXform exch def dup /pdfStrokeCS exch def
      setcolorspace } def
/sc { pdfLastFill not { pdfFillCS setcolorspace } if
      dup /pdfFill exch def aload pop pdfFillXform setcolor
     /pdfLastFill true def /pdfLastStroke false def } def
/SC { pdfLastStroke not { pdfStrokeCS setcolorspace } if
      dup /pdfStroke exch def aload pop pdfStrokeXform setcolor
     /pdfLastStroke true def /pdfLastFill false def } def
/op { /pdfFillOP exch def
      pdfLastFill { pdfFillOP setoverprint } if } def
/OP { /pdfStrokeOP exch def
      pdfLastStroke { pdfStrokeOP setoverprint } if } def
/fCol {
  pdfLastFill not {
    pdfFillCS setcolorspace
    pdfFill aload pop pdfFillXform setcolor
    pdfFillOP setoverprint
    /pdfLastFill true def /pdfLastStroke false def
  } if
} def
/sCol {
  pdfLastStroke not {
    pdfStrokeCS setcolorspace
    pdfStroke aload pop pdfStrokeXform setcolor
    pdfStrokeOP setoverprint
    /pdfLastStroke true def /pdfLastFill false def
  } if
} def
% build a font
/pdfMakeFont {
  4 3 roll findfont
  4 2 roll matrix scale makefont
  dup length dict begin
    { 1 index /FID ne { def } { pop pop } ifelse } forall
    /Encoding exch def
    currentdict
  end
  definefont pop
} def
/pdfMakeFont16 {
  exch findfont
  dup length dict begin
    { 1 index /FID ne { def } { pop pop } ifelse } forall
    /WMode exch def
    currentdict
  end
  definefont pop
} def
% graphics state operators
/q { gsave pdfDictSize dict begin } def
/Q {
  end grestore
  /pdfLastFill where {
    pop
    pdfLastFill {
      pdfFillOP setoverprint
    } {
      pdfStrokeOP setoverprint
    } ifelse
  } if
} def
/cm { concat } def
/d { setdash } def
/i { setflat } def
/j { setlinejoin } def
/J { setlinecap } def
/M { setmiterlimit } def
/w { setlinewidth } def
% path segment operators
/m { moveto } def
/l { lineto } def
/c { curveto } def
/re { 4 2 roll moveto 1 index 0 rlineto 0 exch rlineto
      neg 0 rlineto closepath } def
/h { closepath } def
% path painting operators
/S { sCol stroke } def
/Sf { fCol stroke } def
/f { fCol fill } def
/f* { fCol eofill } def
% clipping operators
/W { clip newpath } def
/W* { eoclip newpath } def
/Ws { strokepath clip newpath } def
% text state operators
/Tc { /pdfCharSpacing exch def } def
/Tf { dup /pdfFontSize exch def
      dup pdfHorizScaling mul exch matrix scale
      pdfTextMat matrix concatmatrix dup 4 0 put dup 5 0 put
      exch findfont exch makefont setfont } def
/Tr { /pdfTextRender exch def } def
/Tp { /pdfPatternCS exch def } def
/Ts { /pdfTextRise exch def } def
/Tw { /pdfWordSpacing exch def } def
/Tz { /pdfHorizScaling exch def } def
% text positioning operators
/Td { pdfTextMat transform moveto } def
/Tm { /pdfTextMat exch def } def
% text string operators
/xyshow where {
  pop
  /xyshow2 {
    dup length array
    0 2 2 index length 1 sub {
      2 index 1 index 2 copy get 3 1 roll 1 add get
      pdfTextMat dtransform
      4 2 roll 2 copy 6 5 roll put 1 add 3 1 roll dup 4 2 roll put
    } for
    exch pop
    xyshow
  } def
}{
  /xyshow2 {
    currentfont /FontType get 0 eq {
      0 2 3 index length 1 sub {
        currentpoint 4 index 3 index 2 getinterval show moveto
        2 copy get 2 index 3 2 roll 1 add get
        pdfTextMat dtransform rmoveto
      } for
    } {
      0 1 3 index length 1 sub {
        currentpoint 4 index 3 index 1 getinterval show moveto
        2 copy 2 mul get 2 index 3 2 roll 2 mul 1 add get
        pdfTextMat dtransform rmoveto
      } for
    } ifelse
    pop pop
  } def
} ifelse
/cshow where {
  pop
  /xycp {
    0 3 2 roll
    {
      pop pop currentpoint 3 2 roll
      1 string dup 0 4 3 roll put false charpath moveto
      2 copy get 2 index 2 index 1 add get
      pdfTextMat dtransform rmoveto
      2 add
    } exch cshow
    pop pop
  } def
}{
  /xycp {
    currentfont /FontType get 0 eq {
      0 2 3 index length 1 sub {
        currentpoint 4 index 3 index 2 getinterval false charpath moveto
        2 copy get 2 index 3 2 roll 1 add get
        pdfTextMat dtransform rmoveto
      } for
    } {
      0 1 3 index length 1 sub {
        currentpoint 4 index 3 index 1 getinterval false charpath moveto
        2 copy 2 mul get 2 index 3 2 roll 2 mul 1 add get
        pdfTextMat dtransform rmoveto
      } for
    } ifelse
    pop pop
  } def
} ifelse
/Tj {
  fCol
  0 pdfTextRise pdfTextMat dtransform rmoveto
  currentpoint 4 2 roll
  pdfTextRender 1 and 0 eq {
    2 copy xyshow2
  } if
  pdfTextRender 3 and dup 1 eq exch 2 eq or {
    3 index 3 index moveto
    2 copy
    currentfont /FontType get 3 eq { fCol } { sCol } ifelse
    xycp currentpoint stroke moveto
  } if
  pdfTextRender 4 and 0 ne {
    4 2 roll moveto xycp
    /pdfTextClipPath [ pdfTextClipPath aload pop
      {/moveto cvx}
      {/lineto cvx}
      {/curveto cvx}
      {/closepath cvx}
    pathforall ] def
    currentpoint newpath moveto
  } {
    pop pop pop pop
  } ifelse
  0 pdfTextRise neg pdfTextMat dtransform rmoveto
} def
/TJm { 0.001 mul pdfFontSize mul pdfHorizScaling mul neg 0
       pdfTextMat dtransform rmoveto } def
/TJmV { 0.001 mul pdfFontSize mul neg 0 exch
        pdfTextMat dtransform rmoveto } def
/Tclip { pdfTextClipPath cvx exec clip newpath
         /pdfTextClipPath [] def } def
/Tclip* { pdfTextClipPath cvx exec eoclip newpath
         /pdfTextClipPath [] def } def
% Level 2/3 image operators
/pdfImBuf 100 string def
/pdfImStr {
  2 copy exch length lt {
    2 copy get exch 1 add exch
  } {
    ()
  } ifelse
} def
/skipEOD {
  { currentfile pdfImBuf readline
    not { pop exit } if
    (%-EOD-) eq { exit } if } loop
} def
/pdfIm { image skipEOD } def
/pdfImM { fCol imagemask skipEOD } def
/pr { 2 index 2 index 3 2 roll putinterval 4 add } def
/pdfImClip {
  gsave
  0 2 4 index length 1 sub {
    dup 4 index exch 2 copy
    get 5 index div put
    1 add 3 index exch 2 copy
    get 3 index div put
  } for
  pop pop rectclip
} def
/pdfImClipEnd { grestore } def
% shading operators
/colordelta {
  false 0 1 3 index length 1 sub {
    dup 4 index exch get 3 index 3 2 roll get sub abs 0.004 gt {
      pop true
    } if
  } for
  exch pop exch pop
} def
/funcCol { func n array astore } def
/funcSH {
  dup 0 eq {
    true
  } {
    dup 6 eq {
      false
    } {
      4 index 4 index funcCol dup
      6 index 4 index funcCol dup
      3 1 roll colordelta 3 1 roll
      5 index 5 index funcCol dup
      3 1 roll colordelta 3 1 roll
      6 index 8 index funcCol dup
      3 1 roll colordelta 3 1 roll
      colordelta or or or
    } ifelse
  } ifelse
  {
    1 add
    4 index 3 index add 0.5 mul exch 4 index 3 index add 0.5 mul exch
    6 index 6 index 4 index 4 index 4 index funcSH
    2 index 6 index 6 index 4 index 4 index funcSH
    6 index 2 index 4 index 6 index 4 index funcSH
    5 3 roll 3 2 roll funcSH pop pop
  } {
    pop 3 index 2 index add 0.5 mul 3 index  2 index add 0.5 mul
    funcCol sc
    dup 4 index exch mat transform m
    3 index 3 index mat transform l
    1 index 3 index mat transform l
    mat transform l pop pop h f*
  } ifelse
} def
/axialCol {
  dup 0 lt {
    pop t0
  } {
    dup 1 gt {
      pop t1
    } {
      dt mul t0 add
    } ifelse
  } ifelse
  func n array astore
} def
/axialSH {
  dup 0 eq {
    true
  } {
    dup 8 eq {
      false
    } {
      2 index axialCol 2 index axialCol colordelta
    } ifelse
  } ifelse
  {
    1 add 3 1 roll 2 copy add 0.5 mul
    dup 4 3 roll exch 4 index axialSH
    exch 3 2 roll axialSH
  } {
    pop 2 copy add 0.5 mul
    axialCol sc
    exch dup dx mul x0 add exch dy mul y0 add
    3 2 roll dup dx mul x0 add exch dy mul y0 add
    dx abs dy abs ge {
      2 copy yMin sub dy mul dx div add yMin m
      yMax sub dy mul dx div add yMax l
      2 copy yMax sub dy mul dx div add yMax l
      yMin sub dy mul dx div add yMin l
      h f*
    } {
      exch 2 copy xMin sub dx mul dy div add xMin exch m
      xMax sub dx mul dy div add xMax exch l
      exch 2 copy xMax sub dx mul dy div add xMax exch l
      xMin sub dx mul dy div add xMin exch l
      h f*
    } ifelse
  } ifelse
} def
/radialCol {
  dup t0 lt {
    pop t0
  } {
    dup t1 gt {
      pop t1
    } if
  } ifelse
  func n array astore
} def
/radialSH {
  dup 0 eq {
    true
  } {
    dup 8 eq {
      false
    } {
      2 index dt mul t0 add radialCol
      2 index dt mul t0 add radialCol colordelta
    } ifelse
  } ifelse
  {
    1 add 3 1 roll 2 copy add 0.5 mul
    dup 4 3 roll exch 4 index radialSH
    exch 3 2 roll radialSH
  } {
    pop 2 copy add 0.5 mul dt mul t0 add
    radialCol sc
    encl {
      exch dup dx mul x0 add exch dup dy mul y0 add exch dr mul r0 add
      0 360 arc h
      dup dx mul x0 add exch dup dy mul y0 add exch dr mul r0 add
      360 0 arcn h f
    } {
      2 copy
      dup dx mul x0 add exch dup dy mul y0 add exch dr mul r0 add
      a1 a2 arcn
      dup dx mul x0 add exch dup dy mul y0 add exch dr mul r0 add
      a2 a1 arcn h
      dup dx mul x0 add exch dup dy mul y0 add exch dr mul r0 add
      a1 a2 arc
      dup dx mul x0 add exch dup dy mul y0 add exch dr mul r0 add
      a2 a1 arc h f
    } ifelse
  } ifelse
} def
end
%%EndResource
%%EndProlog
%%BeginSetup
xpdf begin
%%EndSetup
pdfStartPage
[] 0 d
1 i
0 j
0 J
10 M
1 w
/DeviceGray {} cs
[0] sc
/DeviceGray {} CS
[0] SC
false op
false OP
{} settransfer
0 0 450 450 re
W
q
[1 0 0 -1 0 450] cm
[0.75 0 0 0.75 0 0] cm
[0.24 0 0 0.24 0 0] cm
q
[4.166667 0 0 4.166667 0 0] cm
0 0 600 600 re
W
/DeviceGray {} cs
[1] sc
/DeviceGray {} CS
[0] SC
0 0 600 600 re
f
Q
q
[4.166667 0 0 4.166667 0 0] cm
0 0 600 600 re
W
/DeviceGray {} cs
[1] sc
/DeviceGray {} CS
[0] SC
80 100 440 420 re
f
Q
q
[4.166667 0 0 4.166667 333.333341 1875.000042] cm
-80 -450 600 600 re
W
/DeviceGray {} CS
[0] SC
0 0 m
440 0 l
f
Q
q
[4.166667 0 0 4.166667 333.333341 1875.000042] cm
-80 -450 600 600 re
W
/DeviceGray {} CS
[0.9333] SC
/DeviceGray {} cs
[0] sc
0 J
0 j
1 w
4 M
0 0 m
440 0 l
S
Q
q
[4.166667 0 0 4.166667 333.333341 1583.333369] cm
-80 -380 600 600 re
W
/DeviceGray {} CS
[0] SC
0 0 m
440 0 l
f
Q
q
[4.166667 0 0 4.166667 333.333341 1583.333369] cm
-80 -380 600 600 re
W
/DeviceGray {} CS
[0.9333] SC
/DeviceGray {} cs
[0] sc
0 J
0 j
1 w
4 M
0 0 m
440 0 l
S
Q
q
[4.166667 0 0 4.166667 333.333341 1291.666696] cm
-80 -310 600 600 re
W
/DeviceGray {} CS
[0] SC
0 0 m
440 0 l
f
Q
q
[4.166667 0 0 4.166667 333.333341 1291.666696] cm
-80 -310 600 600 re
W
/DeviceGray {} CS
[0.9333] SC
/DeviceGray {} cs
[0] sc
0 J
0 j
1 w
4 M
0 0 m
440 0 l
S
Q
q
[4.166667 0 0 4.166667 333.333341 1000.000022] cm
-80 -240 600 600 re
W
/DeviceGray {} CS
[0] SC
0 0 m
440 0 l
f
Q
q
[4.166667 0 0 4.166667 333.333341 1000.000022] cm
-80 -240 600 600 re
W
/DeviceGray {} CS
[0.9333] SC
/DeviceGray {} cs
[0] sc
0 J
0 j
1 w
4 M
0 0 m
440 0 l
S
Q
q
[4.166667 0 0 4.166667 333.333341 708.333349] cm
-80 -170 600 600 re
W
/DeviceGray {} CS
[0] SC
0 0 m
440 0 l
f
Q
q
[4.166667 0 0 4.166667 333.333341 708.333349] cm
-80 -170 600 600 re
W
/DeviceGray {} CS
[0.9333] SC
/DeviceGray {} cs
[0] sc
0 J
0 j
1 w
4 M
0 0 m
440 0 l
S
Q
q
[4.166667 0 0 4.166667 333.333341 416.666676] cm
0.000001 0.000003 440.000007 420.000005 re
W
/DeviceRGB {} cs
[0.1216 0.4667 0.7059] sc
/DeviceGray {} CS
[0] SC
14.67 150.5 58.660002 269.5 re
f
Q
q
[4.166667 0 0 4.166667 333.333341 416.666676] cm
0.000001 0.000003 440.000007 420.000005 re
W
/DeviceRGB {} cs
[0.1216 0.4667 0.7059] sc
/DeviceGray {} CS
[0] SC
161.330002 150.5 58.669998 269.5 re
f
Q
q
[4.166667 0 0 4.166667 333.333341 416.666676] cm
0.000001 0.000003 440.000007 420.000005 re
W
/DeviceRGB {} cs
[0.1216 0.4667 0.7059] sc
/DeviceGray {} CS
[0] SC
308 150.5 58.670013 269.5 re
f
Q
q
[4.166667 0 0 4.166667 333.333341 416.666676] cm
0.000001 0.000003 440.000007 420.000005 re
W
/DeviceRGB {} cs
[1 0.498 0.0549] sc
/DeviceGray {} CS
[0] SC
73.330002 133 58.669998 287 re
f
Q
q
[4.166667 0 0 4.166667 333.333341 416.666676] cm
0.000001 0.000003 440.000007 420.000005 re
W
/DeviceRGB {} cs
[1 0.498 0.0549] sc
/DeviceGray {} CS
[0] SC
220 133 58.670013 287 re
f
Q
q
[4.166667 0 0 4.166667 333.333341 416.666676] cm
0.000001 0.000003 440.000007 420.000005 re
W
/DeviceRGB {} cs
[1 0.498 0.0549] sc
/DeviceGray {} CS
[0] SC
366.670013 133 58.659973 287 re
f
Q
q
[4.166667 0 0 4.166667 333.333341 416.666676] cm
-80 -100 600 600 re
W
/DeviceGray {} cs
[0] sc
0 J
0 j
2 w
4 M
-2 421 m
442 421 l
-2 -1 m
442 -1 l
S
Q
q
[4.166667 0 0 4.166667 333.333341 416.666676] cm
-80 -100 600 600 re
W
/DeviceGray {} cs
[0] sc
0 J
0 j
2 w
4 M
-1 0 m
-1 420 l
441 0 m
441 420 l
S
Q
q
[1.909722 0 0 1.909722 638.875022 416.666676] cm
-334.538179 -218.181813 1309.090847 1309.090881 re
W
/DeviceGray {} CS
[0] SC
-47.25 975.265625 m
-51.234375 975.265625 l
-51.234375 944.53125 l
-62.09375 944.53125 l
-62.09375 941 l
-36.40625 941 l
-36.40625 944.53125 l
-47.25 944.53125 l
-47.25 975.265625 l
h
-9.671875 962.390625 m
-9.671875 968.671875 -12.835938 972.203125 -12.835938 972.203125 c
-16 975.734375 -21.578125 975.734375 -21.578125 975.734375 c
-25.015625 975.734375 -27.6875 974.117188 -27.6875 974.117188 c
-30.359375 972.5 -31.8125 969.476563 -31.8125 969.476563 c
-33.265625 966.453125 -33.265625 962.390625 -33.265625 962.390625 c
-33.265625 956.109375 -30.125 952.609375 -30.125 952.609375 c
-26.984375 949.109375 -21.40625 949.109375 -21.40625 949.109375 c
-16.015625 949.109375 -12.84375 952.695313 -12.84375 952.695313 c
-9.671875 956.28125 -9.671875 962.390625 -9.671875 962.390625 c
h
-29.234375 962.390625 m
-29.234375 967.3125 -27.265625 969.890625 -27.265625 969.890625 c
-25.296875 972.46875 -21.484375 972.46875 -21.484375 972.46875 c
-17.65625 972.46875 -15.679688 969.90625 -15.679688 969.90625 c
-13.703125 967.34375 -13.703125 962.390625 -13.703125 962.390625 c
-13.703125 957.5 -15.679688 954.953125 -15.679688 954.953125 c
-17.65625 952.40625 -21.53125 952.40625 -21.53125 952.40625 c
-25.34375 952.40625 -27.289062 954.914063 -27.289062 954.914063 c
-29.234375 957.421875 -29.234375 962.390625 -29.234375 962.390625 c
h
9.109375 975.734375 m
6.609375 975.734375 4.53125 974.804688 4.53125 974.804688 c
2.453125 973.875 1.046875 971.953125 1.046875 971.953125 c
0.765625 971.953125 l
1.046875 974.203125 1.046875 976.234375 1.046875 976.234375 c
1.046875 986.796875 l
-2.84375 986.796875 l
-2.84375 949.578125 l
0.328125 949.578125 l
0.859375 953.09375 l
1.046875 953.09375 l
2.546875 950.984375 4.539063 950.046875 4.539063 950.046875 c
6.53125 949.109375 9.109375 949.109375 9.109375 949.109375 c
14.21875 949.109375 17 952.601563 17 952.601563 c
19.78125 956.09375 19.78125 962.390625 19.78125 962.390625 c
19.78125 968.71875 16.953125 972.226563 16.953125 972.226563 c
14.125 975.734375 9.109375 975.734375 9.109375 975.734375 c
h
8.546875 952.40625 m
4.609375 952.40625 2.851562 954.585938 2.851562 954.585938 c
1.09375 956.765625 1.046875 961.53125 1.046875 961.53125 c
1.046875 962.390625 l
1.046875 967.8125 2.851562 970.140625 2.851562 970.140625 c
4.65625 972.46875 8.640625 972.46875 8.640625 972.46875 c
11.96875 972.46875 13.859375 969.773438 13.859375 969.773438 c
15.75 967.078125 15.75 962.34375 15.75 962.34375 c
15.75 957.546875 13.859375 954.976563 13.859375 954.976563 c
11.96875 952.40625 8.546875 952.40625 8.546875 952.40625 c
h
24.390625 964.171875 m
24.390625 960.609375 l
35.90625 960.609375 l
35.90625 964.171875 l
24.390625 964.171875 l
h
61.453125 949.0625 m
61.453125 952.34375 59.617187 954.429688 59.617187 954.429688 c
57.78125 956.515625 54.40625 957.21875 54.40625 957.21875 c
54.40625 957.40625 l
58.53125 957.921875 60.523438 960.03125 60.523438 960.03125 c
62.515625 962.140625 62.515625 965.5625 62.515625 965.5625 c
62.515625 970.453125 59.117187 973.09375 59.117187 973.09375 c
55.71875 975.734375 49.453125 975.734375 49.453125 975.734375 c
46.734375 975.734375 44.476563 975.320313 44.476563 975.320313 c
42.21875 974.90625 40.078125 973.875 40.078125 973.875 c
40.078125 970.171875 l
42.3125 971.28125 44.828125 971.851562 44.828125 971.851562 c
47.34375 972.421875 49.59375 972.421875 49.59375 972.421875 c
58.484375 972.421875 58.484375 965.46875 58.484375 965.46875 c
58.484375 959.234375 48.6875 959.234375 48.6875 959.234375 c
45.3125 959.234375 l
45.3125 955.875 l
48.734375 955.875 l
52.734375 955.875 55.078125 954.109375 55.078125 954.109375 c
57.421875 952.34375 57.421875 949.203125 57.421875 949.203125 c
57.421875 946.6875 55.703125 945.257813 55.703125 945.257813 c
53.984375 943.828125 51.03125 943.828125 51.03125 943.828125 c
48.78125 943.828125 46.789063 944.4375 46.789063 944.4375 c
44.796875 945.046875 42.234375 946.6875 42.234375 946.6875 c
40.265625 944.0625 l
42.375 942.40625 45.132813 941.453125 45.132813 941.453125 c
47.890625 940.5 50.9375 940.5 50.9375 940.5 c
55.921875 940.5 58.6875 942.789063 58.6875 942.789063 c
61.453125 945.078125 61.453125 949.0625 61.453125 949.0625 c
h
f
Q
q
[1.909722 0 0 1.909722 1250.000028 416.666676] cm
-654.54544 -218.181813 1309.090881 1309.090881 re
W
/DeviceGray {} CS
[0] SC
-11.0625 975.265625 m
-15.046875 975.265625 l
-15.046875 944.53125 l
-25.90625 944.53125 l
-25.90625 941 l
-0.21875 941 l
-0.21875 944.53125 l
-11.0625 944.53125 l
-11.0625 975.265625 l
h
15.484375 975.265625 m
11.5 975.265625 l
11.5 944.53125 l
0.640625 944.53125 l
0.640625 941 l
26.328125 941 l
26.328125 944.53125 l
15.484375 944.53125 l
15.484375 975.265625 l
h
f
Q
q
[1.909722 0 0 1.909722 1861.125098 416.666676] cm
-974.552735 -218.181813 1309.090881 1309.090881 re
W
/DeviceGray {} CS
[0] SC
1.515625 957.796875 m
1.515625 966.28125 -3.085938 970.773438 -3.085938 970.773438 c
-7.6875 975.265625 -16.34375 975.265625 -16.34375 975.265625 c
-25.828125 975.265625 l
-25.828125 941 l
-15.328125 941 l
-7.34375 941 -2.914062 945.429688 -2.914062 945.429688 c
1.515625 949.859375 1.515625 957.796875 1.515625 957.796875 c
h
-2.703125 957.9375 m
-2.703125 951.234375 -6.0625 947.835938 -6.0625 947.835938 c
-9.421875 944.4375 -16.0625 944.4375 -16.0625 944.4375 c
-21.84375 944.4375 l
-21.84375 971.8125 l
-17 971.8125 l
-9.875 971.8125 -6.289063 968.3125 -6.289063 968.3125 c
-2.703125 964.8125 -2.703125 957.9375 -2.703125 957.9375 c
h
19.703125 975.265625 m
15.71875 975.265625 l
15.71875 944.53125 l
4.859375 944.53125 l
4.859375 941 l
30.546875 941 l
30.546875 944.53125 l
19.703125 944.53125 l
19.703125 975.265625 l
h
f
Q
q
[1.909722 0 0 1.909722 333.333341 2166.666715] cm
-174.545451 -1134.54543 1309.090881 1309.090881 re
W
/DeviceGray {} CS
[0] SC
-10.90625 6.8125 m
-10.90625 15.703125 -13.710938 20.085937 -13.710938 20.085937 c
-16.515625 24.46875 -22.28125 24.46875 -22.28125 24.46875 c
-27.8125 24.46875 -30.695312 19.976562 -30.695312 19.976562 c
-33.578125 15.484375 -33.578125 6.8125 -33.578125 6.8125 c
-33.578125 -2.140625 -30.789062 -6.476563 -30.789062 -6.476563 c
-28 -10.8125 -22.28125 -10.8125 -22.28125 -10.8125 c
-16.703125 -10.8125 -13.804688 -6.289063 -13.804688 -6.289063 c
-10.90625 -1.765625 -10.90625 6.8125 -10.90625 6.8125 c
h
-29.640625 6.8125 m
-29.640625 14.296875 -27.882812 17.703125 -27.882812 17.703125 c
-26.125 21.109375 -22.28125 21.109375 -22.28125 21.109375 c
-18.390625 21.109375 -16.640625 17.65625 -16.640625 17.65625 c
-14.890625 14.203125 -14.890625 6.8125 -14.890625 6.8125 c
-14.890625 -0.5625 -16.640625 -4 -16.640625 -4 c
-18.390625 -7.4375 -22.28125 -7.4375 -22.28125 -7.4375 c
-26.125 -7.4375 -27.882812 -4.046875 -27.882812 -4.046875 c
-29.640625 -0.65625 -29.640625 6.8125 -29.640625 6.8125 c
h
f
Q
q
[1.909722 0 0 1.909722 333.333341 1875.000042] cm
-174.545451 -981.818161 1309.090881 1309.090881 re
W
/DeviceGray {} CS
[0] SC
-38.53125 24 m
-61.0625 24 l
-61.0625 20.640625 l
-52.03125 11.578125 l
-47.90625 7.40625 -46.59375 5.625 -46.59375 5.625 c
-45.28125 3.84375 -44.625 2.15625 -44.625 2.15625 c
-43.96875 0.46875 -43.96875 -1.484375 -43.96875 -1.484375 c
-43.96875 -4.21875 -45.632813 -5.828125 -45.632813 -5.828125 c
-47.296875 -7.4375 -50.25 -7.4375 -50.25 -7.4375 c
-52.390625 -7.4375 -54.296875 -6.734375 -54.296875 -6.734375 c
-56.203125 -6.03125 -58.546875 -4.171875 -58.546875 -4.171875 c
-60.609375 -6.828125 l
-55.875 -10.765625 -50.296875 -10.765625 -50.296875 -10.765625 c
-45.46875 -10.765625 -42.726563 -8.289063 -42.726563 -8.289063 c
-39.984375 -5.8125 -39.984375 -1.640625 -39.984375 -1.640625 c
-39.984375 1.609375 -41.8125 4.796875 -41.8125 4.796875 c
-43.640625 7.984375 -48.65625 12.859375 -48.65625 12.859375 c
-56.15625 20.203125 l
-56.15625 20.390625 l
-38.53125 20.390625 l
-38.53125 24 l
h
-10.90625 6.8125 m
-10.90625 15.703125 -13.710938 20.085937 -13.710938 20.085937 c
-16.515625 24.46875 -22.28125 24.46875 -22.28125 24.46875 c
-27.8125 24.46875 -30.695312 19.976562 -30.695312 19.976562 c
-33.578125 15.484375 -33.578125 6.8125 -33.578125 6.8125 c
-33.578125 -2.140625 -30.789062 -6.476563 -30.789062 -6.476563 c
-28 -10.8125 -22.28125 -10.8125 -22.28125 -10.8125 c
-16.703125 -10.8125 -13.804688 -6.289063 -13.804688 -6.289063 c
-10.90625 -1.765625 -10.90625 6.8125 -10.90625 6.8125 c
h
-29.640625 6.8125 m
-29.640625 14.296875 -27.882812 17.703125 -27.882812 17.703125 c
-26.125 21.109375 -22.28125 21.109375 -22.28125 21.109375 c
-18.390625 21.109375 -16.640625 17.65625 -16.640625 17.65625 c
-14.890625 14.203125 -14.890625 6.8125 -14.890625 6.8125 c
-14.890625 -0.5625 -16.640625 -4 -16.640625 -4 c
-18.390625 -7.4375 -22.28125 -7.4375 -22.28125 -7.4375 c
-26.125 -7.4375 -27.882812 -4.046875 -27.882812 -4.046875 c
-29.640625 -0.65625 -29.640625 6.8125 -29.640625 6.8125 c
h
f
Q
q
[1.909722 0 0 1.909722 333.333341 1583.333369] cm
-174.545451 -829.090891 1309.090881 1309.090881 re
W
/DeviceGray {} CS
[0] SC
-36.921875 16.125 m
-42 16.125 l
-42 24 l
-45.734375 24 l
-45.734375 16.125 l
-62.390625 16.125 l
-62.390625 12.71875 l
-46.125 -10.453125 l
-42 -10.453125 l
-42 12.578125 l
-36.921875 12.578125 l
-36.921875 16.125 l
h
-45.734375 12.578125 m
-45.734375 1.1875 l
-45.734375 -2.15625 -45.5 -6.375 -45.5 -6.375 c
-45.6875 -6.375 l
-46.8125 -4.125 -47.796875 -2.65625 -47.796875 -2.65625 c
-58.5 12.578125 l
-45.734375 12.578125 l
h
-10.90625 6.8125 m
-10.90625 15.703125 -13.710938 20.085937 -13.710938 20.085937 c
-16.515625 24.46875 -22.28125 24.46875 -22.28125 24.46875 c
-27.8125 24.46875 -30.695312 19.976562 -30.695312 19.976562 c
-33.578125 15.484375 -33.578125 6.8125 -33.578125 6.8125 c
-33.578125 -2.140625 -30.789062 -6.476563 -30.789062 -6.476563 c
-28 -10.8125 -22.28125 -10.8125 -22.28125 -10.8125 c
-16.703125 -10.8125 -13.804688 -6.289063 -13.804688 -6.289063 c
-10.90625 -1.765625 -10.90625 6.8125 -10.90625 6.8125 c
h
-29.640625 6.8125 m
-29.640625 14.296875 -27.882812 17.703125 -27.882812 17.703125 c
-26.125 21.109375 -22.28125 21.109375 -22.28125 21.109375 c
-18.390625 21.109375 -16.640625 17.65625 -16.640625 17.65625 c
-14.890625 14.203125 -14.890625 6.8125 -14.890625 6.8125 c
-14.890625 -0.5625 -16.640625 -4 -16.640625 -4 c
-18.390625 -7.4375 -22.28125 -7.4375 -22.28125 -7.4375 c
-26.125 -7.4375 -27.882812 -4.046875 -27.882812 -4.046875 c
-29.640625 -0.65625 -29.640625 6.8125 -29.640625 6.8125 c
h
f
Q
q
[1.909722 0 0 1.909722 333.333341 1291.666696] cm
-174.545451 -676.363622 1309.090881 1309.090881 re
W
/DeviceGray {} CS
[0] SC
-60.65625 9.34375 m
-60.65625 -0.75 -56.734375 -5.757812 -56.734375 -5.757812 c
-52.8125 -10.765625 -45.125 -10.765625 -45.125 -10.765625 c
-42.46875 -10.765625 -40.953125 -10.3125 -40.953125 -10.3125 c
-40.953125 -6.96875 l
-42.75 -7.546875 -45.078125 -7.546875 -45.078125 -7.546875 c
-50.578125 -7.546875 -53.484375 -4.117187 -53.484375 -4.117187 c
-56.390625 -0.6875 -56.671875 6.671875 -56.671875 6.671875 c
-56.390625 6.671875 l
-53.8125 2.640625 -48.234375 2.640625 -48.234375 2.640625 c
-43.625 2.640625 -40.960938 5.429688 -40.960938 5.429688 c
-38.296875 8.21875 -38.296875 13 -38.296875 13 c
-38.296875 18.34375 -41.21875 21.40625 -41.21875 21.40625 c
-44.140625 24.46875 -49.109375 24.46875 -49.109375 24.46875 c
-54.421875 24.46875 -57.539063 20.46875 -57.539063 20.46875 c
-60.65625 16.46875 -60.65625 9.34375 -60.65625 9.34375 c
h
-49.15625 21.15625 m
-45.828125 21.15625 -43.984375 19.0625 -43.984375 19.0625 c
-42.140625 16.96875 -42.140625 13 -42.140625 13 c
-42.140625 9.609375 -43.851562 7.664062 -43.851562 7.664062 c
-45.5625 5.71875 -48.96875 5.71875 -48.96875 5.71875 c
-51.078125 5.71875 -52.835938 6.585937 -52.835938 6.585937 c
-54.59375 7.453125 -55.632813 8.976563 -55.632813 8.976563 c
-56.671875 10.5 -56.671875 12.140625 -56.671875 12.140625 c
-56.671875 14.546875 -55.734375 16.632813 -55.734375 16.632813 c
-54.796875 18.71875 -53.078125 19.9375 -53.078125 19.9375 c
-51.359375 21.15625 -49.15625 21.15625 -49.15625 21.15625 c
h
-10.90625 6.8125 m
-10.90625 15.703125 -13.710938 20.085937 -13.710938 20.085937 c
-16.515625 24.46875 -22.28125 24.46875 -22.28125 24.46875 c
-27.8125 24.46875 -30.695312 19.976562 -30.695312 19.976562 c
-33.578125 15.484375 -33.578125 6.8125 -33.578125 6.8125 c
-33.578125 -2.140625 -30.789062 -6.476563 -30.789062 -6.476563 c
-28 -10.8125 -22.28125 -10.8125 -22.28125 -10.8125 c
-16.703125 -10.8125 -13.804688 -6.289063 -13.804688 -6.289063 c
-10.90625 -1.765625 -10.90625 6.8125 -10.90625 6.8125 c
h
-29.640625 6.8125 m
-29.640625 14.296875 -27.882812 17.703125 -27.882812 17.703125 c
-26.125 21.109375 -22.28125 21.109375 -22.28125 21.109375 c
-18.390625 21.109375 -16.640625 17.65625 -16.640625 17.65625 c
-14.890625 14.203125 -14.890625 6.8125 -14.890625 6.8125 c
-14.890625 -0.5625 -16.640625 -4 -16.640625 -4 c
-18.390625 -7.4375 -22.28125 -7.4375 -22.28125 -7.4375 c
-26.125 -7.4375 -27.882812 -4.046875 -27.882812 -4.046875 c
-29.640625 -0.65625 -29.640625 6.8125 -29.640625 6.8125 c
h
f
Q
q
[1.909722 0 0 1.909722 333.333341 1000.000022] cm
-174.545451 -523.636352 1309.090881 1309.090881 re
W
/DeviceGray {} CS
[0] SC
-49.71875 -10.765625 m
-45.03125 -10.765625 -42.289063 -8.585938 -42.289063 -8.585938 c
-39.546875 -6.40625 -39.546875 -2.5625 -39.546875 -2.5625 c
-39.546875 -0.03125 -41.117187 2.054688 -41.117187 2.054688 c
-42.6875 4.140625 -46.125 5.859375 -46.125 5.859375 c
-41.953125 7.84375 -40.195313 10.039063 -40.195313 10.039063 c
-38.4375 12.234375 -38.4375 15.109375 -38.4375 15.109375 c
-38.4375 19.375 -41.414062 21.921875 -41.414062 21.921875 c
-44.390625 24.46875 -49.578125 24.46875 -49.578125 24.46875 c
-55.0625 24.46875 -58.015625 22.0625 -58.015625 22.0625 c
-60.96875 19.65625 -60.96875 15.25 -60.96875 15.25 c
-60.96875 9.375 -53.796875 6.09375 -53.796875 6.09375 c
-57.03125 4.265625 -58.4375 2.140625 -58.4375 2.140625 c
-59.84375 0.015625 -59.84375 -2.609375 -59.84375 -2.609375 c
-59.84375 -6.328125 -57.085938 -8.546875 -57.085938 -8.546875 c
-54.328125 -10.765625 -49.71875 -10.765625 -49.71875 -10.765625 c
h
-57.125 15.34375 m
-57.125 18.15625 -55.164063 19.726562 -55.164063 19.726562 c
-53.203125 21.296875 -49.671875 21.296875 -49.671875 21.296875 c
-46.171875 21.296875 -44.226563 19.65625 -44.226563 19.65625 c
-42.28125 18.015625 -42.28125 15.15625 -42.28125 15.15625 c
-42.28125 12.890625 -44.109375 11.117188 -44.109375 11.117188 c
-45.9375 9.34375 -50.484375 7.6875 -50.484375 7.6875 c
-53.984375 9.1875 -55.554687 11 -55.554687 11 c
-57.125 12.8125 -57.125 15.34375 -57.125 15.34375 c
h
-49.765625 -7.59375 m
-52.6875 -7.59375 -54.351562 -6.1875 -54.351562 -6.1875 c
-56.015625 -4.78125 -56.015625 -2.4375 -56.015625 -2.4375 c
-56.015625 -0.28125 -54.632813 1.265625 -54.632813 1.265625 c
-53.25 2.8125 -49.53125 4.359375 -49.53125 4.359375 c
-46.171875 2.953125 -44.78125 1.335938 -44.78125 1.335938 c
-43.390625 -0.28125 -43.390625 -2.4375 -43.390625 -2.4375 c
-43.390625 -4.8125 -45.085938 -6.203125 -45.085938 -6.203125 c
-46.78125 -7.59375 -49.765625 -7.59375 -49.765625 -7.59375 c
h
-10.90625 6.8125 m
-10.90625 15.703125 -13.710938 20.085937 -13.710938 20.085937 c
-16.515625 24.46875 -22.28125 24.46875 -22.28125 24.46875 c
-27.8125 24.46875 -30.695312 19.976562 -30.695312 19.976562 c
-33.578125 15.484375 -33.578125 6.8125 -33.578125 6.8125 c
-33.578125 -2.140625 -30.789062 -6.476563 -30.789062 -6.476563 c
-28 -10.8125 -22.28125 -10.8125 -22.28125 -10.8125 c
-16.703125 -10.8125 -13.804688 -6.289063 -13.804688 -6.289063 c
-10.90625 -1.765625 -10.90625 6.8125 -10.90625 6.8125 c
h
-29.640625 6.8125 m
-29.640625 14.296875 -27.882812 17.703125 -27.882812 17.703125 c
-26.125 21.109375 -22.28125 21.109375 -22.28125 21.109375 c
-18.390625 21.109375 -16.640625 17.65625 -16.640625 17.65625 c
-14.890625 14.203125 -14.890625 6.8125 -14.890625 6.8125 c
-14.890625 -0.5625 -16.640625 -4 -16.640625 -4 c
-18.390625 -7.4375 -22.28125 -7.4375 -22.28125 -7.4375 c
-26.125 -7.4375 -27.882812 -4.046875 -27.882812 -4.046875 c
-29.640625 -0.65625 -29.640625 6.8125 -29.640625 6.8125 c
h
f
Q
q
[1.909722 0 0 1.909722 333.333341 708.333349] cm
-174.545451 -370.909083 1309.090881 1309.090881 re
W
/DeviceGray {} CS
[0] SC
-74.09375 24 m
-77.890625 24 l
-77.890625 -0.421875 l
-77.890625 -3.46875 -77.703125 -6.1875 -77.703125 -6.1875 c
-78.203125 -5.703125 -78.8125 -5.164062 -78.8125 -5.164062 c
-79.421875 -4.625 -84.390625 -0.59375 -84.390625 -0.59375 c
-86.453125 -3.265625 l
-77.375 -10.265625 l
-74.09375 -10.265625 l
-74.09375 24 l
h
-38.34375 6.8125 m
-38.34375 15.703125 -41.148438 20.085937 -41.148438 20.085937 c
-43.953125 24.46875 -49.71875 24.46875 -49.71875 24.46875 c
-55.25 24.46875 -58.132813 19.976562 -58.132813 19.976562 c
-61.015625 15.484375 -61.015625 6.8125 -61.015625 6.8125 c
-61.015625 -2.140625 -58.226563 -6.476563 -58.226563 -6.476563 c
-55.4375 -10.8125 -49.71875 -10.8125 -49.71875 -10.8125 c
-44.140625 -10.8125 -41.242188 -6.289063 -41.242188 -6.289063 c
-38.34375 -1.765625 -38.34375 6.8125 -38.34375 6.8125 c
h
-57.078125 6.8125 m
-57.078125 14.296875 -55.320313 17.703125 -55.320313 17.703125 c
-53.5625 21.109375 -49.71875 21.109375 -49.71875 21.109375 c
-45.828125 21.109375 -44.078125 17.65625 -44.078125 17.65625 c
-42.328125 14.203125 -42.328125 6.8125 -42.328125 6.8125 c
-42.328125 -0.5625 -44.078125 -4 -44.078125 -4 c
-45.828125 -7.4375 -49.71875 -7.4375 -49.71875 -7.4375 c
-53.5625 -7.4375 -55.320313 -4.046875 -55.320313 -4.046875 c
-57.078125 -0.65625 -57.078125 6.8125 -57.078125 6.8125 c
h
-10.90625 6.8125 m
-10.90625 15.703125 -13.710938 20.085937 -13.710938 20.085937 c
-16.515625 24.46875 -22.28125 24.46875 -22.28125 24.46875 c
-27.8125 24.46875 -30.695312 19.976562 -30.695312 19.976562 c
-33.578125 15.484375 -33.578125 6.8125 -33.578125 6.8125 c
-33.578125 -2.140625 -30.789062 -6.476563 -30.789062 -6.476563 c
-28 -10.8125 -22.28125 -10.8125 -22.28125 -10.8125 c
-16.703125 -10.8125 -13.804688 -6.289063 -13.804688 -6.289063 c
-10.90625 -1.765625 -10.90625 6.8125 -10.90625 6.8125 c
h
-29.640625 6.8125 m
-29.640625 14.296875 -27.882812 17.703125 -27.882812 17.703125 c
-26.125 21.109375 -22.28125 21.109375 -22.28125 21.109375 c
-18.390625 21.109375 -16.640625 17.65625 -16.640625 17.65625 c
-14.890625 14.203125 -14.890625 6.8125 -14.890625 6.8125 c
-14.890625 -0.5625 -16.640625 -4 -16.640625 -4 c
-18.390625 -7.4375 -22.28125 -7.4375 -22.28125 -7.4375 c
-26.125 -7.4375 -27.882812 -4.046875 -27.882812 -4.046875 c
-29.640625 -0.65625 -29.640625 6.8125 -29.640625 6.8125 c
h
f
Q
q
[1.909722 0 0 1.909722 333.333341 416.666676] cm
-174.545451 -218.181813 1309.090881 1309.090881 re
W
/DeviceGray {} CS
[0] SC
-74.09375 24 m
-77.890625 24 l
-77.890625 -0.421875 l
-77.890625 -3.46875 -77.703125 -6.1875 -77.703125 -6.1875 c
-78.203125 -5.703125 -78.8125 -5.164062 -78.8125 -5.164062 c
-79.421875 -4.625 -84.390625 -0.59375 -84.390625 -0.59375 c
-86.453125 -3.265625 l
-77.375 -10.265625 l
-74.09375 -10.265625 l
-74.09375 24 l
h
-38.53125 24 m
-61.0625 24 l
-61.0625 20.640625 l
-52.03125 11.578125 l
-47.90625 7.40625 -46.59375 5.625 -46.59375 5.625 c
-45.28125 3.84375 -44.625 2.15625 -44.625 2.15625 c
-43.96875 0.46875 -43.96875 -1.484375 -43.96875 -1.484375 c
-43.96875 -4.21875 -45.632813 -5.828125 -45.632813 -5.828125 c
-47.296875 -7.4375 -50.25 -7.4375 -50.25 -7.4375 c
-52.390625 -7.4375 -54.296875 -6.734375 -54.296875 -6.734375 c
-56.203125 -6.03125 -58.546875 -4.171875 -58.546875 -4.171875 c
-60.609375 -6.828125 l
-55.875 -10.765625 -50.296875 -10.765625 -50.296875 -10.765625 c
-45.46875 -10.765625 -42.726563 -8.289063 -42.726563 -8.289063 c
-39.984375 -5.8125 -39.984375 -1.640625 -39.984375 -1.640625 c
-39.984375 1.609375 -41.8125 4.796875 -41.8125 4.796875 c
-43.640625 7.984375 -48.65625 12.859375 -48.65625 12.859375 c
-56.15625 20.203125 l
-56.15625 20.390625 l
-38.53125 20.390625 l
-38.53125 24 l
h
-10.90625 6.8125 m
-10.90625 15.703125 -13.710938 20.085937 -13.710938 20.085937 c
-16.515625 24.46875 -22.28125 24.46875 -22.28125 24.46875 c
-27.8125 24.46875 -30.695312 19.976562 -30.695312 19.976562 c
-33.578125 15.484375 -33.578125 6.8125 -33.578125 6.8125 c
-33.578125 -2.140625 -30.789062 -6.476563 -30.789062 -6.476563 c
-28 -10.8125 -22.28125 -10.8125 -22.28125 -10.8125 c
-16.703125 -10.8125 -13.804688 -6.289063 -13.804688 -6.289063 c
-10.90625 -1.765625 -10.90625 6.8125 -10.90625 6.8125 c
h
-29.640625 6.8125 m
-29.640625 14.296875 -27.882812 17.703125 -27.882812 17.703125 c
-26.125 21.109375 -22.28125 21.109375 -22.28125 21.109375 c
-18.390625 21.109375 -16.640625 17.65625 -16.640625 17.65625 c
-14.890625 14.203125 -14.890625 6.8125 -14.890625 6.8125 c
-14.890625 -0.5625 -16.640625 -4 -16.640625 -4 c
-18.390625 -7.4375 -22.28125 -7.4375 -22.28125 -7.4375 c
-26.125 -7.4375 -27.882812 -4.046875 -27.882812 -4.046875 c
-29.640625 -0.65625 -29.640625 6.8125 -29.640625 6.8125 c
h
f
Q
q
[2.430556 0 0 2.430556 0 -91.666669] cm
0 37.714287 1028.571464 1028.571464 re
W
/DeviceGray {} CS
[0] SC
436.265625 1052.5625 m
424.640625 1022.1875 l
424.453125 1022.1875 l
424.78125 1025.796875 424.78125 1030.765625 424.78125 1030.765625 c
424.78125 1052.5625 l
421.109375 1052.5625 l
421.109375 1018.296875 l
427.109375 1018.296875 l
437.953125 1046.5625 l
438.140625 1046.5625 l
449.09375 1018.296875 l
455.046875 1018.296875 l
455.046875 1052.5625 l
451.0625 1052.5625 l
451.0625 1030.484375 l
451.0625 1026.6875 451.390625 1022.234375 451.390625 1022.234375 c
451.203125 1022.234375 l
439.484375 1052.5625 l
436.265625 1052.5625 l
h
474.703125 1053.03125 m
469 1053.03125 465.710937 1049.5625 465.710937 1049.5625 c
462.421875 1046.09375 462.421875 1039.921875 462.421875 1039.921875 c
462.421875 1033.71875 465.476562 1030.0625 465.476562 1030.0625 c
468.53125 1026.40625 473.6875 1026.40625 473.6875 1026.40625 c
478.515625 1026.40625 481.328125 1029.578125 481.328125 1029.578125 c
484.140625 1032.75 484.140625 1037.953125 484.140625 1037.953125 c
484.140625 1040.421875 l
466.453125 1040.421875 l
466.5625 1044.9375 468.734375 1047.28125 468.734375 1047.28125 c
470.90625 1049.625 474.84375 1049.625 474.84375 1049.625 c
478.984375 1049.625 483.046875 1047.890625 483.046875 1047.890625 c
483.046875 1051.359375 l
480.984375 1052.25 479.140625 1052.640625 479.140625 1052.640625 c
477.296875 1053.03125 474.703125 1053.03125 474.703125 1053.03125 c
h
473.640625 1029.65625 m
470.546875 1029.65625 468.710937 1031.671875 468.710937 1031.671875 c
466.875 1033.6875 466.546875 1037.25 466.546875 1037.25 c
479.96875 1037.25 l
479.96875 1033.578125 478.328125 1031.617188 478.328125 1031.617188 c
476.6875 1029.65625 473.640625 1029.65625 473.640625 1029.65625 c
h
499.078125 1049.8125 m
500.109375 1049.8125 501.070312 1049.664062 501.070312 1049.664062 c
502.03125 1049.515625 502.59375 1049.34375 502.59375 1049.34375 c
502.59375 1052.328125 l
501.96875 1052.640625 500.734375 1052.835938 500.734375 1052.835938 c
499.5 1053.03125 498.515625 1053.03125 498.515625 1053.03125 c
491.0625 1053.03125 491.0625 1045.171875 491.0625 1045.171875 c
491.0625 1029.890625 l
487.390625 1029.890625 l
487.390625 1028.015625 l
491.0625 1026.40625 l
492.703125 1020.921875 l
494.953125 1020.921875 l
494.953125 1026.875 l
502.40625 1026.875 l
502.40625 1029.890625 l
494.953125 1029.890625 l
494.953125 1045.015625 l
494.953125 1047.328125 496.054688 1048.570312 496.054688 1048.570312 c
497.15625 1049.8125 499.078125 1049.8125 499.078125 1049.8125 c
h
525.296875 1052.5625 m
525.296875 1035.9375 l
525.296875 1032.796875 523.867187 1031.25 523.867187 1031.25 c
522.4375 1029.703125 519.390625 1029.703125 519.390625 1029.703125 c
515.34375 1029.703125 513.476563 1031.90625 513.476563 1031.90625 c
511.609375 1034.109375 511.609375 1039.125 511.609375 1039.125 c
511.609375 1052.5625 l
507.71875 1052.5625 l
507.71875 1016.09375 l
511.609375 1016.09375 l
511.609375 1027.125 l
511.609375 1029.125 511.421875 1030.4375 511.421875 1030.4375 c
511.65625 1030.4375 l
512.8125 1028.578125 514.929688 1027.515625 514.929688 1027.515625 c
517.046875 1026.453125 519.765625 1026.453125 519.765625 1026.453125 c
524.484375 1026.453125 526.835938 1028.6875 526.835938 1028.6875 c
529.1875 1030.921875 529.1875 1035.796875 529.1875 1035.796875 c
529.1875 1052.5625 l
525.296875 1052.5625 l
h
559.359375 1039.6875 m
559.359375 1045.96875 556.195313 1049.5 556.195313 1049.5 c
553.03125 1053.03125 547.453125 1053.03125 547.453125 1053.03125 c
544.015625 1053.03125 541.34375 1051.414063 541.34375 1051.414063 c
538.671875 1049.796875 537.21875 1046.773437 537.21875 1046.773437 c
535.765625 1043.75 535.765625 1039.6875 535.765625 1039.6875 c
535.765625 1033.40625 538.90625 1029.90625 538.90625 1029.90625 c
542.046875 1026.40625 547.625 1026.40625 547.625 1026.40625 c
553.015625 1026.40625 556.1875 1029.992188 556.1875 1029.992188 c
559.359375 1033.578125 559.359375 1039.6875 559.359375 1039.6875 c
h
539.796875 1039.6875 m
539.796875 1044.609375 541.765625 1047.1875 541.765625 1047.1875 c
543.734375 1049.765625 547.546875 1049.765625 547.546875 1049.765625 c
551.375 1049.765625 553.351562 1047.203125 553.351562 1047.203125 c
555.328125 1044.640625 555.328125 1039.6875 555.328125 1039.6875 c
555.328125 1034.796875 553.351562 1032.25 553.351562 1032.25 c
551.375 1029.703125 547.5 1029.703125 547.5 1029.703125 c
543.6875 1029.703125 541.742188 1032.210938 541.742188 1032.210938 c
539.796875 1034.71875 539.796875 1039.6875 539.796875 1039.6875 c
h
583.65625 1049.109375 m
583.453125 1049.109375 l
580.75 1053.03125 575.390625 1053.03125 575.390625 1053.03125 c
570.34375 1053.03125 567.546875 1049.585938 567.546875 1049.585938 c
564.75 1046.140625 564.75 1039.78125 564.75 1039.78125 c
564.75 1033.4375 567.5625 1029.921875 567.5625 1029.921875 c
570.375 1026.40625 575.390625 1026.40625 575.390625 1026.40625 c
580.609375 1026.40625 583.40625 1030.203125 583.40625 1030.203125 c
583.703125 1030.203125 l
583.546875 1028.34375 l
583.453125 1026.546875 l
583.453125 1016.09375 l
587.34375 1016.09375 l
587.34375 1052.5625 l
584.171875 1052.5625 l
583.65625 1049.109375 l
h
575.875 1049.765625 m
579.859375 1049.765625 581.65625 1047.601563 581.65625 1047.601563 c
583.453125 1045.4375 583.453125 1040.609375 583.453125 1040.609375 c
583.453125 1039.78125 l
583.453125 1034.328125 581.632813 1031.992188 581.632813 1031.992188 c
579.8125 1029.65625 575.828125 1029.65625 575.828125 1029.65625 c
572.40625 1029.65625 570.59375 1032.320312 570.59375 1032.320312 c
568.78125 1034.984375 568.78125 1039.828125 568.78125 1039.828125 c
568.78125 1044.75 570.585938 1047.257813 570.585938 1047.257813 c
572.390625 1049.765625 575.875 1049.765625 575.875 1049.765625 c
h
612.171875 1045.546875 m
612.171875 1049.140625 609.5 1051.085938 609.5 1051.085938 c
606.828125 1053.03125 602 1053.03125 602 1053.03125 c
596.890625 1053.03125 594.03125 1051.40625 594.03125 1051.40625 c
594.03125 1047.796875 l
595.875 1048.734375 598 1049.273437 598 1049.273437 c
600.125 1049.8125 602.09375 1049.8125 602.09375 1049.8125 c
605.140625 1049.8125 606.78125 1048.84375 606.78125 1048.84375 c
608.421875 1047.875 608.421875 1045.875 608.421875 1045.875 c
608.421875 1044.375 607.117188 1043.3125 607.117188 1043.3125 c
605.8125 1042.25 602.046875 1040.796875 602.046875 1040.796875 c
598.453125 1039.453125 596.945313 1038.460938 596.945313 1038.460938 c
595.4375 1037.46875 594.695313 1036.203125 594.695313 1036.203125 c
593.953125 1034.9375 593.953125 1033.171875 593.953125 1033.171875 c
593.953125 1030.03125 596.507813 1028.21875 596.507813 1028.21875 c
599.0625 1026.40625 603.515625 1026.40625 603.515625 1026.40625 c
607.671875 1026.40625 611.625 1028.09375 611.625 1028.09375 c
610.25 1031.25 l
606.375 1029.65625 603.234375 1029.65625 603.234375 1029.65625 c
600.46875 1029.65625 599.0625 1030.523437 599.0625 1030.523437 c
597.65625 1031.390625 597.65625 1032.921875 597.65625 1032.921875 c
597.65625 1033.953125 598.1875 1034.679688 598.1875 1034.679688 c
598.71875 1035.40625 599.890625 1036.0625 599.890625 1036.0625 c
601.0625 1036.71875 604.390625 1037.953125 604.390625 1037.953125 c
608.953125 1039.625 610.5625 1041.3125 610.5625 1041.3125 c
612.171875 1043 612.171875 1045.546875 612.171875 1045.546875 c
h
f
Q
q
[0 -2.430556 2.430556 0 -1166.666693 1350.00003] cm
-473.142873 480.000016 1028.571464 1028.571464 re
W
/DeviceGray {} CS
[0] SC
-174.5625 531.421875 m
-193.65625 531.421875 l
-193.65625 497.15625 l
-174.5625 497.15625 l
-174.5625 500.6875 l
-189.671875 500.6875 l
-189.671875 511.734375 l
-175.46875 511.734375 l
-175.46875 515.25 l
-189.671875 515.25 l
-189.671875 527.859375 l
-174.5625 527.859375 l
-174.5625 531.421875 l
h
-161.359375 518.265625 m
-170.28125 505.734375 l
-165.859375 505.734375 l
-159.078125 515.578125 l
-152.328125 505.734375 l
-147.953125 505.734375 l
-156.875 518.265625 l
-147.484375 531.421875 l
-151.890625 531.421875 l
-159.078125 521.015625 l
-166.34375 531.421875 l
-170.75 531.421875 l
-161.359375 518.265625 l
h
-130.453125 531.890625 m
-132.953125 531.890625 -135.03125 530.960938 -135.03125 530.960938 c
-137.109375 530.03125 -138.515625 528.109375 -138.515625 528.109375 c
-138.796875 528.109375 l
-138.515625 530.359375 -138.515625 532.390625 -138.515625 532.390625 c
-138.515625 542.953125 l
-142.40625 542.953125 l
-142.40625 505.734375 l
-139.234375 505.734375 l
-138.703125 509.25 l
-138.515625 509.25 l
-137.015625 507.140625 -135.023438 506.203125 -135.023438 506.203125 c
-133.03125 505.265625 -130.453125 505.265625 -130.453125 505.265625 c
-125.34375 505.265625 -122.5625 508.757813 -122.5625 508.757813 c
-119.78125 512.25 -119.78125 518.546875 -119.78125 518.546875 c
-119.78125 524.875 -122.609375 528.382813 -122.609375 528.382813 c
-125.4375 531.890625 -130.453125 531.890625 -130.453125 531.890625 c
h
-131.015625 508.5625 m
-134.953125 508.5625 -136.710938 510.742188 -136.710938 510.742188 c
-138.46875 512.921875 -138.515625 517.6875 -138.515625 517.6875 c
-138.515625 518.546875 l
-138.515625 523.96875 -136.710938 526.296875 -136.710938 526.296875 c
-134.90625 528.625 -130.921875 528.625 -130.921875 528.625 c
-127.59375 528.625 -125.703125 525.929688 -125.703125 525.929688 c
-123.8125 523.234375 -123.8125 518.5 -123.8125 518.5 c
-123.8125 513.703125 -125.703125 511.132813 -125.703125 511.132813 c
-127.59375 508.5625 -131.015625 508.5625 -131.015625 508.5625 c
h
-102.125 531.890625 m
-107.828125 531.890625 -111.117188 528.421875 -111.117188 528.421875 c
-114.40625 524.953125 -114.40625 518.78125 -114.40625 518.78125 c
-114.40625 512.578125 -111.351563 508.921875 -111.351563 508.921875 c
-108.296875 505.265625 -103.140625 505.265625 -103.140625 505.265625 c
-98.3125 505.265625 -95.5 508.4375 -95.5 508.4375 c
-92.6875 511.609375 -92.6875 516.8125 -92.6875 516.8125 c
-92.6875 519.28125 l
-110.375 519.28125 l
-110.265625 523.796875 -108.09375 526.140625 -108.09375 526.140625 c
-105.921875 528.484375 -101.984375 528.484375 -101.984375 528.484375 c
-97.84375 528.484375 -93.78125 526.75 -93.78125 526.75 c
-93.78125 530.21875 l
-95.84375 531.109375 -97.6875 531.5 -97.6875 531.5 c
-99.53125 531.890625 -102.125 531.890625 -102.125 531.890625 c
h
-103.1875 508.515625 m
-106.28125 508.515625 -108.117188 510.53125 -108.117188 510.53125 c
-109.953125 512.546875 -110.28125 516.109375 -110.28125 516.109375 c
-96.859375 516.109375 l
-96.859375 512.4375 -98.5 510.476562 -98.5 510.476562 c
-100.140625 508.515625 -103.1875 508.515625 -103.1875 508.515625 c
h
-75.796875 531.890625 m
-81.375 531.890625 -84.429688 528.453125 -84.429688 528.453125 c
-87.484375 525.015625 -87.484375 518.734375 -87.484375 518.734375 c
-87.484375 512.296875 -84.382812 508.78125 -84.382812 508.78125 c
-81.28125 505.265625 -75.53125 505.265625 -75.53125 505.265625 c
-73.6875 505.265625 -71.835937 505.664063 -71.835937 505.664063 c
-69.984375 506.0625 -68.921875 506.59375 -68.921875 506.59375 c
-70.125 509.90625 l
-71.40625 509.390625 -72.929688 509.046875 -72.929688 509.046875 c
-74.453125 508.703125 -75.625 508.703125 -75.625 508.703125 c
-83.453125 508.703125 -83.453125 518.6875 -83.453125 518.6875 c
-83.453125 523.421875 -81.546875 525.953125 -81.546875 525.953125 c
-79.640625 528.484375 -75.890625 528.484375 -75.890625 528.484375 c
-72.671875 528.484375 -69.296875 527.109375 -69.296875 527.109375 c
-69.296875 530.546875 l
-71.875 531.890625 -75.796875 531.890625 -75.796875 531.890625 c
h
-54.90625 528.671875 m
-53.875 528.671875 -52.914062 528.523438 -52.914062 528.523438 c
-51.953125 528.375 -51.390625 528.203125 -51.390625 528.203125 c
-51.390625 531.1875 l
-52.015625 531.5 -53.25 531.695313 -53.25 531.695313 c
-54.484375 531.890625 -55.46875 531.890625 -55.46875 531.890625 c
-62.921875 531.890625 -62.921875 524.03125 -62.921875 524.03125 c
-62.921875 508.75 l
-66.59375 508.75 l
-66.59375 506.875 l
-62.921875 505.265625 l
-61.28125 499.78125 l
-59.03125 499.78125 l
-59.03125 505.734375 l
-51.578125 505.734375 l
-51.578125 508.75 l
-59.03125 508.75 l
-59.03125 523.875 l
-59.03125 526.1875 -57.929687 527.429688 -57.929687 527.429688 c
-56.828125 528.671875 -54.90625 528.671875 -54.90625 528.671875 c
h
-35.40625 531.890625 m
-41.109375 531.890625 -44.398438 528.421875 -44.398438 528.421875 c
-47.6875 524.953125 -47.6875 518.78125 -47.6875 518.78125 c
-47.6875 512.578125 -44.632813 508.921875 -44.632813 508.921875 c
-41.578125 505.265625 -36.421875 505.265625 -36.421875 505.265625 c
-31.59375 505.265625 -28.78125 508.4375 -28.78125 508.4375 c
-25.96875 511.609375 -25.96875 516.8125 -25.96875 516.8125 c
-25.96875 519.28125 l
-43.65625 519.28125 l
-43.546875 523.796875 -41.375 526.140625 -41.375 526.140625 c
-39.203125 528.484375 -35.265625 528.484375 -35.265625 528.484375 c
-31.125 528.484375 -27.0625 526.75 -27.0625 526.75 c
-27.0625 530.21875 l
-29.125 531.109375 -30.96875 531.5 -30.96875 531.5 c
-32.8125 531.890625 -35.40625 531.890625 -35.40625 531.890625 c
h
-36.46875 508.515625 m
-39.5625 508.515625 -41.398438 510.53125 -41.398438 510.53125 c
-43.234375 512.546875 -43.5625 516.109375 -43.5625 516.109375 c
-30.140625 516.109375 l
-30.140625 512.4375 -31.78125 510.476562 -31.78125 510.476562 c
-33.421875 508.515625 -36.46875 508.515625 -36.46875 508.515625 c
h
-1.84375 527.96875 m
-2.046875 527.96875 l
-4.75 531.890625 -10.109375 531.890625 -10.109375 531.890625 c
-15.15625 531.890625 -17.953125 528.445313 -17.953125 528.445313 c
-20.75 525 -20.75 518.640625 -20.75 518.640625 c
-20.75 512.296875 -17.9375 508.78125 -17.9375 508.78125 c
-15.125 505.265625 -10.109375 505.265625 -10.109375 505.265625 c
-4.890625 505.265625 -2.09375 509.0625 -2.09375 509.0625 c
-1.796875 509.0625 l
-1.953125 507.203125 l
-2.046875 505.40625 l
-2.046875 494.953125 l
1.84375 494.953125 l
1.84375 531.421875 l
-1.328125 531.421875 l
-1.84375 527.96875 l
h
-9.625 528.625 m
-5.640625 528.625 -3.84375 526.460938 -3.84375 526.460938 c
-2.046875 524.296875 -2.046875 519.46875 -2.046875 519.46875 c
-2.046875 518.640625 l
-2.046875 513.1875 -3.867188 510.851563 -3.867188 510.851563 c
-5.6875 508.515625 -9.671875 508.515625 -9.671875 508.515625 c
-13.09375 508.515625 -14.90625 511.179688 -14.90625 511.179688 c
-16.71875 513.84375 -16.71875 518.6875 -16.71875 518.6875 c
-16.71875 523.609375 -14.914063 526.117188 -14.914063 526.117188 c
-13.109375 528.625 -9.625 528.625 -9.625 528.625 c
h
44.859375 507.140625 m
44.859375 512.34375 41.3125 515.140625 41.3125 515.140625 c
37.765625 517.9375 31.15625 517.9375 31.15625 517.9375 c
27.125 517.9375 l
27.125 531.421875 l
23.140625 531.421875 l
23.140625 497.15625 l
32.015625 497.15625 l
44.859375 497.15625 44.859375 507.140625 44.859375 507.140625 c
h
27.125 514.515625 m
30.703125 514.515625 l
36 514.515625 38.367187 512.804688 38.367187 512.804688 c
40.734375 511.09375 40.734375 507.328125 40.734375 507.328125 c
40.734375 503.921875 38.507813 502.257813 38.507813 502.257813 c
36.28125 500.59375 31.578125 500.59375 31.578125 500.59375 c
27.125 500.59375 l
27.125 514.515625 l
h
62.296875 531.890625 m
56.59375 531.890625 53.304687 528.421875 53.304687 528.421875 c
50.015625 524.953125 50.015625 518.78125 50.015625 518.78125 c
50.015625 512.578125 53.070313 508.921875 53.070313 508.921875 c
56.125 505.265625 61.28125 505.265625 61.28125 505.265625 c
66.109375 505.265625 68.921875 508.4375 68.921875 508.4375 c
71.734375 511.609375 71.734375 516.8125 71.734375 516.8125 c
71.734375 519.28125 l
54.046875 519.28125 l
54.15625 523.796875 56.328125 526.140625 56.328125 526.140625 c
58.5 528.484375 62.4375 528.484375 62.4375 528.484375 c
66.578125 528.484375 70.640625 526.75 70.640625 526.75 c
70.640625 530.21875 l
68.578125 531.109375 66.734375 531.5 66.734375 531.5 c
64.890625 531.890625 62.296875 531.890625 62.296875 531.890625 c
h
61.234375 508.515625 m
58.140625 508.515625 56.304687 510.53125 56.304687 510.53125 c
54.46875 512.546875 54.140625 516.109375 54.140625 516.109375 c
67.5625 516.109375 l
67.5625 512.4375 65.921875 510.476562 65.921875 510.476562 c
64.28125 508.515625 61.234375 508.515625 61.234375 508.515625 c
h
94.171875 531.421875 m
93.40625 527.765625 l
93.21875 527.765625 l
91.296875 530.171875 89.382812 531.03125 89.382812 531.03125 c
87.46875 531.890625 84.609375 531.890625 84.609375 531.890625 c
80.796875 531.890625 78.625 529.921875 78.625 529.921875 c
76.453125 527.953125 76.453125 524.3125 76.453125 524.3125 c
76.453125 516.53125 88.90625 516.15625 88.90625 516.15625 c
93.265625 516.015625 l
93.265625 514.421875 l
93.265625 511.40625 91.960938 509.960937 91.960938 509.960937 c
90.65625 508.515625 87.796875 508.515625 87.796875 508.515625 c
84.59375 508.515625 80.53125 510.484375 80.53125 510.484375 c
79.34375 507.515625 l
81.234375 506.484375 83.5 505.898437 83.5 505.898437 c
85.765625 505.3125 88.03125 505.3125 88.03125 505.3125 c
92.625 505.3125 94.84375 507.351563 94.84375 507.351563 c
97.0625 509.390625 97.0625 513.890625 97.0625 513.890625 c
97.0625 531.421875 l
94.171875 531.421875 l
h
85.390625 528.671875 m
89.015625 528.671875 91.09375 526.679688 91.09375 526.679688 c
93.171875 524.6875 93.171875 521.109375 93.171875 521.109375 c
93.171875 518.78125 l
89.28125 518.953125 l
84.640625 519.109375 82.585937 520.390625 82.585937 520.390625 c
80.53125 521.671875 80.53125 524.359375 80.53125 524.359375 c
80.53125 526.46875 81.8125 527.570313 81.8125 527.570313 c
83.09375 528.671875 85.390625 528.671875 85.390625 528.671875 c
h
108.90625 518.265625 m
109.921875 516.84375 111.984375 514.515625 111.984375 514.515625 c
120.28125 505.734375 l
124.890625 505.734375 l
114.484375 516.671875 l
125.625 531.421875 l
120.90625 531.421875 l
111.84375 519.28125 l
108.90625 521.8125 l
108.90625 531.421875 l
105.0625 531.421875 l
105.0625 494.953125 l
108.90625 494.953125 l
108.90625 514.28125 l
108.90625 515.578125 108.71875 518.265625 108.71875 518.265625 c
108.90625 518.265625 l
h
153.875 531.421875 m
149.890625 531.421875 l
149.890625 500.6875 l
139.03125 500.6875 l
139.03125 497.15625 l
164.71875 497.15625 l
164.71875 500.6875 l
153.875 500.6875 l
153.875 531.421875 l
h
173.171875 531.421875 m
169.28125 531.421875 l
169.28125 505.734375 l
173.171875 505.734375 l
173.171875 531.421875 l
h
168.953125 498.765625 m
168.953125 497.4375 169.609375 496.8125 169.609375 496.8125 c
170.265625 496.1875 171.25 496.1875 171.25 496.1875 c
172.1875 496.1875 172.867188 496.820312 172.867188 496.820312 c
173.546875 497.453125 173.546875 498.765625 173.546875 498.765625 c
173.546875 500.078125 172.867188 500.726562 172.867188 500.726562 c
172.1875 501.375 171.25 501.375 171.25 501.375 c
170.265625 501.375 169.609375 500.726562 169.609375 500.726562 c
168.953125 500.078125 168.953125 498.765625 168.953125 498.765625 c
h
214.171875 531.421875 m
214.171875 514.703125 l
214.171875 511.640625 212.859375 510.101563 212.859375 510.101563 c
211.546875 508.5625 208.78125 508.5625 208.78125 508.5625 c
205.140625 508.5625 203.40625 510.648438 203.40625 510.648438 c
201.671875 512.734375 201.671875 517.078125 201.671875 517.078125 c
201.671875 531.421875 l
197.78125 531.421875 l
197.78125 514.703125 l
197.78125 511.640625 196.46875 510.101563 196.46875 510.101563 c
195.15625 508.5625 192.375 508.5625 192.375 508.5625 c
188.71875 508.5625 187.015625 510.757813 187.015625 510.757813 c
185.3125 512.953125 185.3125 517.9375 185.3125 517.9375 c
185.3125 531.421875 l
181.421875 531.421875 l
181.421875 505.734375 l
184.59375 505.734375 l
185.21875 509.25 l
185.40625 509.25 l
186.515625 507.375 188.515625 506.320312 188.515625 506.320312 c
190.515625 505.265625 193 505.265625 193 505.265625 c
199.03125 505.265625 200.875 509.625 200.875 509.625 c
201.0625 509.625 l
202.21875 507.609375 204.398438 506.4375 204.398438 506.4375 c
206.578125 505.265625 209.359375 505.265625 209.359375 505.265625 c
213.71875 505.265625 215.890625 507.5 215.890625 507.5 c
218.0625 509.734375 218.0625 514.65625 218.0625 514.65625 c
218.0625 531.421875 l
214.171875 531.421875 l
h
236.9375 531.890625 m
231.234375 531.890625 227.945313 528.421875 227.945313 528.421875 c
224.65625 524.953125 224.65625 518.78125 224.65625 518.78125 c
224.65625 512.578125 227.710938 508.921875 227.710938 508.921875 c
230.765625 505.265625 235.921875 505.265625 235.921875 505.265625 c
240.75 505.265625 243.5625 508.4375 243.5625 508.4375 c
246.375 511.609375 246.375 516.8125 246.375 516.8125 c
246.375 519.28125 l
228.6875 519.28125 l
228.796875 523.796875 230.96875 526.140625 230.96875 526.140625 c
233.140625 528.484375 237.078125 528.484375 237.078125 528.484375 c
241.21875 528.484375 245.28125 526.75 245.28125 526.75 c
245.28125 530.21875 l
243.21875 531.109375 241.375 531.5 241.375 531.5 c
239.53125 531.890625 236.9375 531.890625 236.9375 531.890625 c
h
235.875 508.515625 m
232.78125 508.515625 230.945313 510.53125 230.945313 510.53125 c
229.109375 512.546875 228.78125 516.109375 228.78125 516.109375 c
242.203125 516.109375 l
242.203125 512.4375 240.5625 510.476562 240.5625 510.476562 c
238.921875 508.515625 235.875 508.515625 235.875 508.515625 c
h
f
Q
q
[4.166667 0 0 4.166667 350.000008 433.333343] cm
-0.000002 0 136.000002 78.000006 re
W
/DeviceGray {} cs
[1] sc
/DeviceGray {} CS
[0] SC
1 1 134 76 re
f
Q
q
[4.166667 0 0 4.166667 350.000008 433.333343] cm
-0.000002 0 136.000002 78.000006 re
W
/DeviceGray {} cs
[0] sc
0 J
0 j
2 w
4 M
1 1 134 76 re
S
Q
q
[4.166667 0 0 4.166667 441.666677 528.333342] cm
-22.000002 -22.799999 136.000002 78.000006 re
W
/DeviceRGB {} cs
[0.1216 0.4667 0.7059] sc
/DeviceGray {} CS
[0] SC
-6 -6 12 12 re
f
Q
q
[1.909722 0 0 1.909722 358.333341 528.333342] cm
-4.36364 -49.745452 296.72727 170.181823 re
W
/DeviceGray {} CS
[0] SC
111.3125 9.59375 m
111.3125 14.125 108.03125 16.65625 108.03125 16.65625 c
104.75 19.1875 99.125 19.1875 99.125 19.1875 c
93.03125 19.1875 89.75 17.609375 89.75 17.609375 c
89.75 13.765625 l
91.859375 14.65625 94.34375 15.171875 94.34375 15.171875 c
96.828125 15.6875 99.265625 15.6875 99.265625 15.6875 c
103.25 15.6875 105.265625 14.179688 105.265625 14.179688 c
107.28125 12.671875 107.28125 9.96875 107.28125 9.96875 c
107.28125 8.1875 106.570312 7.054687 106.570312 7.054687 c
105.859375 5.921875 104.179687 4.960937 104.179687 4.960937 c
102.5 4 99.078125 2.78125 99.078125 2.78125 c
94.296875 1.0625 92.25 -1.28125 92.25 -1.28125 c
90.203125 -3.625 90.203125 -7.390625 90.203125 -7.390625 c
90.203125 -11.359375 93.179687 -13.703125 93.179687 -13.703125 c
96.15625 -16.046875 101.046875 -16.046875 101.046875 -16.046875 c
106.15625 -16.046875 110.453125 -14.171875 110.453125 -14.171875 c
109.203125 -10.703125 l
104.96875 -12.484375 100.953125 -12.484375 100.953125 -12.484375 c
97.796875 -12.484375 96.015625 -11.125 96.015625 -11.125 c
94.234375 -9.765625 94.234375 -7.34375 94.234375 -7.34375 c
94.234375 -5.5625 94.890625 -4.429688 94.890625 -4.429688 c
95.546875 -3.296875 97.101563 -2.34375 97.101563 -2.34375 c
98.65625 -1.390625 101.875 -0.25 101.875 -0.25 c
107.265625 1.671875 109.289063 3.875 109.289063 3.875 c
111.3125 6.078125 111.3125 9.59375 111.3125 9.59375 c
h
128.59375 19.1875 m
122.890625 19.1875 119.601563 15.71875 119.601563 15.71875 c
116.3125 12.25 116.3125 6.078125 116.3125 6.078125 c
116.3125 -0.125 119.367188 -3.78125 119.367188 -3.78125 c
122.421875 -7.4375 127.578125 -7.4375 127.578125 -7.4375 c
132.40625 -7.4375 135.21875 -4.265625 135.21875 -4.265625 c
138.03125 -1.09375 138.03125 4.109375 138.03125 4.109375 c
138.03125 6.578125 l
120.34375 6.578125 l
120.453125 11.09375 122.625 13.4375 122.625 13.4375 c
124.796875 15.78125 128.734375 15.78125 128.734375 15.78125 c
132.875 15.78125 136.9375 14.046875 136.9375 14.046875 c
136.9375 17.515625 l
134.875 18.40625 133.03125 18.796875 133.03125 18.796875 c
131.1875 19.1875 128.59375 19.1875 128.59375 19.1875 c
h
127.53125 -4.1875 m
124.4375 -4.1875 122.601563 -2.171875 122.601563 -2.171875 c
120.765625 -0.15625 120.4375 3.40625 120.4375 3.40625 c
133.859375 3.40625 l
133.859375 -0.265625 132.21875 -2.226563 132.21875 -2.226563 c
130.578125 -4.1875 127.53125 -4.1875 127.53125 -4.1875 c
h
162.234375 18.71875 m
162.234375 2.09375 l
162.234375 -1.046875 160.804688 -2.59375 160.804688 -2.59375 c
159.375 -4.140625 156.328125 -4.140625 156.328125 -4.140625 c
152.296875 -4.140625 150.421875 -1.960938 150.421875 -1.960938 c
148.546875 0.21875 148.546875 5.234375 148.546875 5.234375 c
148.546875 18.71875 l
144.65625 18.71875 l
144.65625 -6.96875 l
147.828125 -6.96875 l
148.453125 -3.453125 l
148.640625 -3.453125 l
149.84375 -5.359375 152 -6.398437 152 -6.398437 c
154.15625 -7.4375 156.796875 -7.4375 156.796875 -7.4375 c
161.4375 -7.4375 163.78125 -5.203125 163.78125 -5.203125 c
166.125 -2.96875 166.125 1.953125 166.125 1.953125 c
166.125 18.71875 l
162.234375 18.71875 l
h
190.703125 11.703125 m
190.703125 15.296875 188.03125 17.242187 188.03125 17.242187 c
185.359375 19.1875 180.53125 19.1875 180.53125 19.1875 c
175.421875 19.1875 172.5625 17.5625 172.5625 17.5625 c
172.5625 13.953125 l
174.40625 14.890625 176.53125 15.429688 176.53125 15.429688 c
178.65625 15.96875 180.625 15.96875 180.625 15.96875 c
183.671875 15.96875 185.3125 15 185.3125 15 c
186.953125 14.03125 186.953125 12.03125 186.953125 12.03125 c
186.953125 10.53125 185.648438 9.46875 185.648438 9.46875 c
184.34375 8.40625 180.578125 6.953125 180.578125 6.953125 c
176.984375 5.609375 175.476562 4.617187 175.476562 4.617187 c
173.96875 3.625 173.226562 2.359375 173.226562 2.359375 c
172.484375 1.09375 172.484375 -0.671875 172.484375 -0.671875 c
172.484375 -3.8125 175.039062 -5.625 175.039062 -5.625 c
177.59375 -7.4375 182.046875 -7.4375 182.046875 -7.4375 c
186.203125 -7.4375 190.15625 -5.75 190.15625 -5.75 c
188.78125 -2.59375 l
184.90625 -4.1875 181.765625 -4.1875 181.765625 -4.1875 c
179 -4.1875 177.59375 -3.320313 177.59375 -3.320313 c
176.1875 -2.453125 176.1875 -0.921875 176.1875 -0.921875 c
176.1875 0.109375 176.71875 0.835938 176.71875 0.835938 c
177.25 1.5625 178.421875 2.21875 178.421875 2.21875 c
179.59375 2.875 182.921875 4.109375 182.921875 4.109375 c
187.484375 5.78125 189.09375 7.46875 189.09375 7.46875 c
190.703125 9.15625 190.703125 11.703125 190.703125 11.703125 c
h
219.1875 5.84375 m
219.1875 12.125 216.023438 15.65625 216.023438 15.65625 c
212.859375 19.1875 207.28125 19.1875 207.28125 19.1875 c
203.84375 19.1875 201.171875 17.570312 201.171875 17.570312 c
198.5 15.953125 197.046875 12.929688 197.046875 12.929688 c
195.59375 9.90625 195.59375 5.84375 195.59375 5.84375 c
195.59375 -0.4375 198.734375 -3.9375 198.734375 -3.9375 c
201.875 -7.4375 207.453125 -7.4375 207.453125 -7.4375 c
212.84375 -7.4375 216.015625 -3.851562 216.015625 -3.851562 c
219.1875 -0.265625 219.1875 5.84375 219.1875 5.84375 c
h
199.625 5.84375 m
199.625 10.765625 201.59375 13.34375 201.59375 13.34375 c
203.5625 15.921875 207.375 15.921875 207.375 15.921875 c
211.203125 15.921875 213.179687 13.359375 213.179687 13.359375 c
215.15625 10.796875 215.15625 5.84375 215.15625 5.84375 c
215.15625 0.953125 213.179687 -1.59375 213.179687 -1.59375 c
211.203125 -4.140625 207.328125 -4.140625 207.328125 -4.140625 c
203.515625 -4.140625 201.570313 -1.632813 201.570313 -1.632813 c
199.625 0.875 199.625 5.84375 199.625 5.84375 c
h
237.734375 -7.4375 m
239.453125 -7.4375 240.8125 -7.15625 240.8125 -7.15625 c
240.265625 -3.546875 l
238.671875 -3.90625 237.453125 -3.90625 237.453125 -3.90625 c
234.34375 -3.90625 232.125 -1.375 232.125 -1.375 c
229.90625 1.15625 229.90625 4.9375 229.90625 4.9375 c
229.90625 18.71875 l
226.015625 18.71875 l
226.015625 -6.96875 l
229.234375 -6.96875 l
229.671875 -2.21875 l
229.859375 -2.21875 l
231.296875 -4.71875 233.3125 -6.078125 233.3125 -6.078125 c
235.328125 -7.4375 237.734375 -7.4375 237.734375 -7.4375 c
h
262.1875 11.703125 m
262.1875 15.296875 259.515625 17.242187 259.515625 17.242187 c
256.84375 19.1875 252.015625 19.1875 252.015625 19.1875 c
246.90625 19.1875 244.046875 17.5625 244.046875 17.5625 c
244.046875 13.953125 l
245.890625 14.890625 248.015625 15.429688 248.015625 15.429688 c
250.140625 15.96875 252.109375 15.96875 252.109375 15.96875 c
255.15625 15.96875 256.796875 15 256.796875 15 c
258.4375 14.03125 258.4375 12.03125 258.4375 12.03125 c
258.4375 10.53125 257.132813 9.46875 257.132813 9.46875 c
255.828125 8.40625 252.0625 6.953125 252.0625 6.953125 c
248.46875 5.609375 246.960938 4.617187 246.960938 4.617187 c
245.453125 3.625 244.710938 2.359375 244.710938 2.359375 c
243.96875 1.09375 243.96875 -0.671875 243.96875 -0.671875 c
243.96875 -3.8125 246.523438 -5.625 246.523438 -5.625 c
249.078125 -7.4375 253.53125 -7.4375 253.53125 -7.4375 c
257.6875 -7.4375 261.640625 -5.75 261.640625 -5.75 c
260.265625 -2.59375 l
256.390625 -4.1875 253.25 -4.1875 253.25 -4.1875 c
250.484375 -4.1875 249.078125 -3.320313 249.078125 -3.320313 c
247.671875 -2.453125 247.671875 -0.921875 247.671875 -0.921875 c
247.671875 0.109375 248.203125 0.835938 248.203125 0.835938 c
248.734375 1.5625 249.90625 2.21875 249.90625 2.21875 c
251.078125 2.875 254.40625 4.109375 254.40625 4.109375 c
258.96875 5.78125 260.578125 7.46875 260.578125 7.46875 c
262.1875 9.15625 262.1875 11.703125 262.1875 11.703125 c
h
f
Q
q
[4.166667 0 0 4.166667 441.666677 660.000021] cm
-22.000002 -54.400002 136.000002 78.000004 re
W
/DeviceRGB {} cs
[1 0.498 0.0549] sc
/DeviceGray {} CS
[0] SC
-6 -6 12 12 re
f
Q
q
[1.909722 0 0 1.909722 358.333341 660.000021] cm
-4.36364 -118.69091 296.72727 170.181823 re
W
/DeviceGray {} CS
[0] SC
95.96875 4.46875 m
95.96875 18.71875 l
91.984375 18.71875 l
91.984375 -15.546875 l
101.375 -15.546875 l
107.6875 -15.546875 110.695312 -13.132813 110.695312 -13.132813 c
113.703125 -10.71875 113.703125 -5.875 113.703125 -5.875 c
113.703125 0.921875 106.8125 3.3125 106.8125 3.3125 c
116.125 18.71875 l
111.40625 18.71875 l
103.109375 4.46875 l
95.96875 4.46875 l
h
95.96875 1.046875 m
101.421875 1.046875 l
105.640625 1.046875 107.609375 -0.632813 107.609375 -0.632813 c
109.578125 -2.3125 109.578125 -5.65625 109.578125 -5.65625 c
109.578125 -9.0625 107.578125 -10.5625 107.578125 -10.5625 c
105.578125 -12.0625 101.140625 -12.0625 101.140625 -12.0625 c
95.96875 -12.0625 l
95.96875 1.046875 l
h
136.859375 18.71875 m
136.09375 15.0625 l
135.90625 15.0625 l
133.984375 17.46875 132.070313 18.328125 132.070313 18.328125 c
130.15625 19.1875 127.296875 19.1875 127.296875 19.1875 c
123.484375 19.1875 121.3125 17.21875 121.3125 17.21875 c
119.140625 15.25 119.140625 11.609375 119.140625 11.609375 c
119.140625 3.828125 131.59375 3.453125 131.59375 3.453125 c
135.953125 3.3125 l
135.953125 1.71875 l
135.953125 -1.296875 134.648438 -2.742188 134.648438 -2.742188 c
133.34375 -4.1875 130.484375 -4.1875 130.484375 -4.1875 c
127.28125 -4.1875 123.21875 -2.21875 123.21875 -2.21875 c
122.03125 -5.1875 l
123.921875 -6.21875 126.1875 -6.804687 126.1875 -6.804687 c
128.453125 -7.390625 130.71875 -7.390625 130.71875 -7.390625 c
135.3125 -7.390625 137.53125 -5.351563 137.53125 -5.351563 c
139.75 -3.3125 139.75 1.1875 139.75 1.1875 c
139.75 18.71875 l
136.859375 18.71875 l
h
128.078125 15.96875 m
131.703125 15.96875 133.78125 13.976563 133.78125 13.976563 c
135.859375 11.984375 135.859375 8.40625 135.859375 8.40625 c
135.859375 6.078125 l
131.96875 6.25 l
127.328125 6.40625 125.273437 7.6875 125.273437 7.6875 c
123.21875 8.96875 123.21875 11.65625 123.21875 11.65625 c
123.21875 13.765625 124.5 14.867188 124.5 14.867188 c
125.78125 15.96875 128.078125 15.96875 128.078125 15.96875 c
h
165.328125 18.71875 m
165.328125 2.09375 l
165.328125 -1.046875 163.898438 -2.59375 163.898438 -2.59375 c
162.46875 -4.140625 159.421875 -4.140625 159.421875 -4.140625 c
155.390625 -4.140625 153.515625 -1.960938 153.515625 -1.960938 c
151.640625 0.21875 151.640625 5.234375 151.640625 5.234375 c
151.640625 18.71875 l
147.75 18.71875 l
147.75 -6.96875 l
150.921875 -6.96875 l
151.546875 -3.453125 l
151.734375 -3.453125 l
152.9375 -5.359375 155.09375 -6.398437 155.09375 -6.398437 c
157.25 -7.4375 159.890625 -7.4375 159.890625 -7.4375 c
164.53125 -7.4375 166.875 -5.203125 166.875 -5.203125 c
169.21875 -2.96875 169.21875 1.953125 169.21875 1.953125 c
169.21875 18.71875 l
165.328125 18.71875 l
h
194.703125 15.265625 m
194.5 15.265625 l
191.796875 19.1875 186.4375 19.1875 186.4375 19.1875 c
181.390625 19.1875 178.59375 15.742188 178.59375 15.742188 c
175.796875 12.296875 175.796875 5.9375 175.796875 5.9375 c
175.796875 -0.40625 178.609375 -3.921875 178.609375 -3.921875 c
181.421875 -7.4375 186.4375 -7.4375 186.4375 -7.4375 c
191.65625 -7.4375 194.453125 -3.640625 194.453125 -3.640625 c
194.75 -3.640625 l
194.59375 -5.5 l
194.5 -7.296875 l
194.5 -17.75 l
198.390625 -17.75 l
198.390625 18.71875 l
195.21875 18.71875 l
194.703125 15.265625 l
h
186.921875 15.921875 m
190.90625 15.921875 192.703125 13.757813 192.703125 13.757813 c
194.5 11.59375 194.5 6.765625 194.5 6.765625 c
194.5 5.9375 l
194.5 0.484375 192.679687 -1.851563 192.679687 -1.851563 c
190.859375 -4.1875 186.875 -4.1875 186.875 -4.1875 c
183.453125 -4.1875 181.640625 -1.523438 181.640625 -1.523438 c
179.828125 1.140625 179.828125 5.984375 179.828125 5.984375 c
179.828125 10.90625 181.632813 13.414063 181.632813 13.414063 c
183.4375 15.921875 186.921875 15.921875 186.921875 15.921875 c
h
228.796875 5.84375 m
228.796875 12.125 225.632813 15.65625 225.632813 15.65625 c
222.46875 19.1875 216.890625 19.1875 216.890625 19.1875 c
213.453125 19.1875 210.78125 17.570312 210.78125 17.570312 c
208.109375 15.953125 206.65625 12.929688 206.65625 12.929688 c
205.203125 9.90625 205.203125 5.84375 205.203125 5.84375 c
205.203125 -0.4375 208.34375 -3.9375 208.34375 -3.9375 c
211.484375 -7.4375 217.0625 -7.4375 217.0625 -7.4375 c
222.453125 -7.4375 225.625 -3.851562 225.625 -3.851562 c
228.796875 -0.265625 228.796875 5.84375 228.796875 5.84375 c
h
209.234375 5.84375 m
209.234375 10.765625 211.203125 13.34375 211.203125 13.34375 c
213.171875 15.921875 216.984375 15.921875 216.984375 15.921875 c
220.8125 15.921875 222.789062 13.359375 222.789062 13.359375 c
224.765625 10.796875 224.765625 5.84375 224.765625 5.84375 c
224.765625 0.953125 222.789062 -1.59375 222.789062 -1.59375 c
220.8125 -4.140625 216.9375 -4.140625 216.9375 -4.140625 c
213.125 -4.140625 211.179687 -1.632813 211.179687 -1.632813 c
209.234375 0.875 209.234375 5.84375 209.234375 5.84375 c
h
268.375 18.71875 m
268.375 2 l
268.375 -1.0625 267.0625 -2.601563 267.0625 -2.601563 c
265.75 -4.140625 262.984375 -4.140625 262.984375 -4.140625 c
259.34375 -4.140625 257.609375 -2.054688 257.609375 -2.054688 c
255.875 0.03125 255.875 4.375 255.875 4.375 c
255.875 18.71875 l
251.984375 18.71875 l
251.984375 2 l
251.984375 -1.0625 250.671875 -2.601563 250.671875 -2.601563 c
249.359375 -4.140625 246.578125 -4.140625 246.578125 -4.140625 c
242.921875 -4.140625 241.21875 -1.945313 241.21875 -1.945313 c
239.515625 0.25 239.515625 5.234375 239.515625 5.234375 c
239.515625 18.71875 l
235.625 18.71875 l
235.625 -6.96875 l
238.796875 -6.96875 l
239.421875 -3.453125 l
239.609375 -3.453125 l
240.71875 -5.328125 242.71875 -6.382812 242.71875 -6.382812 c
244.71875 -7.4375 247.203125 -7.4375 247.203125 -7.4375 c
253.234375 -7.4375 255.078125 -3.078125 255.078125 -3.078125 c
255.265625 -3.078125 l
256.421875 -5.09375 258.601563 -6.265625 258.601563 -6.265625 c
260.78125 -7.4375 263.5625 -7.4375 263.5625 -7.4375 c
267.921875 -7.4375 270.09375 -5.203125 270.09375 -5.203125 c
272.265625 -2.96875 272.265625 1.953125 272.265625 1.953125 c
272.265625 18.71875 l
268.375 18.71875 l
h
f
Q
Q
showpage
%%PageTrailer
pdfEndPage
%%Trailer
end
%%DocumentSuppliedResources:
%%EOF
