%!PS-Adobe-3.0 EPSF-3.0
%%Creator: MATLAB, The MathWorks, Inc. Version 8.3.0.532 (R2014a). Operating System: Darwin 13.3.0 Darwin Kernel Version 13.3.0: Tue Jun  3 21:27:35 PDT 2014; root:xnu-2422.110.17~1/RELEASE_X86_64 x86_64.
%%Title: /Users/huijuans/2015Fall/GodBlessPLoSOne/MatLabFig/multidimensionalFit_08282015.eps
%%CreationDate: 08/31/2015  17:15:54
%%DocumentNeededFonts: Helvetica
%%DocumentProcessColors: Cyan Magenta Yellow Black
%%LanguageLevel: 2
%%Pages: 1
%%BoundingBox:   198   288   414   504
%%EndComments

%%BeginProlog
% MathWorks dictionary
/MathWorks 160 dict begin
% definition operators
/bdef {bind def} bind def
/ldef {load def} bind def
/xdef {exch def} bdef
/xstore {exch store} bdef
% operator abbreviations
/c  /clip ldef
/cc /concat ldef
/cp /closepath ldef
/gr /grestore ldef
/gs /gsave ldef
/mt /moveto ldef
/np /newpath ldef
/cm /currentmatrix ldef
/sm /setmatrix ldef
/rm /rmoveto ldef
/rl /rlineto ldef
/s {show newpath} bdef
/sc {setcmykcolor} bdef
/sr /setrgbcolor ldef
/sg /setgray ldef
/w /setlinewidth ldef
/j /setlinejoin ldef
/cap /setlinecap ldef
/rc {rectclip} bdef
/rf {rectfill} bdef
% page state control
/pgsv () def
/bpage {/pgsv save def} bdef
/epage {pgsv restore} bdef
/bplot /gsave ldef
/eplot {stroke grestore} bdef
% orientation switch
/portraitMode 0 def /landscapeMode 1 def /rotateMode 2 def
% coordinate system mappings
/dpi2point 0 def
% font control
/FontSize 0 def
/FMS {/FontSize xstore findfont [FontSize 0 0 FontSize neg 0 0]
  makefont setfont} bdef
/reencode {exch dup where {pop load} {pop StandardEncoding} ifelse
  exch dup 3 1 roll findfont dup length dict begin
  { 1 index /FID ne {def}{pop pop} ifelse } forall
  /Encoding exch def currentdict end definefont pop} bdef
/isroman {findfont /CharStrings get /Agrave known} bdef
/FMSR {3 1 roll 1 index dup isroman {reencode} {pop pop} ifelse
  exch FMS} bdef
/csm {1 dpi2point div -1 dpi2point div scale neg translate
 dup landscapeMode eq {pop -90 rotate}
  {rotateMode eq {90 rotate} if} ifelse} bdef
% line types: solid, dotted, dashed, dotdash
/SO { [] 0 setdash } bdef
/DO { [.5 dpi2point mul 4 dpi2point mul] 0 setdash } bdef
/DA { [6 dpi2point mul] 0 setdash } bdef
/DD { [.5 dpi2point mul 4 dpi2point mul 6 dpi2point mul 4
  dpi2point mul] 0 setdash } bdef
% macros for lines and objects
/L {lineto stroke} bdef
/MP {3 1 roll moveto 1 sub {rlineto} repeat} bdef
/AP {{rlineto} repeat} bdef
/PDlw -1 def
/W {/PDlw currentlinewidth def setlinewidth} def
/PP {closepath eofill} bdef
/DP {closepath stroke} bdef
/MR {4 -2 roll moveto dup  0 exch rlineto exch 0 rlineto
  neg 0 exch rlineto closepath} bdef
/FR {MR stroke} bdef
/PR {MR fill} bdef
/L1i {{currentfile picstr readhexstring pop} image} bdef
/tMatrix matrix def
/MakeOval {newpath tMatrix currentmatrix pop translate scale
0 0 1 0 360 arc tMatrix setmatrix} bdef
/FO {MakeOval stroke} bdef
/PO {MakeOval fill} bdef
/PD {currentlinewidth 2 div 0 360 arc fill
   PDlw -1 eq not {PDlw w /PDlw -1 def} if} def
/FA {newpath tMatrix currentmatrix pop translate scale
  0 0 1 5 -2 roll arc tMatrix setmatrix stroke} bdef
/PA {newpath tMatrix currentmatrix pop	translate 0 0 moveto scale
  0 0 1 5 -2 roll arc closepath tMatrix setmatrix fill} bdef
/FAn {newpath tMatrix currentmatrix pop translate scale
  0 0 1 5 -2 roll arcn tMatrix setmatrix stroke} bdef
/PAn {newpath tMatrix currentmatrix pop translate 0 0 moveto scale
  0 0 1 5 -2 roll arcn closepath tMatrix setmatrix fill} bdef
/vradius 0 def /hradius 0 def /lry 0 def
/lrx 0 def /uly 0 def /ulx 0 def /rad 0 def
/MRR {/vradius xdef /hradius xdef /lry xdef /lrx xdef /uly xdef
  /ulx xdef newpath tMatrix currentmatrix pop ulx hradius add uly
  vradius add translate hradius vradius scale 0 0 1 180 270 arc 
  tMatrix setmatrix lrx hradius sub uly vradius add translate
  hradius vradius scale 0 0 1 270 360 arc tMatrix setmatrix
  lrx hradius sub lry vradius sub translate hradius vradius scale
  0 0 1 0 90 arc tMatrix setmatrix ulx hradius add lry vradius sub
  translate hradius vradius scale 0 0 1 90 180 arc tMatrix setmatrix
  closepath} bdef
/FRR {MRR stroke } bdef
/PRR {MRR fill } bdef
/MlrRR {/lry xdef /lrx xdef /uly xdef /ulx xdef /rad lry uly sub 2 div def
  newpath tMatrix currentmatrix pop ulx rad add uly rad add translate
  rad rad scale 0 0 1 90 270 arc tMatrix setmatrix lrx rad sub lry rad
  sub translate rad rad scale 0 0 1 270 90 arc tMatrix setmatrix
  closepath} bdef
/FlrRR {MlrRR stroke } bdef
/PlrRR {MlrRR fill } bdef
/MtbRR {/lry xdef /lrx xdef /uly xdef /ulx xdef /rad lrx ulx sub 2 div def
  newpath tMatrix currentmatrix pop ulx rad add uly rad add translate
  rad rad scale 0 0 1 180 360 arc tMatrix setmatrix lrx rad sub lry rad
  sub translate rad rad scale 0 0 1 0 180 arc tMatrix setmatrix
  closepath} bdef
/FtbRR {MtbRR stroke } bdef
/PtbRR {MtbRR fill } bdef
/stri 6 array def /dtri 6 array def
/smat 6 array def /dmat 6 array def
/tmat1 6 array def /tmat2 6 array def /dif 3 array def
/asub {/ind2 exch def /ind1 exch def dup dup
  ind1 get exch ind2 get sub exch } bdef
/tri_to_matrix {
  2 0 asub 3 1 asub 4 0 asub 5 1 asub
  dup 0 get exch 1 get 7 -1 roll astore } bdef
/compute_transform {
  dmat dtri tri_to_matrix tmat1 invertmatrix 
  smat stri tri_to_matrix tmat2 concatmatrix } bdef
/ds {stri astore pop} bdef
/dt {dtri astore pop} bdef
/db {2 copy /cols xdef /rows xdef mul dup 3 mul string
  currentfile 
  3 index 0 eq {/ASCIIHexDecode filter}
  {/ASCII85Decode filter 3 index 2 eq {/RunLengthDecode filter} if }
  ifelse exch readstring pop
  dup 0 3 index getinterval /rbmap xdef
  dup 2 index dup getinterval /gbmap xdef
  1 index dup 2 mul exch getinterval /bbmap xdef pop pop}bdef
/it {gs np dtri aload pop moveto lineto lineto cp c
  cols rows 8 compute_transform 
  rbmap gbmap bbmap true 3 colorimage gr}bdef
/il {newpath moveto lineto stroke}bdef
currentdict end def
%%EndProlog

%%BeginSetup
MathWorks begin

0 cap

end
%%EndSetup

%%Page: 1 1
%%BeginPageSetup
%%PageBoundingBox:   198   288   414   504
MathWorks begin
bpage
%%EndPageSetup

%%BeginObject: obj1
bplot

/dpi2point 12 def
portraitMode 2376 6048 csm

    0     0  2592  2592 rc
85 dict begin %Colortable dictionary
/c0 { 0.000000 0.000000 0.000000 sr} bdef
/c1 { 1.000000 1.000000 1.000000 sr} bdef
/c2 { 0.900000 0.000000 0.000000 sr} bdef
/c3 { 0.000000 0.820000 0.000000 sr} bdef
/c4 { 0.000000 0.000000 0.800000 sr} bdef
/c5 { 0.910000 0.820000 0.320000 sr} bdef
/c6 { 1.000000 0.260000 0.820000 sr} bdef
/c7 { 0.000000 0.820000 0.820000 sr} bdef
c0
1 j
1 sg
   0    0 2593 2593 rf
6 w
0 955 -751 -438 0 -955 2246 1910 4 MP
PP
751 438 0 955 -751 -438 0 -955 2246 1910 5 MP stroke
751 438 977 -336 -750 -437 1268 2245 4 MP
PP
-978 335 751 438 977 -336 -750 -437 1268 2245 5 MP stroke
0 955 977 -336 0 -955 518 1808 4 MP
PP
-977 336 0 955 977 -336 0 -955 518 1808 5 MP stroke
4 w
DO
0 sg
1268 2245 mt  518 1808 L
 518 1808 mt  518  853 L
1594 2134 mt  843 1696 L
 843 1696 mt  843  741 L
1920 2022 mt 1169 1584 L
1169 1584 mt 1169  629 L
2246 1910 mt 1495 1472 L
1495 1472 mt 1495  517 L
1268 2245 mt 2246 1910 L
2246 1910 mt 2246  955 L
 893 2027 mt 1870 1691 L
1870 1691 mt 1870  736 L
 518 1808 mt 1495 1472 L
1495 1472 mt 1495  517 L
 518 1808 mt 1495 1472 L
1495 1472 mt 2246 1910 L
 518 1331 mt 1495  995 L
1495  995 mt 2246 1432 L
 518  853 mt 1495  517 L
1495  517 mt 2246  955 L
SO
6 w
1268 2245 mt 2246 1910 L
1268 2245 mt  518 1808 L
 518 1808 mt  518  853 L
1268 2245 mt 1290 2259 L
%%IncludeResource: font Helvetica
/Helvetica /ISOLatin1Encoding 144 FMSR

1320 2410 mt 
(0) s
1594 2134 mt 1616 2147 L
1646 2298 mt 
(100) s
1920 2022 mt 1942 2035 L
1972 2186 mt 
(200) s
2246 1910 mt 2268 1923 L
2298 2074 mt 
(300) s
1268 2245 mt 1243 2254 L
1131 2399 mt 
(0) s
 893 2027 mt  868 2035 L
 635 2180 mt 
(0.5) s
 518 1808 mt  493 1816 L
 380 1962 mt 
(1) s
 518 1808 mt  495 1795 L
 385 1831 mt 
(0) s
 518 1331 mt  495 1318 L
 265 1353 mt 
(0.5) s
 518  853 mt  495  840 L
 385  876 mt 
(1) s
%%IncludeResource: font Helvetica
/Helvetica /ISOLatin1Encoding 96 FMSR

2234  551 mt 
( ) s
%%IncludeResource: font Helvetica
/Helvetica /ISOLatin1Encoding 144 FMSR

1980 2390 mt  -18 rotate
(Days) s
18 rotate
 100 2529 mt 
(Sensor Cumulative Incident) s
gs 518 517 1729 1729 rc
12 w
gr

12 w
/c8 { 1.000000 0.000000 0.000000 sr} bdef
c8
1518 2078 mt 1566 2078 L
1542 2054 mt 1542 2102 L
1526 2062 mt 1558 2094 L
1558 2062 mt 1526 2094 L
gs 518 517 1729 1729 rc
gr

1518 2084 mt 1566 2084 L
1542 2060 mt 1542 2108 L
1526 2068 mt 1558 2100 L
1558 2068 mt 1526 2100 L
gs 518 517 1729 1729 rc
gr

1518 2073 mt 1566 2073 L
1542 2049 mt 1542 2097 L
1526 2057 mt 1558 2089 L
1558 2057 mt 1526 2089 L
gs 518 517 1729 1729 rc
gr

/c9 { 0.000000 0.000000 1.000000 sr} bdef
c9
1518 2073 mt 1566 2073 L
1542 2049 mt 1542 2097 L
gs 518 517 1729 1729 rc
gr

1518 2078 mt 1566 2078 L
1542 2054 mt 1542 2102 L
gs 518 517 1729 1729 rc
gr

c8
1518 2088 mt 1566 2088 L
1542 2064 mt 1542 2112 L
1526 2072 mt 1558 2104 L
1558 2072 mt 1526 2104 L
gs 518 517 1729 1729 rc
gr

1518 2067 mt 1566 2067 L
1542 2043 mt 1542 2091 L
1526 2051 mt 1558 2083 L
1558 2051 mt 1526 2083 L
gs 518 517 1729 1729 rc
gr

c9
1518 2083 mt 1566 2083 L
1542 2059 mt 1542 2107 L
gs 518 517 1729 1729 rc
gr

1518 2067 mt 1566 2067 L
1542 2043 mt 1542 2091 L
gs 518 517 1729 1729 rc
gr

1518 2088 mt 1566 2088 L
1542 2064 mt 1542 2112 L
gs 518 517 1729 1729 rc
gr

c8
1517 2093 mt 1565 2093 L
1541 2069 mt 1541 2117 L
1525 2077 mt 1557 2109 L
1557 2077 mt 1525 2109 L
gs 518 517 1729 1729 rc
gr

c9
1517 2061 mt 1565 2061 L
1541 2037 mt 1541 2085 L
gs 518 517 1729 1729 rc
gr

c8
1517 2061 mt 1565 2061 L
1541 2037 mt 1541 2085 L
1525 2045 mt 1557 2077 L
1557 2045 mt 1525 2077 L
gs 518 517 1729 1729 rc
gr

c9
1517 2093 mt 1565 2093 L
1541 2069 mt 1541 2117 L
gs 518 517 1729 1729 rc
gr

c8
1517 2097 mt 1565 2097 L
1541 2073 mt 1541 2121 L
1525 2081 mt 1557 2113 L
1557 2081 mt 1525 2113 L
gs 518 517 1729 1729 rc
gr

c9
1517 2055 mt 1565 2055 L
1541 2031 mt 1541 2079 L
gs 518 517 1729 1729 rc
gr

c8
1516 2055 mt 1564 2055 L
1540 2031 mt 1540 2079 L
1524 2039 mt 1556 2071 L
1556 2039 mt 1524 2071 L
gs 518 517 1729 1729 rc
gr

c9
1516 2097 mt 1564 2097 L
1540 2073 mt 1540 2121 L
gs 518 517 1729 1729 rc
gr

c8
1516 2101 mt 1564 2101 L
1540 2077 mt 1540 2125 L
1524 2085 mt 1556 2117 L
1556 2085 mt 1524 2117 L
gs 518 517 1729 1729 rc
gr

c9
1516 2049 mt 1564 2049 L
1540 2025 mt 1540 2073 L
gs 518 517 1729 1729 rc
gr

c8
1515 2048 mt 1563 2048 L
1539 2024 mt 1539 2072 L
1523 2032 mt 1555 2064 L
1555 2032 mt 1523 2064 L
gs 518 517 1729 1729 rc
gr

c9
1515 2101 mt 1563 2101 L
1539 2077 mt 1539 2125 L
gs 518 517 1729 1729 rc
gr

c8
1515 2105 mt 1563 2105 L
1539 2081 mt 1539 2129 L
1523 2089 mt 1555 2121 L
1555 2089 mt 1523 2121 L
gs 518 517 1729 1729 rc
gr

c9
1514 2042 mt 1562 2042 L
1538 2018 mt 1538 2066 L
gs 518 517 1729 1729 rc
gr

1514 2105 mt 1562 2105 L
1538 2081 mt 1538 2129 L
gs 518 517 1729 1729 rc
gr

c8
1514 2041 mt 1562 2041 L
1538 2017 mt 1538 2065 L
1522 2025 mt 1554 2057 L
1554 2025 mt 1522 2057 L
gs 518 517 1729 1729 rc
gr

1514 2109 mt 1562 2109 L
1538 2085 mt 1538 2133 L
1522 2093 mt 1554 2125 L
1554 2093 mt 1522 2125 L
gs 518 517 1729 1729 rc
gr

c9
1513 2034 mt 1561 2034 L
1537 2010 mt 1537 2058 L
gs 518 517 1729 1729 rc
gr

1513 2109 mt 1561 2109 L
1537 2085 mt 1537 2133 L
gs 518 517 1729 1729 rc
gr

c8
1512 2113 mt 1560 2113 L
1536 2089 mt 1536 2137 L
1520 2097 mt 1552 2129 L
1552 2097 mt 1520 2129 L
gs 518 517 1729 1729 rc
gr

1512 2034 mt 1560 2034 L
1536 2010 mt 1536 2058 L
1520 2018 mt 1552 2050 L
1552 2018 mt 1520 2050 L
gs 518 517 1729 1729 rc
gr

c9
1512 2112 mt 1560 2112 L
1536 2088 mt 1536 2136 L
gs 518 517 1729 1729 rc
gr

c8
1511 2116 mt 1559 2116 L
1535 2092 mt 1535 2140 L
1519 2100 mt 1551 2132 L
1551 2100 mt 1519 2132 L
gs 518 517 1729 1729 rc
gr

c9
1511 2026 mt 1559 2026 L
1535 2002 mt 1535 2050 L
gs 518 517 1729 1729 rc
gr

1510 2116 mt 1558 2116 L
1534 2092 mt 1534 2140 L
gs 518 517 1729 1729 rc
gr

c8
1510 2026 mt 1558 2026 L
1534 2002 mt 1534 2050 L
1518 2010 mt 1550 2042 L
1550 2010 mt 1518 2042 L
gs 518 517 1729 1729 rc
gr

1509 2119 mt 1557 2119 L
1533 2095 mt 1533 2143 L
1517 2103 mt 1549 2135 L
1549 2103 mt 1517 2135 L
gs 518 517 1729 1729 rc
gr

c9
1509 2119 mt 1557 2119 L
1533 2095 mt 1533 2143 L
gs 518 517 1729 1729 rc
gr

1508 2018 mt 1556 2018 L
1532 1994 mt 1532 2042 L
gs 518 517 1729 1729 rc
gr

c8
1508 2017 mt 1556 2017 L
1532 1993 mt 1532 2041 L
1516 2001 mt 1548 2033 L
1548 2001 mt 1516 2033 L
gs 518 517 1729 1729 rc
gr

1508 2122 mt 1556 2122 L
1532 2098 mt 1532 2146 L
1516 2106 mt 1548 2138 L
1548 2106 mt 1516 2138 L
gs 518 517 1729 1729 rc
gr

c9
1507 2122 mt 1555 2122 L
1531 2098 mt 1531 2146 L
gs 518 517 1729 1729 rc
gr

1506 2009 mt 1554 2009 L
1530 1985 mt 1530 2033 L
gs 518 517 1729 1729 rc
gr

c8
1506 2125 mt 1554 2125 L
1530 2101 mt 1530 2149 L
1514 2109 mt 1546 2141 L
1546 2109 mt 1514 2141 L
gs 518 517 1729 1729 rc
gr

c9
1505 2125 mt 1553 2125 L
1529 2101 mt 1529 2149 L
gs 518 517 1729 1729 rc
gr

c8
1505 2009 mt 1553 2009 L
1529 1985 mt 1529 2033 L
1513 1993 mt 1545 2025 L
1545 1993 mt 1513 2025 L
gs 518 517 1729 1729 rc
gr

1504 2128 mt 1552 2128 L
1528 2104 mt 1528 2152 L
1512 2112 mt 1544 2144 L
1544 2112 mt 1512 2144 L
gs 518 517 1729 1729 rc
gr

c9
1503 2128 mt 1551 2128 L
1527 2104 mt 1527 2152 L
gs 518 517 1729 1729 rc
gr

1503 1999 mt 1551 1999 L
1527 1975 mt 1527 2023 L
gs 518 517 1729 1729 rc
gr

1502 2131 mt 1550 2131 L
1526 2107 mt 1526 2155 L
gs 518 517 1729 1729 rc
gr

c8
1502 2131 mt 1550 2131 L
1526 2107 mt 1526 2155 L
1510 2115 mt 1542 2147 L
1542 2115 mt 1510 2147 L
gs 518 517 1729 1729 rc
gr

1502 1999 mt 1550 1999 L
1526 1975 mt 1526 2023 L
1510 1983 mt 1542 2015 L
1542 1983 mt 1510 2015 L
gs 518 517 1729 1729 rc
gr

1500 2133 mt 1548 2133 L
1524 2109 mt 1524 2157 L
1508 2117 mt 1540 2149 L
1540 2117 mt 1508 2149 L
gs 518 517 1729 1729 rc
gr

c9
1500 2134 mt 1548 2134 L
1524 2110 mt 1524 2158 L
gs 518 517 1729 1729 rc
gr

1499 1990 mt 1547 1990 L
1523 1966 mt 1523 2014 L
gs 518 517 1729 1729 rc
gr

c8
1498 1989 mt 1546 1989 L
1522 1965 mt 1522 2013 L
1506 1973 mt 1538 2005 L
1538 1973 mt 1506 2005 L
gs 518 517 1729 1729 rc
gr

c9
1498 2136 mt 1546 2136 L
1522 2112 mt 1522 2160 L
gs 518 517 1729 1729 rc
gr

c8
1497 2136 mt 1545 2136 L
1521 2112 mt 1521 2160 L
1505 2120 mt 1537 2152 L
1537 2120 mt 1505 2152 L
gs 518 517 1729 1729 rc
gr

c9
1495 2139 mt 1543 2139 L
1519 2115 mt 1519 2163 L
gs 518 517 1729 1729 rc
gr

c8
1495 2138 mt 1543 2138 L
1519 2114 mt 1519 2162 L
1503 2122 mt 1535 2154 L
1535 2122 mt 1503 2154 L
gs 518 517 1729 1729 rc
gr

c9
1495 1979 mt 1543 1979 L
1519 1955 mt 1519 2003 L
gs 518 517 1729 1729 rc
gr

c8
1494 1979 mt 1542 1979 L
1518 1955 mt 1518 2003 L
1502 1963 mt 1534 1995 L
1534 1963 mt 1502 1995 L
gs 518 517 1729 1729 rc
gr

c9
1493 2141 mt 1541 2141 L
1517 2117 mt 1517 2165 L
gs 518 517 1729 1729 rc
gr

c8
1493 2141 mt 1541 2141 L
1517 2117 mt 1517 2165 L
1501 2125 mt 1533 2157 L
1533 2125 mt 1501 2157 L
gs 518 517 1729 1729 rc
gr

c9
1491 2143 mt 1539 2143 L
1515 2119 mt 1515 2167 L
gs 518 517 1729 1729 rc
gr

c8
1490 2143 mt 1538 2143 L
1514 2119 mt 1514 2167 L
1498 2127 mt 1530 2159 L
1530 2127 mt 1498 2159 L
gs 518 517 1729 1729 rc
gr

1490 1968 mt 1538 1968 L
1514 1944 mt 1514 1992 L
1498 1952 mt 1530 1984 L
1530 1952 mt 1498 1984 L
gs 518 517 1729 1729 rc
gr

c9
1490 1968 mt 1538 1968 L
1514 1944 mt 1514 1992 L
gs 518 517 1729 1729 rc
gr

1488 2145 mt 1536 2145 L
1512 2121 mt 1512 2169 L
gs 518 517 1729 1729 rc
gr

c8
1488 2145 mt 1536 2145 L
1512 2121 mt 1512 2169 L
1496 2129 mt 1528 2161 L
1528 2129 mt 1496 2161 L
gs 518 517 1729 1729 rc
gr

c9
1486 2147 mt 1534 2147 L
1510 2123 mt 1510 2171 L
gs 518 517 1729 1729 rc
gr

c8
1485 2147 mt 1533 2147 L
1509 2123 mt 1509 2171 L
1493 2131 mt 1525 2163 L
1525 2131 mt 1493 2163 L
gs 518 517 1729 1729 rc
gr

1485 1956 mt 1533 1956 L
1509 1932 mt 1509 1980 L
1493 1940 mt 1525 1972 L
1525 1940 mt 1493 1972 L
gs 518 517 1729 1729 rc
gr

c9
1485 1957 mt 1533 1957 L
1509 1933 mt 1509 1981 L
gs 518 517 1729 1729 rc
gr

1483 2149 mt 1531 2149 L
1507 2125 mt 1507 2173 L
gs 518 517 1729 1729 rc
gr

c8
1483 2149 mt 1531 2149 L
1507 2125 mt 1507 2173 L
1491 2133 mt 1523 2165 L
1523 2133 mt 1491 2165 L
gs 518 517 1729 1729 rc
gr

c9
1481 2151 mt 1529 2151 L
1505 2127 mt 1505 2175 L
gs 518 517 1729 1729 rc
gr

c8
1480 2151 mt 1528 2151 L
1504 2127 mt 1504 2175 L
1488 2135 mt 1520 2167 L
1520 2135 mt 1488 2167 L
gs 518 517 1729 1729 rc
gr

1480 1944 mt 1528 1944 L
1504 1920 mt 1504 1968 L
1488 1928 mt 1520 1960 L
1520 1928 mt 1488 1960 L
gs 518 517 1729 1729 rc
gr

c9
1480 1944 mt 1528 1944 L
1504 1920 mt 1504 1968 L
gs 518 517 1729 1729 rc
gr

1478 2153 mt 1526 2153 L
1502 2129 mt 1502 2177 L
gs 518 517 1729 1729 rc
gr

c8
1478 2153 mt 1526 2153 L
1502 2129 mt 1502 2177 L
1486 2137 mt 1518 2169 L
1518 2137 mt 1486 2169 L
gs 518 517 1729 1729 rc
gr

1475 2155 mt 1523 2155 L
1499 2131 mt 1499 2179 L
1483 2139 mt 1515 2171 L
1515 2139 mt 1483 2171 L
gs 518 517 1729 1729 rc
gr

c9
1475 2154 mt 1523 2154 L
1499 2130 mt 1499 2178 L
gs 518 517 1729 1729 rc
gr

c8
1475 1931 mt 1523 1931 L
1499 1907 mt 1499 1955 L
1483 1915 mt 1515 1947 L
1515 1915 mt 1483 1947 L
gs 518 517 1729 1729 rc
gr

c9
1474 1931 mt 1522 1931 L
1498 1907 mt 1498 1955 L
gs 518 517 1729 1729 rc
gr

1472 2156 mt 1520 2156 L
1496 2132 mt 1496 2180 L
gs 518 517 1729 1729 rc
gr

c8
1472 2156 mt 1520 2156 L
1496 2132 mt 1496 2180 L
1480 2140 mt 1512 2172 L
1512 2140 mt 1480 2172 L
gs 518 517 1729 1729 rc
gr

1471  518 mt 1519  518 L
1495  494 mt 1495  542 L
1479  502 mt 1511  534 L
1511  502 mt 1479  534 L
gs 518 517 1729 1729 rc
gr

c9
1471  517 mt 1519  517 L
1495  493 mt 1495  541 L
gs 518 517 1729 1729 rc
gr

1469 2158 mt 1517 2158 L
1493 2134 mt 1493 2182 L
gs 518 517 1729 1729 rc
gr

c8
1469 2158 mt 1517 2158 L
1493 2134 mt 1493 2182 L
1477 2142 mt 1509 2174 L
1509 2142 mt 1477 2174 L
gs 518 517 1729 1729 rc
gr

1469 1918 mt 1517 1918 L
1493 1894 mt 1493 1942 L
1477 1902 mt 1509 1934 L
1509 1902 mt 1477 1934 L
gs 518 517 1729 1729 rc
gr

1468  519 mt 1516  519 L
1492  495 mt 1492  543 L
1476  503 mt 1508  535 L
1508  503 mt 1476  535 L
gs 518 517 1729 1729 rc
gr

c9
1468  519 mt 1516  519 L
1492  495 mt 1492  543 L
gs 518 517 1729 1729 rc
gr

1468 1917 mt 1516 1917 L
1492 1893 mt 1492 1941 L
gs 518 517 1729 1729 rc
gr

1467 2160 mt 1515 2160 L
1491 2136 mt 1491 2184 L
gs 518 517 1729 1729 rc
gr

c8
1467 2160 mt 1515 2160 L
1491 2136 mt 1491 2184 L
1475 2144 mt 1507 2176 L
1507 2144 mt 1475 2176 L
gs 518 517 1729 1729 rc
gr

1465  520 mt 1513  520 L
1489  496 mt 1489  544 L
1473  504 mt 1505  536 L
1505  504 mt 1473  536 L
gs 518 517 1729 1729 rc
gr

c9
1465  520 mt 1513  520 L
1489  496 mt 1489  544 L
gs 518 517 1729 1729 rc
gr

c8
1464 2161 mt 1512 2161 L
1488 2137 mt 1488 2185 L
1472 2145 mt 1504 2177 L
1504 2145 mt 1472 2177 L
gs 518 517 1729 1729 rc
gr

c9
1464 2161 mt 1512 2161 L
1488 2137 mt 1488 2185 L
gs 518 517 1729 1729 rc
gr

c8
1462 1903 mt 1510 1903 L
1486 1879 mt 1486 1927 L
1470 1887 mt 1502 1919 L
1502 1887 mt 1470 1919 L
gs 518 517 1729 1729 rc
gr

1461  521 mt 1509  521 L
1485  497 mt 1485  545 L
1469  505 mt 1501  537 L
1501  505 mt 1469  537 L
gs 518 517 1729 1729 rc
gr

c9
1461  521 mt 1509  521 L
1485  497 mt 1485  545 L
gs 518 517 1729 1729 rc
gr

c8
1461 2163 mt 1509 2163 L
1485 2139 mt 1485 2187 L
1469 2147 mt 1501 2179 L
1501 2147 mt 1469 2179 L
gs 518 517 1729 1729 rc
gr

c9
1461 1903 mt 1509 1903 L
1485 1879 mt 1485 1927 L
gs 518 517 1729 1729 rc
gr

1461 2163 mt 1509 2163 L
1485 2139 mt 1485 2187 L
gs 518 517 1729 1729 rc
gr

c8
1458  522 mt 1506  522 L
1482  498 mt 1482  546 L
1466  506 mt 1498  538 L
1498  506 mt 1466  538 L
gs 518 517 1729 1729 rc
gr

c9
1458  522 mt 1506  522 L
1482  498 mt 1482  546 L
gs 518 517 1729 1729 rc
gr

c8
1458 2165 mt 1506 2165 L
1482 2141 mt 1482 2189 L
1466 2149 mt 1498 2181 L
1498 2149 mt 1466 2181 L
gs 518 517 1729 1729 rc
gr

c9
1458 2164 mt 1506 2164 L
1482 2140 mt 1482 2188 L
gs 518 517 1729 1729 rc
gr

c8
1455 1888 mt 1503 1888 L
1479 1864 mt 1479 1912 L
1463 1872 mt 1495 1904 L
1495 1872 mt 1463 1904 L
gs 518 517 1729 1729 rc
gr

1455  523 mt 1503  523 L
1479  499 mt 1479  547 L
1463  507 mt 1495  539 L
1495  507 mt 1463  539 L
gs 518 517 1729 1729 rc
gr

c9
1455  523 mt 1503  523 L
1479  499 mt 1479  547 L
gs 518 517 1729 1729 rc
gr

c8
1455 2166 mt 1503 2166 L
1479 2142 mt 1479 2190 L
1463 2150 mt 1495 2182 L
1495 2150 mt 1463 2182 L
gs 518 517 1729 1729 rc
gr

c9
1455 2166 mt 1503 2166 L
1479 2142 mt 1479 2190 L
gs 518 517 1729 1729 rc
gr

1453 1887 mt 1501 1887 L
1477 1863 mt 1477 1911 L
gs 518 517 1729 1729 rc
gr

c8
1452 2168 mt 1500 2168 L
1476 2144 mt 1476 2192 L
1460 2152 mt 1492 2184 L
1492 2152 mt 1460 2184 L
gs 518 517 1729 1729 rc
gr

c9
1452 2167 mt 1500 2167 L
1476 2143 mt 1476 2191 L
gs 518 517 1729 1729 rc
gr

c8
1452  524 mt 1500  524 L
1476  500 mt 1476  548 L
1460  508 mt 1492  540 L
1492  508 mt 1460  540 L
gs 518 517 1729 1729 rc
gr

c9
1452  524 mt 1500  524 L
1476  500 mt 1476  548 L
gs 518 517 1729 1729 rc
gr

c8
1449 2169 mt 1497 2169 L
1473 2145 mt 1473 2193 L
1457 2153 mt 1489 2185 L
1489 2153 mt 1457 2185 L
gs 518 517 1729 1729 rc
gr

c9
1449 2169 mt 1497 2169 L
1473 2145 mt 1473 2193 L
gs 518 517 1729 1729 rc
gr

c8
1448  525 mt 1496  525 L
1472  501 mt 1472  549 L
1456  509 mt 1488  541 L
1488  509 mt 1456  541 L
gs 518 517 1729 1729 rc
gr

c9
1448  525 mt 1496  525 L
1472  501 mt 1472  549 L
gs 518 517 1729 1729 rc
gr

c8
1448 1873 mt 1496 1873 L
1472 1849 mt 1472 1897 L
1456 1857 mt 1488 1889 L
1488 1857 mt 1456 1889 L
gs 518 517 1729 1729 rc
gr

1446 2171 mt 1494 2171 L
1470 2147 mt 1470 2195 L
1454 2155 mt 1486 2187 L
1486 2155 mt 1454 2187 L
gs 518 517 1729 1729 rc
gr

c9
1446 2170 mt 1494 2170 L
1470 2146 mt 1470 2194 L
gs 518 517 1729 1729 rc
gr

1445 1872 mt 1493 1872 L
1469 1848 mt 1469 1896 L
gs 518 517 1729 1729 rc
gr

c8
1445  526 mt 1493  526 L
1469  502 mt 1469  550 L
1453  510 mt 1485  542 L
1485  510 mt 1453  542 L
gs 518 517 1729 1729 rc
gr

c9
1445  526 mt 1493  526 L
1469  502 mt 1469  550 L
gs 518 517 1729 1729 rc
gr

c8
1443 2172 mt 1491 2172 L
1467 2148 mt 1467 2196 L
1451 2156 mt 1483 2188 L
1483 2156 mt 1451 2188 L
gs 518 517 1729 1729 rc
gr

c9
1443 2171 mt 1491 2171 L
1467 2147 mt 1467 2195 L
gs 518 517 1729 1729 rc
gr

c8
1442  528 mt 1490  528 L
1466  504 mt 1466  552 L
1450  512 mt 1482  544 L
1482  512 mt 1450  544 L
gs 518 517 1729 1729 rc
gr

c9
1442  528 mt 1490  528 L
1466  504 mt 1466  552 L
gs 518 517 1729 1729 rc
gr

c8
1440 1856 mt 1488 1856 L
1464 1832 mt 1464 1880 L
1448 1840 mt 1480 1872 L
1480 1840 mt 1448 1872 L
gs 518 517 1729 1729 rc
gr

1440 2173 mt 1488 2173 L
1464 2149 mt 1464 2197 L
1448 2157 mt 1480 2189 L
1480 2157 mt 1448 2189 L
gs 518 517 1729 1729 rc
gr

c9
1440 2173 mt 1488 2173 L
1464 2149 mt 1464 2197 L
gs 518 517 1729 1729 rc
gr

c8
1439  529 mt 1487  529 L
1463  505 mt 1463  553 L
1447  513 mt 1479  545 L
1479  513 mt 1447  545 L
gs 518 517 1729 1729 rc
gr

c9
1439  529 mt 1487  529 L
1463  505 mt 1463  553 L
gs 518 517 1729 1729 rc
gr

1437 1855 mt 1485 1855 L
1461 1831 mt 1461 1879 L
gs 518 517 1729 1729 rc
gr

c8
1437 2175 mt 1485 2175 L
1461 2151 mt 1461 2199 L
1445 2159 mt 1477 2191 L
1477 2159 mt 1445 2191 L
gs 518 517 1729 1729 rc
gr

c9
1437 2174 mt 1485 2174 L
1461 2150 mt 1461 2198 L
gs 518 517 1729 1729 rc
gr

c8
1435  530 mt 1483  530 L
1459  506 mt 1459  554 L
1443  514 mt 1475  546 L
1475  514 mt 1443  546 L
gs 518 517 1729 1729 rc
gr

c9
1435  530 mt 1483  530 L
1459  506 mt 1459  554 L
gs 518 517 1729 1729 rc
gr

c8
1434 2176 mt 1482 2176 L
1458 2152 mt 1458 2200 L
1442 2160 mt 1474 2192 L
1474 2160 mt 1442 2192 L
gs 518 517 1729 1729 rc
gr

c9
1433 2176 mt 1481 2176 L
1457 2152 mt 1457 2200 L
gs 518 517 1729 1729 rc
gr

c8
1432 1839 mt 1480 1839 L
1456 1815 mt 1456 1863 L
1440 1823 mt 1472 1855 L
1472 1823 mt 1440 1855 L
gs 518 517 1729 1729 rc
gr

1432  531 mt 1480  531 L
1456  507 mt 1456  555 L
1440  515 mt 1472  547 L
1472  515 mt 1440  547 L
gs 518 517 1729 1729 rc
gr

c9
1432  531 mt 1480  531 L
1456  507 mt 1456  555 L
gs 518 517 1729 1729 rc
gr

c8
1431 2178 mt 1479 2178 L
1455 2154 mt 1455 2202 L
1439 2162 mt 1471 2194 L
1471 2162 mt 1439 2194 L
gs 518 517 1729 1729 rc
gr

c9
1430 2177 mt 1478 2177 L
1454 2153 mt 1454 2201 L
gs 518 517 1729 1729 rc
gr

c8
1429  532 mt 1477  532 L
1453  508 mt 1453  556 L
1437  516 mt 1469  548 L
1469  516 mt 1437  548 L
gs 518 517 1729 1729 rc
gr

c9
1429  532 mt 1477  532 L
1453  508 mt 1453  556 L
gs 518 517 1729 1729 rc
gr

1428 1838 mt 1476 1838 L
1452 1814 mt 1452 1862 L
gs 518 517 1729 1729 rc
gr

c8
1428 2179 mt 1476 2179 L
1452 2155 mt 1452 2203 L
1436 2163 mt 1468 2195 L
1468 2163 mt 1436 2195 L
gs 518 517 1729 1729 rc
gr

c9
1427 2179 mt 1475 2179 L
1451 2155 mt 1451 2203 L
gs 518 517 1729 1729 rc
gr

c8
1426  533 mt 1474  533 L
1450  509 mt 1450  557 L
1434  517 mt 1466  549 L
1466  517 mt 1434  549 L
gs 518 517 1729 1729 rc
gr

c9
1426  533 mt 1474  533 L
1450  509 mt 1450  557 L
gs 518 517 1729 1729 rc
gr

c8
1424 2180 mt 1472 2180 L
1448 2156 mt 1448 2204 L
1432 2164 mt 1464 2196 L
1464 2164 mt 1432 2196 L
gs 518 517 1729 1729 rc
gr

c9
1424 2180 mt 1472 2180 L
1448 2156 mt 1448 2204 L
gs 518 517 1729 1729 rc
gr

c8
1424 1821 mt 1472 1821 L
1448 1797 mt 1448 1845 L
1432 1805 mt 1464 1837 L
1464 1805 mt 1432 1837 L
gs 518 517 1729 1729 rc
gr

1422  534 mt 1470  534 L
1446  510 mt 1446  558 L
1430  518 mt 1462  550 L
1462  518 mt 1430  550 L
gs 518 517 1729 1729 rc
gr

c9
1422  534 mt 1470  534 L
1446  510 mt 1446  558 L
gs 518 517 1729 1729 rc
gr

c8
1421 2182 mt 1469 2182 L
1445 2158 mt 1445 2206 L
1429 2166 mt 1461 2198 L
1461 2166 mt 1429 2198 L
gs 518 517 1729 1729 rc
gr

c9
1421 2181 mt 1469 2181 L
1445 2157 mt 1445 2205 L
gs 518 517 1729 1729 rc
gr

c8
1419  535 mt 1467  535 L
1443  511 mt 1443  559 L
1427  519 mt 1459  551 L
1459  519 mt 1427  551 L
gs 518 517 1729 1729 rc
gr

c9
1419  535 mt 1467  535 L
1443  511 mt 1443  559 L
gs 518 517 1729 1729 rc
gr

1419 1819 mt 1467 1819 L
1443 1795 mt 1443 1843 L
gs 518 517 1729 1729 rc
gr

c8
1418 2183 mt 1466 2183 L
1442 2159 mt 1442 2207 L
1426 2167 mt 1458 2199 L
1458 2167 mt 1426 2199 L
gs 518 517 1729 1729 rc
gr

c9
1418 2183 mt 1466 2183 L
1442 2159 mt 1442 2207 L
gs 518 517 1729 1729 rc
gr

c8
1416  537 mt 1464  537 L
1440  513 mt 1440  561 L
1424  521 mt 1456  553 L
1456  521 mt 1424  553 L
gs 518 517 1729 1729 rc
gr

c9
1416  537 mt 1464  537 L
1440  513 mt 1440  561 L
gs 518 517 1729 1729 rc
gr

c8
1415 2184 mt 1463 2184 L
1439 2160 mt 1439 2208 L
1423 2168 mt 1455 2200 L
1455 2168 mt 1423 2200 L
gs 518 517 1729 1729 rc
gr

c9
1415 2184 mt 1463 2184 L
1439 2160 mt 1439 2208 L
gs 518 517 1729 1729 rc
gr

c8
1415 1803 mt 1463 1803 L
1439 1779 mt 1439 1827 L
1423 1787 mt 1455 1819 L
1455 1787 mt 1423 1819 L
gs 518 517 1729 1729 rc
gr

1413  538 mt 1461  538 L
1437  514 mt 1437  562 L
1421  522 mt 1453  554 L
1453  522 mt 1421  554 L
gs 518 517 1729 1729 rc
gr

c9
1413  538 mt 1461  538 L
1437  514 mt 1437  562 L
gs 518 517 1729 1729 rc
gr

c8
1412 2185 mt 1460 2185 L
1436 2161 mt 1436 2209 L
1420 2169 mt 1452 2201 L
1452 2169 mt 1420 2201 L
gs 518 517 1729 1729 rc
gr

c9
1412 2185 mt 1460 2185 L
1436 2161 mt 1436 2209 L
gs 518 517 1729 1729 rc
gr

c8
1409  539 mt 1457  539 L
1433  515 mt 1433  563 L
1417  523 mt 1449  555 L
1449  523 mt 1417  555 L
gs 518 517 1729 1729 rc
gr

c9
1409  539 mt 1457  539 L
1433  515 mt 1433  563 L
gs 518 517 1729 1729 rc
gr

1409 1800 mt 1457 1800 L
1433 1776 mt 1433 1824 L
gs 518 517 1729 1729 rc
gr

c8
1409 2187 mt 1457 2187 L
1433 2163 mt 1433 2211 L
1417 2171 mt 1449 2203 L
1449 2171 mt 1417 2203 L
gs 518 517 1729 1729 rc
gr

c9
1409 2187 mt 1457 2187 L
1433 2163 mt 1433 2211 L
gs 518 517 1729 1729 rc
gr

c8
1406  540 mt 1454  540 L
1430  516 mt 1430  564 L
1414  524 mt 1446  556 L
1446  524 mt 1414  556 L
gs 518 517 1729 1729 rc
gr

c9
1406  540 mt 1454  540 L
1430  516 mt 1430  564 L
gs 518 517 1729 1729 rc
gr

c8
1406 1783 mt 1454 1783 L
1430 1759 mt 1430 1807 L
1414 1767 mt 1446 1799 L
1446 1767 mt 1414 1799 L
gs 518 517 1729 1729 rc
gr

c9
1405 2188 mt 1453 2188 L
1429 2164 mt 1429 2212 L
gs 518 517 1729 1729 rc
gr

c8
1406 2188 mt 1454 2188 L
1430 2164 mt 1430 2212 L
1414 2172 mt 1446 2204 L
1446 2172 mt 1414 2204 L
gs 518 517 1729 1729 rc
gr

1403  541 mt 1451  541 L
1427  517 mt 1427  565 L
1411  525 mt 1443  557 L
1443  525 mt 1411  557 L
gs 518 517 1729 1729 rc
gr

c9
1403  541 mt 1451  541 L
1427  517 mt 1427  565 L
gs 518 517 1729 1729 rc
gr

c8
1402 2189 mt 1450 2189 L
1426 2165 mt 1426 2213 L
1410 2173 mt 1442 2205 L
1442 2173 mt 1410 2205 L
gs 518 517 1729 1729 rc
gr

c9
1402 2189 mt 1450 2189 L
1426 2165 mt 1426 2213 L
gs 518 517 1729 1729 rc
gr

c8
1400  542 mt 1448  542 L
1424  518 mt 1424  566 L
1408  526 mt 1440  558 L
1440  526 mt 1408  558 L
gs 518 517 1729 1729 rc
gr

c9
1400  542 mt 1448  542 L
1424  518 mt 1424  566 L
gs 518 517 1729 1729 rc
gr

1399 1780 mt 1447 1780 L
1423 1756 mt 1423 1804 L
gs 518 517 1729 1729 rc
gr

c8
1399 2190 mt 1447 2190 L
1423 2166 mt 1423 2214 L
1407 2174 mt 1439 2206 L
1439 2174 mt 1407 2206 L
gs 518 517 1729 1729 rc
gr

c9
1399 2190 mt 1447 2190 L
1423 2166 mt 1423 2214 L
gs 518 517 1729 1729 rc
gr

c8
1396  543 mt 1444  543 L
1420  519 mt 1420  567 L
1404  527 mt 1436  559 L
1436  527 mt 1404  559 L
gs 518 517 1729 1729 rc
gr

c9
1396  543 mt 1444  543 L
1420  519 mt 1420  567 L
gs 518 517 1729 1729 rc
gr

c8
1396 2192 mt 1444 2192 L
1420 2168 mt 1420 2216 L
1404 2176 mt 1436 2208 L
1436 2176 mt 1404 2208 L
gs 518 517 1729 1729 rc
gr

1396 1763 mt 1444 1763 L
1420 1739 mt 1420 1787 L
1404 1747 mt 1436 1779 L
1436 1747 mt 1404 1779 L
gs 518 517 1729 1729 rc
gr

c9
1396 2191 mt 1444 2191 L
1420 2167 mt 1420 2215 L
gs 518 517 1729 1729 rc
gr

c8
1393  544 mt 1441  544 L
1417  520 mt 1417  568 L
1401  528 mt 1433  560 L
1433  528 mt 1401  560 L
gs 518 517 1729 1729 rc
gr

c9
1393  544 mt 1441  544 L
1417  520 mt 1417  568 L
gs 518 517 1729 1729 rc
gr

c8
1393 2193 mt 1441 2193 L
1417 2169 mt 1417 2217 L
1401 2177 mt 1433 2209 L
1433 2177 mt 1401 2209 L
gs 518 517 1729 1729 rc
gr

c9
1393 2193 mt 1441 2193 L
1417 2169 mt 1417 2217 L
gs 518 517 1729 1729 rc
gr

c8
1390  546 mt 1438  546 L
1414  522 mt 1414  570 L
1398  530 mt 1430  562 L
1430  530 mt 1398  562 L
gs 518 517 1729 1729 rc
gr

c9
1390  545 mt 1438  545 L
1414  521 mt 1414  569 L
gs 518 517 1729 1729 rc
gr

c8
1390 2194 mt 1438 2194 L
1414 2170 mt 1414 2218 L
1398 2178 mt 1430 2210 L
1430 2178 mt 1398 2210 L
gs 518 517 1729 1729 rc
gr

c9
1390 2194 mt 1438 2194 L
1414 2170 mt 1414 2218 L
gs 518 517 1729 1729 rc
gr

1388 1760 mt 1436 1760 L
1412 1736 mt 1412 1784 L
gs 518 517 1729 1729 rc
gr

c8
1387  547 mt 1435  547 L
1411  523 mt 1411  571 L
1395  531 mt 1427  563 L
1427  531 mt 1395  563 L
gs 518 517 1729 1729 rc
gr

c9
1387  547 mt 1435  547 L
1411  523 mt 1411  571 L
gs 518 517 1729 1729 rc
gr

c8
1386 2195 mt 1434 2195 L
1410 2171 mt 1410 2219 L
1394 2179 mt 1426 2211 L
1426 2179 mt 1394 2211 L
gs 518 517 1729 1729 rc
gr

c9
1386 2195 mt 1434 2195 L
1410 2171 mt 1410 2219 L
gs 518 517 1729 1729 rc
gr

c8
1386 1742 mt 1434 1742 L
1410 1718 mt 1410 1766 L
1394 1726 mt 1426 1758 L
1426 1726 mt 1394 1758 L
gs 518 517 1729 1729 rc
gr

1383  548 mt 1431  548 L
1407  524 mt 1407  572 L
1391  532 mt 1423  564 L
1423  532 mt 1391  564 L
gs 518 517 1729 1729 rc
gr

c9
1383 2196 mt 1431 2196 L
1407 2172 mt 1407 2220 L
gs 518 517 1729 1729 rc
gr

1383  548 mt 1431  548 L
1407  524 mt 1407  572 L
gs 518 517 1729 1729 rc
gr

c8
1383 2196 mt 1431 2196 L
1407 2172 mt 1407 2220 L
1391 2180 mt 1423 2212 L
1423 2180 mt 1391 2212 L
gs 518 517 1729 1729 rc
gr

c9
1380 2198 mt 1428 2198 L
1404 2174 mt 1404 2222 L
gs 518 517 1729 1729 rc
gr

c8
1380 2198 mt 1428 2198 L
1404 2174 mt 1404 2222 L
1388 2182 mt 1420 2214 L
1420 2182 mt 1388 2214 L
gs 518 517 1729 1729 rc
gr

1380  549 mt 1428  549 L
1404  525 mt 1404  573 L
1388  533 mt 1420  565 L
1420  533 mt 1388  565 L
gs 518 517 1729 1729 rc
gr

c9
1380  549 mt 1428  549 L
1404  525 mt 1404  573 L
gs 518 517 1729 1729 rc
gr

1377 1740 mt 1425 1740 L
1401 1716 mt 1401 1764 L
gs 518 517 1729 1729 rc
gr

1377 2199 mt 1425 2199 L
1401 2175 mt 1401 2223 L
gs 518 517 1729 1729 rc
gr

c8
1377 2199 mt 1425 2199 L
1401 2175 mt 1401 2223 L
1385 2183 mt 1417 2215 L
1417 2183 mt 1385 2215 L
gs 518 517 1729 1729 rc
gr

1377  550 mt 1425  550 L
1401  526 mt 1401  574 L
1385  534 mt 1417  566 L
1417  534 mt 1385  566 L
gs 518 517 1729 1729 rc
gr

c9
1377  550 mt 1425  550 L
1401  526 mt 1401  574 L
gs 518 517 1729 1729 rc
gr

c8
1376 1720 mt 1424 1720 L
1400 1696 mt 1400 1744 L
1384 1704 mt 1416 1736 L
1416 1704 mt 1384 1736 L
gs 518 517 1729 1729 rc
gr

c9
1374 2200 mt 1422 2200 L
1398 2176 mt 1398 2224 L
gs 518 517 1729 1729 rc
gr

c8
1374 2200 mt 1422 2200 L
1398 2176 mt 1398 2224 L
1382 2184 mt 1414 2216 L
1414 2184 mt 1382 2216 L
gs 518 517 1729 1729 rc
gr

1373  551 mt 1421  551 L
1397  527 mt 1397  575 L
1381  535 mt 1413  567 L
1413  535 mt 1381  567 L
gs 518 517 1729 1729 rc
gr

c9
1373  551 mt 1421  551 L
1397  527 mt 1397  575 L
gs 518 517 1729 1729 rc
gr

1370 2201 mt 1418 2201 L
1394 2177 mt 1394 2225 L
gs 518 517 1729 1729 rc
gr

c8
1370 2201 mt 1418 2201 L
1394 2177 mt 1394 2225 L
1378 2185 mt 1410 2217 L
1410 2185 mt 1378 2217 L
gs 518 517 1729 1729 rc
gr

1370  552 mt 1418  552 L
1394  528 mt 1394  576 L
1378  536 mt 1410  568 L
1410  536 mt 1378  568 L
gs 518 517 1729 1729 rc
gr

c9
1370  552 mt 1418  552 L
1394  528 mt 1394  576 L
gs 518 517 1729 1729 rc
gr

1367 2202 mt 1415 2202 L
1391 2178 mt 1391 2226 L
gs 518 517 1729 1729 rc
gr

c8
1367 2202 mt 1415 2202 L
1391 2178 mt 1391 2226 L
1375 2186 mt 1407 2218 L
1407 2186 mt 1375 2218 L
gs 518 517 1729 1729 rc
gr

1367  553 mt 1415  553 L
1391  529 mt 1391  577 L
1375  537 mt 1407  569 L
1407  537 mt 1375  569 L
gs 518 517 1729 1729 rc
gr

c9
1367  553 mt 1415  553 L
1391  529 mt 1391  577 L
gs 518 517 1729 1729 rc
gr

1365 1718 mt 1413 1718 L
1389 1694 mt 1389 1742 L
gs 518 517 1729 1729 rc
gr

c8
1365 1698 mt 1413 1698 L
1389 1674 mt 1389 1722 L
1373 1682 mt 1405 1714 L
1405 1682 mt 1373 1714 L
gs 518 517 1729 1729 rc
gr

c9
1364 2204 mt 1412 2204 L
1388 2180 mt 1388 2228 L
gs 518 517 1729 1729 rc
gr

c8
1364 2203 mt 1412 2203 L
1388 2179 mt 1388 2227 L
1372 2187 mt 1404 2219 L
1404 2187 mt 1372 2219 L
gs 518 517 1729 1729 rc
gr

1364  555 mt 1412  555 L
1388  531 mt 1388  579 L
1372  539 mt 1404  571 L
1404  539 mt 1372  571 L
gs 518 517 1729 1729 rc
gr

c9
1364  554 mt 1412  554 L
1388  530 mt 1388  578 L
gs 518 517 1729 1729 rc
gr

1361 2205 mt 1409 2205 L
1385 2181 mt 1385 2229 L
gs 518 517 1729 1729 rc
gr

c8
1361 2205 mt 1409 2205 L
1385 2181 mt 1385 2229 L
1369 2189 mt 1401 2221 L
1401 2189 mt 1369 2221 L
gs 518 517 1729 1729 rc
gr

1360  556 mt 1408  556 L
1384  532 mt 1384  580 L
1368  540 mt 1400  572 L
1400  540 mt 1368  572 L
gs 518 517 1729 1729 rc
gr

c9
1360  556 mt 1408  556 L
1384  532 mt 1384  580 L
gs 518 517 1729 1729 rc
gr

1358 2206 mt 1406 2206 L
1382 2182 mt 1382 2230 L
gs 518 517 1729 1729 rc
gr

c8
1357 2206 mt 1405 2206 L
1381 2182 mt 1381 2230 L
1365 2190 mt 1397 2222 L
1397 2190 mt 1365 2222 L
gs 518 517 1729 1729 rc
gr

1357  557 mt 1405  557 L
1381  533 mt 1381  581 L
1365  541 mt 1397  573 L
1397  541 mt 1365  573 L
gs 518 517 1729 1729 rc
gr

c9
1357  557 mt 1405  557 L
1381  533 mt 1381  581 L
gs 518 517 1729 1729 rc
gr

c8
1355 1675 mt 1403 1675 L
1379 1651 mt 1379 1699 L
1363 1659 mt 1395 1691 L
1395 1659 mt 1363 1691 L
gs 518 517 1729 1729 rc
gr

c9
1354 2207 mt 1402 2207 L
1378 2183 mt 1378 2231 L
gs 518 517 1729 1729 rc
gr

c8
1354 2207 mt 1402 2207 L
1378 2183 mt 1378 2231 L
1362 2191 mt 1394 2223 L
1394 2191 mt 1362 2223 L
gs 518 517 1729 1729 rc
gr

1354  558 mt 1402  558 L
1378  534 mt 1378  582 L
1362  542 mt 1394  574 L
1394  542 mt 1362  574 L
gs 518 517 1729 1729 rc
gr

c9
1354  558 mt 1402  558 L
1378  534 mt 1378  582 L
gs 518 517 1729 1729 rc
gr

1353 1695 mt 1401 1695 L
1377 1671 mt 1377 1719 L
gs 518 517 1729 1729 rc
gr

1351 2208 mt 1399 2208 L
1375 2184 mt 1375 2232 L
gs 518 517 1729 1729 rc
gr

c8
1351 2208 mt 1399 2208 L
1375 2184 mt 1375 2232 L
1359 2192 mt 1391 2224 L
1391 2192 mt 1359 2224 L
gs 518 517 1729 1729 rc
gr

1351  559 mt 1399  559 L
1375  535 mt 1375  583 L
1359  543 mt 1391  575 L
1391  543 mt 1359  575 L
gs 518 517 1729 1729 rc
gr

c9
1351  559 mt 1399  559 L
1375  535 mt 1375  583 L
gs 518 517 1729 1729 rc
gr

1348 2209 mt 1396 2209 L
1372 2185 mt 1372 2233 L
gs 518 517 1729 1729 rc
gr

c8
1348 2209 mt 1396 2209 L
1372 2185 mt 1372 2233 L
1356 2193 mt 1388 2225 L
1388 2193 mt 1356 2225 L
gs 518 517 1729 1729 rc
gr

1347  560 mt 1395  560 L
1371  536 mt 1371  584 L
1355  544 mt 1387  576 L
1387  544 mt 1355  576 L
gs 518 517 1729 1729 rc
gr

c9
1347  560 mt 1395  560 L
1371  536 mt 1371  584 L
gs 518 517 1729 1729 rc
gr

1345 2211 mt 1393 2211 L
1369 2187 mt 1369 2235 L
gs 518 517 1729 1729 rc
gr

c8
1345 2210 mt 1393 2210 L
1369 2186 mt 1369 2234 L
1353 2194 mt 1385 2226 L
1385 2194 mt 1353 2226 L
gs 518 517 1729 1729 rc
gr

1344  561 mt 1392  561 L
1368  537 mt 1368  585 L
1352  545 mt 1384  577 L
1384  545 mt 1352  577 L
gs 518 517 1729 1729 rc
gr

c9
1344  561 mt 1392  561 L
1368  537 mt 1368  585 L
gs 518 517 1729 1729 rc
gr

c8
1344 1651 mt 1392 1651 L
1368 1627 mt 1368 1675 L
1352 1635 mt 1384 1667 L
1384 1635 mt 1352 1667 L
gs 518 517 1729 1729 rc
gr

c9
1341 2212 mt 1389 2212 L
1365 2188 mt 1365 2236 L
gs 518 517 1729 1729 rc
gr

c8
1341 2212 mt 1389 2212 L
1365 2188 mt 1365 2236 L
1349 2196 mt 1381 2228 L
1381 2196 mt 1349 2228 L
gs 518 517 1729 1729 rc
gr

c9
1341 1672 mt 1389 1672 L
1365 1648 mt 1365 1696 L
gs 518 517 1729 1729 rc
gr

c8
1341  562 mt 1389  562 L
1365  538 mt 1365  586 L
1349  546 mt 1381  578 L
1381  546 mt 1349  578 L
gs 518 517 1729 1729 rc
gr

c9
1341  562 mt 1389  562 L
1365  538 mt 1365  586 L
gs 518 517 1729 1729 rc
gr

1338 2213 mt 1386 2213 L
1362 2189 mt 1362 2237 L
gs 518 517 1729 1729 rc
gr

c8
1338 2213 mt 1386 2213 L
1362 2189 mt 1362 2237 L
1346 2197 mt 1378 2229 L
1378 2197 mt 1346 2229 L
gs 518 517 1729 1729 rc
gr

1338  564 mt 1386  564 L
1362  540 mt 1362  588 L
1346  548 mt 1378  580 L
1378  548 mt 1346  580 L
gs 518 517 1729 1729 rc
gr

c9
1338  563 mt 1386  563 L
1362  539 mt 1362  587 L
gs 518 517 1729 1729 rc
gr

1335 2214 mt 1383 2214 L
1359 2190 mt 1359 2238 L
gs 518 517 1729 1729 rc
gr

c8
1335 2214 mt 1383 2214 L
1359 2190 mt 1359 2238 L
1343 2198 mt 1375 2230 L
1375 2198 mt 1343 2230 L
gs 518 517 1729 1729 rc
gr

1334  565 mt 1382  565 L
1358  541 mt 1358  589 L
1342  549 mt 1374  581 L
1374  549 mt 1342  581 L
gs 518 517 1729 1729 rc
gr

c9
1334  565 mt 1382  565 L
1358  541 mt 1358  589 L
gs 518 517 1729 1729 rc
gr

c8
1332 1627 mt 1380 1627 L
1356 1603 mt 1356 1651 L
1340 1611 mt 1372 1643 L
1372 1611 mt 1340 1643 L
gs 518 517 1729 1729 rc
gr

c9
1332 2215 mt 1380 2215 L
1356 2191 mt 1356 2239 L
gs 518 517 1729 1729 rc
gr

c8
1332 2215 mt 1380 2215 L
1356 2191 mt 1356 2239 L
1340 2199 mt 1372 2231 L
1372 2199 mt 1340 2231 L
gs 518 517 1729 1729 rc
gr

1331  566 mt 1379  566 L
1355  542 mt 1355  590 L
1339  550 mt 1371  582 L
1371  550 mt 1339  582 L
gs 518 517 1729 1729 rc
gr

c9
1331  566 mt 1379  566 L
1355  542 mt 1355  590 L
gs 518 517 1729 1729 rc
gr

1328 2216 mt 1376 2216 L
1352 2192 mt 1352 2240 L
gs 518 517 1729 1729 rc
gr

c8
1328 2216 mt 1376 2216 L
1352 2192 mt 1352 2240 L
1336 2200 mt 1368 2232 L
1368 2200 mt 1336 2232 L
gs 518 517 1729 1729 rc
gr

c9
1328 1649 mt 1376 1649 L
1352 1625 mt 1352 1673 L
gs 518 517 1729 1729 rc
gr

c8
1328  567 mt 1376  567 L
1352  543 mt 1352  591 L
1336  551 mt 1368  583 L
1368  551 mt 1336  583 L
gs 518 517 1729 1729 rc
gr

c9
1328  567 mt 1376  567 L
1352  543 mt 1352  591 L
gs 518 517 1729 1729 rc
gr

1325 2217 mt 1373 2217 L
1349 2193 mt 1349 2241 L
gs 518 517 1729 1729 rc
gr

c8
1325 2217 mt 1373 2217 L
1349 2193 mt 1349 2241 L
1333 2201 mt 1365 2233 L
1365 2201 mt 1333 2233 L
gs 518 517 1729 1729 rc
gr

1325  568 mt 1373  568 L
1349  544 mt 1349  592 L
1333  552 mt 1365  584 L
1365  552 mt 1333  584 L
gs 518 517 1729 1729 rc
gr

c9
1325  568 mt 1373  568 L
1349  544 mt 1349  592 L
gs 518 517 1729 1729 rc
gr

1322 2218 mt 1370 2218 L
1346 2194 mt 1346 2242 L
gs 518 517 1729 1729 rc
gr

c8
1322 2218 mt 1370 2218 L
1346 2194 mt 1346 2242 L
1330 2202 mt 1362 2234 L
1362 2202 mt 1330 2234 L
gs 518 517 1729 1729 rc
gr

1321  569 mt 1369  569 L
1345  545 mt 1345  593 L
1329  553 mt 1361  585 L
1361  553 mt 1329  585 L
gs 518 517 1729 1729 rc
gr

c9
1321  569 mt 1369  569 L
1345  545 mt 1345  593 L
gs 518 517 1729 1729 rc
gr

c8
1321 1602 mt 1369 1602 L
1345 1578 mt 1345 1626 L
1329 1586 mt 1361 1618 L
1361 1586 mt 1329 1618 L
gs 518 517 1729 1729 rc
gr

c9
1319 2220 mt 1367 2220 L
1343 2196 mt 1343 2244 L
gs 518 517 1729 1729 rc
gr

c8
1319 2220 mt 1367 2220 L
1343 2196 mt 1343 2244 L
1327 2204 mt 1359 2236 L
1359 2204 mt 1327 2236 L
gs 518 517 1729 1729 rc
gr

1318  570 mt 1366  570 L
1342  546 mt 1342  594 L
1326  554 mt 1358  586 L
1358  554 mt 1326  586 L
gs 518 517 1729 1729 rc
gr

c9
1318  570 mt 1366  570 L
1342  546 mt 1342  594 L
gs 518 517 1729 1729 rc
gr

1315 2221 mt 1363 2221 L
1339 2197 mt 1339 2245 L
gs 518 517 1729 1729 rc
gr

c8
1315 2221 mt 1363 2221 L
1339 2197 mt 1339 2245 L
1323 2205 mt 1355 2237 L
1355 2205 mt 1323 2237 L
gs 518 517 1729 1729 rc
gr

1315  572 mt 1363  572 L
1339  548 mt 1339  596 L
1323  556 mt 1355  588 L
1355  556 mt 1323  588 L
gs 518 517 1729 1729 rc
gr

c9
1315  571 mt 1363  571 L
1339  547 mt 1339  595 L
gs 518 517 1729 1729 rc
gr

1315 1626 mt 1363 1626 L
1339 1602 mt 1339 1650 L
gs 518 517 1729 1729 rc
gr

1312 2222 mt 1360 2222 L
1336 2198 mt 1336 2246 L
gs 518 517 1729 1729 rc
gr

c8
1312 2222 mt 1360 2222 L
1336 2198 mt 1336 2246 L
1320 2206 mt 1352 2238 L
1352 2206 mt 1320 2238 L
gs 518 517 1729 1729 rc
gr

1312  573 mt 1360  573 L
1336  549 mt 1336  597 L
1320  557 mt 1352  589 L
1352  557 mt 1320  589 L
gs 518 517 1729 1729 rc
gr

c9
1312  573 mt 1360  573 L
1336  549 mt 1336  597 L
gs 518 517 1729 1729 rc
gr

c8
1310 1577 mt 1358 1577 L
1334 1553 mt 1334 1601 L
1318 1561 mt 1350 1593 L
1350 1561 mt 1318 1593 L
gs 518 517 1729 1729 rc
gr

c9
1309 2223 mt 1357 2223 L
1333 2199 mt 1333 2247 L
gs 518 517 1729 1729 rc
gr

c8
1309 2223 mt 1357 2223 L
1333 2199 mt 1333 2247 L
1317 2207 mt 1349 2239 L
1349 2207 mt 1317 2239 L
gs 518 517 1729 1729 rc
gr

1308  574 mt 1356  574 L
1332  550 mt 1332  598 L
1316  558 mt 1348  590 L
1348  558 mt 1316  590 L
gs 518 517 1729 1729 rc
gr

c9
1308  574 mt 1356  574 L
1332  550 mt 1332  598 L
gs 518 517 1729 1729 rc
gr

1306 2224 mt 1354 2224 L
1330 2200 mt 1330 2248 L
gs 518 517 1729 1729 rc
gr

c8
1306 2224 mt 1354 2224 L
1330 2200 mt 1330 2248 L
1314 2208 mt 1346 2240 L
1346 2208 mt 1314 2240 L
gs 518 517 1729 1729 rc
gr

1305  575 mt 1353  575 L
1329  551 mt 1329  599 L
1313  559 mt 1345  591 L
1345  559 mt 1313  591 L
gs 518 517 1729 1729 rc
gr

c9
1305  575 mt 1353  575 L
1329  551 mt 1329  599 L
gs 518 517 1729 1729 rc
gr

1302 2225 mt 1350 2225 L
1326 2201 mt 1326 2249 L
gs 518 517 1729 1729 rc
gr

1302 1601 mt 1350 1601 L
1326 1577 mt 1326 1625 L
gs 518 517 1729 1729 rc
gr

c8
1302 2225 mt 1350 2225 L
1326 2201 mt 1326 2249 L
1310 2209 mt 1342 2241 L
1342 2209 mt 1310 2241 L
gs 518 517 1729 1729 rc
gr

1302  576 mt 1350  576 L
1326  552 mt 1326  600 L
1310  560 mt 1342  592 L
1342  560 mt 1310  592 L
gs 518 517 1729 1729 rc
gr

c9
1302  576 mt 1350  576 L
1326  552 mt 1326  600 L
gs 518 517 1729 1729 rc
gr

1299 2226 mt 1347 2226 L
1323 2202 mt 1323 2250 L
gs 518 517 1729 1729 rc
gr

c8
1299 2226 mt 1347 2226 L
1323 2202 mt 1323 2250 L
1307 2210 mt 1339 2242 L
1339 2210 mt 1307 2242 L
gs 518 517 1729 1729 rc
gr

1299 1551 mt 1347 1551 L
1323 1527 mt 1323 1575 L
1307 1535 mt 1339 1567 L
1339 1535 mt 1307 1567 L
gs 518 517 1729 1729 rc
gr

1299  577 mt 1347  577 L
1323  553 mt 1323  601 L
1307  561 mt 1339  593 L
1339  561 mt 1307  593 L
gs 518 517 1729 1729 rc
gr

c9
1299  577 mt 1347  577 L
1323  553 mt 1323  601 L
gs 518 517 1729 1729 rc
gr

1296 2228 mt 1344 2228 L
1320 2204 mt 1320 2252 L
gs 518 517 1729 1729 rc
gr

c8
1296 2227 mt 1344 2227 L
1320 2203 mt 1320 2251 L
1304 2211 mt 1336 2243 L
1336 2211 mt 1304 2243 L
gs 518 517 1729 1729 rc
gr

1295  579 mt 1343  579 L
1319  555 mt 1319  603 L
1303  563 mt 1335  595 L
1335  563 mt 1303  595 L
gs 518 517 1729 1729 rc
gr

c9
1295  578 mt 1343  578 L
1319  554 mt 1319  602 L
gs 518 517 1729 1729 rc
gr

1293 2229 mt 1341 2229 L
1317 2205 mt 1317 2253 L
gs 518 517 1729 1729 rc
gr

c8
1293 2229 mt 1341 2229 L
1317 2205 mt 1317 2253 L
1301 2213 mt 1333 2245 L
1333 2213 mt 1301 2245 L
gs 518 517 1729 1729 rc
gr

1292  580 mt 1340  580 L
1316  556 mt 1316  604 L
1300  564 mt 1332  596 L
1332  564 mt 1300  596 L
gs 518 517 1729 1729 rc
gr

c9
1292  579 mt 1340  579 L
1316  555 mt 1316  603 L
gs 518 517 1729 1729 rc
gr

1289 1575 mt 1337 1575 L
1313 1551 mt 1313 1599 L
gs 518 517 1729 1729 rc
gr

1289 2230 mt 1337 2230 L
1313 2206 mt 1313 2254 L
gs 518 517 1729 1729 rc
gr

c8
1289 2230 mt 1337 2230 L
1313 2206 mt 1313 2254 L
1297 2214 mt 1329 2246 L
1329 2214 mt 1297 2246 L
gs 518 517 1729 1729 rc
gr

1289  581 mt 1337  581 L
1313  557 mt 1313  605 L
1297  565 mt 1329  597 L
1329  565 mt 1297  597 L
gs 518 517 1729 1729 rc
gr

c9
1289  581 mt 1337  581 L
1313  557 mt 1313  605 L
gs 518 517 1729 1729 rc
gr

c8
1287 1525 mt 1335 1525 L
1311 1501 mt 1311 1549 L
1295 1509 mt 1327 1541 L
1327 1509 mt 1295 1541 L
gs 518 517 1729 1729 rc
gr

c9
1286 2231 mt 1334 2231 L
1310 2207 mt 1310 2255 L
gs 518 517 1729 1729 rc
gr

c8
1286 2231 mt 1334 2231 L
1310 2207 mt 1310 2255 L
1294 2215 mt 1326 2247 L
1326 2215 mt 1294 2247 L
gs 518 517 1729 1729 rc
gr

1286  582 mt 1334  582 L
1310  558 mt 1310  606 L
1294  566 mt 1326  598 L
1326  566 mt 1294  598 L
gs 518 517 1729 1729 rc
gr

c9
1285  582 mt 1333  582 L
1309  558 mt 1309  606 L
gs 518 517 1729 1729 rc
gr

1283 2232 mt 1331 2232 L
1307 2208 mt 1307 2256 L
gs 518 517 1729 1729 rc
gr

c8
1283 2232 mt 1331 2232 L
1307 2208 mt 1307 2256 L
1291 2216 mt 1323 2248 L
1323 2216 mt 1291 2248 L
gs 518 517 1729 1729 rc
gr

1282  583 mt 1330  583 L
1306  559 mt 1306  607 L
1290  567 mt 1322  599 L
1322  567 mt 1290  599 L
gs 518 517 1729 1729 rc
gr

c9
1282  583 mt 1330  583 L
1306  559 mt 1306  607 L
gs 518 517 1729 1729 rc
gr

1280 2233 mt 1328 2233 L
1304 2209 mt 1304 2257 L
gs 518 517 1729 1729 rc
gr

c8
1280 2233 mt 1328 2233 L
1304 2209 mt 1304 2257 L
1288 2217 mt 1320 2249 L
1320 2217 mt 1288 2249 L
gs 518 517 1729 1729 rc
gr

1279  584 mt 1327  584 L
1303  560 mt 1303  608 L
1287  568 mt 1319  600 L
1319  568 mt 1287  600 L
gs 518 517 1729 1729 rc
gr

c9
1279  584 mt 1327  584 L
1303  560 mt 1303  608 L
gs 518 517 1729 1729 rc
gr

1277 1549 mt 1325 1549 L
1301 1525 mt 1301 1573 L
gs 518 517 1729 1729 rc
gr

1276 2234 mt 1324 2234 L
1300 2210 mt 1300 2258 L
gs 518 517 1729 1729 rc
gr

c8
1276 2234 mt 1324 2234 L
1300 2210 mt 1300 2258 L
1284 2218 mt 1316 2250 L
1316 2218 mt 1284 2250 L
gs 518 517 1729 1729 rc
gr

1276 1498 mt 1324 1498 L
1300 1474 mt 1300 1522 L
1284 1482 mt 1316 1514 L
1316 1482 mt 1284 1514 L
gs 518 517 1729 1729 rc
gr

1276  586 mt 1324  586 L
1300  562 mt 1300  610 L
1284  570 mt 1316  602 L
1316  570 mt 1284  602 L
gs 518 517 1729 1729 rc
gr

c9
1276  585 mt 1324  585 L
1300  561 mt 1300  609 L
gs 518 517 1729 1729 rc
gr

1273 2235 mt 1321 2235 L
1297 2211 mt 1297 2259 L
gs 518 517 1729 1729 rc
gr

c8
1273 2235 mt 1321 2235 L
1297 2211 mt 1297 2259 L
1281 2219 mt 1313 2251 L
1313 2219 mt 1281 2251 L
gs 518 517 1729 1729 rc
gr

1273  587 mt 1321  587 L
1297  563 mt 1297  611 L
1281  571 mt 1313  603 L
1313  571 mt 1281  603 L
gs 518 517 1729 1729 rc
gr

c9
1272  586 mt 1320  586 L
1296  562 mt 1296  610 L
gs 518 517 1729 1729 rc
gr

1270 2237 mt 1318 2237 L
1294 2213 mt 1294 2261 L
gs 518 517 1729 1729 rc
gr

c8
1270 2236 mt 1318 2236 L
1294 2212 mt 1294 2260 L
1278 2220 mt 1310 2252 L
1310 2220 mt 1278 2252 L
gs 518 517 1729 1729 rc
gr

1269  588 mt 1317  588 L
1293  564 mt 1293  612 L
1277  572 mt 1309  604 L
1309  572 mt 1277  604 L
gs 518 517 1729 1729 rc
gr

c9
1269  587 mt 1317  587 L
1293  563 mt 1293  611 L
gs 518 517 1729 1729 rc
gr

1267 2238 mt 1315 2238 L
1291 2214 mt 1291 2262 L
gs 518 517 1729 1729 rc
gr

c8
1267 2238 mt 1315 2238 L
1291 2214 mt 1291 2262 L
1275 2222 mt 1307 2254 L
1307 2222 mt 1275 2254 L
gs 518 517 1729 1729 rc
gr

1266  589 mt 1314  589 L
1290  565 mt 1290  613 L
1274  573 mt 1306  605 L
1306  573 mt 1274  605 L
gs 518 517 1729 1729 rc
gr

c9
1266  589 mt 1314  589 L
1290  565 mt 1290  613 L
gs 518 517 1729 1729 rc
gr

c8
1265 1471 mt 1313 1471 L
1289 1447 mt 1289 1495 L
1273 1455 mt 1305 1487 L
1305 1455 mt 1273 1487 L
gs 518 517 1729 1729 rc
gr

c9
1263 1522 mt 1311 1522 L
1287 1498 mt 1287 1546 L
gs 518 517 1729 1729 rc
gr

1263 2239 mt 1311 2239 L
1287 2215 mt 1287 2263 L
gs 518 517 1729 1729 rc
gr

c8
1263 2239 mt 1311 2239 L
1287 2215 mt 1287 2263 L
1271 2223 mt 1303 2255 L
1303 2223 mt 1271 2255 L
gs 518 517 1729 1729 rc
gr

1263  590 mt 1311  590 L
1287  566 mt 1287  614 L
1271  574 mt 1303  606 L
1303  574 mt 1271  606 L
gs 518 517 1729 1729 rc
gr

c9
1263  590 mt 1311  590 L
1287  566 mt 1287  614 L
gs 518 517 1729 1729 rc
gr

1260 2240 mt 1308 2240 L
1284 2216 mt 1284 2264 L
gs 518 517 1729 1729 rc
gr

c8
1260 2240 mt 1308 2240 L
1284 2216 mt 1284 2264 L
1268 2224 mt 1300 2256 L
1300 2224 mt 1268 2256 L
gs 518 517 1729 1729 rc
gr

1260  592 mt 1308  592 L
1284  568 mt 1284  616 L
1268  576 mt 1300  608 L
1300  576 mt 1268  608 L
gs 518 517 1729 1729 rc
gr

c9
1259  591 mt 1307  591 L
1283  567 mt 1283  615 L
gs 518 517 1729 1729 rc
gr

1257 2241 mt 1305 2241 L
1281 2217 mt 1281 2265 L
gs 518 517 1729 1729 rc
gr

c8
1257 2241 mt 1305 2241 L
1281 2217 mt 1281 2265 L
1265 2225 mt 1297 2257 L
1297 2225 mt 1265 2257 L
gs 518 517 1729 1729 rc
gr

1256  593 mt 1304  593 L
1280  569 mt 1280  617 L
1264  577 mt 1296  609 L
1296  577 mt 1264  609 L
gs 518 517 1729 1729 rc
gr

c9
1256  592 mt 1304  592 L
1280  568 mt 1280  616 L
gs 518 517 1729 1729 rc
gr

c8
1254 1444 mt 1302 1444 L
1278 1420 mt 1278 1468 L
1262 1428 mt 1294 1460 L
1294 1428 mt 1262 1460 L
gs 518 517 1729 1729 rc
gr

c9
1254 2242 mt 1302 2242 L
1278 2218 mt 1278 2266 L
gs 518 517 1729 1729 rc
gr

c8
1253 2242 mt 1301 2242 L
1277 2218 mt 1277 2266 L
1261 2226 mt 1293 2258 L
1293 2226 mt 1261 2258 L
gs 518 517 1729 1729 rc
gr

1253  594 mt 1301  594 L
1277  570 mt 1277  618 L
1261  578 mt 1293  610 L
1293  578 mt 1261  610 L
gs 518 517 1729 1729 rc
gr

c9
1253  593 mt 1301  593 L
1277  569 mt 1277  617 L
gs 518 517 1729 1729 rc
gr

1251 1495 mt 1299 1495 L
1275 1471 mt 1275 1519 L
gs 518 517 1729 1729 rc
gr

1250 2243 mt 1298 2243 L
1274 2219 mt 1274 2267 L
gs 518 517 1729 1729 rc
gr

c8
1250 2243 mt 1298 2243 L
1274 2219 mt 1274 2267 L
1258 2227 mt 1290 2259 L
1290 2227 mt 1258 2259 L
gs 518 517 1729 1729 rc
gr

1250  595 mt 1298  595 L
1274  571 mt 1274  619 L
1258  579 mt 1290  611 L
1290  579 mt 1258  611 L
gs 518 517 1729 1729 rc
gr

c9
1250  594 mt 1298  594 L
1274  570 mt 1274  618 L
gs 518 517 1729 1729 rc
gr

1247 2244 mt 1295 2244 L
1271 2220 mt 1271 2268 L
gs 518 517 1729 1729 rc
gr

c8
1247 2244 mt 1295 2244 L
1271 2220 mt 1271 2268 L
1255 2228 mt 1287 2260 L
1287 2228 mt 1255 2260 L
gs 518 517 1729 1729 rc
gr

1247  596 mt 1295  596 L
1271  572 mt 1271  620 L
1255  580 mt 1287  612 L
1287  580 mt 1255  612 L
gs 518 517 1729 1729 rc
gr

c9
1246  596 mt 1294  596 L
1270  572 mt 1270  620 L
gs 518 517 1729 1729 rc
gr

c8
1244  598 mt 1292  598 L
1268  574 mt 1268  622 L
1252  582 mt 1284  614 L
1284  582 mt 1252  614 L
gs 518 517 1729 1729 rc
gr

1243 1417 mt 1291 1417 L
1267 1393 mt 1267 1441 L
1251 1401 mt 1283 1433 L
1283 1401 mt 1251 1433 L
gs 518 517 1729 1729 rc
gr

c9
1243  597 mt 1291  597 L
1267  573 mt 1267  621 L
gs 518 517 1729 1729 rc
gr

c8
1240  599 mt 1288  599 L
1264  575 mt 1264  623 L
1248  583 mt 1280  615 L
1280  583 mt 1248  615 L
gs 518 517 1729 1729 rc
gr

c9
1240  598 mt 1288  598 L
1264  574 mt 1264  622 L
gs 518 517 1729 1729 rc
gr

1238 1467 mt 1286 1467 L
1262 1443 mt 1262 1491 L
gs 518 517 1729 1729 rc
gr

c8
1237  600 mt 1285  600 L
1261  576 mt 1261  624 L
1245  584 mt 1277  616 L
1277  584 mt 1245  616 L
gs 518 517 1729 1729 rc
gr

c9
1237  599 mt 1285  599 L
1261  575 mt 1261  623 L
gs 518 517 1729 1729 rc
gr

c8
1234  602 mt 1282  602 L
1258  578 mt 1258  626 L
1242  586 mt 1274  618 L
1274  586 mt 1242  618 L
gs 518 517 1729 1729 rc
gr

c9
1233  600 mt 1281  600 L
1257  576 mt 1257  624 L
gs 518 517 1729 1729 rc
gr

c8
1233 1390 mt 1281 1390 L
1257 1366 mt 1257 1414 L
1241 1374 mt 1273 1406 L
1273 1374 mt 1241 1406 L
gs 518 517 1729 1729 rc
gr

1231  603 mt 1279  603 L
1255  579 mt 1255  627 L
1239  587 mt 1271  619 L
1271  587 mt 1239  619 L
gs 518 517 1729 1729 rc
gr

c9
1230  602 mt 1278  602 L
1254  578 mt 1254  626 L
gs 518 517 1729 1729 rc
gr

c8
1227  604 mt 1275  604 L
1251  580 mt 1251  628 L
1235  588 mt 1267  620 L
1267  588 mt 1235  620 L
gs 518 517 1729 1729 rc
gr

c9
1227  603 mt 1275  603 L
1251  579 mt 1251  627 L
gs 518 517 1729 1729 rc
gr

1225 1441 mt 1273 1441 L
1249 1417 mt 1249 1465 L
gs 518 517 1729 1729 rc
gr

c8
1224  605 mt 1272  605 L
1248  581 mt 1248  629 L
1232  589 mt 1264  621 L
1264  589 mt 1232  621 L
gs 518 517 1729 1729 rc
gr

c9
1224  604 mt 1272  604 L
1248  580 mt 1248  628 L
gs 518 517 1729 1729 rc
gr

c8
1223 1363 mt 1271 1363 L
1247 1339 mt 1247 1387 L
1231 1347 mt 1263 1379 L
1263 1347 mt 1231 1379 L
gs 518 517 1729 1729 rc
gr

1221  607 mt 1269  607 L
1245  583 mt 1245  631 L
1229  591 mt 1261  623 L
1261  591 mt 1229  623 L
gs 518 517 1729 1729 rc
gr

c9
1220  606 mt 1268  606 L
1244  582 mt 1244  630 L
gs 518 517 1729 1729 rc
gr

c8
1218  608 mt 1266  608 L
1242  584 mt 1242  632 L
1226  592 mt 1258  624 L
1258  592 mt 1226  624 L
gs 518 517 1729 1729 rc
gr

c9
1217  607 mt 1265  607 L
1241  583 mt 1241  631 L
gs 518 517 1729 1729 rc
gr

c8
1215  609 mt 1263  609 L
1239  585 mt 1239  633 L
1223  593 mt 1255  625 L
1255  593 mt 1223  625 L
gs 518 517 1729 1729 rc
gr

c9
1214  609 mt 1262  609 L
1238  585 mt 1238  633 L
gs 518 517 1729 1729 rc
gr

c8
1213 1336 mt 1261 1336 L
1237 1312 mt 1237 1360 L
1221 1320 mt 1253 1352 L
1253 1320 mt 1221 1352 L
gs 518 517 1729 1729 rc
gr

c9
1212 1413 mt 1260 1413 L
1236 1389 mt 1236 1437 L
gs 518 517 1729 1729 rc
gr

c8
1211  611 mt 1259  611 L
1235  587 mt 1235  635 L
1219  595 mt 1251  627 L
1251  595 mt 1219  627 L
gs 518 517 1729 1729 rc
gr

c9
1211  610 mt 1259  610 L
1235  586 mt 1235  634 L
gs 518 517 1729 1729 rc
gr

c8
1208  612 mt 1256  612 L
1232  588 mt 1232  636 L
1216  596 mt 1248  628 L
1248  596 mt 1216  628 L
gs 518 517 1729 1729 rc
gr

c9
1207  611 mt 1255  611 L
1231  587 mt 1231  635 L
gs 518 517 1729 1729 rc
gr

c8
1205  614 mt 1253  614 L
1229  590 mt 1229  638 L
1213  598 mt 1245  630 L
1245  598 mt 1213  630 L
gs 518 517 1729 1729 rc
gr

c9
1204  613 mt 1252  613 L
1228  589 mt 1228  637 L
gs 518 517 1729 1729 rc
gr

c8
1203 1309 mt 1251 1309 L
1227 1285 mt 1227 1333 L
1211 1293 mt 1243 1325 L
1243 1293 mt 1211 1325 L
gs 518 517 1729 1729 rc
gr

1202  615 mt 1250  615 L
1226  591 mt 1226  639 L
1210  599 mt 1242  631 L
1242  599 mt 1210  631 L
gs 518 517 1729 1729 rc
gr

c9
1201  614 mt 1249  614 L
1225  590 mt 1225  638 L
gs 518 517 1729 1729 rc
gr

1200 1385 mt 1248 1385 L
1224 1361 mt 1224 1409 L
gs 518 517 1729 1729 rc
gr

c8
1199  617 mt 1247  617 L
1223  593 mt 1223  641 L
1207  601 mt 1239  633 L
1239  601 mt 1207  633 L
gs 518 517 1729 1729 rc
gr

c9
1198  615 mt 1246  615 L
1222  591 mt 1222  639 L
gs 518 517 1729 1729 rc
gr

c8
1196  618 mt 1244  618 L
1220  594 mt 1220  642 L
1204  602 mt 1236  634 L
1236  602 mt 1204  634 L
gs 518 517 1729 1729 rc
gr

c9
1194  617 mt 1242  617 L
1218  593 mt 1218  641 L
gs 518 517 1729 1729 rc
gr

c8
1194 1282 mt 1242 1282 L
1218 1258 mt 1218 1306 L
1202 1266 mt 1234 1298 L
1234 1266 mt 1202 1298 L
gs 518 517 1729 1729 rc
gr

1192  620 mt 1240  620 L
1216  596 mt 1216  644 L
1200  604 mt 1232  636 L
1232  604 mt 1200  636 L
gs 518 517 1729 1729 rc
gr

c9
1191  618 mt 1239  618 L
1215  594 mt 1215  642 L
gs 518 517 1729 1729 rc
gr

c8
1189  621 mt 1237  621 L
1213  597 mt 1213  645 L
1197  605 mt 1229  637 L
1229  605 mt 1197  637 L
gs 518 517 1729 1729 rc
gr

c9
1188  620 mt 1236  620 L
1212  596 mt 1212  644 L
gs 518 517 1729 1729 rc
gr

1188 1357 mt 1236 1357 L
1212 1333 mt 1212 1381 L
gs 518 517 1729 1729 rc
gr

c8
1186  623 mt 1234  623 L
1210  599 mt 1210  647 L
1194  607 mt 1226  639 L
1226  607 mt 1194  639 L
gs 518 517 1729 1729 rc
gr

c9
1185  621 mt 1233  621 L
1209  597 mt 1209  645 L
gs 518 517 1729 1729 rc
gr

c8
1185 1256 mt 1233 1256 L
1209 1232 mt 1209 1280 L
1193 1240 mt 1225 1272 L
1225 1240 mt 1193 1272 L
gs 518 517 1729 1729 rc
gr

1183  625 mt 1231  625 L
1207  601 mt 1207  649 L
1191  609 mt 1223  641 L
1223  609 mt 1191  641 L
gs 518 517 1729 1729 rc
gr

c9
1182  623 mt 1230  623 L
1206  599 mt 1206  647 L
gs 518 517 1729 1729 rc
gr

c8
1180  626 mt 1228  626 L
1204  602 mt 1204  650 L
1188  610 mt 1220  642 L
1220  610 mt 1188  642 L
gs 518 517 1729 1729 rc
gr

c9
1178  624 mt 1226  624 L
1202  600 mt 1202  648 L
gs 518 517 1729 1729 rc
gr

c8
1177  628 mt 1225  628 L
1201  604 mt 1201  652 L
1185  612 mt 1217  644 L
1217  612 mt 1185  644 L
gs 518 517 1729 1729 rc
gr

1176 1230 mt 1224 1230 L
1200 1206 mt 1200 1254 L
1184 1214 mt 1216 1246 L
1216 1214 mt 1184 1246 L
gs 518 517 1729 1729 rc
gr

c9
1176 1329 mt 1224 1329 L
1200 1305 mt 1200 1353 L
gs 518 517 1729 1729 rc
gr

1175  626 mt 1223  626 L
1199  602 mt 1199  650 L
gs 518 517 1729 1729 rc
gr

c8
1174  630 mt 1222  630 L
1198  606 mt 1198  654 L
1182  614 mt 1214  646 L
1214  614 mt 1182  646 L
gs 518 517 1729 1729 rc
gr

c9
1172  627 mt 1220  627 L
1196  603 mt 1196  651 L
gs 518 517 1729 1729 rc
gr

c8
1171  632 mt 1219  632 L
1195  608 mt 1195  656 L
1179  616 mt 1211  648 L
1211  616 mt 1179  648 L
gs 518 517 1729 1729 rc
gr

c9
1169  629 mt 1217  629 L
1193  605 mt 1193  653 L
gs 518 517 1729 1729 rc
gr

c8
1168 1204 mt 1216 1204 L
1192 1180 mt 1192 1228 L
1176 1188 mt 1208 1220 L
1208 1188 mt 1176 1220 L
gs 518 517 1729 1729 rc
gr

1168  633 mt 1216  633 L
1192  609 mt 1192  657 L
1176  617 mt 1208  649 L
1208  617 mt 1176  649 L
gs 518 517 1729 1729 rc
gr

c9
1165  631 mt 1213  631 L
1189  607 mt 1189  655 L
gs 518 517 1729 1729 rc
gr

1165 1301 mt 1213 1301 L
1189 1277 mt 1189 1325 L
gs 518 517 1729 1729 rc
gr

c8
1165  635 mt 1213  635 L
1189  611 mt 1189  659 L
1173  619 mt 1205  651 L
1205  619 mt 1173  651 L
gs 518 517 1729 1729 rc
gr

c9
1162  633 mt 1210  633 L
1186  609 mt 1186  657 L
gs 518 517 1729 1729 rc
gr

c8
1162  637 mt 1210  637 L
1186  613 mt 1186  661 L
1170  621 mt 1202  653 L
1202  621 mt 1170  653 L
gs 518 517 1729 1729 rc
gr

1160 1179 mt 1208 1179 L
1184 1155 mt 1184 1203 L
1168 1163 mt 1200 1195 L
1200 1163 mt 1168 1195 L
gs 518 517 1729 1729 rc
gr

c9
1159  634 mt 1207  634 L
1183  610 mt 1183  658 L
gs 518 517 1729 1729 rc
gr

c8
1159  639 mt 1207  639 L
1183  615 mt 1183  663 L
1167  623 mt 1199  655 L
1199  623 mt 1167  655 L
gs 518 517 1729 1729 rc
gr

c9
1156  636 mt 1204  636 L
1180  612 mt 1180  660 L
gs 518 517 1729 1729 rc
gr

c8
1156  641 mt 1204  641 L
1180  617 mt 1180  665 L
1164  625 mt 1196  657 L
1196  625 mt 1164  657 L
gs 518 517 1729 1729 rc
gr

c9
1155 1276 mt 1203 1276 L
1179 1252 mt 1179 1300 L
gs 518 517 1729 1729 rc
gr

c8
1153 1154 mt 1201 1154 L
1177 1130 mt 1177 1178 L
1161 1138 mt 1193 1170 L
1193 1138 mt 1161 1170 L
gs 518 517 1729 1729 rc
gr

c9
1153  638 mt 1201  638 L
1177  614 mt 1177  662 L
gs 518 517 1729 1729 rc
gr

c8
1153  644 mt 1201  644 L
1177  620 mt 1177  668 L
1161  628 mt 1193  660 L
1193  628 mt 1161  660 L
gs 518 517 1729 1729 rc
gr

1150  646 mt 1198  646 L
1174  622 mt 1174  670 L
1158  630 mt 1190  662 L
1190  630 mt 1158  662 L
gs 518 517 1729 1729 rc
gr

c9
1150  640 mt 1198  640 L
1174  616 mt 1174  664 L
gs 518 517 1729 1729 rc
gr

c8
1147  648 mt 1195  648 L
1171  624 mt 1171  672 L
1155  632 mt 1187  664 L
1187  632 mt 1155  664 L
gs 518 517 1729 1729 rc
gr

c9
1146  642 mt 1194  642 L
1170  618 mt 1170  666 L
gs 518 517 1729 1729 rc
gr

c8
1146 1131 mt 1194 1131 L
1170 1107 mt 1170 1155 L
1154 1115 mt 1186 1147 L
1186 1115 mt 1154 1147 L
gs 518 517 1729 1729 rc
gr

c9
1145 1248 mt 1193 1248 L
1169 1224 mt 1169 1272 L
gs 518 517 1729 1729 rc
gr

c8
1144  651 mt 1192  651 L
1168  627 mt 1168  675 L
1152  635 mt 1184  667 L
1184  635 mt 1152  667 L
gs 518 517 1729 1729 rc
gr

c9
1143  644 mt 1191  644 L
1167  620 mt 1167  668 L
gs 518 517 1729 1729 rc
gr

c8
1141  653 mt 1189  653 L
1165  629 mt 1165  677 L
1149  637 mt 1181  669 L
1181  637 mt 1149  669 L
gs 518 517 1729 1729 rc
gr

c9
1140  647 mt 1188  647 L
1164  623 mt 1164  671 L
gs 518 517 1729 1729 rc
gr

c8
1140 1107 mt 1188 1107 L
1164 1083 mt 1164 1131 L
1148 1091 mt 1180 1123 L
1180 1091 mt 1148 1123 L
gs 518 517 1729 1729 rc
gr

1138  656 mt 1186  656 L
1162  632 mt 1162  680 L
1146  640 mt 1178  672 L
1178  640 mt 1146  672 L
gs 518 517 1729 1729 rc
gr

c9
1137  649 mt 1185  649 L
1161  625 mt 1161  673 L
gs 518 517 1729 1729 rc
gr

c8
1135  659 mt 1183  659 L
1159  635 mt 1159  683 L
1143  643 mt 1175  675 L
1175  643 mt 1143  675 L
gs 518 517 1729 1729 rc
gr

c9
1135 1221 mt 1183 1221 L
1159 1197 mt 1159 1245 L
gs 518 517 1729 1729 rc
gr

1134  652 mt 1182  652 L
1158  628 mt 1158  676 L
gs 518 517 1729 1729 rc
gr

c8
1134 1085 mt 1182 1085 L
1158 1061 mt 1158 1109 L
1142 1069 mt 1174 1101 L
1174 1069 mt 1142 1101 L
gs 518 517 1729 1729 rc
gr

1133  662 mt 1181  662 L
1157  638 mt 1157  686 L
1141  646 mt 1173  678 L
1173  646 mt 1141  678 L
gs 518 517 1729 1729 rc
gr

c9
1131  654 mt 1179  654 L
1155  630 mt 1155  678 L
gs 518 517 1729 1729 rc
gr

c8
1130  665 mt 1178  665 L
1154  641 mt 1154  689 L
1138  649 mt 1170  681 L
1170  649 mt 1138  681 L
gs 518 517 1729 1729 rc
gr

1128 1063 mt 1176 1063 L
1152 1039 mt 1152 1087 L
1136 1047 mt 1168 1079 L
1168 1047 mt 1136 1079 L
gs 518 517 1729 1729 rc
gr

c9
1128  657 mt 1176  657 L
1152  633 mt 1152  681 L
gs 518 517 1729 1729 rc
gr

c8
1127  668 mt 1175  668 L
1151  644 mt 1151  692 L
1135  652 mt 1167  684 L
1167  652 mt 1135  684 L
gs 518 517 1729 1729 rc
gr

c9
1126 1195 mt 1174 1195 L
1150 1171 mt 1150 1219 L
gs 518 517 1729 1729 rc
gr

c8
1125  671 mt 1173  671 L
1149  647 mt 1149  695 L
1133  655 mt 1165  687 L
1165  655 mt 1133  687 L
gs 518 517 1729 1729 rc
gr

c9
1125  660 mt 1173  660 L
1149  636 mt 1149  684 L
gs 518 517 1729 1729 rc
gr

c8
1123 1041 mt 1171 1041 L
1147 1017 mt 1147 1065 L
1131 1025 mt 1163 1057 L
1163 1025 mt 1131 1057 L
gs 518 517 1729 1729 rc
gr

1122  674 mt 1170  674 L
1146  650 mt 1146  698 L
1130  658 mt 1162  690 L
1162  658 mt 1130  690 L
gs 518 517 1729 1729 rc
gr

c9
1122  663 mt 1170  663 L
1146  639 mt 1146  687 L
gs 518 517 1729 1729 rc
gr

c8
1120  678 mt 1168  678 L
1144  654 mt 1144  702 L
1128  662 mt 1160  694 L
1160  662 mt 1128  694 L
gs 518 517 1729 1729 rc
gr

c9
1119  665 mt 1167  665 L
1143  641 mt 1143  689 L
gs 518 517 1729 1729 rc
gr

c8
1118 1021 mt 1166 1021 L
1142  997 mt 1142 1045 L
1126 1005 mt 1158 1037 L
1158 1005 mt 1126 1037 L
gs 518 517 1729 1729 rc
gr

c9
1117 1168 mt 1165 1168 L
1141 1144 mt 1141 1192 L
gs 518 517 1729 1729 rc
gr

c8
1117  682 mt 1165  682 L
1141  658 mt 1141  706 L
1125  666 mt 1157  698 L
1157  666 mt 1125  698 L
gs 518 517 1729 1729 rc
gr

c9
1115  668 mt 1163  668 L
1139  644 mt 1139  692 L
gs 518 517 1729 1729 rc
gr

c8
1115  686 mt 1163  686 L
1139  662 mt 1139  710 L
1123  670 mt 1155  702 L
1155  670 mt 1123  702 L
gs 518 517 1729 1729 rc
gr

1114 1001 mt 1162 1001 L
1138  977 mt 1138 1025 L
1122  985 mt 1154 1017 L
1154  985 mt 1122 1017 L
gs 518 517 1729 1729 rc
gr

c9
1113  671 mt 1161  671 L
1137  647 mt 1137  695 L
gs 518 517 1729 1729 rc
gr

c8
1112  690 mt 1160  690 L
1136  666 mt 1136  714 L
1120  674 mt 1152  706 L
1152  674 mt 1120  706 L
gs 518 517 1729 1729 rc
gr

1110  694 mt 1158  694 L
1134  670 mt 1134  718 L
1118  678 mt 1150  710 L
1150  678 mt 1118  710 L
gs 518 517 1729 1729 rc
gr

1110  982 mt 1158  982 L
1134  958 mt 1134 1006 L
1118  966 mt 1150  998 L
1150  966 mt 1118  998 L
gs 518 517 1729 1729 rc
gr

c9
1110 1143 mt 1158 1143 L
1134 1119 mt 1134 1167 L
gs 518 517 1729 1729 rc
gr

1110  676 mt 1158  676 L
1134  652 mt 1134  700 L
gs 518 517 1729 1729 rc
gr

c8
1108  699 mt 1156  699 L
1132  675 mt 1132  723 L
1116  683 mt 1148  715 L
1148  683 mt 1116  715 L
gs 518 517 1729 1729 rc
gr

c9
1107  680 mt 1155  680 L
1131  656 mt 1131  704 L
gs 518 517 1729 1729 rc
gr

c8
1106  964 mt 1154  964 L
1130  940 mt 1130  988 L
1114  948 mt 1146  980 L
1146  948 mt 1114  980 L
gs 518 517 1729 1729 rc
gr

1106  704 mt 1154  704 L
1130  680 mt 1130  728 L
1114  688 mt 1146  720 L
1146  688 mt 1114  720 L
gs 518 517 1729 1729 rc
gr

c9
1104  684 mt 1152  684 L
1128  660 mt 1128  708 L
gs 518 517 1729 1729 rc
gr

c8
1104  709 mt 1152  709 L
1128  685 mt 1128  733 L
1112  693 mt 1144  725 L
1144  693 mt 1112  725 L
gs 518 517 1729 1729 rc
gr

1103  946 mt 1151  946 L
1127  922 mt 1127  970 L
1111  930 mt 1143  962 L
1143  930 mt 1111  962 L
gs 518 517 1729 1729 rc
gr

c9
1102 1119 mt 1150 1119 L
1126 1095 mt 1126 1143 L
gs 518 517 1729 1729 rc
gr

c8
1102  714 mt 1150  714 L
1126  690 mt 1126  738 L
1110  698 mt 1142  730 L
1142  698 mt 1110  730 L
gs 518 517 1729 1729 rc
gr

c9
1101  688 mt 1149  688 L
1125  664 mt 1125  712 L
gs 518 517 1729 1729 rc
gr

c8
1100  929 mt 1148  929 L
1124  905 mt 1124  953 L
1108  913 mt 1140  945 L
1140  913 mt 1108  945 L
gs 518 517 1729 1729 rc
gr

1100  720 mt 1148  720 L
1124  696 mt 1124  744 L
1108  704 mt 1140  736 L
1140  704 mt 1108  736 L
gs 518 517 1729 1729 rc
gr

1098  726 mt 1146  726 L
1122  702 mt 1122  750 L
1106  710 mt 1138  742 L
1138  710 mt 1106  742 L
gs 518 517 1729 1729 rc
gr

c9
1098  693 mt 1146  693 L
1122  669 mt 1122  717 L
gs 518 517 1729 1729 rc
gr

c8
1098  913 mt 1146  913 L
1122  889 mt 1122  937 L
1106  897 mt 1138  929 L
1138  897 mt 1106  929 L
gs 518 517 1729 1729 rc
gr

1097  733 mt 1145  733 L
1121  709 mt 1121  757 L
1105  717 mt 1137  749 L
1137  717 mt 1105  749 L
gs 518 517 1729 1729 rc
gr

1096  898 mt 1144  898 L
1120  874 mt 1120  922 L
1104  882 mt 1136  914 L
1136  882 mt 1104  914 L
gs 518 517 1729 1729 rc
gr

c9
1095  698 mt 1143  698 L
1119  674 mt 1119  722 L
gs 518 517 1729 1729 rc
gr

c8
1095  739 mt 1143  739 L
1119  715 mt 1119  763 L
1103  723 mt 1135  755 L
1135  723 mt 1103  755 L
gs 518 517 1729 1729 rc
gr

c9
1095 1094 mt 1143 1094 L
1119 1070 mt 1119 1118 L
gs 518 517 1729 1729 rc
gr

c8
1094  883 mt 1142  883 L
1118  859 mt 1118  907 L
1102  867 mt 1134  899 L
1134  867 mt 1102  899 L
gs 518 517 1729 1729 rc
gr

1094  746 mt 1142  746 L
1118  722 mt 1118  770 L
1102  730 mt 1134  762 L
1134  730 mt 1102  762 L
gs 518 517 1729 1729 rc
gr

1093  754 mt 1141  754 L
1117  730 mt 1117  778 L
1101  738 mt 1133  770 L
1133  738 mt 1101  770 L
gs 518 517 1729 1729 rc
gr

c9
1093  702 mt 1141  702 L
1117  678 mt 1117  726 L
gs 518 517 1729 1729 rc
gr

c8
1093  869 mt 1141  869 L
1117  845 mt 1117  893 L
1101  853 mt 1133  885 L
1133  853 mt 1101  885 L
gs 518 517 1729 1729 rc
gr

1092  762 mt 1140  762 L
1116  738 mt 1116  786 L
1100  746 mt 1132  778 L
1132  746 mt 1100  778 L
gs 518 517 1729 1729 rc
gr

1091  856 mt 1139  856 L
1115  832 mt 1115  880 L
1099  840 mt 1131  872 L
1131  840 mt 1099  872 L
gs 518 517 1729 1729 rc
gr

1091  770 mt 1139  770 L
1115  746 mt 1115  794 L
1099  754 mt 1131  786 L
1131  754 mt 1099  786 L
gs 518 517 1729 1729 rc
gr

1091  843 mt 1139  843 L
1115  819 mt 1115  867 L
1099  827 mt 1131  859 L
1131  827 mt 1099  859 L
gs 518 517 1729 1729 rc
gr

1090  779 mt 1138  779 L
1114  755 mt 1114  803 L
1098  763 mt 1130  795 L
1130  763 mt 1098  795 L
gs 518 517 1729 1729 rc
gr

c9
1090  708 mt 1138  708 L
1114  684 mt 1114  732 L
gs 518 517 1729 1729 rc
gr

c8
1090  831 mt 1138  831 L
1114  807 mt 1114  855 L
1098  815 mt 1130  847 L
1130  815 mt 1098  847 L
gs 518 517 1729 1729 rc
gr

1090  788 mt 1138  788 L
1114  764 mt 1114  812 L
1098  772 mt 1130  804 L
1130  772 mt 1098  804 L
gs 518 517 1729 1729 rc
gr

1090  819 mt 1138  819 L
1114  795 mt 1114  843 L
1098  803 mt 1130  835 L
1130  803 mt 1098  835 L
gs 518 517 1729 1729 rc
gr

1089  798 mt 1137  798 L
1113  774 mt 1113  822 L
1097  782 mt 1129  814 L
1129  782 mt 1097  814 L
gs 518 517 1729 1729 rc
gr

1089  808 mt 1137  808 L
1113  784 mt 1113  832 L
1097  792 mt 1129  824 L
1129  792 mt 1097  824 L
gs 518 517 1729 1729 rc
gr

c9
1089 1072 mt 1137 1072 L
1113 1048 mt 1113 1096 L
gs 518 517 1729 1729 rc
gr

1088  714 mt 1136  714 L
1112  690 mt 1112  738 L
gs 518 517 1729 1729 rc
gr

1085  718 mt 1133  718 L
1109  694 mt 1109  742 L
gs 518 517 1729 1729 rc
gr

1084 1049 mt 1132 1049 L
1108 1025 mt 1108 1073 L
gs 518 517 1729 1729 rc
gr

1083  725 mt 1131  725 L
1107  701 mt 1107  749 L
gs 518 517 1729 1729 rc
gr

1080  731 mt 1128  731 L
1104  707 mt 1104  755 L
gs 518 517 1729 1729 rc
gr

1079 1026 mt 1127 1026 L
1103 1002 mt 1103 1050 L
gs 518 517 1729 1729 rc
gr

1078  736 mt 1126  736 L
1102  712 mt 1102  760 L
gs 518 517 1729 1729 rc
gr

1075  743 mt 1123  743 L
1099  719 mt 1099  767 L
gs 518 517 1729 1729 rc
gr

1075 1006 mt 1123 1006 L
1099  982 mt 1099 1030 L
gs 518 517 1729 1729 rc
gr

1073  750 mt 1121  750 L
1097  726 mt 1097  774 L
gs 518 517 1729 1729 rc
gr

1072  987 mt 1120  987 L
1096  963 mt 1096 1011 L
gs 518 517 1729 1729 rc
gr

1071  759 mt 1119  759 L
1095  735 mt 1095  783 L
gs 518 517 1729 1729 rc
gr

1069  767 mt 1117  767 L
1093  743 mt 1093  791 L
gs 518 517 1729 1729 rc
gr

1069  969 mt 1117  969 L
1093  945 mt 1093  993 L
gs 518 517 1729 1729 rc
gr

1067  775 mt 1115  775 L
1091  751 mt 1091  799 L
gs 518 517 1729 1729 rc
gr

1066  949 mt 1114  949 L
1090  925 mt 1090  973 L
gs 518 517 1729 1729 rc
gr

1066  785 mt 1114  785 L
1090  761 mt 1090  809 L
gs 518 517 1729 1729 rc
gr

1064  931 mt 1112  931 L
1088  907 mt 1088  955 L
gs 518 517 1729 1729 rc
gr

1064  794 mt 1112  794 L
1088  770 mt 1088  818 L
gs 518 517 1729 1729 rc
gr

1063  805 mt 1111  805 L
1087  781 mt 1087  829 L
gs 518 517 1729 1729 rc
gr

1063  915 mt 1111  915 L
1087  891 mt 1087  939 L
gs 518 517 1729 1729 rc
gr

1062  817 mt 1110  817 L
1086  793 mt 1086  841 L
gs 518 517 1729 1729 rc
gr

1061  898 mt 1109  898 L
1085  874 mt 1085  922 L
gs 518 517 1729 1729 rc
gr

1061  882 mt 1109  882 L
1085  858 mt 1085  906 L
gs 518 517 1729 1729 rc
gr

1061  828 mt 1109  828 L
1085  804 mt 1085  852 L
gs 518 517 1729 1729 rc
gr

1060  840 mt 1108  840 L
1084  816 mt 1084  864 L
gs 518 517 1729 1729 rc
gr

1060  868 mt 1108  868 L
1084  844 mt 1084  892 L
gs 518 517 1729 1729 rc
gr

1060  854 mt 1108  854 L
1084  830 mt 1084  878 L
gs 518 517 1729 1729 rc
gr

0 sg
%%IncludeResource: font Helvetica
/Helvetica /ISOLatin1Encoding 96 FMSR

 505 2280 mt 
( ) s
%%IncludeResource: font Helvetica
/Helvetica /ISOLatin1Encoding 144 FMSR

 155 2274 mt  -90 rotate
(Random Cumulative Incident) s
90 rotate
6 w
1 sg
0 462 2146 0 0 -462 348 474 4 MP
PP
-2146 0 0 462 2146 0 0 -462 348 474 5 MP stroke
4 w
DO
SO
6 w
0 sg
 348  474 mt 2494  474 L
 348   12 mt 2494   12 L
 348  474 mt  348   12 L
2494  474 mt 2494   12 L
 348  474 mt 2494  474 L
 348  474 mt  348   12 L
 348  474 mt 2494  474 L
 348   12 mt 2494   12 L
 348  474 mt  348   12 L
2494  474 mt 2494   12 L
%%IncludeResource: font Helvetica
/Helvetica /ISOLatin1Encoding 132 FMSR

 816  186 mt 
(Ground Truth) s
gs 348 12 2147 463 rc
12 w
gs 550 89 99 99 rc
c9
 575  138 mt  623  138 L
 599  114 mt  599  162 L
gr

c9
gr

12 w
c9
0 sg
 816  395 mt 
(Multidimensional Logistic Fit) s
gs 348 12 2147 463 rc
gs 550 298 99 99 rc
c8
 575  347 mt  623  347 L
 599  323 mt  599  371 L
 583  331 mt  615  363 L
 615  331 mt  583  363 L
gr

c8
6 w
gr

6 w
c8

end %%Color Dict

eplot
%%EndObject

epage
end

showpage

%%Trailer
%%EOF
