%!PS-Adobe-3.0 EPSF-3.0
%%Creator: MATLAB, The MathWorks, Inc. Version 7.13.0.564 (R2011b). Operating System: Darwin 12.4.0 Darwin Kernel Version 12.4.0: Wed May  1 17:57:12 PDT 2013; root:xnu-2050.24.15~1/RELEASE_X86_64 x86_64.
%%Title: /Users/tozammel/Documents/research/projects/networks/writeup/icdm13/figs/figdata/dominator_meettype_sensor1.eps
%%CreationDate: 06/21/2013  19:45:22
%%DocumentNeededFonts: Helvetica
%%DocumentProcessColors: Cyan Magenta Yellow Black
%%LanguageLevel: 2
%%Pages: 1
%%BoundingBox:  -114   132   725   659
%%EndComments

%%BeginProlog
% MathWorks dictionary
/MathWorks 160 dict begin
% definition operators
/bdef {bind def} bind def
/ldef {load def} bind def
/xdef {exch def} bdef
/xstore {exch store} bdef
% operator abbreviations
/c  /clip ldef
/cc /concat ldef
/cp /closepath ldef
/gr /grestore ldef
/gs /gsave ldef
/mt /moveto ldef
/np /newpath ldef
/cm /currentmatrix ldef
/sm /setmatrix ldef
/rm /rmoveto ldef
/rl /rlineto ldef
/s {show newpath} bdef
/sc {setcmykcolor} bdef
/sr /setrgbcolor ldef
/sg /setgray ldef
/w /setlinewidth ldef
/j /setlinejoin ldef
/cap /setlinecap ldef
/rc {rectclip} bdef
/rf {rectfill} bdef
% page state control
/pgsv () def
/bpage {/pgsv save def} bdef
/epage {pgsv restore} bdef
/bplot /gsave ldef
/eplot {stroke grestore} bdef
% orientation switch
/portraitMode 0 def /landscapeMode 1 def /rotateMode 2 def
% coordinate system mappings
/dpi2point 0 def
% font control
/FontSize 0 def
/FMS {/FontSize xstore findfont [FontSize 0 0 FontSize neg 0 0]
  makefont setfont} bdef
/reencode {exch dup where {pop load} {pop StandardEncoding} ifelse
  exch dup 3 1 roll findfont dup length dict begin
  { 1 index /FID ne {def}{pop pop} ifelse } forall
  /Encoding exch def currentdict end definefont pop} bdef
/isroman {findfont /CharStrings get /Agrave known} bdef
/FMSR {3 1 roll 1 index dup isroman {reencode} {pop pop} ifelse
  exch FMS} bdef
/csm {1 dpi2point div -1 dpi2point div scale neg translate
 dup landscapeMode eq {pop -90 rotate}
  {rotateMode eq {90 rotate} if} ifelse} bdef
% line types: solid, dotted, dashed, dotdash
/SO { [] 0 setdash } bdef
/DO { [.5 dpi2point mul 4 dpi2point mul] 0 setdash } bdef
/DA { [6 dpi2point mul] 0 setdash } bdef
/DD { [.5 dpi2point mul 4 dpi2point mul 6 dpi2point mul 4
  dpi2point mul] 0 setdash } bdef
% macros for lines and objects
/L {lineto stroke} bdef
/MP {3 1 roll moveto 1 sub {rlineto} repeat} bdef
/AP {{rlineto} repeat} bdef
/PDlw -1 def
/W {/PDlw currentlinewidth def setlinewidth} def
/PP {closepath eofill} bdef
/DP {closepath stroke} bdef
/MR {4 -2 roll moveto dup  0 exch rlineto exch 0 rlineto
  neg 0 exch rlineto closepath} bdef
/FR {MR stroke} bdef
/PR {MR fill} bdef
/L1i {{currentfile picstr readhexstring pop} image} bdef
/tMatrix matrix def
/MakeOval {newpath tMatrix currentmatrix pop translate scale
0 0 1 0 360 arc tMatrix setmatrix} bdef
/FO {MakeOval stroke} bdef
/PO {MakeOval fill} bdef
/PD {currentlinewidth 2 div 0 360 arc fill
   PDlw -1 eq not {PDlw w /PDlw -1 def} if} def
/FA {newpath tMatrix currentmatrix pop translate scale
  0 0 1 5 -2 roll arc tMatrix setmatrix stroke} bdef
/PA {newpath tMatrix currentmatrix pop	translate 0 0 moveto scale
  0 0 1 5 -2 roll arc closepath tMatrix setmatrix fill} bdef
/FAn {newpath tMatrix currentmatrix pop translate scale
  0 0 1 5 -2 roll arcn tMatrix setmatrix stroke} bdef
/PAn {newpath tMatrix currentmatrix pop translate 0 0 moveto scale
  0 0 1 5 -2 roll arcn closepath tMatrix setmatrix fill} bdef
/vradius 0 def /hradius 0 def /lry 0 def
/lrx 0 def /uly 0 def /ulx 0 def /rad 0 def
/MRR {/vradius xdef /hradius xdef /lry xdef /lrx xdef /uly xdef
  /ulx xdef newpath tMatrix currentmatrix pop ulx hradius add uly
  vradius add translate hradius vradius scale 0 0 1 180 270 arc 
  tMatrix setmatrix lrx hradius sub uly vradius add translate
  hradius vradius scale 0 0 1 270 360 arc tMatrix setmatrix
  lrx hradius sub lry vradius sub translate hradius vradius scale
  0 0 1 0 90 arc tMatrix setmatrix ulx hradius add lry vradius sub
  translate hradius vradius scale 0 0 1 90 180 arc tMatrix setmatrix
  closepath} bdef
/FRR {MRR stroke } bdef
/PRR {MRR fill } bdef
/MlrRR {/lry xdef /lrx xdef /uly xdef /ulx xdef /rad lry uly sub 2 div def
  newpath tMatrix currentmatrix pop ulx rad add uly rad add translate
  rad rad scale 0 0 1 90 270 arc tMatrix setmatrix lrx rad sub lry rad
  sub translate rad rad scale 0 0 1 270 90 arc tMatrix setmatrix
  closepath} bdef
/FlrRR {MlrRR stroke } bdef
/PlrRR {MlrRR fill } bdef
/MtbRR {/lry xdef /lrx xdef /uly xdef /ulx xdef /rad lrx ulx sub 2 div def
  newpath tMatrix currentmatrix pop ulx rad add uly rad add translate
  rad rad scale 0 0 1 180 360 arc tMatrix setmatrix lrx rad sub lry rad
  sub translate rad rad scale 0 0 1 0 180 arc tMatrix setmatrix
  closepath} bdef
/FtbRR {MtbRR stroke } bdef
/PtbRR {MtbRR fill } bdef
/stri 6 array def /dtri 6 array def
/smat 6 array def /dmat 6 array def
/tmat1 6 array def /tmat2 6 array def /dif 3 array def
/asub {/ind2 exch def /ind1 exch def dup dup
  ind1 get exch ind2 get sub exch } bdef
/tri_to_matrix {
  2 0 asub 3 1 asub 4 0 asub 5 1 asub
  dup 0 get exch 1 get 7 -1 roll astore } bdef
/compute_transform {
  dmat dtri tri_to_matrix tmat1 invertmatrix 
  smat stri tri_to_matrix tmat2 concatmatrix } bdef
/ds {stri astore pop} bdef
/dt {dtri astore pop} bdef
/db {2 copy /cols xdef /rows xdef mul dup 3 mul string
  currentfile 
  3 index 0 eq {/ASCIIHexDecode filter}
  {/ASCII85Decode filter 3 index 2 eq {/RunLengthDecode filter} if }
  ifelse exch readstring pop
  dup 0 3 index getinterval /rbmap xdef
  dup 2 index dup getinterval /gbmap xdef
  1 index dup 2 mul exch getinterval /bbmap xdef pop pop}bdef
/it {gs np dtri aload pop moveto lineto lineto cp c
  cols rows 8 compute_transform 
  rbmap gbmap bbmap true 3 colorimage gr}bdef
/il {newpath moveto lineto stroke}bdef
currentdict end def
%%EndProlog

%%BeginSetup
MathWorks begin

0 cap

end
%%EndSetup

%%Page: 1 1
%%BeginPageSetup
%%PageBoundingBox:  -114   132   725   659
MathWorks begin
bpage
%%EndPageSetup

%%BeginObject: obj1
bplot

/dpi2point 12 def
portraitMode -1368 7908 csm

    0     0 10079  6317 rc
85 dict begin %Colortable dictionary
/c0 { 0.000000 0.000000 0.000000 sr} bdef
/c1 { 1.000000 1.000000 1.000000 sr} bdef
/c2 { 0.900000 0.000000 0.000000 sr} bdef
/c3 { 0.000000 0.820000 0.000000 sr} bdef
/c4 { 0.000000 0.000000 0.800000 sr} bdef
/c5 { 0.910000 0.820000 0.320000 sr} bdef
/c6 { 1.000000 0.260000 0.820000 sr} bdef
/c7 { 0.000000 0.820000 0.820000 sr} bdef
c0
1 j
1 sg
   0    0 10080 6318 rf
6 w
0 5148 7812 0 0 -5148 1309 5622 4 MP
PP
-7812 0 0 5148 7812 0 0 -5148 1309 5622 5 MP stroke
4 w
DO
SO
6 w
0 sg
1309 5622 mt 9121 5622 L
1309  474 mt 9121  474 L
1309 5622 mt 1309  474 L
9121 5622 mt 9121  474 L
1309 5622 mt 9121 5622 L
1309 5622 mt 1309  474 L
1460 5622 mt 1460 5543 L
1460  474 mt 1460  552 L
%%IncludeResource: font Helvetica
/Helvetica /ISOLatin1Encoding 216 FMSR

1400 5857 mt 
(1) s
2211 5622 mt 2211 5543 L
2211  474 mt 2211  552 L
2061 5857 mt 
(1.5) s
2962 5622 mt 2962 5543 L
2962  474 mt 2962  552 L
2902 5857 mt 
(2) s
3713 5622 mt 3713 5543 L
3713  474 mt 3713  552 L
3563 5857 mt 
(2.5) s
4464 5622 mt 4464 5543 L
4464  474 mt 4464  552 L
4404 5857 mt 
(3) s
5215 5622 mt 5215 5543 L
5215  474 mt 5215  552 L
5065 5857 mt 
(3.5) s
5966 5622 mt 5966 5543 L
5966  474 mt 5966  552 L
5906 5857 mt 
(4) s
6717 5622 mt 6717 5543 L
6717  474 mt 6717  552 L
6567 5857 mt 
(4.5) s
7468 5622 mt 7468 5543 L
7468  474 mt 7468  552 L
7408 5857 mt 
(5) s
8219 5622 mt 8219 5543 L
8219  474 mt 8219  552 L
8069 5857 mt 
(5.5) s
8970 5622 mt 8970 5543 L
8970  474 mt 8970  552 L
8910 5857 mt 
(6) s
1309 5622 mt 1388 5622 L
9121 5622 mt 9042 5622 L
1155 5702 mt 
(0) s
1309 4764 mt 1388 4764 L
9121 4764 mt 9042 4764 L
1035 4844 mt 
(50) s
1309 3906 mt 1388 3906 L
9121 3906 mt 9042 3906 L
 915 3986 mt 
(100) s
1309 3048 mt 1388 3048 L
9121 3048 mt 9042 3048 L
 915 3128 mt 
(150) s
1309 2190 mt 1388 2190 L
9121 2190 mt 9042 2190 L
 915 2270 mt 
(200) s
1309 1332 mt 1388 1332 L
9121 1332 mt 9042 1332 L
 915 1412 mt 
(250) s
1309  474 mt 1388  474 L
9121  474 mt 9042  474 L
 915  554 mt 
(300) s
1309 5622 mt 9121 5622 L
1309  474 mt 9121  474 L
1309 5622 mt 1309  474 L
9121 5622 mt 9121  474 L
gs 1309 474 7813 5149 rc
/c8 { 0.000000 0.000000 0.562500 sr} bdef
c8
0 532 60 0 0 -532 1460 5622 4 MP
PP
0 sg
-60 0 0 532 60 0 0 -532 1460 5622 5 MP stroke
c8
0 0 60 0 0 0 1520 5622 4 MP
PP
0 sg
-60 0 0 0 60 0 0 0 1520 5622 5 MP stroke
c8
0 0 60 0 0 0 1580 5622 4 MP
PP
0 sg
-60 0 0 0 60 0 0 0 1580 5622 5 MP stroke
c8
0 0 60 0 0 0 1640 5622 4 MP
PP
0 sg
-60 0 0 0 60 0 0 0 1640 5622 5 MP stroke
c8
0 0 60 0 0 0 1700 5622 4 MP
PP
0 sg
-60 0 0 0 60 0 0 0 1700 5622 5 MP stroke
c8
0 0 60 0 0 0 1760 5622 4 MP
PP
0 sg
-60 0 0 0 60 0 0 0 1760 5622 5 MP stroke
c8
0 0 60 0 0 0 1820 5622 4 MP
PP
0 sg
-60 0 0 0 60 0 0 0 1820 5622 5 MP stroke
c8
0 0 60 0 0 0 1880 5622 4 MP
PP
0 sg
-60 0 0 0 60 0 0 0 1880 5622 5 MP stroke
c8
0 0 60 0 0 0 1940 5622 4 MP
PP
0 sg
-60 0 0 0 60 0 0 0 1940 5622 5 MP stroke
c8
0 0 61 0 0 0 2000 5622 4 MP
PP
0 sg
-61 0 0 0 61 0 0 0 2000 5622 5 MP stroke
c8
0 0 60 0 0 0 2061 5622 4 MP
PP
0 sg
-60 0 0 0 60 0 0 0 2061 5622 5 MP stroke
c8
0 0 60 0 0 0 2121 5622 4 MP
PP
0 sg
-60 0 0 0 60 0 0 0 2121 5622 5 MP stroke
c8
0 0 60 0 0 0 2181 5622 4 MP
PP
0 sg
-60 0 0 0 60 0 0 0 2181 5622 5 MP stroke
c8
0 0 60 0 0 0 2241 5622 4 MP
PP
0 sg
-60 0 0 0 60 0 0 0 2241 5622 5 MP stroke
c8
0 0 60 0 0 0 2301 5622 4 MP
PP
0 sg
-60 0 0 0 60 0 0 0 2301 5622 5 MP stroke
c8
0 0 60 0 0 0 2361 5622 4 MP
PP
0 sg
-60 0 0 0 60 0 0 0 2361 5622 5 MP stroke
c8
0 0 60 0 0 0 2421 5622 4 MP
PP
0 sg
-60 0 0 0 60 0 0 0 2421 5622 5 MP stroke
c8
0 0 60 0 0 0 2481 5622 4 MP
PP
0 sg
-60 0 0 0 60 0 0 0 2481 5622 5 MP stroke
c8
0 0 60 0 0 0 2541 5622 4 MP
PP
0 sg
-60 0 0 0 60 0 0 0 2541 5622 5 MP stroke
c8
0 0 60 0 0 0 2601 5622 4 MP
PP
0 sg
-60 0 0 0 60 0 0 0 2601 5622 5 MP stroke
c8
0 0 60 0 0 0 2661 5622 4 MP
PP
0 sg
-60 0 0 0 60 0 0 0 2661 5622 5 MP stroke
c8
0 0 61 0 0 0 2721 5622 4 MP
PP
0 sg
-61 0 0 0 61 0 0 0 2721 5622 5 MP stroke
c8
0 0 60 0 0 0 2782 5622 4 MP
PP
0 sg
-60 0 0 0 60 0 0 0 2782 5622 5 MP stroke
c8
0 0 60 0 0 0 2842 5622 4 MP
PP
0 sg
-60 0 0 0 60 0 0 0 2842 5622 5 MP stroke
c8
0 2351 60 0 0 -2351 2902 5622 4 MP
PP
0 sg
-60 0 0 2351 60 0 0 -2351 2902 5622 5 MP stroke
c8
0 0 60 0 0 0 2962 5622 4 MP
PP
0 sg
-60 0 0 0 60 0 0 0 2962 5622 5 MP stroke
c8
0 0 60 0 0 0 3022 5622 4 MP
PP
0 sg
-60 0 0 0 60 0 0 0 3022 5622 5 MP stroke
c8
0 0 60 0 0 0 3082 5622 4 MP
PP
0 sg
-60 0 0 0 60 0 0 0 3082 5622 5 MP stroke
c8
0 0 60 0 0 0 3142 5622 4 MP
PP
0 sg
-60 0 0 0 60 0 0 0 3142 5622 5 MP stroke
c8
0 0 60 0 0 0 3202 5622 4 MP
PP
0 sg
-60 0 0 0 60 0 0 0 3202 5622 5 MP stroke
c8
0 0 60 0 0 0 3262 5622 4 MP
PP
0 sg
-60 0 0 0 60 0 0 0 3262 5622 5 MP stroke
c8
0 0 60 0 0 0 3322 5622 4 MP
PP
0 sg
-60 0 0 0 60 0 0 0 3322 5622 5 MP stroke
c8
0 0 61 0 0 0 3382 5622 4 MP
PP
0 sg
-61 0 0 0 61 0 0 0 3382 5622 5 MP stroke
c8
0 0 60 0 0 0 3443 5622 4 MP
PP
0 sg
-60 0 0 0 60 0 0 0 3443 5622 5 MP stroke
c8
0 0 60 0 0 0 3503 5622 4 MP
PP
0 sg
-60 0 0 0 60 0 0 0 3503 5622 5 MP stroke
c8
0 0 60 0 0 0 3563 5622 4 MP
PP
0 sg
-60 0 0 0 60 0 0 0 3563 5622 5 MP stroke
c8
0 0 60 0 0 0 3623 5622 4 MP
PP
0 sg
-60 0 0 0 60 0 0 0 3623 5622 5 MP stroke
c8
0 0 60 0 0 0 3683 5622 4 MP
PP
0 sg
-60 0 0 0 60 0 0 0 3683 5622 5 MP stroke
c8
0 0 60 0 0 0 3743 5622 4 MP
PP
0 sg
-60 0 0 0 60 0 0 0 3743 5622 5 MP stroke
c8
0 0 60 0 0 0 3803 5622 4 MP
PP
0 sg
-60 0 0 0 60 0 0 0 3803 5622 5 MP stroke
c8
0 0 60 0 0 0 3863 5622 4 MP
PP
0 sg
-60 0 0 0 60 0 0 0 3863 5622 5 MP stroke
c8
0 0 60 0 0 0 3923 5622 4 MP
PP
0 sg
-60 0 0 0 60 0 0 0 3923 5622 5 MP stroke
c8
0 0 60 0 0 0 3983 5622 4 MP
PP
0 sg
-60 0 0 0 60 0 0 0 3983 5622 5 MP stroke
c8
0 0 60 0 0 0 4043 5622 4 MP
PP
0 sg
-60 0 0 0 60 0 0 0 4043 5622 5 MP stroke
c8
0 0 61 0 0 0 4103 5622 4 MP
PP
0 sg
-61 0 0 0 61 0 0 0 4103 5622 5 MP stroke
c8
0 0 60 0 0 0 4164 5622 4 MP
PP
0 sg
-60 0 0 0 60 0 0 0 4164 5622 5 MP stroke
c8
0 0 60 0 0 0 4224 5622 4 MP
PP
0 sg
-60 0 0 0 60 0 0 0 4224 5622 5 MP stroke
c8
0 0 60 0 0 0 4284 5622 4 MP
PP
0 sg
-60 0 0 0 60 0 0 0 4284 5622 5 MP stroke
c8
0 0 60 0 0 0 4344 5622 4 MP
PP
0 sg
-60 0 0 0 60 0 0 0 4344 5622 5 MP stroke
c8
0 996 60 0 0 -996 4404 5622 4 MP
PP
0 sg
-60 0 0 996 60 0 0 -996 4404 5622 5 MP stroke
c8
0 0 60 0 0 0 4464 5622 4 MP
PP
0 sg
-60 0 0 0 60 0 0 0 4464 5622 5 MP stroke
c8
0 0 60 0 0 0 4524 5622 4 MP
PP
0 sg
-60 0 0 0 60 0 0 0 4524 5622 5 MP stroke
c8
0 0 60 0 0 0 4584 5622 4 MP
PP
0 sg
-60 0 0 0 60 0 0 0 4584 5622 5 MP stroke
c8
0 0 60 0 0 0 4644 5622 4 MP
PP
0 sg
-60 0 0 0 60 0 0 0 4644 5622 5 MP stroke
c8
0 0 60 0 0 0 4704 5622 4 MP
PP
0 sg
-60 0 0 0 60 0 0 0 4704 5622 5 MP stroke
c8
0 0 60 0 0 0 4764 5622 4 MP
PP
0 sg
-60 0 0 0 60 0 0 0 4764 5622 5 MP stroke
c8
0 0 61 0 0 0 4824 5622 4 MP
PP
0 sg
-61 0 0 0 61 0 0 0 4824 5622 5 MP stroke
c8
0 0 60 0 0 0 4885 5622 4 MP
PP
0 sg
-60 0 0 0 60 0 0 0 4885 5622 5 MP stroke
c8
0 0 60 0 0 0 4945 5622 4 MP
PP
0 sg
-60 0 0 0 60 0 0 0 4945 5622 5 MP stroke
c8
0 0 60 0 0 0 5005 5622 4 MP
PP
0 sg
-60 0 0 0 60 0 0 0 5005 5622 5 MP stroke
c8
0 0 60 0 0 0 5065 5622 4 MP
PP
0 sg
-60 0 0 0 60 0 0 0 5065 5622 5 MP stroke
c8
0 0 60 0 0 0 5125 5622 4 MP
PP
0 sg
-60 0 0 0 60 0 0 0 5125 5622 5 MP stroke
c8
0 0 60 0 0 0 5185 5622 4 MP
PP
0 sg
-60 0 0 0 60 0 0 0 5185 5622 5 MP stroke
c8
0 0 60 0 0 0 5245 5622 4 MP
PP
0 sg
-60 0 0 0 60 0 0 0 5245 5622 5 MP stroke
c8
0 0 60 0 0 0 5305 5622 4 MP
PP
0 sg
-60 0 0 0 60 0 0 0 5305 5622 5 MP stroke
c8
0 0 60 0 0 0 5365 5622 4 MP
PP
0 sg
-60 0 0 0 60 0 0 0 5365 5622 5 MP stroke
c8
0 0 60 0 0 0 5425 5622 4 MP
PP
0 sg
-60 0 0 0 60 0 0 0 5425 5622 5 MP stroke
c8
0 0 60 0 0 0 5485 5622 4 MP
PP
0 sg
-60 0 0 0 60 0 0 0 5485 5622 5 MP stroke
c8
0 0 61 0 0 0 5545 5622 4 MP
PP
0 sg
-61 0 0 0 61 0 0 0 5545 5622 5 MP stroke
c8
0 0 60 0 0 0 5606 5622 4 MP
PP
0 sg
-60 0 0 0 60 0 0 0 5606 5622 5 MP stroke
c8
0 0 60 0 0 0 5666 5622 4 MP
PP
0 sg
-60 0 0 0 60 0 0 0 5666 5622 5 MP stroke
c8
0 0 60 0 0 0 5726 5622 4 MP
PP
0 sg
-60 0 0 0 60 0 0 0 5726 5622 5 MP stroke
c8
0 0 60 0 0 0 5786 5622 4 MP
PP
0 sg
-60 0 0 0 60 0 0 0 5786 5622 5 MP stroke
c8
0 0 60 0 0 0 5846 5622 4 MP
PP
0 sg
-60 0 0 0 60 0 0 0 5846 5622 5 MP stroke
c8
0 2008 60 0 0 -2008 5906 5622 4 MP
PP
0 sg
-60 0 0 2008 60 0 0 -2008 5906 5622 5 MP stroke
c8
0 0 60 0 0 0 5966 5622 4 MP
PP
0 sg
-60 0 0 0 60 0 0 0 5966 5622 5 MP stroke
c8
0 0 60 0 0 0 6026 5622 4 MP
PP
0 sg
-60 0 0 0 60 0 0 0 6026 5622 5 MP stroke
c8
0 0 60 0 0 0 6086 5622 4 MP
PP
0 sg
-60 0 0 0 60 0 0 0 6086 5622 5 MP stroke
c8
0 0 60 0 0 0 6146 5622 4 MP
PP
0 sg
-60 0 0 0 60 0 0 0 6146 5622 5 MP stroke
c8
0 0 60 0 0 0 6206 5622 4 MP
PP
0 sg
-60 0 0 0 60 0 0 0 6206 5622 5 MP stroke
c8
0 0 61 0 0 0 6266 5622 4 MP
PP
0 sg
-61 0 0 0 61 0 0 0 6266 5622 5 MP stroke
c8
0 0 60 0 0 0 6327 5622 4 MP
PP
0 sg
-60 0 0 0 60 0 0 0 6327 5622 5 MP stroke
c8
0 0 60 0 0 0 6387 5622 4 MP
PP
0 sg
-60 0 0 0 60 0 0 0 6387 5622 5 MP stroke
c8
0 0 60 0 0 0 6447 5622 4 MP
PP
0 sg
-60 0 0 0 60 0 0 0 6447 5622 5 MP stroke
c8
0 0 60 0 0 0 6507 5622 4 MP
PP
0 sg
-60 0 0 0 60 0 0 0 6507 5622 5 MP stroke
c8
0 0 60 0 0 0 6567 5622 4 MP
PP
0 sg
-60 0 0 0 60 0 0 0 6567 5622 5 MP stroke
c8
0 0 60 0 0 0 6627 5622 4 MP
PP
0 sg
-60 0 0 0 60 0 0 0 6627 5622 5 MP stroke
c8
0 0 60 0 0 0 6687 5622 4 MP
PP
0 sg
-60 0 0 0 60 0 0 0 6687 5622 5 MP stroke
c8
0 0 60 0 0 0 6747 5622 4 MP
PP
0 sg
-60 0 0 0 60 0 0 0 6747 5622 5 MP stroke
c8
0 0 60 0 0 0 6807 5622 4 MP
PP
0 sg
-60 0 0 0 60 0 0 0 6807 5622 5 MP stroke
c8
0 0 60 0 0 0 6867 5622 4 MP
PP
0 sg
-60 0 0 0 60 0 0 0 6867 5622 5 MP stroke
c8
0 0 60 0 0 0 6927 5622 4 MP
PP
0 sg
-60 0 0 0 60 0 0 0 6927 5622 5 MP stroke
c8
0 0 61 0 0 0 6987 5622 4 MP
PP
0 sg
-61 0 0 0 61 0 0 0 6987 5622 5 MP stroke
c8
0 0 60 0 0 0 7048 5622 4 MP
PP
0 sg
-60 0 0 0 60 0 0 0 7048 5622 5 MP stroke
c8
0 0 60 0 0 0 7108 5622 4 MP
PP
0 sg
-60 0 0 0 60 0 0 0 7108 5622 5 MP stroke
c8
0 0 60 0 0 0 7168 5622 4 MP
PP
0 sg
-60 0 0 0 60 0 0 0 7168 5622 5 MP stroke
c8
0 0 60 0 0 0 7228 5622 4 MP
PP
0 sg
-60 0 0 0 60 0 0 0 7228 5622 5 MP stroke
c8
0 0 60 0 0 0 7288 5622 4 MP
PP
0 sg
-60 0 0 0 60 0 0 0 7288 5622 5 MP stroke
c8
0 0 60 0 0 0 7348 5622 4 MP
PP
0 sg
-60 0 0 0 60 0 0 0 7348 5622 5 MP stroke
c8
0 4994 60 0 0 -4994 7408 5622 4 MP
PP
0 sg
-60 0 0 4994 60 0 0 -4994 7408 5622 5 MP stroke
gr

%%IncludeResource: font Helvetica
/Helvetica /ISOLatin1Encoding 264 FMSR

4613 6106 mt 
(Meet Type) s
 801 3667 mt  -90 rotate
(Frequency) s
90 rotate

end %%Color Dict

eplot
%%EndObject

epage
end

showpage

%%Trailer
%%EOF
