%!PS-Adobe-3.0 EPSF-3.0
%%Creator: MATLAB, The MathWorks, Inc. Version 7.13.0.564 (R2011b). Operating System: Darwin 12.4.0 Darwin Kernel Version 12.4.0: Wed May  1 17:57:12 PDT 2013; root:xnu-2050.24.15~1/RELEASE_X86_64 x86_64.
%%Title: /Users/tozammel/Documents/research/projects/networks/writeup/icdm13/figs/figdata/dominator_age_random1.eps
%%CreationDate: 06/21/2013  19:32:19
%%DocumentNeededFonts: Helvetica
%%DocumentProcessColors: Cyan Magenta Yellow Black
%%LanguageLevel: 2
%%Pages: 1
%%BoundingBox:  -114   132   725   659
%%EndComments

%%BeginProlog
% MathWorks dictionary
/MathWorks 160 dict begin
% definition operators
/bdef {bind def} bind def
/ldef {load def} bind def
/xdef {exch def} bdef
/xstore {exch store} bdef
% operator abbreviations
/c  /clip ldef
/cc /concat ldef
/cp /closepath ldef
/gr /grestore ldef
/gs /gsave ldef
/mt /moveto ldef
/np /newpath ldef
/cm /currentmatrix ldef
/sm /setmatrix ldef
/rm /rmoveto ldef
/rl /rlineto ldef
/s {show newpath} bdef
/sc {setcmykcolor} bdef
/sr /setrgbcolor ldef
/sg /setgray ldef
/w /setlinewidth ldef
/j /setlinejoin ldef
/cap /setlinecap ldef
/rc {rectclip} bdef
/rf {rectfill} bdef
% page state control
/pgsv () def
/bpage {/pgsv save def} bdef
/epage {pgsv restore} bdef
/bplot /gsave ldef
/eplot {stroke grestore} bdef
% orientation switch
/portraitMode 0 def /landscapeMode 1 def /rotateMode 2 def
% coordinate system mappings
/dpi2point 0 def
% font control
/FontSize 0 def
/FMS {/FontSize xstore findfont [FontSize 0 0 FontSize neg 0 0]
  makefont setfont} bdef
/reencode {exch dup where {pop load} {pop StandardEncoding} ifelse
  exch dup 3 1 roll findfont dup length dict begin
  { 1 index /FID ne {def}{pop pop} ifelse } forall
  /Encoding exch def currentdict end definefont pop} bdef
/isroman {findfont /CharStrings get /Agrave known} bdef
/FMSR {3 1 roll 1 index dup isroman {reencode} {pop pop} ifelse
  exch FMS} bdef
/csm {1 dpi2point div -1 dpi2point div scale neg translate
 dup landscapeMode eq {pop -90 rotate}
  {rotateMode eq {90 rotate} if} ifelse} bdef
% line types: solid, dotted, dashed, dotdash
/SO { [] 0 setdash } bdef
/DO { [.5 dpi2point mul 4 dpi2point mul] 0 setdash } bdef
/DA { [6 dpi2point mul] 0 setdash } bdef
/DD { [.5 dpi2point mul 4 dpi2point mul 6 dpi2point mul 4
  dpi2point mul] 0 setdash } bdef
% macros for lines and objects
/L {lineto stroke} bdef
/MP {3 1 roll moveto 1 sub {rlineto} repeat} bdef
/AP {{rlineto} repeat} bdef
/PDlw -1 def
/W {/PDlw currentlinewidth def setlinewidth} def
/PP {closepath eofill} bdef
/DP {closepath stroke} bdef
/MR {4 -2 roll moveto dup  0 exch rlineto exch 0 rlineto
  neg 0 exch rlineto closepath} bdef
/FR {MR stroke} bdef
/PR {MR fill} bdef
/L1i {{currentfile picstr readhexstring pop} image} bdef
/tMatrix matrix def
/MakeOval {newpath tMatrix currentmatrix pop translate scale
0 0 1 0 360 arc tMatrix setmatrix} bdef
/FO {MakeOval stroke} bdef
/PO {MakeOval fill} bdef
/PD {currentlinewidth 2 div 0 360 arc fill
   PDlw -1 eq not {PDlw w /PDlw -1 def} if} def
/FA {newpath tMatrix currentmatrix pop translate scale
  0 0 1 5 -2 roll arc tMatrix setmatrix stroke} bdef
/PA {newpath tMatrix currentmatrix pop	translate 0 0 moveto scale
  0 0 1 5 -2 roll arc closepath tMatrix setmatrix fill} bdef
/FAn {newpath tMatrix currentmatrix pop translate scale
  0 0 1 5 -2 roll arcn tMatrix setmatrix stroke} bdef
/PAn {newpath tMatrix currentmatrix pop translate 0 0 moveto scale
  0 0 1 5 -2 roll arcn closepath tMatrix setmatrix fill} bdef
/vradius 0 def /hradius 0 def /lry 0 def
/lrx 0 def /uly 0 def /ulx 0 def /rad 0 def
/MRR {/vradius xdef /hradius xdef /lry xdef /lrx xdef /uly xdef
  /ulx xdef newpath tMatrix currentmatrix pop ulx hradius add uly
  vradius add translate hradius vradius scale 0 0 1 180 270 arc 
  tMatrix setmatrix lrx hradius sub uly vradius add translate
  hradius vradius scale 0 0 1 270 360 arc tMatrix setmatrix
  lrx hradius sub lry vradius sub translate hradius vradius scale
  0 0 1 0 90 arc tMatrix setmatrix ulx hradius add lry vradius sub
  translate hradius vradius scale 0 0 1 90 180 arc tMatrix setmatrix
  closepath} bdef
/FRR {MRR stroke } bdef
/PRR {MRR fill } bdef
/MlrRR {/lry xdef /lrx xdef /uly xdef /ulx xdef /rad lry uly sub 2 div def
  newpath tMatrix currentmatrix pop ulx rad add uly rad add translate
  rad rad scale 0 0 1 90 270 arc tMatrix setmatrix lrx rad sub lry rad
  sub translate rad rad scale 0 0 1 270 90 arc tMatrix setmatrix
  closepath} bdef
/FlrRR {MlrRR stroke } bdef
/PlrRR {MlrRR fill } bdef
/MtbRR {/lry xdef /lrx xdef /uly xdef /ulx xdef /rad lrx ulx sub 2 div def
  newpath tMatrix currentmatrix pop ulx rad add uly rad add translate
  rad rad scale 0 0 1 180 360 arc tMatrix setmatrix lrx rad sub lry rad
  sub translate rad rad scale 0 0 1 0 180 arc tMatrix setmatrix
  closepath} bdef
/FtbRR {MtbRR stroke } bdef
/PtbRR {MtbRR fill } bdef
/stri 6 array def /dtri 6 array def
/smat 6 array def /dmat 6 array def
/tmat1 6 array def /tmat2 6 array def /dif 3 array def
/asub {/ind2 exch def /ind1 exch def dup dup
  ind1 get exch ind2 get sub exch } bdef
/tri_to_matrix {
  2 0 asub 3 1 asub 4 0 asub 5 1 asub
  dup 0 get exch 1 get 7 -1 roll astore } bdef
/compute_transform {
  dmat dtri tri_to_matrix tmat1 invertmatrix 
  smat stri tri_to_matrix tmat2 concatmatrix } bdef
/ds {stri astore pop} bdef
/dt {dtri astore pop} bdef
/db {2 copy /cols xdef /rows xdef mul dup 3 mul string
  currentfile 
  3 index 0 eq {/ASCIIHexDecode filter}
  {/ASCII85Decode filter 3 index 2 eq {/RunLengthDecode filter} if }
  ifelse exch readstring pop
  dup 0 3 index getinterval /rbmap xdef
  dup 2 index dup getinterval /gbmap xdef
  1 index dup 2 mul exch getinterval /bbmap xdef pop pop}bdef
/it {gs np dtri aload pop moveto lineto lineto cp c
  cols rows 8 compute_transform 
  rbmap gbmap bbmap true 3 colorimage gr}bdef
/il {newpath moveto lineto stroke}bdef
currentdict end def
%%EndProlog

%%BeginSetup
MathWorks begin

0 cap

end
%%EndSetup

%%Page: 1 1
%%BeginPageSetup
%%PageBoundingBox:  -114   132   725   659
MathWorks begin
bpage
%%EndPageSetup

%%BeginObject: obj1
bplot

/dpi2point 12 def
portraitMode -1368 7908 csm

    0     0 10079  6317 rc
85 dict begin %Colortable dictionary
/c0 { 0.000000 0.000000 0.000000 sr} bdef
/c1 { 1.000000 1.000000 1.000000 sr} bdef
/c2 { 0.900000 0.000000 0.000000 sr} bdef
/c3 { 0.000000 0.820000 0.000000 sr} bdef
/c4 { 0.000000 0.000000 0.800000 sr} bdef
/c5 { 0.910000 0.820000 0.320000 sr} bdef
/c6 { 1.000000 0.260000 0.820000 sr} bdef
/c7 { 0.000000 0.820000 0.820000 sr} bdef
c0
1 j
1 sg
   0    0 10080 6318 rf
6 w
0 5148 7811 0 0 -5148 1310 5622 4 MP
PP
-7811 0 0 5148 7811 0 0 -5148 1310 5622 5 MP stroke
4 w
DO
SO
6 w
0 sg
1310 5622 mt 9121 5622 L
1310  474 mt 9121  474 L
1310 5622 mt 1310  474 L
9121 5622 mt 9121  474 L
1310 5622 mt 9121 5622 L
1310 5622 mt 1310  474 L
2020 5622 mt 2020 5543 L
2020  474 mt 2020  552 L
%%IncludeResource: font Helvetica
/Helvetica /ISOLatin1Encoding 216 FMSR

1900 5857 mt 
(10) s
2809 5622 mt 2809 5543 L
2809  474 mt 2809  552 L
2689 5857 mt 
(20) s
3598 5622 mt 3598 5543 L
3598  474 mt 3598  552 L
3478 5857 mt 
(30) s
4387 5622 mt 4387 5543 L
4387  474 mt 4387  552 L
4267 5857 mt 
(40) s
5176 5622 mt 5176 5543 L
5176  474 mt 5176  552 L
5056 5857 mt 
(50) s
5965 5622 mt 5965 5543 L
5965  474 mt 5965  552 L
5845 5857 mt 
(60) s
6754 5622 mt 6754 5543 L
6754  474 mt 6754  552 L
6634 5857 mt 
(70) s
7543 5622 mt 7543 5543 L
7543  474 mt 7543  552 L
7423 5857 mt 
(80) s
8332 5622 mt 8332 5543 L
8332  474 mt 8332  552 L
8212 5857 mt 
(90) s
9121 5622 mt 9121 5543 L
9121  474 mt 9121  552 L
8941 5857 mt 
(100) s
1310 5622 mt 1388 5622 L
9121 5622 mt 9042 5622 L
1155 5702 mt 
(0) s
1310 4592 mt 1388 4592 L
9121 4592 mt 9042 4592 L
 915 4672 mt 
(500) s
1310 3562 mt 1388 3562 L
9121 3562 mt 9042 3562 L
 795 3642 mt 
(1000) s
1310 2533 mt 1388 2533 L
9121 2533 mt 9042 2533 L
 795 2613 mt 
(1500) s
1310 1503 mt 1388 1503 L
9121 1503 mt 9042 1503 L
 795 1583 mt 
(2000) s
1310  474 mt 1388  474 L
9121  474 mt 9042  474 L
 795  554 mt 
(2500) s
1310 5622 mt 9121 5622 L
1310  474 mt 9121  474 L
1310 5622 mt 1310  474 L
9121 5622 mt 9121  474 L
gs 1310 474 7812 5149 rc
/c8 { 0.000000 0.000000 0.562500 sr} bdef
c8
0 2791 73 0 0 -2791 1231 5622 4 MP
PP
0 sg
-73 0 0 2791 73 0 0 -2791 1231 5622 5 MP stroke
c8
0 2745 73 0 0 -2745 1304 5622 4 MP
PP
0 sg
-73 0 0 2745 73 0 0 -2745 1304 5622 5 MP stroke
c8
0 2875 74 0 0 -2875 1377 5622 4 MP
PP
0 sg
-74 0 0 2875 74 0 0 -2875 1377 5622 5 MP stroke
c8
0 2647 73 0 0 -2647 1451 5622 4 MP
PP
0 sg
-73 0 0 2647 73 0 0 -2647 1451 5622 5 MP stroke
c8
0 2717 73 0 0 -2717 1524 5622 4 MP
PP
0 sg
-73 0 0 2717 73 0 0 -2717 1524 5622 5 MP stroke
c8
0 2469 74 0 0 -2469 1597 5622 4 MP
PP
0 sg
-74 0 0 2469 74 0 0 -2469 1597 5622 5 MP stroke
c8
0 2544 73 0 0 -2544 1671 5622 4 MP
PP
0 sg
-73 0 0 2544 73 0 0 -2544 1671 5622 5 MP stroke
c8
0 2727 74 0 0 -2727 1744 5622 4 MP
PP
0 sg
-74 0 0 2727 74 0 0 -2727 1744 5622 5 MP stroke
c8
0 2665 73 0 0 -2665 1818 5622 4 MP
PP
0 sg
-73 0 0 2665 73 0 0 -2665 1818 5622 5 MP stroke
c8
0 2873 73 0 0 -2873 1891 5622 4 MP
PP
0 sg
-73 0 0 2873 73 0 0 -2873 1891 5622 5 MP stroke
c8
0 2733 74 0 0 -2733 1964 5622 4 MP
PP
0 sg
-74 0 0 2733 74 0 0 -2733 1964 5622 5 MP stroke
c8
0 2523 73 0 0 -2523 2038 5622 4 MP
PP
0 sg
-73 0 0 2523 73 0 0 -2523 2038 5622 5 MP stroke
c8
0 2836 73 0 0 -2836 2111 5622 4 MP
PP
0 sg
-73 0 0 2836 73 0 0 -2836 2111 5622 5 MP stroke
c8
0 2607 74 0 0 -2607 2184 5622 4 MP
PP
0 sg
-74 0 0 2607 74 0 0 -2607 2184 5622 5 MP stroke
c8
0 0 73 0 0 0 2258 5622 4 MP
PP
0 sg
-73 0 0 0 73 0 0 0 2258 5622 5 MP stroke
c8
0 2566 74 0 0 -2566 2331 5622 4 MP
PP
0 sg
-74 0 0 2566 74 0 0 -2566 2331 5622 5 MP stroke
c8
0 2282 73 0 0 -2282 2405 5622 4 MP
PP
0 sg
-73 0 0 2282 73 0 0 -2282 2405 5622 5 MP stroke
c8
0 2525 73 0 0 -2525 2478 5622 4 MP
PP
0 sg
-73 0 0 2525 73 0 0 -2525 2478 5622 5 MP stroke
c8
0 2437 74 0 0 -2437 2551 5622 4 MP
PP
0 sg
-74 0 0 2437 74 0 0 -2437 2551 5622 5 MP stroke
c8
0 2638 73 0 0 -2638 2625 5622 4 MP
PP
0 sg
-73 0 0 2638 73 0 0 -2638 2625 5622 5 MP stroke
c8
0 2496 73 0 0 -2496 2698 5622 4 MP
PP
0 sg
-73 0 0 2496 73 0 0 -2496 2698 5622 5 MP stroke
c8
0 2321 74 0 0 -2321 2771 5622 4 MP
PP
0 sg
-74 0 0 2321 74 0 0 -2321 2771 5622 5 MP stroke
c8
0 2647 73 0 0 -2647 2845 5622 4 MP
PP
0 sg
-73 0 0 2647 73 0 0 -2647 2845 5622 5 MP stroke
c8
0 2371 74 0 0 -2371 2918 5622 4 MP
PP
0 sg
-74 0 0 2371 74 0 0 -2371 2918 5622 5 MP stroke
c8
0 2558 73 0 0 -2558 2992 5622 4 MP
PP
0 sg
-73 0 0 2558 73 0 0 -2558 2992 5622 5 MP stroke
c8
0 2346 73 0 0 -2346 3065 5622 4 MP
PP
0 sg
-73 0 0 2346 73 0 0 -2346 3065 5622 5 MP stroke
c8
0 2624 74 0 0 -2624 3138 5622 4 MP
PP
0 sg
-74 0 0 2624 74 0 0 -2624 3138 5622 5 MP stroke
c8
0 2605 73 0 0 -2605 3212 5622 4 MP
PP
0 sg
-73 0 0 2605 73 0 0 -2605 3212 5622 5 MP stroke
c8
0 0 74 0 0 0 3285 5622 4 MP
PP
0 sg
-74 0 0 0 74 0 0 0 3285 5622 5 MP stroke
c8
0 2881 73 0 0 -2881 3359 5622 4 MP
PP
0 sg
-73 0 0 2881 73 0 0 -2881 3359 5622 5 MP stroke
c8
0 2988 73 0 0 -2988 3432 5622 4 MP
PP
0 sg
-73 0 0 2988 73 0 0 -2988 3432 5622 5 MP stroke
c8
0 2824 74 0 0 -2824 3505 5622 4 MP
PP
0 sg
-74 0 0 2824 74 0 0 -2824 3505 5622 5 MP stroke
c8
0 3023 73 0 0 -3023 3579 5622 4 MP
PP
0 sg
-73 0 0 3023 73 0 0 -3023 3579 5622 5 MP stroke
c8
0 2844 73 0 0 -2844 3652 5622 4 MP
PP
0 sg
-73 0 0 2844 73 0 0 -2844 3652 5622 5 MP stroke
c8
0 2937 74 0 0 -2937 3725 5622 4 MP
PP
0 sg
-74 0 0 2937 74 0 0 -2937 3725 5622 5 MP stroke
c8
0 3052 73 0 0 -3052 3799 5622 4 MP
PP
0 sg
-73 0 0 3052 73 0 0 -3052 3799 5622 5 MP stroke
c8
0 3373 74 0 0 -3373 3872 5622 4 MP
PP
0 sg
-74 0 0 3373 74 0 0 -3373 3872 5622 5 MP stroke
c8
0 3483 73 0 0 -3483 3946 5622 4 MP
PP
0 sg
-73 0 0 3483 73 0 0 -3483 3946 5622 5 MP stroke
c8
0 3594 73 0 0 -3594 4019 5622 4 MP
PP
0 sg
-73 0 0 3594 73 0 0 -3594 4019 5622 5 MP stroke
c8
0 3476 74 0 0 -3476 4092 5622 4 MP
PP
0 sg
-74 0 0 3476 74 0 0 -3476 4092 5622 5 MP stroke
c8
0 3188 73 0 0 -3188 4166 5622 4 MP
PP
0 sg
-73 0 0 3188 73 0 0 -3188 4166 5622 5 MP stroke
c8
0 3058 73 0 0 -3058 4239 5622 4 MP
PP
0 sg
-73 0 0 3058 73 0 0 -3058 4239 5622 5 MP stroke
c8
0 0 74 0 0 0 4312 5622 4 MP
PP
0 sg
-74 0 0 0 74 0 0 0 4312 5622 5 MP stroke
c8
0 3178 73 0 0 -3178 4386 5622 4 MP
PP
0 sg
-73 0 0 3178 73 0 0 -3178 4386 5622 5 MP stroke
c8
0 3120 74 0 0 -3120 4459 5622 4 MP
PP
0 sg
-74 0 0 3120 74 0 0 -3120 4459 5622 5 MP stroke
c8
0 3200 73 0 0 -3200 4533 5622 4 MP
PP
0 sg
-73 0 0 3200 73 0 0 -3200 4533 5622 5 MP stroke
c8
0 3021 73 0 0 -3021 4606 5622 4 MP
PP
0 sg
-73 0 0 3021 73 0 0 -3021 4606 5622 5 MP stroke
c8
0 2875 74 0 0 -2875 4679 5622 4 MP
PP
0 sg
-74 0 0 2875 74 0 0 -2875 4679 5622 5 MP stroke
c8
0 2766 73 0 0 -2766 4753 5622 4 MP
PP
0 sg
-73 0 0 2766 73 0 0 -2766 4753 5622 5 MP stroke
c8
0 2834 73 0 0 -2834 4826 5622 4 MP
PP
0 sg
-73 0 0 2834 73 0 0 -2834 4826 5622 5 MP stroke
c8
0 2871 74 0 0 -2871 4899 5622 4 MP
PP
0 sg
-74 0 0 2871 74 0 0 -2871 4899 5622 5 MP stroke
c8
0 2533 73 0 0 -2533 4973 5622 4 MP
PP
0 sg
-73 0 0 2533 73 0 0 -2533 4973 5622 5 MP stroke
c8
0 2385 74 0 0 -2385 5046 5622 4 MP
PP
0 sg
-74 0 0 2385 74 0 0 -2385 5046 5622 5 MP stroke
c8
0 2585 73 0 0 -2585 5120 5622 4 MP
PP
0 sg
-73 0 0 2585 73 0 0 -2585 5120 5622 5 MP stroke
c8
0 2364 73 0 0 -2364 5193 5622 4 MP
PP
0 sg
-73 0 0 2364 73 0 0 -2364 5193 5622 5 MP stroke
c8
0 2455 74 0 0 -2455 5266 5622 4 MP
PP
0 sg
-74 0 0 2455 74 0 0 -2455 5266 5622 5 MP stroke
c8
0 2342 73 0 0 -2342 5340 5622 4 MP
PP
0 sg
-73 0 0 2342 73 0 0 -2342 5340 5622 5 MP stroke
c8
0 0 73 0 0 0 5413 5622 4 MP
PP
0 sg
-73 0 0 0 73 0 0 0 5413 5622 5 MP stroke
c8
0 2010 74 0 0 -2010 5486 5622 4 MP
PP
0 sg
-74 0 0 2010 74 0 0 -2010 5486 5622 5 MP stroke
c8
0 2086 73 0 0 -2086 5560 5622 4 MP
PP
0 sg
-73 0 0 2086 73 0 0 -2086 5560 5622 5 MP stroke
c8
0 1932 74 0 0 -1932 5633 5622 4 MP
PP
0 sg
-74 0 0 1932 74 0 0 -1932 5633 5622 5 MP stroke
c8
0 1959 73 0 0 -1959 5707 5622 4 MP
PP
0 sg
-73 0 0 1959 73 0 0 -1959 5707 5622 5 MP stroke
c8
0 1771 73 0 0 -1771 5780 5622 4 MP
PP
0 sg
-73 0 0 1771 73 0 0 -1771 5780 5622 5 MP stroke
c8
0 1881 74 0 0 -1881 5853 5622 4 MP
PP
0 sg
-74 0 0 1881 74 0 0 -1881 5853 5622 5 MP stroke
c8
0 1936 73 0 0 -1936 5927 5622 4 MP
PP
0 sg
-73 0 0 1936 73 0 0 -1936 5927 5622 5 MP stroke
c8
0 1815 73 0 0 -1815 6000 5622 4 MP
PP
0 sg
-73 0 0 1815 73 0 0 -1815 6000 5622 5 MP stroke
c8
0 1975 74 0 0 -1975 6073 5622 4 MP
PP
0 sg
-74 0 0 1975 74 0 0 -1975 6073 5622 5 MP stroke
c8
0 1878 73 0 0 -1878 6147 5622 4 MP
PP
0 sg
-73 0 0 1878 73 0 0 -1878 6147 5622 5 MP stroke
c8
0 1771 74 0 0 -1771 6220 5622 4 MP
PP
0 sg
-74 0 0 1771 74 0 0 -1771 6220 5622 5 MP stroke
c8
0 1753 73 0 0 -1753 6294 5622 4 MP
PP
0 sg
-73 0 0 1753 73 0 0 -1753 6294 5622 5 MP stroke
c8
0 1510 73 0 0 -1510 6367 5622 4 MP
PP
0 sg
-73 0 0 1510 73 0 0 -1510 6367 5622 5 MP stroke
c8
0 0 74 0 0 0 6440 5622 4 MP
PP
0 sg
-74 0 0 0 74 0 0 0 6440 5622 5 MP stroke
c8
0 1582 73 0 0 -1582 6514 5622 4 MP
PP
0 sg
-73 0 0 1582 73 0 0 -1582 6514 5622 5 MP stroke
c8
0 1683 73 0 0 -1683 6587 5622 4 MP
PP
0 sg
-73 0 0 1683 73 0 0 -1683 6587 5622 5 MP stroke
c8
0 1559 74 0 0 -1559 6660 5622 4 MP
PP
0 sg
-74 0 0 1559 74 0 0 -1559 6660 5622 5 MP stroke
c8
0 1590 73 0 0 -1590 6734 5622 4 MP
PP
0 sg
-73 0 0 1590 73 0 0 -1590 6734 5622 5 MP stroke
c8
0 1549 74 0 0 -1549 6807 5622 4 MP
PP
0 sg
-74 0 0 1549 74 0 0 -1549 6807 5622 5 MP stroke
c8
0 1561 73 0 0 -1561 6881 5622 4 MP
PP
0 sg
-73 0 0 1561 73 0 0 -1561 6881 5622 5 MP stroke
c8
0 1285 73 0 0 -1285 6954 5622 4 MP
PP
0 sg
-73 0 0 1285 73 0 0 -1285 6954 5622 5 MP stroke
c8
0 1325 74 0 0 -1325 7027 5622 4 MP
PP
0 sg
-74 0 0 1325 74 0 0 -1325 7027 5622 5 MP stroke
c8
0 1168 73 0 0 -1168 7101 5622 4 MP
PP
0 sg
-73 0 0 1168 73 0 0 -1168 7101 5622 5 MP stroke
c8
0 1080 73 0 0 -1080 7174 5622 4 MP
PP
0 sg
-73 0 0 1080 73 0 0 -1080 7174 5622 5 MP stroke
c8
0 979 74 0 0 -979 7247 5622 4 MP
PP
0 sg
-74 0 0 979 74 0 0 -979 7247 5622 5 MP stroke
c8
0 985 73 0 0 -985 7321 5622 4 MP
PP
0 sg
-73 0 0 985 73 0 0 -985 7321 5622 5 MP stroke
c8
0 956 74 0 0 -956 7394 5622 4 MP
PP
0 sg
-74 0 0 956 74 0 0 -956 7394 5622 5 MP stroke
c8
0 0 73 0 0 0 7468 5622 4 MP
PP
0 sg
-73 0 0 0 73 0 0 0 7468 5622 5 MP stroke
c8
0 793 73 0 0 -793 7541 5622 4 MP
PP
0 sg
-73 0 0 793 73 0 0 -793 7541 5622 5 MP stroke
c8
0 799 74 0 0 -799 7614 5622 4 MP
PP
0 sg
-74 0 0 799 74 0 0 -799 7614 5622 5 MP stroke
c8
0 707 73 0 0 -707 7688 5622 4 MP
PP
0 sg
-73 0 0 707 73 0 0 -707 7688 5622 5 MP stroke
c8
0 645 73 0 0 -645 7761 5622 4 MP
PP
0 sg
-73 0 0 645 73 0 0 -645 7761 5622 5 MP stroke
c8
0 565 74 0 0 -565 7834 5622 4 MP
PP
0 sg
-74 0 0 565 74 0 0 -565 7834 5622 5 MP stroke
c8
0 519 73 0 0 -519 7908 5622 4 MP
PP
0 sg
-73 0 0 519 73 0 0 -519 7908 5622 5 MP stroke
c8
0 484 74 0 0 -484 7981 5622 4 MP
PP
0 sg
-74 0 0 484 74 0 0 -484 7981 5622 5 MP stroke
c8
0 439 73 0 0 -439 8055 5622 4 MP
PP
0 sg
-73 0 0 439 73 0 0 -439 8055 5622 5 MP stroke
c8
0 332 73 0 0 -332 8128 5622 4 MP
PP
0 sg
-73 0 0 332 73 0 0 -332 8128 5622 5 MP stroke
c8
0 266 74 0 0 -266 8201 5622 4 MP
PP
0 sg
-74 0 0 266 74 0 0 -266 8201 5622 5 MP stroke
c8
0 0 73 0 0 0 8275 5622 4 MP
PP
0 sg
-73 0 0 0 73 0 0 0 8275 5622 5 MP stroke
c8
0 0 73 0 0 0 8348 5622 4 MP
PP
0 sg
-73 0 0 0 73 0 0 0 8348 5622 5 MP stroke
c8
0 0 74 0 0 0 8421 5622 4 MP
PP
0 sg
-74 0 0 0 74 0 0 0 8421 5622 5 MP stroke
c8
0 1026 73 0 0 -1026 8495 5622 4 MP
PP
0 sg
-73 0 0 1026 73 0 0 -1026 8495 5622 5 MP stroke
gr

%%IncludeResource: font Helvetica
/Helvetica /ISOLatin1Encoding 264 FMSR

4979 6106 mt 
(Age) s
 681 3667 mt  -90 rotate
(Frequency) s
90 rotate

end %%Color Dict

eplot
%%EndObject

epage
end

showpage

%%Trailer
%%EOF
