%!PS-Adobe-3.0 EPSF-3.0
%%Creator: MATLAB, The MathWorks, Inc. Version 7.13.0.564 (R2011b). Operating System: Darwin 12.4.0 Darwin Kernel Version 12.4.0: Wed May  1 17:57:12 PDT 2013; root:xnu-2050.24.15~1/RELEASE_X86_64 x86_64.
%%Title: /Users/tozammel/Documents/research/projects/networks/writeup/icdm13/figs/figdata/dominator_duration_sensor1.eps
%%CreationDate: 06/21/2013  19:21:19
%%DocumentNeededFonts: Helvetica
%%DocumentProcessColors: Cyan Magenta Yellow Black
%%LanguageLevel: 2
%%Pages: 1
%%BoundingBox:  -114   132   725   659
%%EndComments

%%BeginProlog
% MathWorks dictionary
/MathWorks 160 dict begin
% definition operators
/bdef {bind def} bind def
/ldef {load def} bind def
/xdef {exch def} bdef
/xstore {exch store} bdef
% operator abbreviations
/c  /clip ldef
/cc /concat ldef
/cp /closepath ldef
/gr /grestore ldef
/gs /gsave ldef
/mt /moveto ldef
/np /newpath ldef
/cm /currentmatrix ldef
/sm /setmatrix ldef
/rm /rmoveto ldef
/rl /rlineto ldef
/s {show newpath} bdef
/sc {setcmykcolor} bdef
/sr /setrgbcolor ldef
/sg /setgray ldef
/w /setlinewidth ldef
/j /setlinejoin ldef
/cap /setlinecap ldef
/rc {rectclip} bdef
/rf {rectfill} bdef
% page state control
/pgsv () def
/bpage {/pgsv save def} bdef
/epage {pgsv restore} bdef
/bplot /gsave ldef
/eplot {stroke grestore} bdef
% orientation switch
/portraitMode 0 def /landscapeMode 1 def /rotateMode 2 def
% coordinate system mappings
/dpi2point 0 def
% font control
/FontSize 0 def
/FMS {/FontSize xstore findfont [FontSize 0 0 FontSize neg 0 0]
  makefont setfont} bdef
/reencode {exch dup where {pop load} {pop StandardEncoding} ifelse
  exch dup 3 1 roll findfont dup length dict begin
  { 1 index /FID ne {def}{pop pop} ifelse } forall
  /Encoding exch def currentdict end definefont pop} bdef
/isroman {findfont /CharStrings get /Agrave known} bdef
/FMSR {3 1 roll 1 index dup isroman {reencode} {pop pop} ifelse
  exch FMS} bdef
/csm {1 dpi2point div -1 dpi2point div scale neg translate
 dup landscapeMode eq {pop -90 rotate}
  {rotateMode eq {90 rotate} if} ifelse} bdef
% line types: solid, dotted, dashed, dotdash
/SO { [] 0 setdash } bdef
/DO { [.5 dpi2point mul 4 dpi2point mul] 0 setdash } bdef
/DA { [6 dpi2point mul] 0 setdash } bdef
/DD { [.5 dpi2point mul 4 dpi2point mul 6 dpi2point mul 4
  dpi2point mul] 0 setdash } bdef
% macros for lines and objects
/L {lineto stroke} bdef
/MP {3 1 roll moveto 1 sub {rlineto} repeat} bdef
/AP {{rlineto} repeat} bdef
/PDlw -1 def
/W {/PDlw currentlinewidth def setlinewidth} def
/PP {closepath eofill} bdef
/DP {closepath stroke} bdef
/MR {4 -2 roll moveto dup  0 exch rlineto exch 0 rlineto
  neg 0 exch rlineto closepath} bdef
/FR {MR stroke} bdef
/PR {MR fill} bdef
/L1i {{currentfile picstr readhexstring pop} image} bdef
/tMatrix matrix def
/MakeOval {newpath tMatrix currentmatrix pop translate scale
0 0 1 0 360 arc tMatrix setmatrix} bdef
/FO {MakeOval stroke} bdef
/PO {MakeOval fill} bdef
/PD {currentlinewidth 2 div 0 360 arc fill
   PDlw -1 eq not {PDlw w /PDlw -1 def} if} def
/FA {newpath tMatrix currentmatrix pop translate scale
  0 0 1 5 -2 roll arc tMatrix setmatrix stroke} bdef
/PA {newpath tMatrix currentmatrix pop	translate 0 0 moveto scale
  0 0 1 5 -2 roll arc closepath tMatrix setmatrix fill} bdef
/FAn {newpath tMatrix currentmatrix pop translate scale
  0 0 1 5 -2 roll arcn tMatrix setmatrix stroke} bdef
/PAn {newpath tMatrix currentmatrix pop translate 0 0 moveto scale
  0 0 1 5 -2 roll arcn closepath tMatrix setmatrix fill} bdef
/vradius 0 def /hradius 0 def /lry 0 def
/lrx 0 def /uly 0 def /ulx 0 def /rad 0 def
/MRR {/vradius xdef /hradius xdef /lry xdef /lrx xdef /uly xdef
  /ulx xdef newpath tMatrix currentmatrix pop ulx hradius add uly
  vradius add translate hradius vradius scale 0 0 1 180 270 arc 
  tMatrix setmatrix lrx hradius sub uly vradius add translate
  hradius vradius scale 0 0 1 270 360 arc tMatrix setmatrix
  lrx hradius sub lry vradius sub translate hradius vradius scale
  0 0 1 0 90 arc tMatrix setmatrix ulx hradius add lry vradius sub
  translate hradius vradius scale 0 0 1 90 180 arc tMatrix setmatrix
  closepath} bdef
/FRR {MRR stroke } bdef
/PRR {MRR fill } bdef
/MlrRR {/lry xdef /lrx xdef /uly xdef /ulx xdef /rad lry uly sub 2 div def
  newpath tMatrix currentmatrix pop ulx rad add uly rad add translate
  rad rad scale 0 0 1 90 270 arc tMatrix setmatrix lrx rad sub lry rad
  sub translate rad rad scale 0 0 1 270 90 arc tMatrix setmatrix
  closepath} bdef
/FlrRR {MlrRR stroke } bdef
/PlrRR {MlrRR fill } bdef
/MtbRR {/lry xdef /lrx xdef /uly xdef /ulx xdef /rad lrx ulx sub 2 div def
  newpath tMatrix currentmatrix pop ulx rad add uly rad add translate
  rad rad scale 0 0 1 180 360 arc tMatrix setmatrix lrx rad sub lry rad
  sub translate rad rad scale 0 0 1 0 180 arc tMatrix setmatrix
  closepath} bdef
/FtbRR {MtbRR stroke } bdef
/PtbRR {MtbRR fill } bdef
/stri 6 array def /dtri 6 array def
/smat 6 array def /dmat 6 array def
/tmat1 6 array def /tmat2 6 array def /dif 3 array def
/asub {/ind2 exch def /ind1 exch def dup dup
  ind1 get exch ind2 get sub exch } bdef
/tri_to_matrix {
  2 0 asub 3 1 asub 4 0 asub 5 1 asub
  dup 0 get exch 1 get 7 -1 roll astore } bdef
/compute_transform {
  dmat dtri tri_to_matrix tmat1 invertmatrix 
  smat stri tri_to_matrix tmat2 concatmatrix } bdef
/ds {stri astore pop} bdef
/dt {dtri astore pop} bdef
/db {2 copy /cols xdef /rows xdef mul dup 3 mul string
  currentfile 
  3 index 0 eq {/ASCIIHexDecode filter}
  {/ASCII85Decode filter 3 index 2 eq {/RunLengthDecode filter} if }
  ifelse exch readstring pop
  dup 0 3 index getinterval /rbmap xdef
  dup 2 index dup getinterval /gbmap xdef
  1 index dup 2 mul exch getinterval /bbmap xdef pop pop}bdef
/it {gs np dtri aload pop moveto lineto lineto cp c
  cols rows 8 compute_transform 
  rbmap gbmap bbmap true 3 colorimage gr}bdef
/il {newpath moveto lineto stroke}bdef
currentdict end def
%%EndProlog

%%BeginSetup
MathWorks begin

0 cap

end
%%EndSetup

%%Page: 1 1
%%BeginPageSetup
%%PageBoundingBox:  -114   132   725   659
MathWorks begin
bpage
%%EndPageSetup

%%BeginObject: obj1
bplot

/dpi2point 12 def
portraitMode -1368 7908 csm

    0     0 10079  6317 rc
85 dict begin %Colortable dictionary
/c0 { 0.000000 0.000000 0.000000 sr} bdef
/c1 { 1.000000 1.000000 1.000000 sr} bdef
/c2 { 0.900000 0.000000 0.000000 sr} bdef
/c3 { 0.000000 0.820000 0.000000 sr} bdef
/c4 { 0.000000 0.000000 0.800000 sr} bdef
/c5 { 0.910000 0.820000 0.320000 sr} bdef
/c6 { 1.000000 0.260000 0.820000 sr} bdef
/c7 { 0.000000 0.820000 0.820000 sr} bdef
c0
1 j
1 sg
   0    0 10080 6318 rf
6 w
0 5148 7811 0 0 -5148 1310 5622 4 MP
PP
-7811 0 0 5148 7811 0 0 -5148 1310 5622 5 MP stroke
4 w
DO
SO
6 w
0 sg
1310 5622 mt 9121 5622 L
1310  474 mt 9121  474 L
1310 5622 mt 1310  474 L
9121 5622 mt 9121  474 L
1310 5622 mt 9121 5622 L
1310 5622 mt 1310  474 L
2213 5622 mt 2213 5543 L
2213  474 mt 2213  552 L
%%IncludeResource: font Helvetica
/Helvetica /ISOLatin1Encoding 216 FMSR

2153 5857 mt 
(1) s
3118 5622 mt 3118 5543 L
3118  474 mt 3118  552 L
3058 5857 mt 
(2) s
4022 5622 mt 4022 5543 L
4022  474 mt 4022  552 L
3962 5857 mt 
(3) s
4926 5622 mt 4926 5543 L
4926  474 mt 4926  552 L
4866 5857 mt 
(4) s
5830 5622 mt 5830 5543 L
5830  474 mt 5830  552 L
5770 5857 mt 
(5) s
6734 5622 mt 6734 5543 L
6734  474 mt 6734  552 L
6674 5857 mt 
(6) s
7638 5622 mt 7638 5543 L
7638  474 mt 7638  552 L
7578 5857 mt 
(7) s
8542 5622 mt 8542 5543 L
8542  474 mt 8542  552 L
8482 5857 mt 
(8) s
8633 6179 mt 
(x 10) s
%%IncludeResource: font Helvetica
/Helvetica /ISOLatin1Encoding 144 FMSR

9041 6045 mt 
(4) s
1310 5622 mt 1388 5622 L
9121 5622 mt 9042 5622 L
%%IncludeResource: font Helvetica
/Helvetica /ISOLatin1Encoding 216 FMSR

1155 5702 mt 
(0) s
1310 4764 mt 1388 4764 L
9121 4764 mt 9042 4764 L
1035 4844 mt 
(10) s
1310 3906 mt 1388 3906 L
9121 3906 mt 9042 3906 L
1035 3986 mt 
(20) s
1310 3048 mt 1388 3048 L
9121 3048 mt 9042 3048 L
1035 3128 mt 
(30) s
1310 2190 mt 1388 2190 L
9121 2190 mt 9042 2190 L
1035 2270 mt 
(40) s
1310 1332 mt 1388 1332 L
9121 1332 mt 9042 1332 L
1035 1412 mt 
(50) s
1310  474 mt 1388  474 L
9121  474 mt 9042  474 L
1035  554 mt 
(60) s
1310 5622 mt 9121 5622 L
1310  474 mt 9121  474 L
1310 5622 mt 1310  474 L
9121 5622 mt 9121  474 L
gs 1310 474 7812 5149 rc
/c8 { 0.000000 0.000000 0.562500 sr} bdef
c8
0 4376 52 0 0 -4376 1310 5622 4 MP
PP
0 sg
-52 0 0 4376 52 0 0 -4376 1310 5622 5 MP stroke
c8
0 3347 52 0 0 -3347 1362 5622 4 MP
PP
0 sg
-52 0 0 3347 52 0 0 -3347 1362 5622 5 MP stroke
c8
0 1202 52 0 0 -1202 1414 5622 4 MP
PP
0 sg
-52 0 0 1202 52 0 0 -1202 1414 5622 5 MP stroke
c8
0 1974 52 0 0 -1974 1466 5622 4 MP
PP
0 sg
-52 0 0 1974 52 0 0 -1974 1466 5622 5 MP stroke
c8
0 858 52 0 0 -858 1518 5622 4 MP
PP
0 sg
-52 0 0 858 52 0 0 -858 1518 5622 5 MP stroke
c8
0 773 52 0 0 -773 1570 5622 4 MP
PP
0 sg
-52 0 0 773 52 0 0 -773 1570 5622 5 MP stroke
c8
0 773 52 0 0 -773 1622 5622 4 MP
PP
0 sg
-52 0 0 773 52 0 0 -773 1622 5622 5 MP stroke
c8
0 515 52 0 0 -515 1674 5622 4 MP
PP
0 sg
-52 0 0 515 52 0 0 -515 1674 5622 5 MP stroke
c8
0 687 52 0 0 -687 1726 5622 4 MP
PP
0 sg
-52 0 0 687 52 0 0 -687 1726 5622 5 MP stroke
c8
0 429 52 0 0 -429 1778 5622 4 MP
PP
0 sg
-52 0 0 429 52 0 0 -429 1778 5622 5 MP stroke
c8
0 429 52 0 0 -429 1830 5622 4 MP
PP
0 sg
-52 0 0 429 52 0 0 -429 1830 5622 5 MP stroke
c8
0 1030 52 0 0 -1030 1882 5622 4 MP
PP
0 sg
-52 0 0 1030 52 0 0 -1030 1882 5622 5 MP stroke
c8
0 0 52 0 0 0 1934 5622 4 MP
PP
0 sg
-52 0 0 0 52 0 0 0 1934 5622 5 MP stroke
c8
0 601 53 0 0 -601 1986 5622 4 MP
PP
0 sg
-53 0 0 601 53 0 0 -601 1986 5622 5 MP stroke
c8
0 429 52 0 0 -429 2039 5622 4 MP
PP
0 sg
-52 0 0 429 52 0 0 -429 2039 5622 5 MP stroke
c8
0 258 52 0 0 -258 2091 5622 4 MP
PP
0 sg
-52 0 0 258 52 0 0 -258 2091 5622 5 MP stroke
c8
0 258 52 0 0 -258 2143 5622 4 MP
PP
0 sg
-52 0 0 258 52 0 0 -258 2143 5622 5 MP stroke
c8
0 429 52 0 0 -429 2195 5622 4 MP
PP
0 sg
-52 0 0 429 52 0 0 -429 2195 5622 5 MP stroke
c8
0 429 52 0 0 -429 2247 5622 4 MP
PP
0 sg
-52 0 0 429 52 0 0 -429 2247 5622 5 MP stroke
c8
0 86 52 0 0 -86 2299 5622 4 MP
PP
0 sg
-52 0 0 86 52 0 0 -86 2299 5622 5 MP stroke
c8
0 258 52 0 0 -258 2351 5622 4 MP
PP
0 sg
-52 0 0 258 52 0 0 -258 2351 5622 5 MP stroke
c8
0 601 52 0 0 -601 2403 5622 4 MP
PP
0 sg
-52 0 0 601 52 0 0 -601 2403 5622 5 MP stroke
c8
0 258 52 0 0 -258 2455 5622 4 MP
PP
0 sg
-52 0 0 258 52 0 0 -258 2455 5622 5 MP stroke
c8
0 344 52 0 0 -344 2507 5622 4 MP
PP
0 sg
-52 0 0 344 52 0 0 -344 2507 5622 5 MP stroke
c8
0 344 52 0 0 -344 2559 5622 4 MP
PP
0 sg
-52 0 0 344 52 0 0 -344 2559 5622 5 MP stroke
c8
0 86 52 0 0 -86 2611 5622 4 MP
PP
0 sg
-52 0 0 86 52 0 0 -86 2611 5622 5 MP stroke
c8
0 601 52 0 0 -601 2663 5622 4 MP
PP
0 sg
-52 0 0 601 52 0 0 -601 2663 5622 5 MP stroke
c8
0 172 53 0 0 -172 2715 5622 4 MP
PP
0 sg
-53 0 0 172 53 0 0 -172 2715 5622 5 MP stroke
c8
0 344 52 0 0 -344 2768 5622 4 MP
PP
0 sg
-52 0 0 344 52 0 0 -344 2768 5622 5 MP stroke
c8
0 429 52 0 0 -429 2820 5622 4 MP
PP
0 sg
-52 0 0 429 52 0 0 -429 2820 5622 5 MP stroke
c8
0 172 52 0 0 -172 2872 5622 4 MP
PP
0 sg
-52 0 0 172 52 0 0 -172 2872 5622 5 MP stroke
c8
0 86 52 0 0 -86 2924 5622 4 MP
PP
0 sg
-52 0 0 86 52 0 0 -86 2924 5622 5 MP stroke
c8
0 429 52 0 0 -429 2976 5622 4 MP
PP
0 sg
-52 0 0 429 52 0 0 -429 2976 5622 5 MP stroke
c8
0 0 52 0 0 0 3028 5622 4 MP
PP
0 sg
-52 0 0 0 52 0 0 0 3028 5622 5 MP stroke
c8
0 515 52 0 0 -515 3080 5622 4 MP
PP
0 sg
-52 0 0 515 52 0 0 -515 3080 5622 5 MP stroke
c8
0 344 52 0 0 -344 3132 5622 4 MP
PP
0 sg
-52 0 0 344 52 0 0 -344 3132 5622 5 MP stroke
c8
0 1202 52 0 0 -1202 3184 5622 4 MP
PP
0 sg
-52 0 0 1202 52 0 0 -1202 3184 5622 5 MP stroke
c8
0 601 52 0 0 -601 3236 5622 4 MP
PP
0 sg
-52 0 0 601 52 0 0 -601 3236 5622 5 MP stroke
c8
0 2660 52 0 0 -2660 3288 5622 4 MP
PP
0 sg
-52 0 0 2660 52 0 0 -2660 3288 5622 5 MP stroke
c8
0 3089 52 0 0 -3089 3340 5622 4 MP
PP
0 sg
-52 0 0 3089 52 0 0 -3089 3340 5622 5 MP stroke
c8
0 3690 52 0 0 -3690 3392 5622 4 MP
PP
0 sg
-52 0 0 3690 52 0 0 -3690 3392 5622 5 MP stroke
c8
0 1888 53 0 0 -1888 3444 5622 4 MP
PP
0 sg
-53 0 0 1888 53 0 0 -1888 3444 5622 5 MP stroke
c8
0 2060 52 0 0 -2060 3497 5622 4 MP
PP
0 sg
-52 0 0 2060 52 0 0 -2060 3497 5622 5 MP stroke
c8
0 2746 52 0 0 -2746 3549 5622 4 MP
PP
0 sg
-52 0 0 2746 52 0 0 -2746 3549 5622 5 MP stroke
c8
0 687 52 0 0 -687 3601 5622 4 MP
PP
0 sg
-52 0 0 687 52 0 0 -687 3601 5622 5 MP stroke
c8
0 1202 52 0 0 -1202 3653 5622 4 MP
PP
0 sg
-52 0 0 1202 52 0 0 -1202 3653 5622 5 MP stroke
c8
0 1202 52 0 0 -1202 3705 5622 4 MP
PP
0 sg
-52 0 0 1202 52 0 0 -1202 3705 5622 5 MP stroke
c8
0 1202 52 0 0 -1202 3757 5622 4 MP
PP
0 sg
-52 0 0 1202 52 0 0 -1202 3757 5622 5 MP stroke
c8
0 258 52 0 0 -258 3809 5622 4 MP
PP
0 sg
-52 0 0 258 52 0 0 -258 3809 5622 5 MP stroke
c8
0 858 52 0 0 -858 3861 5622 4 MP
PP
0 sg
-52 0 0 858 52 0 0 -858 3861 5622 5 MP stroke
c8
0 86 52 0 0 -86 3913 5622 4 MP
PP
0 sg
-52 0 0 86 52 0 0 -86 3913 5622 5 MP stroke
c8
0 344 52 0 0 -344 3965 5622 4 MP
PP
0 sg
-52 0 0 344 52 0 0 -344 3965 5622 5 MP stroke
c8
0 515 52 0 0 -515 4017 5622 4 MP
PP
0 sg
-52 0 0 515 52 0 0 -515 4017 5622 5 MP stroke
c8
0 429 52 0 0 -429 4069 5622 4 MP
PP
0 sg
-52 0 0 429 52 0 0 -429 4069 5622 5 MP stroke
c8
0 429 52 0 0 -429 4121 5622 4 MP
PP
0 sg
-52 0 0 429 52 0 0 -429 4121 5622 5 MP stroke
c8
0 344 53 0 0 -344 4173 5622 4 MP
PP
0 sg
-53 0 0 344 53 0 0 -344 4173 5622 5 MP stroke
c8
0 515 52 0 0 -515 4226 5622 4 MP
PP
0 sg
-52 0 0 515 52 0 0 -515 4226 5622 5 MP stroke
c8
0 258 52 0 0 -258 4278 5622 4 MP
PP
0 sg
-52 0 0 258 52 0 0 -258 4278 5622 5 MP stroke
c8
0 258 52 0 0 -258 4330 5622 4 MP
PP
0 sg
-52 0 0 258 52 0 0 -258 4330 5622 5 MP stroke
c8
0 344 52 0 0 -344 4382 5622 4 MP
PP
0 sg
-52 0 0 344 52 0 0 -344 4382 5622 5 MP stroke
c8
0 172 52 0 0 -172 4434 5622 4 MP
PP
0 sg
-52 0 0 172 52 0 0 -172 4434 5622 5 MP stroke
c8
0 344 52 0 0 -344 4486 5622 4 MP
PP
0 sg
-52 0 0 344 52 0 0 -344 4486 5622 5 MP stroke
c8
0 429 52 0 0 -429 4538 5622 4 MP
PP
0 sg
-52 0 0 429 52 0 0 -429 4538 5622 5 MP stroke
c8
0 86 52 0 0 -86 4590 5622 4 MP
PP
0 sg
-52 0 0 86 52 0 0 -86 4590 5622 5 MP stroke
c8
0 344 52 0 0 -344 4642 5622 4 MP
PP
0 sg
-52 0 0 344 52 0 0 -344 4642 5622 5 MP stroke
c8
0 86 52 0 0 -86 4694 5622 4 MP
PP
0 sg
-52 0 0 86 52 0 0 -86 4694 5622 5 MP stroke
c8
0 258 52 0 0 -258 4746 5622 4 MP
PP
0 sg
-52 0 0 258 52 0 0 -258 4746 5622 5 MP stroke
c8
0 0 52 0 0 0 4798 5622 4 MP
PP
0 sg
-52 0 0 0 52 0 0 0 4798 5622 5 MP stroke
c8
0 0 52 0 0 0 4850 5622 4 MP
PP
0 sg
-52 0 0 0 52 0 0 0 4850 5622 5 MP stroke
c8
0 86 53 0 0 -86 4902 5622 4 MP
PP
0 sg
-53 0 0 86 53 0 0 -86 4902 5622 5 MP stroke
c8
0 0 52 0 0 0 4955 5622 4 MP
PP
0 sg
-52 0 0 0 52 0 0 0 4955 5622 5 MP stroke
c8
0 258 52 0 0 -258 5007 5622 4 MP
PP
0 sg
-52 0 0 258 52 0 0 -258 5007 5622 5 MP stroke
c8
0 0 52 0 0 0 5059 5622 4 MP
PP
0 sg
-52 0 0 0 52 0 0 0 5059 5622 5 MP stroke
c8
0 0 52 0 0 0 5111 5622 4 MP
PP
0 sg
-52 0 0 0 52 0 0 0 5111 5622 5 MP stroke
c8
0 86 52 0 0 -86 5163 5622 4 MP
PP
0 sg
-52 0 0 86 52 0 0 -86 5163 5622 5 MP stroke
c8
0 86 52 0 0 -86 5215 5622 4 MP
PP
0 sg
-52 0 0 86 52 0 0 -86 5215 5622 5 MP stroke
c8
0 0 52 0 0 0 5267 5622 4 MP
PP
0 sg
-52 0 0 0 52 0 0 0 5267 5622 5 MP stroke
c8
0 0 52 0 0 0 5319 5622 4 MP
PP
0 sg
-52 0 0 0 52 0 0 0 5319 5622 5 MP stroke
c8
0 86 52 0 0 -86 5371 5622 4 MP
PP
0 sg
-52 0 0 86 52 0 0 -86 5371 5622 5 MP stroke
c8
0 344 52 0 0 -344 5423 5622 4 MP
PP
0 sg
-52 0 0 344 52 0 0 -344 5423 5622 5 MP stroke
c8
0 86 52 0 0 -86 5475 5622 4 MP
PP
0 sg
-52 0 0 86 52 0 0 -86 5475 5622 5 MP stroke
c8
0 86 52 0 0 -86 5527 5622 4 MP
PP
0 sg
-52 0 0 86 52 0 0 -86 5527 5622 5 MP stroke
c8
0 0 52 0 0 0 5579 5622 4 MP
PP
0 sg
-52 0 0 0 52 0 0 0 5579 5622 5 MP stroke
c8
0 0 53 0 0 0 5631 5622 4 MP
PP
0 sg
-53 0 0 0 53 0 0 0 5631 5622 5 MP stroke
c8
0 172 52 0 0 -172 5684 5622 4 MP
PP
0 sg
-52 0 0 172 52 0 0 -172 5684 5622 5 MP stroke
c8
0 0 52 0 0 0 5736 5622 4 MP
PP
0 sg
-52 0 0 0 52 0 0 0 5736 5622 5 MP stroke
c8
0 0 52 0 0 0 5788 5622 4 MP
PP
0 sg
-52 0 0 0 52 0 0 0 5788 5622 5 MP stroke
c8
0 0 52 0 0 0 5840 5622 4 MP
PP
0 sg
-52 0 0 0 52 0 0 0 5840 5622 5 MP stroke
c8
0 86 52 0 0 -86 5892 5622 4 MP
PP
0 sg
-52 0 0 86 52 0 0 -86 5892 5622 5 MP stroke
c8
0 0 52 0 0 0 5944 5622 4 MP
PP
0 sg
-52 0 0 0 52 0 0 0 5944 5622 5 MP stroke
c8
0 86 52 0 0 -86 5996 5622 4 MP
PP
0 sg
-52 0 0 86 52 0 0 -86 5996 5622 5 MP stroke
c8
0 0 52 0 0 0 6048 5622 4 MP
PP
0 sg
-52 0 0 0 52 0 0 0 6048 5622 5 MP stroke
c8
0 172 52 0 0 -172 6100 5622 4 MP
PP
0 sg
-52 0 0 172 52 0 0 -172 6100 5622 5 MP stroke
c8
0 0 52 0 0 0 6152 5622 4 MP
PP
0 sg
-52 0 0 0 52 0 0 0 6152 5622 5 MP stroke
c8
0 86 52 0 0 -86 6204 5622 4 MP
PP
0 sg
-52 0 0 86 52 0 0 -86 6204 5622 5 MP stroke
c8
0 0 52 0 0 0 6256 5622 4 MP
PP
0 sg
-52 0 0 0 52 0 0 0 6256 5622 5 MP stroke
c8
0 0 52 0 0 0 6308 5622 4 MP
PP
0 sg
-52 0 0 0 52 0 0 0 6308 5622 5 MP stroke
c8
0 0 53 0 0 0 6360 5622 4 MP
PP
0 sg
-53 0 0 0 53 0 0 0 6360 5622 5 MP stroke
c8
0 172 52 0 0 -172 6413 5622 4 MP
PP
0 sg
-52 0 0 172 52 0 0 -172 6413 5622 5 MP stroke
c8
0 86 52 0 0 -86 6465 5622 4 MP
PP
0 sg
-52 0 0 86 52 0 0 -86 6465 5622 5 MP stroke
gr

%%IncludeResource: font Helvetica
/Helvetica /ISOLatin1Encoding 264 FMSR

4386 6106 mt 
(Duration \(sec\)) s
 921 3667 mt  -90 rotate
(Frequency) s
90 rotate

end %%Color Dict

eplot
%%EndObject

epage
end

showpage

%%Trailer
%%EOF
