%!PS-Adobe-3.0 EPSF-3.0
%%Creator: MATLAB, The MathWorks, Inc. Version 7.13.0.564 (R2011b). Operating System: Darwin 12.4.0 Darwin Kernel Version 12.4.0: Wed May  1 17:57:12 PDT 2013; root:xnu-2050.24.15~1/RELEASE_X86_64 x86_64.
%%Title: /Users/tozammel/Documents/research/projects/networks/writeup/icdm13/figs/figdata/dominator_meettype_random.eps
%%CreationDate: 06/20/2013  10:48:55
%%DocumentNeededFonts: Helvetica
%%DocumentProcessColors: Cyan Magenta Yellow Black
%%LanguageLevel: 2
%%Pages: 1
%%BoundingBox:  -119   125   731   667
%%EndComments

%%BeginProlog
% MathWorks dictionary
/MathWorks 160 dict begin
% definition operators
/bdef {bind def} bind def
/ldef {load def} bind def
/xdef {exch def} bdef
/xstore {exch store} bdef
% operator abbreviations
/c  /clip ldef
/cc /concat ldef
/cp /closepath ldef
/gr /grestore ldef
/gs /gsave ldef
/mt /moveto ldef
/np /newpath ldef
/cm /currentmatrix ldef
/sm /setmatrix ldef
/rm /rmoveto ldef
/rl /rlineto ldef
/s {show newpath} bdef
/sc {setcmykcolor} bdef
/sr /setrgbcolor ldef
/sg /setgray ldef
/w /setlinewidth ldef
/j /setlinejoin ldef
/cap /setlinecap ldef
/rc {rectclip} bdef
/rf {rectfill} bdef
% page state control
/pgsv () def
/bpage {/pgsv save def} bdef
/epage {pgsv restore} bdef
/bplot /gsave ldef
/eplot {stroke grestore} bdef
% orientation switch
/portraitMode 0 def /landscapeMode 1 def /rotateMode 2 def
% coordinate system mappings
/dpi2point 0 def
% font control
/FontSize 0 def
/FMS {/FontSize xstore findfont [FontSize 0 0 FontSize neg 0 0]
  makefont setfont} bdef
/reencode {exch dup where {pop load} {pop StandardEncoding} ifelse
  exch dup 3 1 roll findfont dup length dict begin
  { 1 index /FID ne {def}{pop pop} ifelse } forall
  /Encoding exch def currentdict end definefont pop} bdef
/isroman {findfont /CharStrings get /Agrave known} bdef
/FMSR {3 1 roll 1 index dup isroman {reencode} {pop pop} ifelse
  exch FMS} bdef
/csm {1 dpi2point div -1 dpi2point div scale neg translate
 dup landscapeMode eq {pop -90 rotate}
  {rotateMode eq {90 rotate} if} ifelse} bdef
% line types: solid, dotted, dashed, dotdash
/SO { [] 0 setdash } bdef
/DO { [.5 dpi2point mul 4 dpi2point mul] 0 setdash } bdef
/DA { [6 dpi2point mul] 0 setdash } bdef
/DD { [.5 dpi2point mul 4 dpi2point mul 6 dpi2point mul 4
  dpi2point mul] 0 setdash } bdef
% macros for lines and objects
/L {lineto stroke} bdef
/MP {3 1 roll moveto 1 sub {rlineto} repeat} bdef
/AP {{rlineto} repeat} bdef
/PDlw -1 def
/W {/PDlw currentlinewidth def setlinewidth} def
/PP {closepath eofill} bdef
/DP {closepath stroke} bdef
/MR {4 -2 roll moveto dup  0 exch rlineto exch 0 rlineto
  neg 0 exch rlineto closepath} bdef
/FR {MR stroke} bdef
/PR {MR fill} bdef
/L1i {{currentfile picstr readhexstring pop} image} bdef
/tMatrix matrix def
/MakeOval {newpath tMatrix currentmatrix pop translate scale
0 0 1 0 360 arc tMatrix setmatrix} bdef
/FO {MakeOval stroke} bdef
/PO {MakeOval fill} bdef
/PD {currentlinewidth 2 div 0 360 arc fill
   PDlw -1 eq not {PDlw w /PDlw -1 def} if} def
/FA {newpath tMatrix currentmatrix pop translate scale
  0 0 1 5 -2 roll arc tMatrix setmatrix stroke} bdef
/PA {newpath tMatrix currentmatrix pop	translate 0 0 moveto scale
  0 0 1 5 -2 roll arc closepath tMatrix setmatrix fill} bdef
/FAn {newpath tMatrix currentmatrix pop translate scale
  0 0 1 5 -2 roll arcn tMatrix setmatrix stroke} bdef
/PAn {newpath tMatrix currentmatrix pop translate 0 0 moveto scale
  0 0 1 5 -2 roll arcn closepath tMatrix setmatrix fill} bdef
/vradius 0 def /hradius 0 def /lry 0 def
/lrx 0 def /uly 0 def /ulx 0 def /rad 0 def
/MRR {/vradius xdef /hradius xdef /lry xdef /lrx xdef /uly xdef
  /ulx xdef newpath tMatrix currentmatrix pop ulx hradius add uly
  vradius add translate hradius vradius scale 0 0 1 180 270 arc 
  tMatrix setmatrix lrx hradius sub uly vradius add translate
  hradius vradius scale 0 0 1 270 360 arc tMatrix setmatrix
  lrx hradius sub lry vradius sub translate hradius vradius scale
  0 0 1 0 90 arc tMatrix setmatrix ulx hradius add lry vradius sub
  translate hradius vradius scale 0 0 1 90 180 arc tMatrix setmatrix
  closepath} bdef
/FRR {MRR stroke } bdef
/PRR {MRR fill } bdef
/MlrRR {/lry xdef /lrx xdef /uly xdef /ulx xdef /rad lry uly sub 2 div def
  newpath tMatrix currentmatrix pop ulx rad add uly rad add translate
  rad rad scale 0 0 1 90 270 arc tMatrix setmatrix lrx rad sub lry rad
  sub translate rad rad scale 0 0 1 270 90 arc tMatrix setmatrix
  closepath} bdef
/FlrRR {MlrRR stroke } bdef
/PlrRR {MlrRR fill } bdef
/MtbRR {/lry xdef /lrx xdef /uly xdef /ulx xdef /rad lrx ulx sub 2 div def
  newpath tMatrix currentmatrix pop ulx rad add uly rad add translate
  rad rad scale 0 0 1 180 360 arc tMatrix setmatrix lrx rad sub lry rad
  sub translate rad rad scale 0 0 1 0 180 arc tMatrix setmatrix
  closepath} bdef
/FtbRR {MtbRR stroke } bdef
/PtbRR {MtbRR fill } bdef
/stri 6 array def /dtri 6 array def
/smat 6 array def /dmat 6 array def
/tmat1 6 array def /tmat2 6 array def /dif 3 array def
/asub {/ind2 exch def /ind1 exch def dup dup
  ind1 get exch ind2 get sub exch } bdef
/tri_to_matrix {
  2 0 asub 3 1 asub 4 0 asub 5 1 asub
  dup 0 get exch 1 get 7 -1 roll astore } bdef
/compute_transform {
  dmat dtri tri_to_matrix tmat1 invertmatrix 
  smat stri tri_to_matrix tmat2 concatmatrix } bdef
/ds {stri astore pop} bdef
/dt {dtri astore pop} bdef
/db {2 copy /cols xdef /rows xdef mul dup 3 mul string
  currentfile 
  3 index 0 eq {/ASCIIHexDecode filter}
  {/ASCII85Decode filter 3 index 2 eq {/RunLengthDecode filter} if }
  ifelse exch readstring pop
  dup 0 3 index getinterval /rbmap xdef
  dup 2 index dup getinterval /gbmap xdef
  1 index dup 2 mul exch getinterval /bbmap xdef pop pop}bdef
/it {gs np dtri aload pop moveto lineto lineto cp c
  cols rows 8 compute_transform 
  rbmap gbmap bbmap true 3 colorimage gr}bdef
/il {newpath moveto lineto stroke}bdef
currentdict end def
%%EndProlog

%%BeginSetup
MathWorks begin

0 cap

end
%%EndSetup

%%Page: 1 1
%%BeginPageSetup
%%PageBoundingBox:  -119   125   731   667
MathWorks begin
bpage
%%EndPageSetup

%%BeginObject: obj1
bplot

/dpi2point 12 def
portraitMode -1428 8004 csm

    0     0 10200  6495 rc
85 dict begin %Colortable dictionary
/c0 { 0.000000 0.000000 0.000000 sr} bdef
/c1 { 1.000000 1.000000 1.000000 sr} bdef
/c2 { 0.900000 0.000000 0.000000 sr} bdef
/c3 { 0.000000 0.820000 0.000000 sr} bdef
/c4 { 0.000000 0.000000 0.800000 sr} bdef
/c5 { 0.910000 0.820000 0.320000 sr} bdef
/c6 { 1.000000 0.260000 0.820000 sr} bdef
/c7 { 0.000000 0.820000 0.820000 sr} bdef
c0
1 j
1 sg
   0    0 10201 6496 rf
6 w
0 5294 7906 0 0 -5294 1325 5781 4 MP
PP
-7906 0 0 5294 7906 0 0 -5294 1325 5781 5 MP stroke
4 w
DO
SO
6 w
0 sg
1325 5781 mt 9231 5781 L
1325  487 mt 9231  487 L
1325 5781 mt 1325  487 L
9231 5781 mt 9231  487 L
1325 5781 mt 9231 5781 L
1325 5781 mt 1325  487 L
1478 5781 mt 1478 5701 L
1478  487 mt 1478  566 L
%%IncludeResource: font Helvetica
/Helvetica /ISOLatin1Encoding 216 FMSR

1418 6016 mt 
(1) s
2238 5781 mt 2238 5701 L
2238  487 mt 2238  566 L
2088 6016 mt 
(1.5) s
2998 5781 mt 2998 5701 L
2998  487 mt 2998  566 L
2938 6016 mt 
(2) s
3758 5781 mt 3758 5701 L
3758  487 mt 3758  566 L
3608 6016 mt 
(2.5) s
4518 5781 mt 4518 5701 L
4518  487 mt 4518  566 L
4458 6016 mt 
(3) s
5278 5781 mt 5278 5701 L
5278  487 mt 5278  566 L
5128 6016 mt 
(3.5) s
6038 5781 mt 6038 5701 L
6038  487 mt 6038  566 L
5978 6016 mt 
(4) s
6798 5781 mt 6798 5701 L
6798  487 mt 6798  566 L
6648 6016 mt 
(4.5) s
7558 5781 mt 7558 5701 L
7558  487 mt 7558  566 L
7498 6016 mt 
(5) s
8318 5781 mt 8318 5701 L
8318  487 mt 8318  566 L
8168 6016 mt 
(5.5) s
9078 5781 mt 9078 5701 L
9078  487 mt 9078  566 L
9018 6016 mt 
(6) s
1325 5781 mt 1405 5781 L
9231 5781 mt 9151 5781 L
1171 5861 mt 
(0) s
1325 5024 mt 1405 5024 L
9231 5024 mt 9151 5024 L
 931 5104 mt 
(200) s
1325 4268 mt 1405 4268 L
9231 4268 mt 9151 4268 L
 931 4348 mt 
(400) s
1325 3512 mt 1405 3512 L
9231 3512 mt 9151 3512 L
 931 3592 mt 
(600) s
1325 2755 mt 1405 2755 L
9231 2755 mt 9151 2755 L
 931 2835 mt 
(800) s
1325 1999 mt 1405 1999 L
9231 1999 mt 9151 1999 L
 811 2079 mt 
(1000) s
1325 1243 mt 1405 1243 L
9231 1243 mt 9151 1243 L
 811 1323 mt 
(1200) s
1325  487 mt 1405  487 L
9231  487 mt 9151  487 L
 811  567 mt 
(1400) s
1325 5781 mt 9231 5781 L
1325  487 mt 9231  487 L
1325 5781 mt 1325  487 L
9231 5781 mt 9231  487 L
gs 1325 487 7907 5295 rc
/c8 { 0.000000 0.000000 0.562500 sr} bdef
c8
0 352 60 0 0 -352 1478 5781 4 MP
PP
0 sg
-60 0 0 352 60 0 0 -352 1478 5781 5 MP stroke
c8
0 0 61 0 0 0 1538 5781 4 MP
PP
0 sg
-61 0 0 0 61 0 0 0 1538 5781 5 MP stroke
c8
0 0 61 0 0 0 1599 5781 4 MP
PP
0 sg
-61 0 0 0 61 0 0 0 1599 5781 5 MP stroke
c8
0 0 61 0 0 0 1660 5781 4 MP
PP
0 sg
-61 0 0 0 61 0 0 0 1660 5781 5 MP stroke
c8
0 0 61 0 0 0 1721 5781 4 MP
PP
0 sg
-61 0 0 0 61 0 0 0 1721 5781 5 MP stroke
c8
0 0 60 0 0 0 1782 5781 4 MP
PP
0 sg
-60 0 0 0 60 0 0 0 1782 5781 5 MP stroke
c8
0 0 61 0 0 0 1842 5781 4 MP
PP
0 sg
-61 0 0 0 61 0 0 0 1842 5781 5 MP stroke
c8
0 0 61 0 0 0 1903 5781 4 MP
PP
0 sg
-61 0 0 0 61 0 0 0 1903 5781 5 MP stroke
c8
0 0 61 0 0 0 1964 5781 4 MP
PP
0 sg
-61 0 0 0 61 0 0 0 1964 5781 5 MP stroke
c8
0 0 61 0 0 0 2025 5781 4 MP
PP
0 sg
-61 0 0 0 61 0 0 0 2025 5781 5 MP stroke
c8
0 0 60 0 0 0 2086 5781 4 MP
PP
0 sg
-60 0 0 0 60 0 0 0 2086 5781 5 MP stroke
c8
0 0 61 0 0 0 2146 5781 4 MP
PP
0 sg
-61 0 0 0 61 0 0 0 2146 5781 5 MP stroke
c8
0 0 61 0 0 0 2207 5781 4 MP
PP
0 sg
-61 0 0 0 61 0 0 0 2207 5781 5 MP stroke
c8
0 0 61 0 0 0 2268 5781 4 MP
PP
0 sg
-61 0 0 0 61 0 0 0 2268 5781 5 MP stroke
c8
0 0 61 0 0 0 2329 5781 4 MP
PP
0 sg
-61 0 0 0 61 0 0 0 2329 5781 5 MP stroke
c8
0 0 60 0 0 0 2390 5781 4 MP
PP
0 sg
-60 0 0 0 60 0 0 0 2390 5781 5 MP stroke
c8
0 0 61 0 0 0 2450 5781 4 MP
PP
0 sg
-61 0 0 0 61 0 0 0 2450 5781 5 MP stroke
c8
0 0 61 0 0 0 2511 5781 4 MP
PP
0 sg
-61 0 0 0 61 0 0 0 2511 5781 5 MP stroke
c8
0 0 61 0 0 0 2572 5781 4 MP
PP
0 sg
-61 0 0 0 61 0 0 0 2572 5781 5 MP stroke
c8
0 0 61 0 0 0 2633 5781 4 MP
PP
0 sg
-61 0 0 0 61 0 0 0 2633 5781 5 MP stroke
c8
0 0 60 0 0 0 2694 5781 4 MP
PP
0 sg
-60 0 0 0 60 0 0 0 2694 5781 5 MP stroke
c8
0 0 61 0 0 0 2754 5781 4 MP
PP
0 sg
-61 0 0 0 61 0 0 0 2754 5781 5 MP stroke
c8
0 0 61 0 0 0 2815 5781 4 MP
PP
0 sg
-61 0 0 0 61 0 0 0 2815 5781 5 MP stroke
c8
0 0 61 0 0 0 2876 5781 4 MP
PP
0 sg
-61 0 0 0 61 0 0 0 2876 5781 5 MP stroke
c8
0 583 61 0 0 -583 2937 5781 4 MP
PP
0 sg
-61 0 0 583 61 0 0 -583 2937 5781 5 MP stroke
c8
0 0 61 0 0 0 2998 5781 4 MP
PP
0 sg
-61 0 0 0 61 0 0 0 2998 5781 5 MP stroke
c8
0 0 60 0 0 0 3059 5781 4 MP
PP
0 sg
-60 0 0 0 60 0 0 0 3059 5781 5 MP stroke
c8
0 0 61 0 0 0 3119 5781 4 MP
PP
0 sg
-61 0 0 0 61 0 0 0 3119 5781 5 MP stroke
c8
0 0 61 0 0 0 3180 5781 4 MP
PP
0 sg
-61 0 0 0 61 0 0 0 3180 5781 5 MP stroke
c8
0 0 61 0 0 0 3241 5781 4 MP
PP
0 sg
-61 0 0 0 61 0 0 0 3241 5781 5 MP stroke
c8
0 0 61 0 0 0 3302 5781 4 MP
PP
0 sg
-61 0 0 0 61 0 0 0 3302 5781 5 MP stroke
c8
0 0 60 0 0 0 3363 5781 4 MP
PP
0 sg
-60 0 0 0 60 0 0 0 3363 5781 5 MP stroke
c8
0 0 61 0 0 0 3423 5781 4 MP
PP
0 sg
-61 0 0 0 61 0 0 0 3423 5781 5 MP stroke
c8
0 0 61 0 0 0 3484 5781 4 MP
PP
0 sg
-61 0 0 0 61 0 0 0 3484 5781 5 MP stroke
c8
0 0 61 0 0 0 3545 5781 4 MP
PP
0 sg
-61 0 0 0 61 0 0 0 3545 5781 5 MP stroke
c8
0 0 61 0 0 0 3606 5781 4 MP
PP
0 sg
-61 0 0 0 61 0 0 0 3606 5781 5 MP stroke
c8
0 0 60 0 0 0 3667 5781 4 MP
PP
0 sg
-60 0 0 0 60 0 0 0 3667 5781 5 MP stroke
c8
0 0 61 0 0 0 3727 5781 4 MP
PP
0 sg
-61 0 0 0 61 0 0 0 3727 5781 5 MP stroke
c8
0 0 61 0 0 0 3788 5781 4 MP
PP
0 sg
-61 0 0 0 61 0 0 0 3788 5781 5 MP stroke
c8
0 0 61 0 0 0 3849 5781 4 MP
PP
0 sg
-61 0 0 0 61 0 0 0 3849 5781 5 MP stroke
c8
0 0 61 0 0 0 3910 5781 4 MP
PP
0 sg
-61 0 0 0 61 0 0 0 3910 5781 5 MP stroke
c8
0 0 60 0 0 0 3971 5781 4 MP
PP
0 sg
-60 0 0 0 60 0 0 0 3971 5781 5 MP stroke
c8
0 0 61 0 0 0 4031 5781 4 MP
PP
0 sg
-61 0 0 0 61 0 0 0 4031 5781 5 MP stroke
c8
0 0 61 0 0 0 4092 5781 4 MP
PP
0 sg
-61 0 0 0 61 0 0 0 4092 5781 5 MP stroke
c8
0 0 61 0 0 0 4153 5781 4 MP
PP
0 sg
-61 0 0 0 61 0 0 0 4153 5781 5 MP stroke
c8
0 0 61 0 0 0 4214 5781 4 MP
PP
0 sg
-61 0 0 0 61 0 0 0 4214 5781 5 MP stroke
c8
0 0 60 0 0 0 4275 5781 4 MP
PP
0 sg
-60 0 0 0 60 0 0 0 4275 5781 5 MP stroke
c8
0 0 61 0 0 0 4335 5781 4 MP
PP
0 sg
-61 0 0 0 61 0 0 0 4335 5781 5 MP stroke
c8
0 0 61 0 0 0 4396 5781 4 MP
PP
0 sg
-61 0 0 0 61 0 0 0 4396 5781 5 MP stroke
c8
0 2950 61 0 0 -2950 4457 5781 4 MP
PP
0 sg
-61 0 0 2950 61 0 0 -2950 4457 5781 5 MP stroke
c8
0 0 61 0 0 0 4518 5781 4 MP
PP
0 sg
-61 0 0 0 61 0 0 0 4518 5781 5 MP stroke
c8
0 0 61 0 0 0 4579 5781 4 MP
PP
0 sg
-61 0 0 0 61 0 0 0 4579 5781 5 MP stroke
c8
0 0 60 0 0 0 4640 5781 4 MP
PP
0 sg
-60 0 0 0 60 0 0 0 4640 5781 5 MP stroke
c8
0 0 61 0 0 0 4700 5781 4 MP
PP
0 sg
-61 0 0 0 61 0 0 0 4700 5781 5 MP stroke
c8
0 0 61 0 0 0 4761 5781 4 MP
PP
0 sg
-61 0 0 0 61 0 0 0 4761 5781 5 MP stroke
c8
0 0 61 0 0 0 4822 5781 4 MP
PP
0 sg
-61 0 0 0 61 0 0 0 4822 5781 5 MP stroke
c8
0 0 61 0 0 0 4883 5781 4 MP
PP
0 sg
-61 0 0 0 61 0 0 0 4883 5781 5 MP stroke
c8
0 0 60 0 0 0 4944 5781 4 MP
PP
0 sg
-60 0 0 0 60 0 0 0 4944 5781 5 MP stroke
c8
0 0 61 0 0 0 5004 5781 4 MP
PP
0 sg
-61 0 0 0 61 0 0 0 5004 5781 5 MP stroke
c8
0 0 61 0 0 0 5065 5781 4 MP
PP
0 sg
-61 0 0 0 61 0 0 0 5065 5781 5 MP stroke
c8
0 0 61 0 0 0 5126 5781 4 MP
PP
0 sg
-61 0 0 0 61 0 0 0 5126 5781 5 MP stroke
c8
0 0 61 0 0 0 5187 5781 4 MP
PP
0 sg
-61 0 0 0 61 0 0 0 5187 5781 5 MP stroke
c8
0 0 60 0 0 0 5248 5781 4 MP
PP
0 sg
-60 0 0 0 60 0 0 0 5248 5781 5 MP stroke
c8
0 0 61 0 0 0 5308 5781 4 MP
PP
0 sg
-61 0 0 0 61 0 0 0 5308 5781 5 MP stroke
c8
0 0 61 0 0 0 5369 5781 4 MP
PP
0 sg
-61 0 0 0 61 0 0 0 5369 5781 5 MP stroke
c8
0 0 61 0 0 0 5430 5781 4 MP
PP
0 sg
-61 0 0 0 61 0 0 0 5430 5781 5 MP stroke
c8
0 0 61 0 0 0 5491 5781 4 MP
PP
0 sg
-61 0 0 0 61 0 0 0 5491 5781 5 MP stroke
c8
0 0 60 0 0 0 5552 5781 4 MP
PP
0 sg
-60 0 0 0 60 0 0 0 5552 5781 5 MP stroke
c8
0 0 61 0 0 0 5612 5781 4 MP
PP
0 sg
-61 0 0 0 61 0 0 0 5612 5781 5 MP stroke
c8
0 0 61 0 0 0 5673 5781 4 MP
PP
0 sg
-61 0 0 0 61 0 0 0 5673 5781 5 MP stroke
c8
0 0 61 0 0 0 5734 5781 4 MP
PP
0 sg
-61 0 0 0 61 0 0 0 5734 5781 5 MP stroke
c8
0 0 61 0 0 0 5795 5781 4 MP
PP
0 sg
-61 0 0 0 61 0 0 0 5795 5781 5 MP stroke
c8
0 0 60 0 0 0 5856 5781 4 MP
PP
0 sg
-60 0 0 0 60 0 0 0 5856 5781 5 MP stroke
c8
0 0 61 0 0 0 5916 5781 4 MP
PP
0 sg
-61 0 0 0 61 0 0 0 5916 5781 5 MP stroke
c8
0 5113 61 0 0 -5113 5977 5781 4 MP
PP
0 sg
-61 0 0 5113 61 0 0 -5113 5977 5781 5 MP stroke
c8
0 0 61 0 0 0 6038 5781 4 MP
PP
0 sg
-61 0 0 0 61 0 0 0 6038 5781 5 MP stroke
c8
0 0 61 0 0 0 6099 5781 4 MP
PP
0 sg
-61 0 0 0 61 0 0 0 6099 5781 5 MP stroke
c8
0 0 61 0 0 0 6160 5781 4 MP
PP
0 sg
-61 0 0 0 61 0 0 0 6160 5781 5 MP stroke
c8
0 0 60 0 0 0 6221 5781 4 MP
PP
0 sg
-60 0 0 0 60 0 0 0 6221 5781 5 MP stroke
c8
0 0 61 0 0 0 6281 5781 4 MP
PP
0 sg
-61 0 0 0 61 0 0 0 6281 5781 5 MP stroke
c8
0 0 61 0 0 0 6342 5781 4 MP
PP
0 sg
-61 0 0 0 61 0 0 0 6342 5781 5 MP stroke
c8
0 0 61 0 0 0 6403 5781 4 MP
PP
0 sg
-61 0 0 0 61 0 0 0 6403 5781 5 MP stroke
c8
0 0 61 0 0 0 6464 5781 4 MP
PP
0 sg
-61 0 0 0 61 0 0 0 6464 5781 5 MP stroke
c8
0 0 60 0 0 0 6525 5781 4 MP
PP
0 sg
-60 0 0 0 60 0 0 0 6525 5781 5 MP stroke
c8
0 0 61 0 0 0 6585 5781 4 MP
PP
0 sg
-61 0 0 0 61 0 0 0 6585 5781 5 MP stroke
c8
0 0 61 0 0 0 6646 5781 4 MP
PP
0 sg
-61 0 0 0 61 0 0 0 6646 5781 5 MP stroke
c8
0 0 61 0 0 0 6707 5781 4 MP
PP
0 sg
-61 0 0 0 61 0 0 0 6707 5781 5 MP stroke
c8
0 0 61 0 0 0 6768 5781 4 MP
PP
0 sg
-61 0 0 0 61 0 0 0 6768 5781 5 MP stroke
c8
0 0 60 0 0 0 6829 5781 4 MP
PP
0 sg
-60 0 0 0 60 0 0 0 6829 5781 5 MP stroke
c8
0 0 61 0 0 0 6889 5781 4 MP
PP
0 sg
-61 0 0 0 61 0 0 0 6889 5781 5 MP stroke
c8
0 0 61 0 0 0 6950 5781 4 MP
PP
0 sg
-61 0 0 0 61 0 0 0 6950 5781 5 MP stroke
c8
0 0 61 0 0 0 7011 5781 4 MP
PP
0 sg
-61 0 0 0 61 0 0 0 7011 5781 5 MP stroke
c8
0 0 61 0 0 0 7072 5781 4 MP
PP
0 sg
-61 0 0 0 61 0 0 0 7072 5781 5 MP stroke
c8
0 0 60 0 0 0 7133 5781 4 MP
PP
0 sg
-60 0 0 0 60 0 0 0 7133 5781 5 MP stroke
c8
0 0 61 0 0 0 7193 5781 4 MP
PP
0 sg
-61 0 0 0 61 0 0 0 7193 5781 5 MP stroke
c8
0 0 61 0 0 0 7254 5781 4 MP
PP
0 sg
-61 0 0 0 61 0 0 0 7254 5781 5 MP stroke
c8
0 0 61 0 0 0 7315 5781 4 MP
PP
0 sg
-61 0 0 0 61 0 0 0 7315 5781 5 MP stroke
c8
0 0 61 0 0 0 7376 5781 4 MP
PP
0 sg
-61 0 0 0 61 0 0 0 7376 5781 5 MP stroke
c8
0 0 60 0 0 0 7437 5781 4 MP
PP
0 sg
-60 0 0 0 60 0 0 0 7437 5781 5 MP stroke
c8
0 851 61 0 0 -851 7497 5781 4 MP
PP
0 sg
-61 0 0 851 61 0 0 -851 7497 5781 5 MP stroke
gr

4785 6230 mt 
(Meet Type) s
 708 3640 mt  -90 rotate
(Frequency) s
90 rotate

end %%Color Dict

eplot
%%EndObject

epage
end

showpage

%%Trailer
%%EOF
