%!PS-Adobe-3.0 EPSF-3.0
%%Creator: MATLAB, The MathWorks, Inc. Version 7.13.0.564 (R2011b). Operating System: Darwin 12.4.0 Darwin Kernel Version 12.4.0: Wed May  1 17:57:12 PDT 2013; root:xnu-2050.24.15~1/RELEASE_X86_64 x86_64.
%%Title: /Users/tozammel/Documents/research/projects/networks/writeup/icdm13/figs/figdata/dominator_meettype_random2.eps
%%CreationDate: 06/21/2013  19:45:59
%%DocumentNeededFonts: Helvetica
%%DocumentProcessColors: Cyan Magenta Yellow Black
%%LanguageLevel: 2
%%Pages: 1
%%BoundingBox:   -79   157   692   635
%%EndComments

%%BeginProlog
% MathWorks dictionary
/MathWorks 160 dict begin
% definition operators
/bdef {bind def} bind def
/ldef {load def} bind def
/xdef {exch def} bdef
/xstore {exch store} bdef
% operator abbreviations
/c  /clip ldef
/cc /concat ldef
/cp /closepath ldef
/gr /grestore ldef
/gs /gsave ldef
/mt /moveto ldef
/np /newpath ldef
/cm /currentmatrix ldef
/sm /setmatrix ldef
/rm /rmoveto ldef
/rl /rlineto ldef
/s {show newpath} bdef
/sc {setcmykcolor} bdef
/sr /setrgbcolor ldef
/sg /setgray ldef
/w /setlinewidth ldef
/j /setlinejoin ldef
/cap /setlinecap ldef
/rc {rectclip} bdef
/rf {rectfill} bdef
% page state control
/pgsv () def
/bpage {/pgsv save def} bdef
/epage {pgsv restore} bdef
/bplot /gsave ldef
/eplot {stroke grestore} bdef
% orientation switch
/portraitMode 0 def /landscapeMode 1 def /rotateMode 2 def
% coordinate system mappings
/dpi2point 0 def
% font control
/FontSize 0 def
/FMS {/FontSize xstore findfont [FontSize 0 0 FontSize neg 0 0]
  makefont setfont} bdef
/reencode {exch dup where {pop load} {pop StandardEncoding} ifelse
  exch dup 3 1 roll findfont dup length dict begin
  { 1 index /FID ne {def}{pop pop} ifelse } forall
  /Encoding exch def currentdict end definefont pop} bdef
/isroman {findfont /CharStrings get /Agrave known} bdef
/FMSR {3 1 roll 1 index dup isroman {reencode} {pop pop} ifelse
  exch FMS} bdef
/csm {1 dpi2point div -1 dpi2point div scale neg translate
 dup landscapeMode eq {pop -90 rotate}
  {rotateMode eq {90 rotate} if} ifelse} bdef
% line types: solid, dotted, dashed, dotdash
/SO { [] 0 setdash } bdef
/DO { [.5 dpi2point mul 4 dpi2point mul] 0 setdash } bdef
/DA { [6 dpi2point mul] 0 setdash } bdef
/DD { [.5 dpi2point mul 4 dpi2point mul 6 dpi2point mul 4
  dpi2point mul] 0 setdash } bdef
% macros for lines and objects
/L {lineto stroke} bdef
/MP {3 1 roll moveto 1 sub {rlineto} repeat} bdef
/AP {{rlineto} repeat} bdef
/PDlw -1 def
/W {/PDlw currentlinewidth def setlinewidth} def
/PP {closepath eofill} bdef
/DP {closepath stroke} bdef
/MR {4 -2 roll moveto dup  0 exch rlineto exch 0 rlineto
  neg 0 exch rlineto closepath} bdef
/FR {MR stroke} bdef
/PR {MR fill} bdef
/L1i {{currentfile picstr readhexstring pop} image} bdef
/tMatrix matrix def
/MakeOval {newpath tMatrix currentmatrix pop translate scale
0 0 1 0 360 arc tMatrix setmatrix} bdef
/FO {MakeOval stroke} bdef
/PO {MakeOval fill} bdef
/PD {currentlinewidth 2 div 0 360 arc fill
   PDlw -1 eq not {PDlw w /PDlw -1 def} if} def
/FA {newpath tMatrix currentmatrix pop translate scale
  0 0 1 5 -2 roll arc tMatrix setmatrix stroke} bdef
/PA {newpath tMatrix currentmatrix pop	translate 0 0 moveto scale
  0 0 1 5 -2 roll arc closepath tMatrix setmatrix fill} bdef
/FAn {newpath tMatrix currentmatrix pop translate scale
  0 0 1 5 -2 roll arcn tMatrix setmatrix stroke} bdef
/PAn {newpath tMatrix currentmatrix pop translate 0 0 moveto scale
  0 0 1 5 -2 roll arcn closepath tMatrix setmatrix fill} bdef
/vradius 0 def /hradius 0 def /lry 0 def
/lrx 0 def /uly 0 def /ulx 0 def /rad 0 def
/MRR {/vradius xdef /hradius xdef /lry xdef /lrx xdef /uly xdef
  /ulx xdef newpath tMatrix currentmatrix pop ulx hradius add uly
  vradius add translate hradius vradius scale 0 0 1 180 270 arc 
  tMatrix setmatrix lrx hradius sub uly vradius add translate
  hradius vradius scale 0 0 1 270 360 arc tMatrix setmatrix
  lrx hradius sub lry vradius sub translate hradius vradius scale
  0 0 1 0 90 arc tMatrix setmatrix ulx hradius add lry vradius sub
  translate hradius vradius scale 0 0 1 90 180 arc tMatrix setmatrix
  closepath} bdef
/FRR {MRR stroke } bdef
/PRR {MRR fill } bdef
/MlrRR {/lry xdef /lrx xdef /uly xdef /ulx xdef /rad lry uly sub 2 div def
  newpath tMatrix currentmatrix pop ulx rad add uly rad add translate
  rad rad scale 0 0 1 90 270 arc tMatrix setmatrix lrx rad sub lry rad
  sub translate rad rad scale 0 0 1 270 90 arc tMatrix setmatrix
  closepath} bdef
/FlrRR {MlrRR stroke } bdef
/PlrRR {MlrRR fill } bdef
/MtbRR {/lry xdef /lrx xdef /uly xdef /ulx xdef /rad lrx ulx sub 2 div def
  newpath tMatrix currentmatrix pop ulx rad add uly rad add translate
  rad rad scale 0 0 1 180 360 arc tMatrix setmatrix lrx rad sub lry rad
  sub translate rad rad scale 0 0 1 0 180 arc tMatrix setmatrix
  closepath} bdef
/FtbRR {MtbRR stroke } bdef
/PtbRR {MtbRR fill } bdef
/stri 6 array def /dtri 6 array def
/smat 6 array def /dmat 6 array def
/tmat1 6 array def /tmat2 6 array def /dif 3 array def
/asub {/ind2 exch def /ind1 exch def dup dup
  ind1 get exch ind2 get sub exch } bdef
/tri_to_matrix {
  2 0 asub 3 1 asub 4 0 asub 5 1 asub
  dup 0 get exch 1 get 7 -1 roll astore } bdef
/compute_transform {
  dmat dtri tri_to_matrix tmat1 invertmatrix 
  smat stri tri_to_matrix tmat2 concatmatrix } bdef
/ds {stri astore pop} bdef
/dt {dtri astore pop} bdef
/db {2 copy /cols xdef /rows xdef mul dup 3 mul string
  currentfile 
  3 index 0 eq {/ASCIIHexDecode filter}
  {/ASCII85Decode filter 3 index 2 eq {/RunLengthDecode filter} if }
  ifelse exch readstring pop
  dup 0 3 index getinterval /rbmap xdef
  dup 2 index dup getinterval /gbmap xdef
  1 index dup 2 mul exch getinterval /bbmap xdef pop pop}bdef
/it {gs np dtri aload pop moveto lineto lineto cp c
  cols rows 8 compute_transform 
  rbmap gbmap bbmap true 3 colorimage gr}bdef
/il {newpath moveto lineto stroke}bdef
currentdict end def
%%EndProlog

%%BeginSetup
MathWorks begin

0 cap

end
%%EndSetup

%%Page: 1 1
%%BeginPageSetup
%%PageBoundingBox:   -79   157   692   635
MathWorks begin
bpage
%%EndPageSetup

%%BeginObject: obj1
bplot

/dpi2point 12 def
portraitMode -0948 7620 csm

    0     0  9252  5729 rc
85 dict begin %Colortable dictionary
/c0 { 0.000000 0.000000 0.000000 sr} bdef
/c1 { 1.000000 1.000000 1.000000 sr} bdef
/c2 { 0.900000 0.000000 0.000000 sr} bdef
/c3 { 0.000000 0.820000 0.000000 sr} bdef
/c4 { 0.000000 0.000000 0.800000 sr} bdef
/c5 { 0.910000 0.820000 0.320000 sr} bdef
/c6 { 1.000000 0.260000 0.820000 sr} bdef
/c7 { 0.000000 0.820000 0.820000 sr} bdef
c0
1 j
1 sg
   0    0 9253 5730 rf
6 w
0 4669 7171 0 0 -4669 1202 5099 4 MP
PP
-7171 0 0 4669 7171 0 0 -4669 1202 5099 5 MP stroke
4 w
DO
SO
6 w
0 sg
1202 5099 mt 8373 5099 L
1202  430 mt 8373  430 L
1202 5099 mt 1202  430 L
8373 5099 mt 8373  430 L
1202 5099 mt 8373 5099 L
1202 5099 mt 1202  430 L
1340 5099 mt 1340 5027 L
1340  430 mt 1340  501 L
%%IncludeResource: font Helvetica
/Helvetica /ISOLatin1Encoding 216 FMSR

1280 5334 mt 
(1) s
2719 5099 mt 2719 5027 L
2719  430 mt 2719  501 L
2659 5334 mt 
(2) s
4098 5099 mt 4098 5027 L
4098  430 mt 4098  501 L
4038 5334 mt 
(3) s
5477 5099 mt 5477 5027 L
5477  430 mt 5477  501 L
5417 5334 mt 
(4) s
6856 5099 mt 6856 5027 L
6856  430 mt 6856  501 L
6796 5334 mt 
(5) s
8235 5099 mt 8235 5027 L
8235  430 mt 8235  501 L
8175 5334 mt 
(6) s
1202 5099 mt 1274 5099 L
8373 5099 mt 8301 5099 L
1048 5179 mt 
(0) s
1202 4432 mt 1274 4432 L
8373 4432 mt 8301 4432 L
 808 4512 mt 
(200) s
1202 3765 mt 1274 3765 L
8373 3765 mt 8301 3765 L
 808 3845 mt 
(400) s
1202 3098 mt 1274 3098 L
8373 3098 mt 8301 3098 L
 808 3178 mt 
(600) s
1202 2431 mt 1274 2431 L
8373 2431 mt 8301 2431 L
 808 2511 mt 
(800) s
1202 1764 mt 1274 1764 L
8373 1764 mt 8301 1764 L
 688 1844 mt 
(1000) s
1202 1097 mt 1274 1097 L
8373 1097 mt 8301 1097 L
 688 1177 mt 
(1200) s
1202  430 mt 1274  430 L
8373  430 mt 8301  430 L
 688  510 mt 
(1400) s
1202 5099 mt 8373 5099 L
1202  430 mt 8373  430 L
1202 5099 mt 1202  430 L
8373 5099 mt 8373  430 L
gs 1202 430 7172 4670 rc
/c8 { 0.000000 0.000000 0.562500 sr} bdef
c8
0 311 56 0 0 -311 1340 5099 4 MP
PP
0 sg
-56 0 0 311 56 0 0 -311 1340 5099 5 MP stroke
c8
0 0 55 0 0 0 1396 5099 4 MP
PP
0 sg
-55 0 0 0 55 0 0 0 1396 5099 5 MP stroke
c8
0 0 55 0 0 0 1451 5099 4 MP
PP
0 sg
-55 0 0 0 55 0 0 0 1451 5099 5 MP stroke
c8
0 0 55 0 0 0 1506 5099 4 MP
PP
0 sg
-55 0 0 0 55 0 0 0 1506 5099 5 MP stroke
c8
0 0 55 0 0 0 1561 5099 4 MP
PP
0 sg
-55 0 0 0 55 0 0 0 1561 5099 5 MP stroke
c8
0 0 55 0 0 0 1616 5099 4 MP
PP
0 sg
-55 0 0 0 55 0 0 0 1616 5099 5 MP stroke
c8
0 0 55 0 0 0 1671 5099 4 MP
PP
0 sg
-55 0 0 0 55 0 0 0 1671 5099 5 MP stroke
c8
0 0 56 0 0 0 1726 5099 4 MP
PP
0 sg
-56 0 0 0 56 0 0 0 1726 5099 5 MP stroke
c8
0 0 55 0 0 0 1782 5099 4 MP
PP
0 sg
-55 0 0 0 55 0 0 0 1782 5099 5 MP stroke
c8
0 0 55 0 0 0 1837 5099 4 MP
PP
0 sg
-55 0 0 0 55 0 0 0 1837 5099 5 MP stroke
c8
0 0 55 0 0 0 1892 5099 4 MP
PP
0 sg
-55 0 0 0 55 0 0 0 1892 5099 5 MP stroke
c8
0 0 55 0 0 0 1947 5099 4 MP
PP
0 sg
-55 0 0 0 55 0 0 0 1947 5099 5 MP stroke
c8
0 0 55 0 0 0 2002 5099 4 MP
PP
0 sg
-55 0 0 0 55 0 0 0 2002 5099 5 MP stroke
c8
0 0 56 0 0 0 2057 5099 4 MP
PP
0 sg
-56 0 0 0 56 0 0 0 2057 5099 5 MP stroke
c8
0 0 55 0 0 0 2113 5099 4 MP
PP
0 sg
-55 0 0 0 55 0 0 0 2113 5099 5 MP stroke
c8
0 0 55 0 0 0 2168 5099 4 MP
PP
0 sg
-55 0 0 0 55 0 0 0 2168 5099 5 MP stroke
c8
0 0 55 0 0 0 2223 5099 4 MP
PP
0 sg
-55 0 0 0 55 0 0 0 2223 5099 5 MP stroke
c8
0 0 55 0 0 0 2278 5099 4 MP
PP
0 sg
-55 0 0 0 55 0 0 0 2278 5099 5 MP stroke
c8
0 0 55 0 0 0 2333 5099 4 MP
PP
0 sg
-55 0 0 0 55 0 0 0 2333 5099 5 MP stroke
c8
0 0 55 0 0 0 2388 5099 4 MP
PP
0 sg
-55 0 0 0 55 0 0 0 2388 5099 5 MP stroke
c8
0 0 56 0 0 0 2443 5099 4 MP
PP
0 sg
-56 0 0 0 56 0 0 0 2443 5099 5 MP stroke
c8
0 0 55 0 0 0 2499 5099 4 MP
PP
0 sg
-55 0 0 0 55 0 0 0 2499 5099 5 MP stroke
c8
0 0 55 0 0 0 2554 5099 4 MP
PP
0 sg
-55 0 0 0 55 0 0 0 2554 5099 5 MP stroke
c8
0 0 55 0 0 0 2609 5099 4 MP
PP
0 sg
-55 0 0 0 55 0 0 0 2609 5099 5 MP stroke
c8
0 514 55 0 0 -514 2664 5099 4 MP
PP
0 sg
-55 0 0 514 55 0 0 -514 2664 5099 5 MP stroke
c8
0 0 55 0 0 0 2719 5099 4 MP
PP
0 sg
-55 0 0 0 55 0 0 0 2719 5099 5 MP stroke
c8
0 0 56 0 0 0 2774 5099 4 MP
PP
0 sg
-56 0 0 0 56 0 0 0 2774 5099 5 MP stroke
c8
0 0 55 0 0 0 2830 5099 4 MP
PP
0 sg
-55 0 0 0 55 0 0 0 2830 5099 5 MP stroke
c8
0 0 55 0 0 0 2885 5099 4 MP
PP
0 sg
-55 0 0 0 55 0 0 0 2885 5099 5 MP stroke
c8
0 0 55 0 0 0 2940 5099 4 MP
PP
0 sg
-55 0 0 0 55 0 0 0 2940 5099 5 MP stroke
c8
0 0 55 0 0 0 2995 5099 4 MP
PP
0 sg
-55 0 0 0 55 0 0 0 2995 5099 5 MP stroke
c8
0 0 55 0 0 0 3050 5099 4 MP
PP
0 sg
-55 0 0 0 55 0 0 0 3050 5099 5 MP stroke
c8
0 0 55 0 0 0 3105 5099 4 MP
PP
0 sg
-55 0 0 0 55 0 0 0 3105 5099 5 MP stroke
c8
0 0 56 0 0 0 3160 5099 4 MP
PP
0 sg
-56 0 0 0 56 0 0 0 3160 5099 5 MP stroke
c8
0 0 55 0 0 0 3216 5099 4 MP
PP
0 sg
-55 0 0 0 55 0 0 0 3216 5099 5 MP stroke
c8
0 0 55 0 0 0 3271 5099 4 MP
PP
0 sg
-55 0 0 0 55 0 0 0 3271 5099 5 MP stroke
c8
0 0 55 0 0 0 3326 5099 4 MP
PP
0 sg
-55 0 0 0 55 0 0 0 3326 5099 5 MP stroke
c8
0 0 55 0 0 0 3381 5099 4 MP
PP
0 sg
-55 0 0 0 55 0 0 0 3381 5099 5 MP stroke
c8
0 0 55 0 0 0 3436 5099 4 MP
PP
0 sg
-55 0 0 0 55 0 0 0 3436 5099 5 MP stroke
c8
0 0 56 0 0 0 3491 5099 4 MP
PP
0 sg
-56 0 0 0 56 0 0 0 3491 5099 5 MP stroke
c8
0 0 55 0 0 0 3547 5099 4 MP
PP
0 sg
-55 0 0 0 55 0 0 0 3547 5099 5 MP stroke
c8
0 0 55 0 0 0 3602 5099 4 MP
PP
0 sg
-55 0 0 0 55 0 0 0 3602 5099 5 MP stroke
c8
0 0 55 0 0 0 3657 5099 4 MP
PP
0 sg
-55 0 0 0 55 0 0 0 3657 5099 5 MP stroke
c8
0 0 55 0 0 0 3712 5099 4 MP
PP
0 sg
-55 0 0 0 55 0 0 0 3712 5099 5 MP stroke
c8
0 0 55 0 0 0 3767 5099 4 MP
PP
0 sg
-55 0 0 0 55 0 0 0 3767 5099 5 MP stroke
c8
0 0 55 0 0 0 3822 5099 4 MP
PP
0 sg
-55 0 0 0 55 0 0 0 3822 5099 5 MP stroke
c8
0 0 56 0 0 0 3877 5099 4 MP
PP
0 sg
-56 0 0 0 56 0 0 0 3877 5099 5 MP stroke
c8
0 0 55 0 0 0 3933 5099 4 MP
PP
0 sg
-55 0 0 0 55 0 0 0 3933 5099 5 MP stroke
c8
0 0 55 0 0 0 3988 5099 4 MP
PP
0 sg
-55 0 0 0 55 0 0 0 3988 5099 5 MP stroke
c8
0 2602 55 0 0 -2602 4043 5099 4 MP
PP
0 sg
-55 0 0 2602 55 0 0 -2602 4043 5099 5 MP stroke
c8
0 0 55 0 0 0 4098 5099 4 MP
PP
0 sg
-55 0 0 0 55 0 0 0 4098 5099 5 MP stroke
c8
0 0 55 0 0 0 4153 5099 4 MP
PP
0 sg
-55 0 0 0 55 0 0 0 4153 5099 5 MP stroke
c8
0 0 56 0 0 0 4208 5099 4 MP
PP
0 sg
-56 0 0 0 56 0 0 0 4208 5099 5 MP stroke
c8
0 0 55 0 0 0 4264 5099 4 MP
PP
0 sg
-55 0 0 0 55 0 0 0 4264 5099 5 MP stroke
c8
0 0 55 0 0 0 4319 5099 4 MP
PP
0 sg
-55 0 0 0 55 0 0 0 4319 5099 5 MP stroke
c8
0 0 55 0 0 0 4374 5099 4 MP
PP
0 sg
-55 0 0 0 55 0 0 0 4374 5099 5 MP stroke
c8
0 0 55 0 0 0 4429 5099 4 MP
PP
0 sg
-55 0 0 0 55 0 0 0 4429 5099 5 MP stroke
c8
0 0 55 0 0 0 4484 5099 4 MP
PP
0 sg
-55 0 0 0 55 0 0 0 4484 5099 5 MP stroke
c8
0 0 55 0 0 0 4539 5099 4 MP
PP
0 sg
-55 0 0 0 55 0 0 0 4539 5099 5 MP stroke
c8
0 0 56 0 0 0 4594 5099 4 MP
PP
0 sg
-56 0 0 0 56 0 0 0 4594 5099 5 MP stroke
c8
0 0 55 0 0 0 4650 5099 4 MP
PP
0 sg
-55 0 0 0 55 0 0 0 4650 5099 5 MP stroke
c8
0 0 55 0 0 0 4705 5099 4 MP
PP
0 sg
-55 0 0 0 55 0 0 0 4705 5099 5 MP stroke
c8
0 0 55 0 0 0 4760 5099 4 MP
PP
0 sg
-55 0 0 0 55 0 0 0 4760 5099 5 MP stroke
c8
0 0 55 0 0 0 4815 5099 4 MP
PP
0 sg
-55 0 0 0 55 0 0 0 4815 5099 5 MP stroke
c8
0 0 55 0 0 0 4870 5099 4 MP
PP
0 sg
-55 0 0 0 55 0 0 0 4870 5099 5 MP stroke
c8
0 0 56 0 0 0 4925 5099 4 MP
PP
0 sg
-56 0 0 0 56 0 0 0 4925 5099 5 MP stroke
c8
0 0 55 0 0 0 4981 5099 4 MP
PP
0 sg
-55 0 0 0 55 0 0 0 4981 5099 5 MP stroke
c8
0 0 55 0 0 0 5036 5099 4 MP
PP
0 sg
-55 0 0 0 55 0 0 0 5036 5099 5 MP stroke
c8
0 0 55 0 0 0 5091 5099 4 MP
PP
0 sg
-55 0 0 0 55 0 0 0 5091 5099 5 MP stroke
c8
0 0 55 0 0 0 5146 5099 4 MP
PP
0 sg
-55 0 0 0 55 0 0 0 5146 5099 5 MP stroke
c8
0 0 55 0 0 0 5201 5099 4 MP
PP
0 sg
-55 0 0 0 55 0 0 0 5201 5099 5 MP stroke
c8
0 0 55 0 0 0 5256 5099 4 MP
PP
0 sg
-55 0 0 0 55 0 0 0 5256 5099 5 MP stroke
c8
0 0 56 0 0 0 5311 5099 4 MP
PP
0 sg
-56 0 0 0 56 0 0 0 5311 5099 5 MP stroke
c8
0 0 55 0 0 0 5367 5099 4 MP
PP
0 sg
-55 0 0 0 55 0 0 0 5367 5099 5 MP stroke
c8
0 4509 55 0 0 -4509 5422 5099 4 MP
PP
0 sg
-55 0 0 4509 55 0 0 -4509 5422 5099 5 MP stroke
c8
0 0 55 0 0 0 5477 5099 4 MP
PP
0 sg
-55 0 0 0 55 0 0 0 5477 5099 5 MP stroke
c8
0 0 55 0 0 0 5532 5099 4 MP
PP
0 sg
-55 0 0 0 55 0 0 0 5532 5099 5 MP stroke
c8
0 0 55 0 0 0 5587 5099 4 MP
PP
0 sg
-55 0 0 0 55 0 0 0 5587 5099 5 MP stroke
c8
0 0 56 0 0 0 5642 5099 4 MP
PP
0 sg
-56 0 0 0 56 0 0 0 5642 5099 5 MP stroke
c8
0 0 55 0 0 0 5698 5099 4 MP
PP
0 sg
-55 0 0 0 55 0 0 0 5698 5099 5 MP stroke
c8
0 0 55 0 0 0 5753 5099 4 MP
PP
0 sg
-55 0 0 0 55 0 0 0 5753 5099 5 MP stroke
c8
0 0 55 0 0 0 5808 5099 4 MP
PP
0 sg
-55 0 0 0 55 0 0 0 5808 5099 5 MP stroke
c8
0 0 55 0 0 0 5863 5099 4 MP
PP
0 sg
-55 0 0 0 55 0 0 0 5863 5099 5 MP stroke
c8
0 0 55 0 0 0 5918 5099 4 MP
PP
0 sg
-55 0 0 0 55 0 0 0 5918 5099 5 MP stroke
c8
0 0 55 0 0 0 5973 5099 4 MP
PP
0 sg
-55 0 0 0 55 0 0 0 5973 5099 5 MP stroke
c8
0 0 56 0 0 0 6028 5099 4 MP
PP
0 sg
-56 0 0 0 56 0 0 0 6028 5099 5 MP stroke
c8
0 0 55 0 0 0 6084 5099 4 MP
PP
0 sg
-55 0 0 0 55 0 0 0 6084 5099 5 MP stroke
c8
0 0 55 0 0 0 6139 5099 4 MP
PP
0 sg
-55 0 0 0 55 0 0 0 6139 5099 5 MP stroke
c8
0 0 55 0 0 0 6194 5099 4 MP
PP
0 sg
-55 0 0 0 55 0 0 0 6194 5099 5 MP stroke
c8
0 0 55 0 0 0 6249 5099 4 MP
PP
0 sg
-55 0 0 0 55 0 0 0 6249 5099 5 MP stroke
c8
0 0 55 0 0 0 6304 5099 4 MP
PP
0 sg
-55 0 0 0 55 0 0 0 6304 5099 5 MP stroke
c8
0 0 56 0 0 0 6359 5099 4 MP
PP
0 sg
-56 0 0 0 56 0 0 0 6359 5099 5 MP stroke
c8
0 0 55 0 0 0 6415 5099 4 MP
PP
0 sg
-55 0 0 0 55 0 0 0 6415 5099 5 MP stroke
c8
0 0 55 0 0 0 6470 5099 4 MP
PP
0 sg
-55 0 0 0 55 0 0 0 6470 5099 5 MP stroke
c8
0 0 55 0 0 0 6525 5099 4 MP
PP
0 sg
-55 0 0 0 55 0 0 0 6525 5099 5 MP stroke
c8
0 0 55 0 0 0 6580 5099 4 MP
PP
0 sg
-55 0 0 0 55 0 0 0 6580 5099 5 MP stroke
c8
0 0 55 0 0 0 6635 5099 4 MP
PP
0 sg
-55 0 0 0 55 0 0 0 6635 5099 5 MP stroke
c8
0 0 55 0 0 0 6690 5099 4 MP
PP
0 sg
-55 0 0 0 55 0 0 0 6690 5099 5 MP stroke
c8
0 0 56 0 0 0 6745 5099 4 MP
PP
0 sg
-56 0 0 0 56 0 0 0 6745 5099 5 MP stroke
c8
0 751 55 0 0 -751 6801 5099 4 MP
PP
0 sg
-55 0 0 751 55 0 0 -751 6801 5099 5 MP stroke
gr

%%IncludeResource: font Helvetica
/Helvetica /ISOLatin1Encoding 264 FMSR

4185 5583 mt 
(Meet Type) s
 574 3383 mt  -90 rotate
(Frequency) s
90 rotate

end %%Color Dict

eplot
%%EndObject

epage
end

showpage

%%Trailer
%%EOF
