%!PS-Adobe-3.0 EPSF-3.0
%%Creator: MATLAB, The MathWorks, Inc. Version 7.13.0.564 (R2011b). Operating System: Darwin 12.4.0 Darwin Kernel Version 12.4.0: Wed May  1 17:57:12 PDT 2013; root:xnu-2050.24.15~1/RELEASE_X86_64 x86_64.
%%Title: /Users/tozammel/Documents/research/projects/networks/writeup/icdm13/figs/figdata/dominator_age_random.eps
%%CreationDate: 06/19/2013  19:25:01
%%DocumentNeededFonts: Helvetica
%%DocumentProcessColors: Cyan Magenta Yellow Black
%%LanguageLevel: 2
%%Pages: 1
%%BoundingBox:   -45    93   657   699
%%EndComments

%%BeginProlog
% MathWorks dictionary
/MathWorks 160 dict begin
% definition operators
/bdef {bind def} bind def
/ldef {load def} bind def
/xdef {exch def} bdef
/xstore {exch store} bdef
% operator abbreviations
/c  /clip ldef
/cc /concat ldef
/cp /closepath ldef
/gr /grestore ldef
/gs /gsave ldef
/mt /moveto ldef
/np /newpath ldef
/cm /currentmatrix ldef
/sm /setmatrix ldef
/rm /rmoveto ldef
/rl /rlineto ldef
/s {show newpath} bdef
/sc {setcmykcolor} bdef
/sr /setrgbcolor ldef
/sg /setgray ldef
/w /setlinewidth ldef
/j /setlinejoin ldef
/cap /setlinecap ldef
/rc {rectclip} bdef
/rf {rectfill} bdef
% page state control
/pgsv () def
/bpage {/pgsv save def} bdef
/epage {pgsv restore} bdef
/bplot /gsave ldef
/eplot {stroke grestore} bdef
% orientation switch
/portraitMode 0 def /landscapeMode 1 def /rotateMode 2 def
% coordinate system mappings
/dpi2point 0 def
% font control
/FontSize 0 def
/FMS {/FontSize xstore findfont [FontSize 0 0 FontSize neg 0 0]
  makefont setfont} bdef
/reencode {exch dup where {pop load} {pop StandardEncoding} ifelse
  exch dup 3 1 roll findfont dup length dict begin
  { 1 index /FID ne {def}{pop pop} ifelse } forall
  /Encoding exch def currentdict end definefont pop} bdef
/isroman {findfont /CharStrings get /Agrave known} bdef
/FMSR {3 1 roll 1 index dup isroman {reencode} {pop pop} ifelse
  exch FMS} bdef
/csm {1 dpi2point div -1 dpi2point div scale neg translate
 dup landscapeMode eq {pop -90 rotate}
  {rotateMode eq {90 rotate} if} ifelse} bdef
% line types: solid, dotted, dashed, dotdash
/SO { [] 0 setdash } bdef
/DO { [.5 dpi2point mul 4 dpi2point mul] 0 setdash } bdef
/DA { [6 dpi2point mul] 0 setdash } bdef
/DD { [.5 dpi2point mul 4 dpi2point mul 6 dpi2point mul 4
  dpi2point mul] 0 setdash } bdef
% macros for lines and objects
/L {lineto stroke} bdef
/MP {3 1 roll moveto 1 sub {rlineto} repeat} bdef
/AP {{rlineto} repeat} bdef
/PDlw -1 def
/W {/PDlw currentlinewidth def setlinewidth} def
/PP {closepath eofill} bdef
/DP {closepath stroke} bdef
/MR {4 -2 roll moveto dup  0 exch rlineto exch 0 rlineto
  neg 0 exch rlineto closepath} bdef
/FR {MR stroke} bdef
/PR {MR fill} bdef
/L1i {{currentfile picstr readhexstring pop} image} bdef
/tMatrix matrix def
/MakeOval {newpath tMatrix currentmatrix pop translate scale
0 0 1 0 360 arc tMatrix setmatrix} bdef
/FO {MakeOval stroke} bdef
/PO {MakeOval fill} bdef
/PD {currentlinewidth 2 div 0 360 arc fill
   PDlw -1 eq not {PDlw w /PDlw -1 def} if} def
/FA {newpath tMatrix currentmatrix pop translate scale
  0 0 1 5 -2 roll arc tMatrix setmatrix stroke} bdef
/PA {newpath tMatrix currentmatrix pop	translate 0 0 moveto scale
  0 0 1 5 -2 roll arc closepath tMatrix setmatrix fill} bdef
/FAn {newpath tMatrix currentmatrix pop translate scale
  0 0 1 5 -2 roll arcn tMatrix setmatrix stroke} bdef
/PAn {newpath tMatrix currentmatrix pop translate 0 0 moveto scale
  0 0 1 5 -2 roll arcn closepath tMatrix setmatrix fill} bdef
/vradius 0 def /hradius 0 def /lry 0 def
/lrx 0 def /uly 0 def /ulx 0 def /rad 0 def
/MRR {/vradius xdef /hradius xdef /lry xdef /lrx xdef /uly xdef
  /ulx xdef newpath tMatrix currentmatrix pop ulx hradius add uly
  vradius add translate hradius vradius scale 0 0 1 180 270 arc 
  tMatrix setmatrix lrx hradius sub uly vradius add translate
  hradius vradius scale 0 0 1 270 360 arc tMatrix setmatrix
  lrx hradius sub lry vradius sub translate hradius vradius scale
  0 0 1 0 90 arc tMatrix setmatrix ulx hradius add lry vradius sub
  translate hradius vradius scale 0 0 1 90 180 arc tMatrix setmatrix
  closepath} bdef
/FRR {MRR stroke } bdef
/PRR {MRR fill } bdef
/MlrRR {/lry xdef /lrx xdef /uly xdef /ulx xdef /rad lry uly sub 2 div def
  newpath tMatrix currentmatrix pop ulx rad add uly rad add translate
  rad rad scale 0 0 1 90 270 arc tMatrix setmatrix lrx rad sub lry rad
  sub translate rad rad scale 0 0 1 270 90 arc tMatrix setmatrix
  closepath} bdef
/FlrRR {MlrRR stroke } bdef
/PlrRR {MlrRR fill } bdef
/MtbRR {/lry xdef /lrx xdef /uly xdef /ulx xdef /rad lrx ulx sub 2 div def
  newpath tMatrix currentmatrix pop ulx rad add uly rad add translate
  rad rad scale 0 0 1 180 360 arc tMatrix setmatrix lrx rad sub lry rad
  sub translate rad rad scale 0 0 1 0 180 arc tMatrix setmatrix
  closepath} bdef
/FtbRR {MtbRR stroke } bdef
/PtbRR {MtbRR fill } bdef
/stri 6 array def /dtri 6 array def
/smat 6 array def /dmat 6 array def
/tmat1 6 array def /tmat2 6 array def /dif 3 array def
/asub {/ind2 exch def /ind1 exch def dup dup
  ind1 get exch ind2 get sub exch } bdef
/tri_to_matrix {
  2 0 asub 3 1 asub 4 0 asub 5 1 asub
  dup 0 get exch 1 get 7 -1 roll astore } bdef
/compute_transform {
  dmat dtri tri_to_matrix tmat1 invertmatrix 
  smat stri tri_to_matrix tmat2 concatmatrix } bdef
/ds {stri astore pop} bdef
/dt {dtri astore pop} bdef
/db {2 copy /cols xdef /rows xdef mul dup 3 mul string
  currentfile 
  3 index 0 eq {/ASCIIHexDecode filter}
  {/ASCII85Decode filter 3 index 2 eq {/RunLengthDecode filter} if }
  ifelse exch readstring pop
  dup 0 3 index getinterval /rbmap xdef
  dup 2 index dup getinterval /gbmap xdef
  1 index dup 2 mul exch getinterval /bbmap xdef pop pop}bdef
/it {gs np dtri aload pop moveto lineto lineto cp c
  cols rows 8 compute_transform 
  rbmap gbmap bbmap true 3 colorimage gr}bdef
/il {newpath moveto lineto stroke}bdef
currentdict end def
%%EndProlog

%%BeginSetup
MathWorks begin

0 cap

end
%%EndSetup

%%Page: 1 1
%%BeginPageSetup
%%PageBoundingBox:   -45    93   657   699
MathWorks begin
bpage
%%EndPageSetup

%%BeginObject: obj1
bplot

/dpi2point 12 def
portraitMode -0540 8388 csm

    0     0  8424  7263 rc
85 dict begin %Colortable dictionary
/c0 { 0.000000 0.000000 0.000000 sr} bdef
/c1 { 1.000000 1.000000 1.000000 sr} bdef
/c2 { 0.900000 0.000000 0.000000 sr} bdef
/c3 { 0.000000 0.820000 0.000000 sr} bdef
/c4 { 0.000000 0.000000 0.800000 sr} bdef
/c5 { 0.910000 0.820000 0.320000 sr} bdef
/c6 { 1.000000 0.260000 0.820000 sr} bdef
/c7 { 0.000000 0.820000 0.820000 sr} bdef
c0
1 j
1 sg
   0    0 8425 7264 rf
6 w
0 5919 6529 0 0 -5919 1095 6464 4 MP
PP
-6529 0 0 5919 6529 0 0 -5919 1095 6464 5 MP stroke
4 w
DO
SO
6 w
0 sg
1095 6464 mt 7624 6464 L
1095  545 mt 7624  545 L
1095 6464 mt 1095  545 L
7624 6464 mt 7624  545 L
1095 6464 mt 7624 6464 L
1095 6464 mt 1095  545 L
1688 6464 mt 1688 6398 L
1688  545 mt 1688  610 L
%%IncludeResource: font Helvetica
/Helvetica /ISOLatin1Encoding 216 FMSR

1568 6699 mt 
(10) s
2348 6464 mt 2348 6398 L
2348  545 mt 2348  610 L
2228 6699 mt 
(20) s
3007 6464 mt 3007 6398 L
3007  545 mt 3007  610 L
2887 6699 mt 
(30) s
3667 6464 mt 3667 6398 L
3667  545 mt 3667  610 L
3547 6699 mt 
(40) s
4326 6464 mt 4326 6398 L
4326  545 mt 4326  610 L
4206 6699 mt 
(50) s
4986 6464 mt 4986 6398 L
4986  545 mt 4986  610 L
4866 6699 mt 
(60) s
5645 6464 mt 5645 6398 L
5645  545 mt 5645  610 L
5525 6699 mt 
(70) s
6305 6464 mt 6305 6398 L
6305  545 mt 6305  610 L
6185 6699 mt 
(80) s
6964 6464 mt 6964 6398 L
6964  545 mt 6964  610 L
6844 6699 mt 
(90) s
7624 6464 mt 7624 6398 L
7624  545 mt 7624  610 L
7444 6699 mt 
(100) s
1095 6464 mt 1160 6464 L
7624 6464 mt 7558 6464 L
 940 6544 mt 
(0) s
1095 5280 mt 1160 5280 L
7624 5280 mt 7558 5280 L
 700 5360 mt 
(500) s
1095 4096 mt 1160 4096 L
7624 4096 mt 7558 4096 L
 580 4176 mt 
(1000) s
1095 2912 mt 1160 2912 L
7624 2912 mt 7558 2912 L
 580 2992 mt 
(1500) s
1095 1728 mt 1160 1728 L
7624 1728 mt 7558 1728 L
 580 1808 mt 
(2000) s
1095  545 mt 1160  545 L
7624  545 mt 7558  545 L
 580  625 mt 
(2500) s
1095 6464 mt 7624 6464 L
1095  545 mt 7624  545 L
1095 6464 mt 1095  545 L
7624 6464 mt 7624  545 L
gs 1095 545 6530 5920 rc
/c8 { 0.000000 0.000000 0.562500 sr} bdef
c8
0 3209 61 0 0 -3209 1029 6464 4 MP
PP
0 sg
-61 0 0 3209 61 0 0 -3209 1029 6464 5 MP stroke
c8
0 3157 61 0 0 -3157 1090 6464 4 MP
PP
0 sg
-61 0 0 3157 61 0 0 -3157 1090 6464 5 MP stroke
c8
0 3306 62 0 0 -3306 1151 6464 4 MP
PP
0 sg
-62 0 0 3306 62 0 0 -3306 1151 6464 5 MP stroke
c8
0 3043 61 0 0 -3043 1213 6464 4 MP
PP
0 sg
-61 0 0 3043 61 0 0 -3043 1213 6464 5 MP stroke
c8
0 3123 61 0 0 -3123 1274 6464 4 MP
PP
0 sg
-61 0 0 3123 61 0 0 -3123 1274 6464 5 MP stroke
c8
0 2839 62 0 0 -2839 1335 6464 4 MP
PP
0 sg
-62 0 0 2839 62 0 0 -2839 1335 6464 5 MP stroke
c8
0 2924 61 0 0 -2924 1397 6464 4 MP
PP
0 sg
-61 0 0 2924 61 0 0 -2924 1397 6464 5 MP stroke
c8
0 3135 61 0 0 -3135 1458 6464 4 MP
PP
0 sg
-61 0 0 3135 61 0 0 -3135 1458 6464 5 MP stroke
c8
0 3064 62 0 0 -3064 1519 6464 4 MP
PP
0 sg
-62 0 0 3064 62 0 0 -3064 1519 6464 5 MP stroke
c8
0 3303 61 0 0 -3303 1581 6464 4 MP
PP
0 sg
-61 0 0 3303 61 0 0 -3303 1581 6464 5 MP stroke
c8
0 3142 61 0 0 -3142 1642 6464 4 MP
PP
0 sg
-61 0 0 3142 61 0 0 -3142 1642 6464 5 MP stroke
c8
0 2901 62 0 0 -2901 1703 6464 4 MP
PP
0 sg
-62 0 0 2901 62 0 0 -2901 1703 6464 5 MP stroke
c8
0 3261 61 0 0 -3261 1765 6464 4 MP
PP
0 sg
-61 0 0 3261 61 0 0 -3261 1765 6464 5 MP stroke
c8
0 2998 61 0 0 -2998 1826 6464 4 MP
PP
0 sg
-61 0 0 2998 61 0 0 -2998 1826 6464 5 MP stroke
c8
0 0 62 0 0 0 1887 6464 4 MP
PP
0 sg
-62 0 0 0 62 0 0 0 1887 6464 5 MP stroke
c8
0 2951 61 0 0 -2951 1949 6464 4 MP
PP
0 sg
-61 0 0 2951 61 0 0 -2951 1949 6464 5 MP stroke
c8
0 2624 61 0 0 -2624 2010 6464 4 MP
PP
0 sg
-61 0 0 2624 61 0 0 -2624 2010 6464 5 MP stroke
c8
0 2903 62 0 0 -2903 2071 6464 4 MP
PP
0 sg
-62 0 0 2903 62 0 0 -2903 2071 6464 5 MP stroke
c8
0 2801 61 0 0 -2801 2133 6464 4 MP
PP
0 sg
-61 0 0 2801 61 0 0 -2801 2133 6464 5 MP stroke
c8
0 3033 61 0 0 -3033 2194 6464 4 MP
PP
0 sg
-61 0 0 3033 61 0 0 -3033 2194 6464 5 MP stroke
c8
0 2870 62 0 0 -2870 2255 6464 4 MP
PP
0 sg
-62 0 0 2870 62 0 0 -2870 2255 6464 5 MP stroke
c8
0 2669 61 0 0 -2669 2317 6464 4 MP
PP
0 sg
-61 0 0 2669 61 0 0 -2669 2317 6464 5 MP stroke
c8
0 3043 61 0 0 -3043 2378 6464 4 MP
PP
0 sg
-61 0 0 3043 61 0 0 -3043 2378 6464 5 MP stroke
c8
0 2726 62 0 0 -2726 2439 6464 4 MP
PP
0 sg
-62 0 0 2726 62 0 0 -2726 2439 6464 5 MP stroke
c8
0 2941 61 0 0 -2941 2501 6464 4 MP
PP
0 sg
-61 0 0 2941 61 0 0 -2941 2501 6464 5 MP stroke
c8
0 2697 61 0 0 -2697 2562 6464 4 MP
PP
0 sg
-61 0 0 2697 61 0 0 -2697 2562 6464 5 MP stroke
c8
0 3017 62 0 0 -3017 2623 6464 4 MP
PP
0 sg
-62 0 0 3017 62 0 0 -3017 2623 6464 5 MP stroke
c8
0 2996 61 0 0 -2996 2685 6464 4 MP
PP
0 sg
-61 0 0 2996 61 0 0 -2996 2685 6464 5 MP stroke
c8
0 0 61 0 0 0 2746 6464 4 MP
PP
0 sg
-61 0 0 0 61 0 0 0 2746 6464 5 MP stroke
c8
0 3313 62 0 0 -3313 2807 6464 4 MP
PP
0 sg
-62 0 0 3313 62 0 0 -3313 2807 6464 5 MP stroke
c8
0 3436 61 0 0 -3436 2869 6464 4 MP
PP
0 sg
-61 0 0 3436 61 0 0 -3436 2869 6464 5 MP stroke
c8
0 3246 61 0 0 -3246 2930 6464 4 MP
PP
0 sg
-61 0 0 3246 61 0 0 -3246 2930 6464 5 MP stroke
c8
0 3476 62 0 0 -3476 2991 6464 4 MP
PP
0 sg
-62 0 0 3476 62 0 0 -3476 2991 6464 5 MP stroke
c8
0 3270 61 0 0 -3270 3053 6464 4 MP
PP
0 sg
-61 0 0 3270 61 0 0 -3270 3053 6464 5 MP stroke
c8
0 3377 61 0 0 -3377 3114 6464 4 MP
PP
0 sg
-61 0 0 3377 61 0 0 -3377 3114 6464 5 MP stroke
c8
0 3509 62 0 0 -3509 3175 6464 4 MP
PP
0 sg
-62 0 0 3509 62 0 0 -3509 3175 6464 5 MP stroke
c8
0 3879 61 0 0 -3879 3237 6464 4 MP
PP
0 sg
-61 0 0 3879 61 0 0 -3879 3237 6464 5 MP stroke
c8
0 4004 61 0 0 -4004 3298 6464 4 MP
PP
0 sg
-61 0 0 4004 61 0 0 -4004 3298 6464 5 MP stroke
c8
0 4132 62 0 0 -4132 3359 6464 4 MP
PP
0 sg
-62 0 0 4132 62 0 0 -4132 3359 6464 5 MP stroke
c8
0 3997 61 0 0 -3997 3421 6464 4 MP
PP
0 sg
-61 0 0 3997 61 0 0 -3997 3421 6464 5 MP stroke
c8
0 3666 61 0 0 -3666 3482 6464 4 MP
PP
0 sg
-61 0 0 3666 61 0 0 -3666 3482 6464 5 MP stroke
c8
0 3516 62 0 0 -3516 3543 6464 4 MP
PP
0 sg
-62 0 0 3516 62 0 0 -3516 3543 6464 5 MP stroke
c8
0 0 61 0 0 0 3605 6464 4 MP
PP
0 sg
-61 0 0 0 61 0 0 0 3605 6464 5 MP stroke
c8
0 3654 61 0 0 -3654 3666 6464 4 MP
PP
0 sg
-61 0 0 3654 61 0 0 -3654 3666 6464 5 MP stroke
c8
0 3587 62 0 0 -3587 3727 6464 4 MP
PP
0 sg
-62 0 0 3587 62 0 0 -3587 3727 6464 5 MP stroke
c8
0 3680 61 0 0 -3680 3789 6464 4 MP
PP
0 sg
-61 0 0 3680 61 0 0 -3680 3789 6464 5 MP stroke
c8
0 3474 61 0 0 -3474 3850 6464 4 MP
PP
0 sg
-61 0 0 3474 61 0 0 -3474 3850 6464 5 MP stroke
c8
0 3306 62 0 0 -3306 3911 6464 4 MP
PP
0 sg
-62 0 0 3306 62 0 0 -3306 3911 6464 5 MP stroke
c8
0 3180 61 0 0 -3180 3973 6464 4 MP
PP
0 sg
-61 0 0 3180 61 0 0 -3180 3973 6464 5 MP stroke
c8
0 3258 61 0 0 -3258 4034 6464 4 MP
PP
0 sg
-61 0 0 3258 61 0 0 -3258 4034 6464 5 MP stroke
c8
0 3301 62 0 0 -3301 4095 6464 4 MP
PP
0 sg
-62 0 0 3301 62 0 0 -3301 4095 6464 5 MP stroke
c8
0 2913 61 0 0 -2913 4157 6464 4 MP
PP
0 sg
-61 0 0 2913 61 0 0 -2913 4157 6464 5 MP stroke
c8
0 2742 61 0 0 -2742 4218 6464 4 MP
PP
0 sg
-61 0 0 2742 61 0 0 -2742 4218 6464 5 MP stroke
c8
0 2972 62 0 0 -2972 4279 6464 4 MP
PP
0 sg
-62 0 0 2972 62 0 0 -2972 4279 6464 5 MP stroke
c8
0 2719 61 0 0 -2719 4341 6464 4 MP
PP
0 sg
-61 0 0 2719 61 0 0 -2719 4341 6464 5 MP stroke
c8
0 2823 61 0 0 -2823 4402 6464 4 MP
PP
0 sg
-61 0 0 2823 61 0 0 -2823 4402 6464 5 MP stroke
c8
0 2692 62 0 0 -2692 4463 6464 4 MP
PP
0 sg
-62 0 0 2692 62 0 0 -2692 4463 6464 5 MP stroke
c8
0 0 61 0 0 0 4525 6464 4 MP
PP
0 sg
-61 0 0 0 61 0 0 0 4525 6464 5 MP stroke
c8
0 2311 61 0 0 -2311 4586 6464 4 MP
PP
0 sg
-61 0 0 2311 61 0 0 -2311 4586 6464 5 MP stroke
c8
0 2399 62 0 0 -2399 4647 6464 4 MP
PP
0 sg
-62 0 0 2399 62 0 0 -2399 4647 6464 5 MP stroke
c8
0 2221 61 0 0 -2221 4709 6464 4 MP
PP
0 sg
-61 0 0 2221 61 0 0 -2221 4709 6464 5 MP stroke
c8
0 2252 61 0 0 -2252 4770 6464 4 MP
PP
0 sg
-61 0 0 2252 61 0 0 -2252 4770 6464 5 MP stroke
c8
0 2037 62 0 0 -2037 4831 6464 4 MP
PP
0 sg
-62 0 0 2037 62 0 0 -2037 4831 6464 5 MP stroke
c8
0 2162 61 0 0 -2162 4893 6464 4 MP
PP
0 sg
-61 0 0 2162 61 0 0 -2162 4893 6464 5 MP stroke
c8
0 2226 61 0 0 -2226 4954 6464 4 MP
PP
0 sg
-61 0 0 2226 61 0 0 -2226 4954 6464 5 MP stroke
c8
0 2086 62 0 0 -2086 5015 6464 4 MP
PP
0 sg
-62 0 0 2086 62 0 0 -2086 5015 6464 5 MP stroke
c8
0 2271 61 0 0 -2271 5077 6464 4 MP
PP
0 sg
-61 0 0 2271 61 0 0 -2271 5077 6464 5 MP stroke
c8
0 2160 61 0 0 -2160 5138 6464 4 MP
PP
0 sg
-61 0 0 2160 61 0 0 -2160 5138 6464 5 MP stroke
c8
0 2037 62 0 0 -2037 5199 6464 4 MP
PP
0 sg
-62 0 0 2037 62 0 0 -2037 5199 6464 5 MP stroke
c8
0 2015 61 0 0 -2015 5261 6464 4 MP
PP
0 sg
-61 0 0 2015 61 0 0 -2015 5261 6464 5 MP stroke
c8
0 1736 61 0 0 -1736 5322 6464 4 MP
PP
0 sg
-61 0 0 1736 61 0 0 -1736 5322 6464 5 MP stroke
c8
0 0 62 0 0 0 5383 6464 4 MP
PP
0 sg
-62 0 0 0 62 0 0 0 5383 6464 5 MP stroke
c8
0 1819 61 0 0 -1819 5445 6464 4 MP
PP
0 sg
-61 0 0 1819 61 0 0 -1819 5445 6464 5 MP stroke
c8
0 1935 61 0 0 -1935 5506 6464 4 MP
PP
0 sg
-61 0 0 1935 61 0 0 -1935 5506 6464 5 MP stroke
c8
0 1793 62 0 0 -1793 5567 6464 4 MP
PP
0 sg
-62 0 0 1793 62 0 0 -1793 5567 6464 5 MP stroke
c8
0 1828 61 0 0 -1828 5629 6464 4 MP
PP
0 sg
-61 0 0 1828 61 0 0 -1828 5629 6464 5 MP stroke
c8
0 1781 61 0 0 -1781 5690 6464 4 MP
PP
0 sg
-61 0 0 1781 61 0 0 -1781 5690 6464 5 MP stroke
c8
0 1795 62 0 0 -1795 5751 6464 4 MP
PP
0 sg
-62 0 0 1795 62 0 0 -1795 5751 6464 5 MP stroke
c8
0 1478 61 0 0 -1478 5813 6464 4 MP
PP
0 sg
-61 0 0 1478 61 0 0 -1478 5813 6464 5 MP stroke
c8
0 1523 61 0 0 -1523 5874 6464 4 MP
PP
0 sg
-61 0 0 1523 61 0 0 -1523 5874 6464 5 MP stroke
c8
0 1343 62 0 0 -1343 5935 6464 4 MP
PP
0 sg
-62 0 0 1343 62 0 0 -1343 5935 6464 5 MP stroke
c8
0 1241 61 0 0 -1241 5997 6464 4 MP
PP
0 sg
-61 0 0 1241 61 0 0 -1241 5997 6464 5 MP stroke
c8
0 1125 61 0 0 -1125 6058 6464 4 MP
PP
0 sg
-61 0 0 1125 61 0 0 -1125 6058 6464 5 MP stroke
c8
0 1132 62 0 0 -1132 6119 6464 4 MP
PP
0 sg
-62 0 0 1132 62 0 0 -1132 6119 6464 5 MP stroke
c8
0 1099 61 0 0 -1099 6181 6464 4 MP
PP
0 sg
-61 0 0 1099 61 0 0 -1099 6181 6464 5 MP stroke
c8
0 0 61 0 0 0 6242 6464 4 MP
PP
0 sg
-61 0 0 0 61 0 0 0 6242 6464 5 MP stroke
c8
0 912 62 0 0 -912 6303 6464 4 MP
PP
0 sg
-62 0 0 912 62 0 0 -912 6303 6464 5 MP stroke
c8
0 919 61 0 0 -919 6365 6464 4 MP
PP
0 sg
-61 0 0 919 61 0 0 -919 6365 6464 5 MP stroke
c8
0 813 61 0 0 -813 6426 6464 4 MP
PP
0 sg
-61 0 0 813 61 0 0 -813 6426 6464 5 MP stroke
c8
0 742 62 0 0 -742 6487 6464 4 MP
PP
0 sg
-62 0 0 742 62 0 0 -742 6487 6464 5 MP stroke
c8
0 649 61 0 0 -649 6549 6464 4 MP
PP
0 sg
-61 0 0 649 61 0 0 -649 6549 6464 5 MP stroke
c8
0 597 61 0 0 -597 6610 6464 4 MP
PP
0 sg
-61 0 0 597 61 0 0 -597 6610 6464 5 MP stroke
c8
0 557 62 0 0 -557 6671 6464 4 MP
PP
0 sg
-62 0 0 557 62 0 0 -557 6671 6464 5 MP stroke
c8
0 505 61 0 0 -505 6733 6464 4 MP
PP
0 sg
-61 0 0 505 61 0 0 -505 6733 6464 5 MP stroke
c8
0 382 61 0 0 -382 6794 6464 4 MP
PP
0 sg
-61 0 0 382 61 0 0 -382 6794 6464 5 MP stroke
c8
0 306 62 0 0 -306 6855 6464 4 MP
PP
0 sg
-62 0 0 306 62 0 0 -306 6855 6464 5 MP stroke
c8
0 0 61 0 0 0 6917 6464 4 MP
PP
0 sg
-61 0 0 0 61 0 0 0 6917 6464 5 MP stroke
c8
0 0 61 0 0 0 6978 6464 4 MP
PP
0 sg
-61 0 0 0 61 0 0 0 6978 6464 5 MP stroke
c8
0 0 62 0 0 0 7039 6464 4 MP
PP
0 sg
-62 0 0 0 62 0 0 0 7039 6464 5 MP stroke
c8
0 1180 61 0 0 -1180 7101 6464 4 MP
PP
0 sg
-61 0 0 1180 61 0 0 -1180 7101 6464 5 MP stroke
gr

4166 6913 mt 
(Age) s
 477 4010 mt  -90 rotate
(Frequency) s
90 rotate

end %%Color Dict

eplot
%%EndObject

epage
end

showpage

%%Trailer
%%EOF
