%!PS-Adobe-3.0 EPSF-3.0
%%Creator: MATLAB, The MathWorks, Inc. Version 7.13.0.564 (R2011b). Operating System: Darwin 12.4.0 Darwin Kernel Version 12.4.0: Wed May  1 17:57:12 PDT 2013; root:xnu-2050.24.15~1/RELEASE_X86_64 x86_64.
%%Title: /Users/tozammel/Documents/research/projects/networks/writeup/icdm13/figs/figdata/dominator_meettype_sensor.eps
%%CreationDate: 06/20/2013  10:52:33
%%DocumentNeededFonts: Helvetica
%%DocumentProcessColors: Cyan Magenta Yellow Black
%%LanguageLevel: 2
%%Pages: 1
%%BoundingBox:    -2   226   614   565
%%EndComments

%%BeginProlog
% MathWorks dictionary
/MathWorks 160 dict begin
% definition operators
/bdef {bind def} bind def
/ldef {load def} bind def
/xdef {exch def} bdef
/xstore {exch store} bdef
% operator abbreviations
/c  /clip ldef
/cc /concat ldef
/cp /closepath ldef
/gr /grestore ldef
/gs /gsave ldef
/mt /moveto ldef
/np /newpath ldef
/cm /currentmatrix ldef
/sm /setmatrix ldef
/rm /rmoveto ldef
/rl /rlineto ldef
/s {show newpath} bdef
/sc {setcmykcolor} bdef
/sr /setrgbcolor ldef
/sg /setgray ldef
/w /setlinewidth ldef
/j /setlinejoin ldef
/cap /setlinecap ldef
/rc {rectclip} bdef
/rf {rectfill} bdef
% page state control
/pgsv () def
/bpage {/pgsv save def} bdef
/epage {pgsv restore} bdef
/bplot /gsave ldef
/eplot {stroke grestore} bdef
% orientation switch
/portraitMode 0 def /landscapeMode 1 def /rotateMode 2 def
% coordinate system mappings
/dpi2point 0 def
% font control
/FontSize 0 def
/FMS {/FontSize xstore findfont [FontSize 0 0 FontSize neg 0 0]
  makefont setfont} bdef
/reencode {exch dup where {pop load} {pop StandardEncoding} ifelse
  exch dup 3 1 roll findfont dup length dict begin
  { 1 index /FID ne {def}{pop pop} ifelse } forall
  /Encoding exch def currentdict end definefont pop} bdef
/isroman {findfont /CharStrings get /Agrave known} bdef
/FMSR {3 1 roll 1 index dup isroman {reencode} {pop pop} ifelse
  exch FMS} bdef
/csm {1 dpi2point div -1 dpi2point div scale neg translate
 dup landscapeMode eq {pop -90 rotate}
  {rotateMode eq {90 rotate} if} ifelse} bdef
% line types: solid, dotted, dashed, dotdash
/SO { [] 0 setdash } bdef
/DO { [.5 dpi2point mul 4 dpi2point mul] 0 setdash } bdef
/DA { [6 dpi2point mul] 0 setdash } bdef
/DD { [.5 dpi2point mul 4 dpi2point mul 6 dpi2point mul 4
  dpi2point mul] 0 setdash } bdef
% macros for lines and objects
/L {lineto stroke} bdef
/MP {3 1 roll moveto 1 sub {rlineto} repeat} bdef
/AP {{rlineto} repeat} bdef
/PDlw -1 def
/W {/PDlw currentlinewidth def setlinewidth} def
/PP {closepath eofill} bdef
/DP {closepath stroke} bdef
/MR {4 -2 roll moveto dup  0 exch rlineto exch 0 rlineto
  neg 0 exch rlineto closepath} bdef
/FR {MR stroke} bdef
/PR {MR fill} bdef
/L1i {{currentfile picstr readhexstring pop} image} bdef
/tMatrix matrix def
/MakeOval {newpath tMatrix currentmatrix pop translate scale
0 0 1 0 360 arc tMatrix setmatrix} bdef
/FO {MakeOval stroke} bdef
/PO {MakeOval fill} bdef
/PD {currentlinewidth 2 div 0 360 arc fill
   PDlw -1 eq not {PDlw w /PDlw -1 def} if} def
/FA {newpath tMatrix currentmatrix pop translate scale
  0 0 1 5 -2 roll arc tMatrix setmatrix stroke} bdef
/PA {newpath tMatrix currentmatrix pop	translate 0 0 moveto scale
  0 0 1 5 -2 roll arc closepath tMatrix setmatrix fill} bdef
/FAn {newpath tMatrix currentmatrix pop translate scale
  0 0 1 5 -2 roll arcn tMatrix setmatrix stroke} bdef
/PAn {newpath tMatrix currentmatrix pop translate 0 0 moveto scale
  0 0 1 5 -2 roll arcn closepath tMatrix setmatrix fill} bdef
/vradius 0 def /hradius 0 def /lry 0 def
/lrx 0 def /uly 0 def /ulx 0 def /rad 0 def
/MRR {/vradius xdef /hradius xdef /lry xdef /lrx xdef /uly xdef
  /ulx xdef newpath tMatrix currentmatrix pop ulx hradius add uly
  vradius add translate hradius vradius scale 0 0 1 180 270 arc 
  tMatrix setmatrix lrx hradius sub uly vradius add translate
  hradius vradius scale 0 0 1 270 360 arc tMatrix setmatrix
  lrx hradius sub lry vradius sub translate hradius vradius scale
  0 0 1 0 90 arc tMatrix setmatrix ulx hradius add lry vradius sub
  translate hradius vradius scale 0 0 1 90 180 arc tMatrix setmatrix
  closepath} bdef
/FRR {MRR stroke } bdef
/PRR {MRR fill } bdef
/MlrRR {/lry xdef /lrx xdef /uly xdef /ulx xdef /rad lry uly sub 2 div def
  newpath tMatrix currentmatrix pop ulx rad add uly rad add translate
  rad rad scale 0 0 1 90 270 arc tMatrix setmatrix lrx rad sub lry rad
  sub translate rad rad scale 0 0 1 270 90 arc tMatrix setmatrix
  closepath} bdef
/FlrRR {MlrRR stroke } bdef
/PlrRR {MlrRR fill } bdef
/MtbRR {/lry xdef /lrx xdef /uly xdef /ulx xdef /rad lrx ulx sub 2 div def
  newpath tMatrix currentmatrix pop ulx rad add uly rad add translate
  rad rad scale 0 0 1 180 360 arc tMatrix setmatrix lrx rad sub lry rad
  sub translate rad rad scale 0 0 1 0 180 arc tMatrix setmatrix
  closepath} bdef
/FtbRR {MtbRR stroke } bdef
/PtbRR {MtbRR fill } bdef
/stri 6 array def /dtri 6 array def
/smat 6 array def /dmat 6 array def
/tmat1 6 array def /tmat2 6 array def /dif 3 array def
/asub {/ind2 exch def /ind1 exch def dup dup
  ind1 get exch ind2 get sub exch } bdef
/tri_to_matrix {
  2 0 asub 3 1 asub 4 0 asub 5 1 asub
  dup 0 get exch 1 get 7 -1 roll astore } bdef
/compute_transform {
  dmat dtri tri_to_matrix tmat1 invertmatrix 
  smat stri tri_to_matrix tmat2 concatmatrix } bdef
/ds {stri astore pop} bdef
/dt {dtri astore pop} bdef
/db {2 copy /cols xdef /rows xdef mul dup 3 mul string
  currentfile 
  3 index 0 eq {/ASCIIHexDecode filter}
  {/ASCII85Decode filter 3 index 2 eq {/RunLengthDecode filter} if }
  ifelse exch readstring pop
  dup 0 3 index getinterval /rbmap xdef
  dup 2 index dup getinterval /gbmap xdef
  1 index dup 2 mul exch getinterval /bbmap xdef pop pop}bdef
/it {gs np dtri aload pop moveto lineto lineto cp c
  cols rows 8 compute_transform 
  rbmap gbmap bbmap true 3 colorimage gr}bdef
/il {newpath moveto lineto stroke}bdef
currentdict end def
%%EndProlog

%%BeginSetup
MathWorks begin

0 cap

end
%%EndSetup

%%Page: 1 1
%%BeginPageSetup
%%PageBoundingBox:    -2   226   614   565
MathWorks begin
bpage
%%EndPageSetup

%%BeginObject: obj1
bplot

/dpi2point 12 def
portraitMode -0024 6780 csm

    0     0  7403  4063 rc
85 dict begin %Colortable dictionary
/c0 { 0.000000 0.000000 0.000000 sr} bdef
/c1 { 1.000000 1.000000 1.000000 sr} bdef
/c2 { 0.900000 0.000000 0.000000 sr} bdef
/c3 { 0.000000 0.820000 0.000000 sr} bdef
/c4 { 0.000000 0.000000 0.800000 sr} bdef
/c5 { 0.910000 0.820000 0.320000 sr} bdef
/c6 { 1.000000 0.260000 0.820000 sr} bdef
/c7 { 0.000000 0.820000 0.820000 sr} bdef
c0
1 j
1 sg
   0    0 7404 4064 rf
6 w
0 3259 5739 0 0 -3259 961 3564 4 MP
PP
-5739 0 0 3259 5739 0 0 -3259 961 3564 5 MP stroke
4 w
DO
SO
6 w
0 sg
 961 3564 mt 6700 3564 L
 961  305 mt 6700  305 L
 961 3564 mt  961  305 L
6700 3564 mt 6700  305 L
 961 3564 mt 6700 3564 L
 961 3564 mt  961  305 L
1072 3564 mt 1072 3506 L
1072  305 mt 1072  362 L
%%IncludeResource: font Helvetica
/Helvetica /ISOLatin1Encoding 216 FMSR

1012 3799 mt 
(1) s
2175 3564 mt 2175 3506 L
2175  305 mt 2175  362 L
2115 3799 mt 
(2) s
3279 3564 mt 3279 3506 L
3279  305 mt 3279  362 L
3219 3799 mt 
(3) s
4382 3564 mt 4382 3506 L
4382  305 mt 4382  362 L
4322 3799 mt 
(4) s
5486 3564 mt 5486 3506 L
5486  305 mt 5486  362 L
5426 3799 mt 
(5) s
6589 3564 mt 6589 3506 L
6589  305 mt 6589  362 L
6529 3799 mt 
(6) s
 961 3564 mt 1019 3564 L
6700 3564 mt 6642 3564 L
 807 3644 mt 
(0) s
 961 3020 mt 1019 3020 L
6700 3020 mt 6642 3020 L
 687 3100 mt 
(50) s
 961 2477 mt 1019 2477 L
6700 2477 mt 6642 2477 L
 567 2557 mt 
(100) s
 961 1934 mt 1019 1934 L
6700 1934 mt 6642 1934 L
 567 2014 mt 
(150) s
 961 1391 mt 1019 1391 L
6700 1391 mt 6642 1391 L
 567 1471 mt 
(200) s
 961  848 mt 1019  848 L
6700  848 mt 6642  848 L
 567  928 mt 
(250) s
 961  305 mt 1019  305 L
6700  305 mt 6642  305 L
 567  385 mt 
(300) s
 961 3564 mt 6700 3564 L
 961  305 mt 6700  305 L
 961 3564 mt  961  305 L
6700 3564 mt 6700  305 L
gs 961 305 5740 3260 rc
/c8 { 0.000000 0.000000 0.562500 sr} bdef
c8
0 337 44 0 0 -337 1072 3564 4 MP
PP
0 sg
-44 0 0 337 44 0 0 -337 1072 3564 5 MP stroke
c8
0 0 44 0 0 0 1116 3564 4 MP
PP
0 sg
-44 0 0 0 44 0 0 0 1116 3564 5 MP stroke
c8
0 0 44 0 0 0 1160 3564 4 MP
PP
0 sg
-44 0 0 0 44 0 0 0 1160 3564 5 MP stroke
c8
0 0 44 0 0 0 1204 3564 4 MP
PP
0 sg
-44 0 0 0 44 0 0 0 1204 3564 5 MP stroke
c8
0 0 45 0 0 0 1248 3564 4 MP
PP
0 sg
-45 0 0 0 45 0 0 0 1248 3564 5 MP stroke
c8
0 0 44 0 0 0 1293 3564 4 MP
PP
0 sg
-44 0 0 0 44 0 0 0 1293 3564 5 MP stroke
c8
0 0 44 0 0 0 1337 3564 4 MP
PP
0 sg
-44 0 0 0 44 0 0 0 1337 3564 5 MP stroke
c8
0 0 44 0 0 0 1381 3564 4 MP
PP
0 sg
-44 0 0 0 44 0 0 0 1381 3564 5 MP stroke
c8
0 0 44 0 0 0 1425 3564 4 MP
PP
0 sg
-44 0 0 0 44 0 0 0 1425 3564 5 MP stroke
c8
0 0 44 0 0 0 1469 3564 4 MP
PP
0 sg
-44 0 0 0 44 0 0 0 1469 3564 5 MP stroke
c8
0 0 44 0 0 0 1513 3564 4 MP
PP
0 sg
-44 0 0 0 44 0 0 0 1513 3564 5 MP stroke
c8
0 0 45 0 0 0 1557 3564 4 MP
PP
0 sg
-45 0 0 0 45 0 0 0 1557 3564 5 MP stroke
c8
0 0 44 0 0 0 1602 3564 4 MP
PP
0 sg
-44 0 0 0 44 0 0 0 1602 3564 5 MP stroke
c8
0 0 44 0 0 0 1646 3564 4 MP
PP
0 sg
-44 0 0 0 44 0 0 0 1646 3564 5 MP stroke
c8
0 0 44 0 0 0 1690 3564 4 MP
PP
0 sg
-44 0 0 0 44 0 0 0 1690 3564 5 MP stroke
c8
0 0 44 0 0 0 1734 3564 4 MP
PP
0 sg
-44 0 0 0 44 0 0 0 1734 3564 5 MP stroke
c8
0 0 44 0 0 0 1778 3564 4 MP
PP
0 sg
-44 0 0 0 44 0 0 0 1778 3564 5 MP stroke
c8
0 0 44 0 0 0 1822 3564 4 MP
PP
0 sg
-44 0 0 0 44 0 0 0 1822 3564 5 MP stroke
c8
0 0 44 0 0 0 1866 3564 4 MP
PP
0 sg
-44 0 0 0 44 0 0 0 1866 3564 5 MP stroke
c8
0 0 45 0 0 0 1910 3564 4 MP
PP
0 sg
-45 0 0 0 45 0 0 0 1910 3564 5 MP stroke
c8
0 0 44 0 0 0 1955 3564 4 MP
PP
0 sg
-44 0 0 0 44 0 0 0 1955 3564 5 MP stroke
c8
0 0 44 0 0 0 1999 3564 4 MP
PP
0 sg
-44 0 0 0 44 0 0 0 1999 3564 5 MP stroke
c8
0 0 44 0 0 0 2043 3564 4 MP
PP
0 sg
-44 0 0 0 44 0 0 0 2043 3564 5 MP stroke
c8
0 0 44 0 0 0 2087 3564 4 MP
PP
0 sg
-44 0 0 0 44 0 0 0 2087 3564 5 MP stroke
c8
0 1489 44 0 0 -1489 2131 3564 4 MP
PP
0 sg
-44 0 0 1489 44 0 0 -1489 2131 3564 5 MP stroke
c8
0 0 44 0 0 0 2175 3564 4 MP
PP
0 sg
-44 0 0 0 44 0 0 0 2175 3564 5 MP stroke
c8
0 0 45 0 0 0 2219 3564 4 MP
PP
0 sg
-45 0 0 0 45 0 0 0 2219 3564 5 MP stroke
c8
0 0 44 0 0 0 2264 3564 4 MP
PP
0 sg
-44 0 0 0 44 0 0 0 2264 3564 5 MP stroke
c8
0 0 44 0 0 0 2308 3564 4 MP
PP
0 sg
-44 0 0 0 44 0 0 0 2308 3564 5 MP stroke
c8
0 0 44 0 0 0 2352 3564 4 MP
PP
0 sg
-44 0 0 0 44 0 0 0 2352 3564 5 MP stroke
c8
0 0 44 0 0 0 2396 3564 4 MP
PP
0 sg
-44 0 0 0 44 0 0 0 2396 3564 5 MP stroke
c8
0 0 44 0 0 0 2440 3564 4 MP
PP
0 sg
-44 0 0 0 44 0 0 0 2440 3564 5 MP stroke
c8
0 0 44 0 0 0 2484 3564 4 MP
PP
0 sg
-44 0 0 0 44 0 0 0 2484 3564 5 MP stroke
c8
0 0 45 0 0 0 2528 3564 4 MP
PP
0 sg
-45 0 0 0 45 0 0 0 2528 3564 5 MP stroke
c8
0 0 44 0 0 0 2573 3564 4 MP
PP
0 sg
-44 0 0 0 44 0 0 0 2573 3564 5 MP stroke
c8
0 0 44 0 0 0 2617 3564 4 MP
PP
0 sg
-44 0 0 0 44 0 0 0 2617 3564 5 MP stroke
c8
0 0 44 0 0 0 2661 3564 4 MP
PP
0 sg
-44 0 0 0 44 0 0 0 2661 3564 5 MP stroke
c8
0 0 44 0 0 0 2705 3564 4 MP
PP
0 sg
-44 0 0 0 44 0 0 0 2705 3564 5 MP stroke
c8
0 0 44 0 0 0 2749 3564 4 MP
PP
0 sg
-44 0 0 0 44 0 0 0 2749 3564 5 MP stroke
c8
0 0 44 0 0 0 2793 3564 4 MP
PP
0 sg
-44 0 0 0 44 0 0 0 2793 3564 5 MP stroke
c8
0 0 45 0 0 0 2837 3564 4 MP
PP
0 sg
-45 0 0 0 45 0 0 0 2837 3564 5 MP stroke
c8
0 0 44 0 0 0 2882 3564 4 MP
PP
0 sg
-44 0 0 0 44 0 0 0 2882 3564 5 MP stroke
c8
0 0 44 0 0 0 2926 3564 4 MP
PP
0 sg
-44 0 0 0 44 0 0 0 2926 3564 5 MP stroke
c8
0 0 44 0 0 0 2970 3564 4 MP
PP
0 sg
-44 0 0 0 44 0 0 0 2970 3564 5 MP stroke
c8
0 0 44 0 0 0 3014 3564 4 MP
PP
0 sg
-44 0 0 0 44 0 0 0 3014 3564 5 MP stroke
c8
0 0 44 0 0 0 3058 3564 4 MP
PP
0 sg
-44 0 0 0 44 0 0 0 3058 3564 5 MP stroke
c8
0 0 44 0 0 0 3102 3564 4 MP
PP
0 sg
-44 0 0 0 44 0 0 0 3102 3564 5 MP stroke
c8
0 0 44 0 0 0 3146 3564 4 MP
PP
0 sg
-44 0 0 0 44 0 0 0 3146 3564 5 MP stroke
c8
0 0 45 0 0 0 3190 3564 4 MP
PP
0 sg
-45 0 0 0 45 0 0 0 3190 3564 5 MP stroke
c8
0 631 44 0 0 -631 3235 3564 4 MP
PP
0 sg
-44 0 0 631 44 0 0 -631 3235 3564 5 MP stroke
c8
0 0 44 0 0 0 3279 3564 4 MP
PP
0 sg
-44 0 0 0 44 0 0 0 3279 3564 5 MP stroke
c8
0 0 44 0 0 0 3323 3564 4 MP
PP
0 sg
-44 0 0 0 44 0 0 0 3323 3564 5 MP stroke
c8
0 0 44 0 0 0 3367 3564 4 MP
PP
0 sg
-44 0 0 0 44 0 0 0 3367 3564 5 MP stroke
c8
0 0 44 0 0 0 3411 3564 4 MP
PP
0 sg
-44 0 0 0 44 0 0 0 3411 3564 5 MP stroke
c8
0 0 44 0 0 0 3455 3564 4 MP
PP
0 sg
-44 0 0 0 44 0 0 0 3455 3564 5 MP stroke
c8
0 0 45 0 0 0 3499 3564 4 MP
PP
0 sg
-45 0 0 0 45 0 0 0 3499 3564 5 MP stroke
c8
0 0 44 0 0 0 3544 3564 4 MP
PP
0 sg
-44 0 0 0 44 0 0 0 3544 3564 5 MP stroke
c8
0 0 44 0 0 0 3588 3564 4 MP
PP
0 sg
-44 0 0 0 44 0 0 0 3588 3564 5 MP stroke
c8
0 0 44 0 0 0 3632 3564 4 MP
PP
0 sg
-44 0 0 0 44 0 0 0 3632 3564 5 MP stroke
c8
0 0 44 0 0 0 3676 3564 4 MP
PP
0 sg
-44 0 0 0 44 0 0 0 3676 3564 5 MP stroke
c8
0 0 44 0 0 0 3720 3564 4 MP
PP
0 sg
-44 0 0 0 44 0 0 0 3720 3564 5 MP stroke
c8
0 0 44 0 0 0 3764 3564 4 MP
PP
0 sg
-44 0 0 0 44 0 0 0 3764 3564 5 MP stroke
c8
0 0 45 0 0 0 3808 3564 4 MP
PP
0 sg
-45 0 0 0 45 0 0 0 3808 3564 5 MP stroke
c8
0 0 44 0 0 0 3853 3564 4 MP
PP
0 sg
-44 0 0 0 44 0 0 0 3853 3564 5 MP stroke
c8
0 0 44 0 0 0 3897 3564 4 MP
PP
0 sg
-44 0 0 0 44 0 0 0 3897 3564 5 MP stroke
c8
0 0 44 0 0 0 3941 3564 4 MP
PP
0 sg
-44 0 0 0 44 0 0 0 3941 3564 5 MP stroke
c8
0 0 44 0 0 0 3985 3564 4 MP
PP
0 sg
-44 0 0 0 44 0 0 0 3985 3564 5 MP stroke
c8
0 0 44 0 0 0 4029 3564 4 MP
PP
0 sg
-44 0 0 0 44 0 0 0 4029 3564 5 MP stroke
c8
0 0 44 0 0 0 4073 3564 4 MP
PP
0 sg
-44 0 0 0 44 0 0 0 4073 3564 5 MP stroke
c8
0 0 45 0 0 0 4117 3564 4 MP
PP
0 sg
-45 0 0 0 45 0 0 0 4117 3564 5 MP stroke
c8
0 0 44 0 0 0 4162 3564 4 MP
PP
0 sg
-44 0 0 0 44 0 0 0 4162 3564 5 MP stroke
c8
0 0 44 0 0 0 4206 3564 4 MP
PP
0 sg
-44 0 0 0 44 0 0 0 4206 3564 5 MP stroke
c8
0 0 44 0 0 0 4250 3564 4 MP
PP
0 sg
-44 0 0 0 44 0 0 0 4250 3564 5 MP stroke
c8
0 0 44 0 0 0 4294 3564 4 MP
PP
0 sg
-44 0 0 0 44 0 0 0 4294 3564 5 MP stroke
c8
0 1272 44 0 0 -1272 4338 3564 4 MP
PP
0 sg
-44 0 0 1272 44 0 0 -1272 4338 3564 5 MP stroke
c8
0 0 44 0 0 0 4382 3564 4 MP
PP
0 sg
-44 0 0 0 44 0 0 0 4382 3564 5 MP stroke
c8
0 0 45 0 0 0 4426 3564 4 MP
PP
0 sg
-45 0 0 0 45 0 0 0 4426 3564 5 MP stroke
c8
0 0 44 0 0 0 4471 3564 4 MP
PP
0 sg
-44 0 0 0 44 0 0 0 4471 3564 5 MP stroke
c8
0 0 44 0 0 0 4515 3564 4 MP
PP
0 sg
-44 0 0 0 44 0 0 0 4515 3564 5 MP stroke
c8
0 0 44 0 0 0 4559 3564 4 MP
PP
0 sg
-44 0 0 0 44 0 0 0 4559 3564 5 MP stroke
c8
0 0 44 0 0 0 4603 3564 4 MP
PP
0 sg
-44 0 0 0 44 0 0 0 4603 3564 5 MP stroke
c8
0 0 44 0 0 0 4647 3564 4 MP
PP
0 sg
-44 0 0 0 44 0 0 0 4647 3564 5 MP stroke
c8
0 0 44 0 0 0 4691 3564 4 MP
PP
0 sg
-44 0 0 0 44 0 0 0 4691 3564 5 MP stroke
c8
0 0 44 0 0 0 4735 3564 4 MP
PP
0 sg
-44 0 0 0 44 0 0 0 4735 3564 5 MP stroke
c8
0 0 45 0 0 0 4779 3564 4 MP
PP
0 sg
-45 0 0 0 45 0 0 0 4779 3564 5 MP stroke
c8
0 0 44 0 0 0 4824 3564 4 MP
PP
0 sg
-44 0 0 0 44 0 0 0 4824 3564 5 MP stroke
c8
0 0 44 0 0 0 4868 3564 4 MP
PP
0 sg
-44 0 0 0 44 0 0 0 4868 3564 5 MP stroke
c8
0 0 44 0 0 0 4912 3564 4 MP
PP
0 sg
-44 0 0 0 44 0 0 0 4912 3564 5 MP stroke
c8
0 0 44 0 0 0 4956 3564 4 MP
PP
0 sg
-44 0 0 0 44 0 0 0 4956 3564 5 MP stroke
c8
0 0 44 0 0 0 5000 3564 4 MP
PP
0 sg
-44 0 0 0 44 0 0 0 5000 3564 5 MP stroke
c8
0 0 44 0 0 0 5044 3564 4 MP
PP
0 sg
-44 0 0 0 44 0 0 0 5044 3564 5 MP stroke
c8
0 0 45 0 0 0 5088 3564 4 MP
PP
0 sg
-45 0 0 0 45 0 0 0 5088 3564 5 MP stroke
c8
0 0 44 0 0 0 5133 3564 4 MP
PP
0 sg
-44 0 0 0 44 0 0 0 5133 3564 5 MP stroke
c8
0 0 44 0 0 0 5177 3564 4 MP
PP
0 sg
-44 0 0 0 44 0 0 0 5177 3564 5 MP stroke
c8
0 0 44 0 0 0 5221 3564 4 MP
PP
0 sg
-44 0 0 0 44 0 0 0 5221 3564 5 MP stroke
c8
0 0 44 0 0 0 5265 3564 4 MP
PP
0 sg
-44 0 0 0 44 0 0 0 5265 3564 5 MP stroke
c8
0 0 44 0 0 0 5309 3564 4 MP
PP
0 sg
-44 0 0 0 44 0 0 0 5309 3564 5 MP stroke
c8
0 0 44 0 0 0 5353 3564 4 MP
PP
0 sg
-44 0 0 0 44 0 0 0 5353 3564 5 MP stroke
c8
0 0 45 0 0 0 5397 3564 4 MP
PP
0 sg
-45 0 0 0 45 0 0 0 5397 3564 5 MP stroke
c8
0 3162 44 0 0 -3162 5442 3564 4 MP
PP
0 sg
-44 0 0 3162 44 0 0 -3162 5442 3564 5 MP stroke
gr

3337 4013 mt 
(Meet Type) s
 464 2440 mt  -90 rotate
(Frequency) s
90 rotate

end %%Color Dict

eplot
%%EndObject

epage
end

showpage

%%Trailer
%%EOF
