%!PS-Adobe-3.0 EPSF-3.0
%%Creator: MATLAB, The MathWorks, Inc. Version 7.13.0.564 (R2011b). Operating System: Darwin 12.4.0 Darwin Kernel Version 12.4.0: Wed May  1 17:57:12 PDT 2013; root:xnu-2050.24.15~1/RELEASE_X86_64 x86_64.
%%Title: /Users/tozammel/Documents/research/projects/networks/writeup/icdm13/figs/figdata/dominator_age_sensor1.eps
%%CreationDate: 06/21/2013  19:33:40
%%DocumentNeededFonts: Helvetica
%%DocumentProcessColors: Cyan Magenta Yellow Black
%%LanguageLevel: 2
%%Pages: 1
%%BoundingBox:  -114   132   725   659
%%EndComments

%%BeginProlog
% MathWorks dictionary
/MathWorks 160 dict begin
% definition operators
/bdef {bind def} bind def
/ldef {load def} bind def
/xdef {exch def} bdef
/xstore {exch store} bdef
% operator abbreviations
/c  /clip ldef
/cc /concat ldef
/cp /closepath ldef
/gr /grestore ldef
/gs /gsave ldef
/mt /moveto ldef
/np /newpath ldef
/cm /currentmatrix ldef
/sm /setmatrix ldef
/rm /rmoveto ldef
/rl /rlineto ldef
/s {show newpath} bdef
/sc {setcmykcolor} bdef
/sr /setrgbcolor ldef
/sg /setgray ldef
/w /setlinewidth ldef
/j /setlinejoin ldef
/cap /setlinecap ldef
/rc {rectclip} bdef
/rf {rectfill} bdef
% page state control
/pgsv () def
/bpage {/pgsv save def} bdef
/epage {pgsv restore} bdef
/bplot /gsave ldef
/eplot {stroke grestore} bdef
% orientation switch
/portraitMode 0 def /landscapeMode 1 def /rotateMode 2 def
% coordinate system mappings
/dpi2point 0 def
% font control
/FontSize 0 def
/FMS {/FontSize xstore findfont [FontSize 0 0 FontSize neg 0 0]
  makefont setfont} bdef
/reencode {exch dup where {pop load} {pop StandardEncoding} ifelse
  exch dup 3 1 roll findfont dup length dict begin
  { 1 index /FID ne {def}{pop pop} ifelse } forall
  /Encoding exch def currentdict end definefont pop} bdef
/isroman {findfont /CharStrings get /Agrave known} bdef
/FMSR {3 1 roll 1 index dup isroman {reencode} {pop pop} ifelse
  exch FMS} bdef
/csm {1 dpi2point div -1 dpi2point div scale neg translate
 dup landscapeMode eq {pop -90 rotate}
  {rotateMode eq {90 rotate} if} ifelse} bdef
% line types: solid, dotted, dashed, dotdash
/SO { [] 0 setdash } bdef
/DO { [.5 dpi2point mul 4 dpi2point mul] 0 setdash } bdef
/DA { [6 dpi2point mul] 0 setdash } bdef
/DD { [.5 dpi2point mul 4 dpi2point mul 6 dpi2point mul 4
  dpi2point mul] 0 setdash } bdef
% macros for lines and objects
/L {lineto stroke} bdef
/MP {3 1 roll moveto 1 sub {rlineto} repeat} bdef
/AP {{rlineto} repeat} bdef
/PDlw -1 def
/W {/PDlw currentlinewidth def setlinewidth} def
/PP {closepath eofill} bdef
/DP {closepath stroke} bdef
/MR {4 -2 roll moveto dup  0 exch rlineto exch 0 rlineto
  neg 0 exch rlineto closepath} bdef
/FR {MR stroke} bdef
/PR {MR fill} bdef
/L1i {{currentfile picstr readhexstring pop} image} bdef
/tMatrix matrix def
/MakeOval {newpath tMatrix currentmatrix pop translate scale
0 0 1 0 360 arc tMatrix setmatrix} bdef
/FO {MakeOval stroke} bdef
/PO {MakeOval fill} bdef
/PD {currentlinewidth 2 div 0 360 arc fill
   PDlw -1 eq not {PDlw w /PDlw -1 def} if} def
/FA {newpath tMatrix currentmatrix pop translate scale
  0 0 1 5 -2 roll arc tMatrix setmatrix stroke} bdef
/PA {newpath tMatrix currentmatrix pop	translate 0 0 moveto scale
  0 0 1 5 -2 roll arc closepath tMatrix setmatrix fill} bdef
/FAn {newpath tMatrix currentmatrix pop translate scale
  0 0 1 5 -2 roll arcn tMatrix setmatrix stroke} bdef
/PAn {newpath tMatrix currentmatrix pop translate 0 0 moveto scale
  0 0 1 5 -2 roll arcn closepath tMatrix setmatrix fill} bdef
/vradius 0 def /hradius 0 def /lry 0 def
/lrx 0 def /uly 0 def /ulx 0 def /rad 0 def
/MRR {/vradius xdef /hradius xdef /lry xdef /lrx xdef /uly xdef
  /ulx xdef newpath tMatrix currentmatrix pop ulx hradius add uly
  vradius add translate hradius vradius scale 0 0 1 180 270 arc 
  tMatrix setmatrix lrx hradius sub uly vradius add translate
  hradius vradius scale 0 0 1 270 360 arc tMatrix setmatrix
  lrx hradius sub lry vradius sub translate hradius vradius scale
  0 0 1 0 90 arc tMatrix setmatrix ulx hradius add lry vradius sub
  translate hradius vradius scale 0 0 1 90 180 arc tMatrix setmatrix
  closepath} bdef
/FRR {MRR stroke } bdef
/PRR {MRR fill } bdef
/MlrRR {/lry xdef /lrx xdef /uly xdef /ulx xdef /rad lry uly sub 2 div def
  newpath tMatrix currentmatrix pop ulx rad add uly rad add translate
  rad rad scale 0 0 1 90 270 arc tMatrix setmatrix lrx rad sub lry rad
  sub translate rad rad scale 0 0 1 270 90 arc tMatrix setmatrix
  closepath} bdef
/FlrRR {MlrRR stroke } bdef
/PlrRR {MlrRR fill } bdef
/MtbRR {/lry xdef /lrx xdef /uly xdef /ulx xdef /rad lrx ulx sub 2 div def
  newpath tMatrix currentmatrix pop ulx rad add uly rad add translate
  rad rad scale 0 0 1 180 360 arc tMatrix setmatrix lrx rad sub lry rad
  sub translate rad rad scale 0 0 1 0 180 arc tMatrix setmatrix
  closepath} bdef
/FtbRR {MtbRR stroke } bdef
/PtbRR {MtbRR fill } bdef
/stri 6 array def /dtri 6 array def
/smat 6 array def /dmat 6 array def
/tmat1 6 array def /tmat2 6 array def /dif 3 array def
/asub {/ind2 exch def /ind1 exch def dup dup
  ind1 get exch ind2 get sub exch } bdef
/tri_to_matrix {
  2 0 asub 3 1 asub 4 0 asub 5 1 asub
  dup 0 get exch 1 get 7 -1 roll astore } bdef
/compute_transform {
  dmat dtri tri_to_matrix tmat1 invertmatrix 
  smat stri tri_to_matrix tmat2 concatmatrix } bdef
/ds {stri astore pop} bdef
/dt {dtri astore pop} bdef
/db {2 copy /cols xdef /rows xdef mul dup 3 mul string
  currentfile 
  3 index 0 eq {/ASCIIHexDecode filter}
  {/ASCII85Decode filter 3 index 2 eq {/RunLengthDecode filter} if }
  ifelse exch readstring pop
  dup 0 3 index getinterval /rbmap xdef
  dup 2 index dup getinterval /gbmap xdef
  1 index dup 2 mul exch getinterval /bbmap xdef pop pop}bdef
/it {gs np dtri aload pop moveto lineto lineto cp c
  cols rows 8 compute_transform 
  rbmap gbmap bbmap true 3 colorimage gr}bdef
/il {newpath moveto lineto stroke}bdef
currentdict end def
%%EndProlog

%%BeginSetup
MathWorks begin

0 cap

end
%%EndSetup

%%Page: 1 1
%%BeginPageSetup
%%PageBoundingBox:  -114   132   725   659
MathWorks begin
bpage
%%EndPageSetup

%%BeginObject: obj1
bplot

/dpi2point 12 def
portraitMode -1368 7908 csm

    0     0 10079  6317 rc
85 dict begin %Colortable dictionary
/c0 { 0.000000 0.000000 0.000000 sr} bdef
/c1 { 1.000000 1.000000 1.000000 sr} bdef
/c2 { 0.900000 0.000000 0.000000 sr} bdef
/c3 { 0.000000 0.820000 0.000000 sr} bdef
/c4 { 0.000000 0.000000 0.800000 sr} bdef
/c5 { 0.910000 0.820000 0.320000 sr} bdef
/c6 { 1.000000 0.260000 0.820000 sr} bdef
/c7 { 0.000000 0.820000 0.820000 sr} bdef
c0
1 j
1 sg
   0    0 10080 6318 rf
6 w
0 5148 7811 0 0 -5148 1310 5622 4 MP
PP
-7811 0 0 5148 7811 0 0 -5148 1310 5622 5 MP stroke
4 w
DO
SO
6 w
0 sg
1310 5622 mt 9121 5622 L
1310  474 mt 9121  474 L
1310 5622 mt 1310  474 L
9121 5622 mt 9121  474 L
1310 5622 mt 9121 5622 L
1310 5622 mt 1310  474 L
2020 5622 mt 2020 5543 L
2020  474 mt 2020  552 L
%%IncludeResource: font Helvetica
/Helvetica /ISOLatin1Encoding 216 FMSR

1900 5857 mt 
(10) s
2809 5622 mt 2809 5543 L
2809  474 mt 2809  552 L
2689 5857 mt 
(20) s
3598 5622 mt 3598 5543 L
3598  474 mt 3598  552 L
3478 5857 mt 
(30) s
4387 5622 mt 4387 5543 L
4387  474 mt 4387  552 L
4267 5857 mt 
(40) s
5176 5622 mt 5176 5543 L
5176  474 mt 5176  552 L
5056 5857 mt 
(50) s
5965 5622 mt 5965 5543 L
5965  474 mt 5965  552 L
5845 5857 mt 
(60) s
6754 5622 mt 6754 5543 L
6754  474 mt 6754  552 L
6634 5857 mt 
(70) s
7543 5622 mt 7543 5543 L
7543  474 mt 7543  552 L
7423 5857 mt 
(80) s
8332 5622 mt 8332 5543 L
8332  474 mt 8332  552 L
8212 5857 mt 
(90) s
9121 5622 mt 9121 5543 L
9121  474 mt 9121  552 L
8941 5857 mt 
(100) s
1310 5622 mt 1388 5622 L
9121 5622 mt 9042 5622 L
1155 5702 mt 
(0) s
1310 4886 mt 1388 4886 L
9121 4886 mt 9042 4886 L
 795 4966 mt 
(1000) s
1310 4151 mt 1388 4151 L
9121 4151 mt 9042 4151 L
 795 4231 mt 
(2000) s
1310 3415 mt 1388 3415 L
9121 3415 mt 9042 3415 L
 795 3495 mt 
(3000) s
1310 2680 mt 1388 2680 L
9121 2680 mt 9042 2680 L
 795 2760 mt 
(4000) s
1310 1944 mt 1388 1944 L
9121 1944 mt 9042 1944 L
 795 2024 mt 
(5000) s
1310 1209 mt 1388 1209 L
9121 1209 mt 9042 1209 L
 795 1289 mt 
(6000) s
1310  474 mt 1388  474 L
9121  474 mt 9042  474 L
 795  554 mt 
(7000) s
1310 5622 mt 9121 5622 L
1310  474 mt 9121  474 L
1310 5622 mt 1310  474 L
9121 5622 mt 9121  474 L
gs 1310 474 7812 5149 rc
/c8 { 0.000000 0.000000 0.562500 sr} bdef
c8
0 255 73 0 0 -255 1231 5622 4 MP
PP
0 sg
-73 0 0 255 73 0 0 -255 1231 5622 5 MP stroke
c8
0 253 73 0 0 -253 1304 5622 4 MP
PP
0 sg
-73 0 0 253 73 0 0 -253 1304 5622 5 MP stroke
c8
0 290 74 0 0 -290 1377 5622 4 MP
PP
0 sg
-74 0 0 290 74 0 0 -290 1377 5622 5 MP stroke
c8
0 279 73 0 0 -279 1451 5622 4 MP
PP
0 sg
-73 0 0 279 73 0 0 -279 1451 5622 5 MP stroke
c8
0 408 73 0 0 -408 1524 5622 4 MP
PP
0 sg
-73 0 0 408 73 0 0 -408 1524 5622 5 MP stroke
c8
0 3111 74 0 0 -3111 1597 5622 4 MP
PP
0 sg
-74 0 0 3111 74 0 0 -3111 1597 5622 5 MP stroke
c8
0 3099 73 0 0 -3099 1671 5622 4 MP
PP
0 sg
-73 0 0 3099 73 0 0 -3099 1671 5622 5 MP stroke
c8
0 3508 74 0 0 -3508 1744 5622 4 MP
PP
0 sg
-74 0 0 3508 74 0 0 -3508 1744 5622 5 MP stroke
c8
0 3388 73 0 0 -3388 1818 5622 4 MP
PP
0 sg
-73 0 0 3388 73 0 0 -3388 1818 5622 5 MP stroke
c8
0 3459 73 0 0 -3459 1891 5622 4 MP
PP
0 sg
-73 0 0 3459 73 0 0 -3459 1891 5622 5 MP stroke
c8
0 3495 74 0 0 -3495 1964 5622 4 MP
PP
0 sg
-74 0 0 3495 74 0 0 -3495 1964 5622 5 MP stroke
c8
0 3351 73 0 0 -3351 2038 5622 4 MP
PP
0 sg
-73 0 0 3351 73 0 0 -3351 2038 5622 5 MP stroke
c8
0 3610 73 0 0 -3610 2111 5622 4 MP
PP
0 sg
-73 0 0 3610 73 0 0 -3610 2111 5622 5 MP stroke
c8
0 3892 74 0 0 -3892 2184 5622 4 MP
PP
0 sg
-74 0 0 3892 74 0 0 -3892 2184 5622 5 MP stroke
c8
0 0 73 0 0 0 2258 5622 4 MP
PP
0 sg
-73 0 0 0 73 0 0 0 2258 5622 5 MP stroke
c8
0 4009 74 0 0 -4009 2331 5622 4 MP
PP
0 sg
-74 0 0 4009 74 0 0 -4009 2331 5622 5 MP stroke
c8
0 4058 73 0 0 -4058 2405 5622 4 MP
PP
0 sg
-73 0 0 4058 73 0 0 -4058 2405 5622 5 MP stroke
c8
0 4692 73 0 0 -4692 2478 5622 4 MP
PP
0 sg
-73 0 0 4692 73 0 0 -4692 2478 5622 5 MP stroke
c8
0 4609 74 0 0 -4609 2551 5622 4 MP
PP
0 sg
-74 0 0 4609 74 0 0 -4609 2551 5622 5 MP stroke
c8
0 1946 73 0 0 -1946 2625 5622 4 MP
PP
0 sg
-73 0 0 1946 73 0 0 -1946 2625 5622 5 MP stroke
c8
0 260 73 0 0 -260 2698 5622 4 MP
PP
0 sg
-73 0 0 260 73 0 0 -260 2698 5622 5 MP stroke
c8
0 210 74 0 0 -210 2771 5622 4 MP
PP
0 sg
-74 0 0 210 74 0 0 -210 2771 5622 5 MP stroke
c8
0 226 73 0 0 -226 2845 5622 4 MP
PP
0 sg
-73 0 0 226 73 0 0 -226 2845 5622 5 MP stroke
c8
0 157 74 0 0 -157 2918 5622 4 MP
PP
0 sg
-74 0 0 157 74 0 0 -157 2918 5622 5 MP stroke
c8
0 168 73 0 0 -168 2992 5622 4 MP
PP
0 sg
-73 0 0 168 73 0 0 -168 2992 5622 5 MP stroke
c8
0 166 73 0 0 -166 3065 5622 4 MP
PP
0 sg
-73 0 0 166 73 0 0 -166 3065 5622 5 MP stroke
c8
0 164 74 0 0 -164 3138 5622 4 MP
PP
0 sg
-74 0 0 164 74 0 0 -164 3138 5622 5 MP stroke
c8
0 184 73 0 0 -184 3212 5622 4 MP
PP
0 sg
-73 0 0 184 73 0 0 -184 3212 5622 5 MP stroke
c8
0 0 74 0 0 0 3285 5622 4 MP
PP
0 sg
-74 0 0 0 74 0 0 0 3285 5622 5 MP stroke
c8
0 242 73 0 0 -242 3359 5622 4 MP
PP
0 sg
-73 0 0 242 73 0 0 -242 3359 5622 5 MP stroke
c8
0 225 73 0 0 -225 3432 5622 4 MP
PP
0 sg
-73 0 0 225 73 0 0 -225 3432 5622 5 MP stroke
c8
0 206 74 0 0 -206 3505 5622 4 MP
PP
0 sg
-74 0 0 206 74 0 0 -206 3505 5622 5 MP stroke
c8
0 254 73 0 0 -254 3579 5622 4 MP
PP
0 sg
-73 0 0 254 73 0 0 -254 3579 5622 5 MP stroke
c8
0 212 73 0 0 -212 3652 5622 4 MP
PP
0 sg
-73 0 0 212 73 0 0 -212 3652 5622 5 MP stroke
c8
0 280 74 0 0 -280 3725 5622 4 MP
PP
0 sg
-74 0 0 280 74 0 0 -280 3725 5622 5 MP stroke
c8
0 251 73 0 0 -251 3799 5622 4 MP
PP
0 sg
-73 0 0 251 73 0 0 -251 3799 5622 5 MP stroke
c8
0 287 74 0 0 -287 3872 5622 4 MP
PP
0 sg
-74 0 0 287 74 0 0 -287 3872 5622 5 MP stroke
c8
0 402 73 0 0 -402 3946 5622 4 MP
PP
0 sg
-73 0 0 402 73 0 0 -402 3946 5622 5 MP stroke
c8
0 385 73 0 0 -385 4019 5622 4 MP
PP
0 sg
-73 0 0 385 73 0 0 -385 4019 5622 5 MP stroke
c8
0 307 74 0 0 -307 4092 5622 4 MP
PP
0 sg
-74 0 0 307 74 0 0 -307 4092 5622 5 MP stroke
c8
0 317 73 0 0 -317 4166 5622 4 MP
PP
0 sg
-73 0 0 317 73 0 0 -317 4166 5622 5 MP stroke
c8
0 281 73 0 0 -281 4239 5622 4 MP
PP
0 sg
-73 0 0 281 73 0 0 -281 4239 5622 5 MP stroke
c8
0 0 74 0 0 0 4312 5622 4 MP
PP
0 sg
-74 0 0 0 74 0 0 0 4312 5622 5 MP stroke
c8
0 317 73 0 0 -317 4386 5622 4 MP
PP
0 sg
-73 0 0 317 73 0 0 -317 4386 5622 5 MP stroke
c8
0 287 74 0 0 -287 4459 5622 4 MP
PP
0 sg
-74 0 0 287 74 0 0 -287 4459 5622 5 MP stroke
c8
0 296 73 0 0 -296 4533 5622 4 MP
PP
0 sg
-73 0 0 296 73 0 0 -296 4533 5622 5 MP stroke
c8
0 266 73 0 0 -266 4606 5622 4 MP
PP
0 sg
-73 0 0 266 73 0 0 -266 4606 5622 5 MP stroke
c8
0 244 74 0 0 -244 4679 5622 4 MP
PP
0 sg
-74 0 0 244 74 0 0 -244 4679 5622 5 MP stroke
c8
0 259 73 0 0 -259 4753 5622 4 MP
PP
0 sg
-73 0 0 259 73 0 0 -259 4753 5622 5 MP stroke
c8
0 247 73 0 0 -247 4826 5622 4 MP
PP
0 sg
-73 0 0 247 73 0 0 -247 4826 5622 5 MP stroke
c8
0 237 74 0 0 -237 4899 5622 4 MP
PP
0 sg
-74 0 0 237 74 0 0 -237 4899 5622 5 MP stroke
c8
0 188 73 0 0 -188 4973 5622 4 MP
PP
0 sg
-73 0 0 188 73 0 0 -188 4973 5622 5 MP stroke
c8
0 179 74 0 0 -179 5046 5622 4 MP
PP
0 sg
-74 0 0 179 74 0 0 -179 5046 5622 5 MP stroke
c8
0 186 73 0 0 -186 5120 5622 4 MP
PP
0 sg
-73 0 0 186 73 0 0 -186 5120 5622 5 MP stroke
c8
0 142 73 0 0 -142 5193 5622 4 MP
PP
0 sg
-73 0 0 142 73 0 0 -142 5193 5622 5 MP stroke
c8
0 141 74 0 0 -141 5266 5622 4 MP
PP
0 sg
-74 0 0 141 74 0 0 -141 5266 5622 5 MP stroke
c8
0 128 73 0 0 -128 5340 5622 4 MP
PP
0 sg
-73 0 0 128 73 0 0 -128 5340 5622 5 MP stroke
c8
0 0 73 0 0 0 5413 5622 4 MP
PP
0 sg
-73 0 0 0 73 0 0 0 5413 5622 5 MP stroke
c8
0 153 74 0 0 -153 5486 5622 4 MP
PP
0 sg
-74 0 0 153 74 0 0 -153 5486 5622 5 MP stroke
c8
0 160 73 0 0 -160 5560 5622 4 MP
PP
0 sg
-73 0 0 160 73 0 0 -160 5560 5622 5 MP stroke
c8
0 139 74 0 0 -139 5633 5622 4 MP
PP
0 sg
-74 0 0 139 74 0 0 -139 5633 5622 5 MP stroke
c8
0 139 73 0 0 -139 5707 5622 4 MP
PP
0 sg
-73 0 0 139 73 0 0 -139 5707 5622 5 MP stroke
c8
0 93 73 0 0 -93 5780 5622 4 MP
PP
0 sg
-73 0 0 93 73 0 0 -93 5780 5622 5 MP stroke
c8
0 81 74 0 0 -81 5853 5622 4 MP
PP
0 sg
-74 0 0 81 74 0 0 -81 5853 5622 5 MP stroke
c8
0 95 73 0 0 -95 5927 5622 4 MP
PP
0 sg
-73 0 0 95 73 0 0 -95 5927 5622 5 MP stroke
c8
0 95 73 0 0 -95 6000 5622 4 MP
PP
0 sg
-73 0 0 95 73 0 0 -95 6000 5622 5 MP stroke
c8
0 84 74 0 0 -84 6073 5622 4 MP
PP
0 sg
-74 0 0 84 74 0 0 -84 6073 5622 5 MP stroke
c8
0 65 73 0 0 -65 6147 5622 4 MP
PP
0 sg
-73 0 0 65 73 0 0 -65 6147 5622 5 MP stroke
c8
0 73 74 0 0 -73 6220 5622 4 MP
PP
0 sg
-74 0 0 73 74 0 0 -73 6220 5622 5 MP stroke
c8
0 70 73 0 0 -70 6294 5622 4 MP
PP
0 sg
-73 0 0 70 73 0 0 -70 6294 5622 5 MP stroke
c8
0 60 73 0 0 -60 6367 5622 4 MP
PP
0 sg
-73 0 0 60 73 0 0 -60 6367 5622 5 MP stroke
c8
0 0 74 0 0 0 6440 5622 4 MP
PP
0 sg
-74 0 0 0 74 0 0 0 6440 5622 5 MP stroke
c8
0 76 73 0 0 -76 6514 5622 4 MP
PP
0 sg
-73 0 0 76 73 0 0 -76 6514 5622 5 MP stroke
c8
0 56 73 0 0 -56 6587 5622 4 MP
PP
0 sg
-73 0 0 56 73 0 0 -56 6587 5622 5 MP stroke
c8
0 50 74 0 0 -50 6660 5622 4 MP
PP
0 sg
-74 0 0 50 74 0 0 -50 6660 5622 5 MP stroke
c8
0 72 73 0 0 -72 6734 5622 4 MP
PP
0 sg
-73 0 0 72 73 0 0 -72 6734 5622 5 MP stroke
c8
0 39 74 0 0 -39 6807 5622 4 MP
PP
0 sg
-74 0 0 39 74 0 0 -39 6807 5622 5 MP stroke
c8
0 54 73 0 0 -54 6881 5622 4 MP
PP
0 sg
-73 0 0 54 73 0 0 -54 6881 5622 5 MP stroke
c8
0 41 73 0 0 -41 6954 5622 4 MP
PP
0 sg
-73 0 0 41 73 0 0 -41 6954 5622 5 MP stroke
c8
0 43 74 0 0 -43 7027 5622 4 MP
PP
0 sg
-74 0 0 43 74 0 0 -43 7027 5622 5 MP stroke
c8
0 45 73 0 0 -45 7101 5622 4 MP
PP
0 sg
-73 0 0 45 73 0 0 -45 7101 5622 5 MP stroke
c8
0 32 73 0 0 -32 7174 5622 4 MP
PP
0 sg
-73 0 0 32 73 0 0 -32 7174 5622 5 MP stroke
c8
0 33 74 0 0 -33 7247 5622 4 MP
PP
0 sg
-74 0 0 33 74 0 0 -33 7247 5622 5 MP stroke
c8
0 26 73 0 0 -26 7321 5622 4 MP
PP
0 sg
-73 0 0 26 73 0 0 -26 7321 5622 5 MP stroke
c8
0 37 74 0 0 -37 7394 5622 4 MP
PP
0 sg
-74 0 0 37 74 0 0 -37 7394 5622 5 MP stroke
c8
0 0 73 0 0 0 7468 5622 4 MP
PP
0 sg
-73 0 0 0 73 0 0 0 7468 5622 5 MP stroke
c8
0 19 73 0 0 -19 7541 5622 4 MP
PP
0 sg
-73 0 0 19 73 0 0 -19 7541 5622 5 MP stroke
c8
0 28 74 0 0 -28 7614 5622 4 MP
PP
0 sg
-74 0 0 28 74 0 0 -28 7614 5622 5 MP stroke
c8
0 24 73 0 0 -24 7688 5622 4 MP
PP
0 sg
-73 0 0 24 73 0 0 -24 7688 5622 5 MP stroke
c8
0 17 73 0 0 -17 7761 5622 4 MP
PP
0 sg
-73 0 0 17 73 0 0 -17 7761 5622 5 MP stroke
c8
0 13 74 0 0 -13 7834 5622 4 MP
PP
0 sg
-74 0 0 13 74 0 0 -13 7834 5622 5 MP stroke
c8
0 12 73 0 0 -12 7908 5622 4 MP
PP
0 sg
-73 0 0 12 73 0 0 -12 7908 5622 5 MP stroke
c8
0 14 74 0 0 -14 7981 5622 4 MP
PP
0 sg
-74 0 0 14 74 0 0 -14 7981 5622 5 MP stroke
c8
0 14 73 0 0 -14 8055 5622 4 MP
PP
0 sg
-73 0 0 14 73 0 0 -14 8055 5622 5 MP stroke
c8
0 12 73 0 0 -12 8128 5622 4 MP
PP
0 sg
-73 0 0 12 73 0 0 -12 8128 5622 5 MP stroke
c8
0 8 74 0 0 -8 8201 5622 4 MP
PP
0 sg
-74 0 0 8 74 0 0 -8 8201 5622 5 MP stroke
c8
0 0 73 0 0 0 8275 5622 4 MP
PP
0 sg
-73 0 0 0 73 0 0 0 8275 5622 5 MP stroke
c8
0 0 73 0 0 0 8348 5622 4 MP
PP
0 sg
-73 0 0 0 73 0 0 0 8348 5622 5 MP stroke
c8
0 0 74 0 0 0 8421 5622 4 MP
PP
0 sg
-74 0 0 0 74 0 0 0 8421 5622 5 MP stroke
c8
0 28 73 0 0 -28 8495 5622 4 MP
PP
0 sg
-73 0 0 28 73 0 0 -28 8495 5622 5 MP stroke
gr

%%IncludeResource: font Helvetica
/Helvetica /ISOLatin1Encoding 264 FMSR

4979 6106 mt 
(Age) s
 681 3667 mt  -90 rotate
(Frequency) s
90 rotate

end %%Color Dict

eplot
%%EndObject

epage
end

showpage

%%Trailer
%%EOF
