%!PS-Adobe-3.0 EPSF-3.0
%%Creator: MATLAB, The MathWorks, Inc. Version 7.13.0.564 (R2011b). Operating System: Darwin 12.4.0 Darwin Kernel Version 12.4.0: Wed May  1 17:57:12 PDT 2013; root:xnu-2050.24.15~1/RELEASE_X86_64 x86_64.
%%Title: /Users/tozammel/Documents/research/projects/networks/writeup/icdm13/figs/figdata/dominator_age_sensor.eps
%%CreationDate: 06/20/2013  09:48:03
%%DocumentNeededFonts: Helvetica
%%DocumentProcessColors: Cyan Magenta Yellow Black
%%LanguageLevel: 2
%%Pages: 1
%%BoundingBox:  -226    93   839   699
%%EndComments

%%BeginProlog
% MathWorks dictionary
/MathWorks 160 dict begin
% definition operators
/bdef {bind def} bind def
/ldef {load def} bind def
/xdef {exch def} bdef
/xstore {exch store} bdef
% operator abbreviations
/c  /clip ldef
/cc /concat ldef
/cp /closepath ldef
/gr /grestore ldef
/gs /gsave ldef
/mt /moveto ldef
/np /newpath ldef
/cm /currentmatrix ldef
/sm /setmatrix ldef
/rm /rmoveto ldef
/rl /rlineto ldef
/s {show newpath} bdef
/sc {setcmykcolor} bdef
/sr /setrgbcolor ldef
/sg /setgray ldef
/w /setlinewidth ldef
/j /setlinejoin ldef
/cap /setlinecap ldef
/rc {rectclip} bdef
/rf {rectfill} bdef
% page state control
/pgsv () def
/bpage {/pgsv save def} bdef
/epage {pgsv restore} bdef
/bplot /gsave ldef
/eplot {stroke grestore} bdef
% orientation switch
/portraitMode 0 def /landscapeMode 1 def /rotateMode 2 def
% coordinate system mappings
/dpi2point 0 def
% font control
/FontSize 0 def
/FMS {/FontSize xstore findfont [FontSize 0 0 FontSize neg 0 0]
  makefont setfont} bdef
/reencode {exch dup where {pop load} {pop StandardEncoding} ifelse
  exch dup 3 1 roll findfont dup length dict begin
  { 1 index /FID ne {def}{pop pop} ifelse } forall
  /Encoding exch def currentdict end definefont pop} bdef
/isroman {findfont /CharStrings get /Agrave known} bdef
/FMSR {3 1 roll 1 index dup isroman {reencode} {pop pop} ifelse
  exch FMS} bdef
/csm {1 dpi2point div -1 dpi2point div scale neg translate
 dup landscapeMode eq {pop -90 rotate}
  {rotateMode eq {90 rotate} if} ifelse} bdef
% line types: solid, dotted, dashed, dotdash
/SO { [] 0 setdash } bdef
/DO { [.5 dpi2point mul 4 dpi2point mul] 0 setdash } bdef
/DA { [6 dpi2point mul] 0 setdash } bdef
/DD { [.5 dpi2point mul 4 dpi2point mul 6 dpi2point mul 4
  dpi2point mul] 0 setdash } bdef
% macros for lines and objects
/L {lineto stroke} bdef
/MP {3 1 roll moveto 1 sub {rlineto} repeat} bdef
/AP {{rlineto} repeat} bdef
/PDlw -1 def
/W {/PDlw currentlinewidth def setlinewidth} def
/PP {closepath eofill} bdef
/DP {closepath stroke} bdef
/MR {4 -2 roll moveto dup  0 exch rlineto exch 0 rlineto
  neg 0 exch rlineto closepath} bdef
/FR {MR stroke} bdef
/PR {MR fill} bdef
/L1i {{currentfile picstr readhexstring pop} image} bdef
/tMatrix matrix def
/MakeOval {newpath tMatrix currentmatrix pop translate scale
0 0 1 0 360 arc tMatrix setmatrix} bdef
/FO {MakeOval stroke} bdef
/PO {MakeOval fill} bdef
/PD {currentlinewidth 2 div 0 360 arc fill
   PDlw -1 eq not {PDlw w /PDlw -1 def} if} def
/FA {newpath tMatrix currentmatrix pop translate scale
  0 0 1 5 -2 roll arc tMatrix setmatrix stroke} bdef
/PA {newpath tMatrix currentmatrix pop	translate 0 0 moveto scale
  0 0 1 5 -2 roll arc closepath tMatrix setmatrix fill} bdef
/FAn {newpath tMatrix currentmatrix pop translate scale
  0 0 1 5 -2 roll arcn tMatrix setmatrix stroke} bdef
/PAn {newpath tMatrix currentmatrix pop translate 0 0 moveto scale
  0 0 1 5 -2 roll arcn closepath tMatrix setmatrix fill} bdef
/vradius 0 def /hradius 0 def /lry 0 def
/lrx 0 def /uly 0 def /ulx 0 def /rad 0 def
/MRR {/vradius xdef /hradius xdef /lry xdef /lrx xdef /uly xdef
  /ulx xdef newpath tMatrix currentmatrix pop ulx hradius add uly
  vradius add translate hradius vradius scale 0 0 1 180 270 arc 
  tMatrix setmatrix lrx hradius sub uly vradius add translate
  hradius vradius scale 0 0 1 270 360 arc tMatrix setmatrix
  lrx hradius sub lry vradius sub translate hradius vradius scale
  0 0 1 0 90 arc tMatrix setmatrix ulx hradius add lry vradius sub
  translate hradius vradius scale 0 0 1 90 180 arc tMatrix setmatrix
  closepath} bdef
/FRR {MRR stroke } bdef
/PRR {MRR fill } bdef
/MlrRR {/lry xdef /lrx xdef /uly xdef /ulx xdef /rad lry uly sub 2 div def
  newpath tMatrix currentmatrix pop ulx rad add uly rad add translate
  rad rad scale 0 0 1 90 270 arc tMatrix setmatrix lrx rad sub lry rad
  sub translate rad rad scale 0 0 1 270 90 arc tMatrix setmatrix
  closepath} bdef
/FlrRR {MlrRR stroke } bdef
/PlrRR {MlrRR fill } bdef
/MtbRR {/lry xdef /lrx xdef /uly xdef /ulx xdef /rad lrx ulx sub 2 div def
  newpath tMatrix currentmatrix pop ulx rad add uly rad add translate
  rad rad scale 0 0 1 180 360 arc tMatrix setmatrix lrx rad sub lry rad
  sub translate rad rad scale 0 0 1 0 180 arc tMatrix setmatrix
  closepath} bdef
/FtbRR {MtbRR stroke } bdef
/PtbRR {MtbRR fill } bdef
/stri 6 array def /dtri 6 array def
/smat 6 array def /dmat 6 array def
/tmat1 6 array def /tmat2 6 array def /dif 3 array def
/asub {/ind2 exch def /ind1 exch def dup dup
  ind1 get exch ind2 get sub exch } bdef
/tri_to_matrix {
  2 0 asub 3 1 asub 4 0 asub 5 1 asub
  dup 0 get exch 1 get 7 -1 roll astore } bdef
/compute_transform {
  dmat dtri tri_to_matrix tmat1 invertmatrix 
  smat stri tri_to_matrix tmat2 concatmatrix } bdef
/ds {stri astore pop} bdef
/dt {dtri astore pop} bdef
/db {2 copy /cols xdef /rows xdef mul dup 3 mul string
  currentfile 
  3 index 0 eq {/ASCIIHexDecode filter}
  {/ASCII85Decode filter 3 index 2 eq {/RunLengthDecode filter} if }
  ifelse exch readstring pop
  dup 0 3 index getinterval /rbmap xdef
  dup 2 index dup getinterval /gbmap xdef
  1 index dup 2 mul exch getinterval /bbmap xdef pop pop}bdef
/it {gs np dtri aload pop moveto lineto lineto cp c
  cols rows 8 compute_transform 
  rbmap gbmap bbmap true 3 colorimage gr}bdef
/il {newpath moveto lineto stroke}bdef
currentdict end def
%%EndProlog

%%BeginSetup
MathWorks begin

0 cap

end
%%EndSetup

%%Page: 1 1
%%BeginPageSetup
%%PageBoundingBox:  -226    93   839   699
MathWorks begin
bpage
%%EndPageSetup

%%BeginObject: obj1
bplot

/dpi2point 12 def
portraitMode -2712 8388 csm

    0     0 12780  7263 rc
85 dict begin %Colortable dictionary
/c0 { 0.000000 0.000000 0.000000 sr} bdef
/c1 { 1.000000 1.000000 1.000000 sr} bdef
/c2 { 0.900000 0.000000 0.000000 sr} bdef
/c3 { 0.000000 0.820000 0.000000 sr} bdef
/c4 { 0.000000 0.000000 0.800000 sr} bdef
/c5 { 0.910000 0.820000 0.320000 sr} bdef
/c6 { 1.000000 0.260000 0.820000 sr} bdef
/c7 { 0.000000 0.820000 0.820000 sr} bdef
c0
1 j
1 sg
   0    0 12781 7264 rf
6 w
0 5920 9905 0 0 -5920 1661 6464 4 MP
PP
-9905 0 0 5920 9905 0 0 -5920 1661 6464 5 MP stroke
4 w
DO
SO
6 w
0 sg
1661 6464 mt 11566 6464 L
1661  544 mt 11566  544 L
1661 6464 mt 1661  544 L
11566 6464 mt 11566  544 L
1661 6464 mt 11566 6464 L
1661 6464 mt 1661  544 L
2561 6464 mt 2561 6364 L
2561  545 mt 2561  644 L
%%IncludeResource: font Helvetica
/Helvetica /ISOLatin1Encoding 216 FMSR

2441 6699 mt 
(10) s
3561 6464 mt 3561 6364 L
3561  545 mt 3561  644 L
3441 6699 mt 
(20) s
4562 6464 mt 4562 6364 L
4562  545 mt 4562  644 L
4442 6699 mt 
(30) s
5562 6464 mt 5562 6364 L
5562  545 mt 5562  644 L
5442 6699 mt 
(40) s
6563 6464 mt 6563 6364 L
6563  545 mt 6563  644 L
6443 6699 mt 
(50) s
7563 6464 mt 7563 6364 L
7563  545 mt 7563  644 L
7443 6699 mt 
(60) s
8564 6464 mt 8564 6364 L
8564  545 mt 8564  644 L
8444 6699 mt 
(70) s
9564 6464 mt 9564 6364 L
9564  545 mt 9564  644 L
9444 6699 mt 
(80) s
10565 6464 mt 10565 6364 L
10565  545 mt 10565  644 L
10445 6699 mt 
(90) s
11566 6464 mt 11566 6364 L
11566  545 mt 11566  644 L
11386 6699 mt 
(100) s
1661 6464 mt 1760 6464 L
11566 6464 mt 11466 6464 L
1506 6544 mt 
(0) s
1661 5618 mt 1760 5618 L
11566 5618 mt 11466 5618 L
1146 5698 mt 
(1000) s
1661 4772 mt 1760 4772 L
11566 4772 mt 11466 4772 L
1146 4852 mt 
(2000) s
1661 3927 mt 1760 3927 L
11566 3927 mt 11466 3927 L
1146 4007 mt 
(3000) s
1661 3081 mt 1760 3081 L
11566 3081 mt 11466 3081 L
1146 3161 mt 
(4000) s
1661 2236 mt 1760 2236 L
11566 2236 mt 11466 2236 L
1146 2316 mt 
(5000) s
1661 1390 mt 1760 1390 L
11566 1390 mt 11466 1390 L
1146 1470 mt 
(6000) s
1661  545 mt 1760  545 L
11566  545 mt 11466  545 L
1146  625 mt 
(7000) s
1661 6464 mt 11566 6464 L
1661  544 mt 11566  544 L
1661 6464 mt 1661  544 L
11566 6464 mt 11566  544 L
gs 1661 545 9906 5920 rc
/c8 { 0.000000 0.000000 0.562500 sr} bdef
c8
0 293 93 0 0 -293 1560 6464 4 MP
PP
0 sg
-93 0 0 293 93 0 0 -293 1560 6464 5 MP stroke
c8
0 291 94 0 0 -291 1653 6464 4 MP
PP
0 sg
-94 0 0 291 94 0 0 -291 1653 6464 5 MP stroke
c8
0 334 93 0 0 -334 1747 6464 4 MP
PP
0 sg
-93 0 0 334 93 0 0 -334 1747 6464 5 MP stroke
c8
0 321 93 0 0 -321 1840 6464 4 MP
PP
0 sg
-93 0 0 321 93 0 0 -321 1840 6464 5 MP stroke
c8
0 469 93 0 0 -469 1933 6464 4 MP
PP
0 sg
-93 0 0 469 93 0 0 -469 1933 6464 5 MP stroke
c8
0 3576 93 0 0 -3576 2026 6464 4 MP
PP
0 sg
-93 0 0 3576 93 0 0 -3576 2026 6464 5 MP stroke
c8
0 3563 93 0 0 -3563 2119 6464 4 MP
PP
0 sg
-93 0 0 3563 93 0 0 -3563 2119 6464 5 MP stroke
c8
0 4033 93 0 0 -4033 2212 6464 4 MP
PP
0 sg
-93 0 0 4033 93 0 0 -4033 2212 6464 5 MP stroke
c8
0 3895 93 0 0 -3895 2305 6464 4 MP
PP
0 sg
-93 0 0 3895 93 0 0 -3895 2305 6464 5 MP stroke
c8
0 3977 93 0 0 -3977 2398 6464 4 MP
PP
0 sg
-93 0 0 3977 93 0 0 -3977 2398 6464 5 MP stroke
c8
0 4019 93 0 0 -4019 2491 6464 4 MP
PP
0 sg
-93 0 0 4019 93 0 0 -4019 2491 6464 5 MP stroke
c8
0 3853 93 0 0 -3853 2584 6464 4 MP
PP
0 sg
-93 0 0 3853 93 0 0 -3853 2584 6464 5 MP stroke
c8
0 4151 93 0 0 -4151 2677 6464 4 MP
PP
0 sg
-93 0 0 4151 93 0 0 -4151 2677 6464 5 MP stroke
c8
0 4475 93 0 0 -4475 2770 6464 4 MP
PP
0 sg
-93 0 0 4475 93 0 0 -4475 2770 6464 5 MP stroke
c8
0 0 93 0 0 0 2863 6464 4 MP
PP
0 sg
-93 0 0 0 93 0 0 0 2863 6464 5 MP stroke
c8
0 4609 93 0 0 -4609 2956 6464 4 MP
PP
0 sg
-93 0 0 4609 93 0 0 -4609 2956 6464 5 MP stroke
c8
0 4666 93 0 0 -4666 3049 6464 4 MP
PP
0 sg
-93 0 0 4666 93 0 0 -4666 3049 6464 5 MP stroke
c8
0 5394 93 0 0 -5394 3142 6464 4 MP
PP
0 sg
-93 0 0 5394 93 0 0 -5394 3142 6464 5 MP stroke
c8
0 5299 93 0 0 -5299 3235 6464 4 MP
PP
0 sg
-93 0 0 5299 93 0 0 -5299 3235 6464 5 MP stroke
c8
0 2238 93 0 0 -2238 3328 6464 4 MP
PP
0 sg
-93 0 0 2238 93 0 0 -2238 3328 6464 5 MP stroke
c8
0 299 93 0 0 -299 3421 6464 4 MP
PP
0 sg
-93 0 0 299 93 0 0 -299 3421 6464 5 MP stroke
c8
0 241 93 0 0 -241 3514 6464 4 MP
PP
0 sg
-93 0 0 241 93 0 0 -241 3514 6464 5 MP stroke
c8
0 259 94 0 0 -259 3607 6464 4 MP
PP
0 sg
-94 0 0 259 94 0 0 -259 3607 6464 5 MP stroke
c8
0 181 93 0 0 -181 3701 6464 4 MP
PP
0 sg
-93 0 0 181 93 0 0 -181 3701 6464 5 MP stroke
c8
0 193 93 0 0 -193 3794 6464 4 MP
PP
0 sg
-93 0 0 193 93 0 0 -193 3794 6464 5 MP stroke
c8
0 191 93 0 0 -191 3887 6464 4 MP
PP
0 sg
-93 0 0 191 93 0 0 -191 3887 6464 5 MP stroke
c8
0 188 93 0 0 -188 3980 6464 4 MP
PP
0 sg
-93 0 0 188 93 0 0 -188 3980 6464 5 MP stroke
c8
0 211 93 0 0 -211 4073 6464 4 MP
PP
0 sg
-93 0 0 211 93 0 0 -211 4073 6464 5 MP stroke
c8
0 0 93 0 0 0 4166 6464 4 MP
PP
0 sg
-93 0 0 0 93 0 0 0 4166 6464 5 MP stroke
c8
0 278 93 0 0 -278 4259 6464 4 MP
PP
0 sg
-93 0 0 278 93 0 0 -278 4259 6464 5 MP stroke
c8
0 258 93 0 0 -258 4352 6464 4 MP
PP
0 sg
-93 0 0 258 93 0 0 -258 4352 6464 5 MP stroke
c8
0 237 93 0 0 -237 4445 6464 4 MP
PP
0 sg
-93 0 0 237 93 0 0 -237 4445 6464 5 MP stroke
c8
0 292 93 0 0 -292 4538 6464 4 MP
PP
0 sg
-93 0 0 292 93 0 0 -292 4538 6464 5 MP stroke
c8
0 243 93 0 0 -243 4631 6464 4 MP
PP
0 sg
-93 0 0 243 93 0 0 -243 4631 6464 5 MP stroke
c8
0 322 93 0 0 -322 4724 6464 4 MP
PP
0 sg
-93 0 0 322 93 0 0 -322 4724 6464 5 MP stroke
c8
0 289 93 0 0 -289 4817 6464 4 MP
PP
0 sg
-93 0 0 289 93 0 0 -289 4817 6464 5 MP stroke
c8
0 329 93 0 0 -329 4910 6464 4 MP
PP
0 sg
-93 0 0 329 93 0 0 -329 4910 6464 5 MP stroke
c8
0 462 93 0 0 -462 5003 6464 4 MP
PP
0 sg
-93 0 0 462 93 0 0 -462 5003 6464 5 MP stroke
c8
0 443 93 0 0 -443 5096 6464 4 MP
PP
0 sg
-93 0 0 443 93 0 0 -443 5096 6464 5 MP stroke
c8
0 353 93 0 0 -353 5189 6464 4 MP
PP
0 sg
-93 0 0 353 93 0 0 -353 5189 6464 5 MP stroke
c8
0 365 93 0 0 -365 5282 6464 4 MP
PP
0 sg
-93 0 0 365 93 0 0 -365 5282 6464 5 MP stroke
c8
0 323 93 0 0 -323 5375 6464 4 MP
PP
0 sg
-93 0 0 323 93 0 0 -323 5375 6464 5 MP stroke
c8
0 0 93 0 0 0 5468 6464 4 MP
PP
0 sg
-93 0 0 0 93 0 0 0 5468 6464 5 MP stroke
c8
0 364 94 0 0 -364 5561 6464 4 MP
PP
0 sg
-94 0 0 364 94 0 0 -364 5561 6464 5 MP stroke
c8
0 329 93 0 0 -329 5655 6464 4 MP
PP
0 sg
-93 0 0 329 93 0 0 -329 5655 6464 5 MP stroke
c8
0 340 93 0 0 -340 5748 6464 4 MP
PP
0 sg
-93 0 0 340 93 0 0 -340 5748 6464 5 MP stroke
c8
0 306 93 0 0 -306 5841 6464 4 MP
PP
0 sg
-93 0 0 306 93 0 0 -306 5841 6464 5 MP stroke
c8
0 280 93 0 0 -280 5934 6464 4 MP
PP
0 sg
-93 0 0 280 93 0 0 -280 5934 6464 5 MP stroke
c8
0 297 93 0 0 -297 6027 6464 4 MP
PP
0 sg
-93 0 0 297 93 0 0 -297 6027 6464 5 MP stroke
c8
0 284 93 0 0 -284 6120 6464 4 MP
PP
0 sg
-93 0 0 284 93 0 0 -284 6120 6464 5 MP stroke
c8
0 273 93 0 0 -273 6213 6464 4 MP
PP
0 sg
-93 0 0 273 93 0 0 -273 6213 6464 5 MP stroke
c8
0 216 93 0 0 -216 6306 6464 4 MP
PP
0 sg
-93 0 0 216 93 0 0 -216 6306 6464 5 MP stroke
c8
0 206 93 0 0 -206 6399 6464 4 MP
PP
0 sg
-93 0 0 206 93 0 0 -206 6399 6464 5 MP stroke
c8
0 214 93 0 0 -214 6492 6464 4 MP
PP
0 sg
-93 0 0 214 93 0 0 -214 6492 6464 5 MP stroke
c8
0 163 93 0 0 -163 6585 6464 4 MP
PP
0 sg
-93 0 0 163 93 0 0 -163 6585 6464 5 MP stroke
c8
0 162 93 0 0 -162 6678 6464 4 MP
PP
0 sg
-93 0 0 162 93 0 0 -162 6678 6464 5 MP stroke
c8
0 148 93 0 0 -148 6771 6464 4 MP
PP
0 sg
-93 0 0 148 93 0 0 -148 6771 6464 5 MP stroke
c8
0 0 93 0 0 0 6864 6464 4 MP
PP
0 sg
-93 0 0 0 93 0 0 0 6864 6464 5 MP stroke
c8
0 176 93 0 0 -176 6957 6464 4 MP
PP
0 sg
-93 0 0 176 93 0 0 -176 6957 6464 5 MP stroke
c8
0 184 93 0 0 -184 7050 6464 4 MP
PP
0 sg
-93 0 0 184 93 0 0 -184 7050 6464 5 MP stroke
c8
0 160 93 0 0 -160 7143 6464 4 MP
PP
0 sg
-93 0 0 160 93 0 0 -160 7143 6464 5 MP stroke
c8
0 160 93 0 0 -160 7236 6464 4 MP
PP
0 sg
-93 0 0 160 93 0 0 -160 7236 6464 5 MP stroke
c8
0 107 93 0 0 -107 7329 6464 4 MP
PP
0 sg
-93 0 0 107 93 0 0 -107 7329 6464 5 MP stroke
c8
0 93 93 0 0 -93 7422 6464 4 MP
PP
0 sg
-93 0 0 93 93 0 0 -93 7422 6464 5 MP stroke
c8
0 109 94 0 0 -109 7515 6464 4 MP
PP
0 sg
-94 0 0 109 94 0 0 -109 7515 6464 5 MP stroke
c8
0 109 93 0 0 -109 7609 6464 4 MP
PP
0 sg
-93 0 0 109 93 0 0 -109 7609 6464 5 MP stroke
c8
0 97 93 0 0 -97 7702 6464 4 MP
PP
0 sg
-93 0 0 97 93 0 0 -97 7702 6464 5 MP stroke
c8
0 75 93 0 0 -75 7795 6464 4 MP
PP
0 sg
-93 0 0 75 93 0 0 -75 7795 6464 5 MP stroke
c8
0 83 93 0 0 -83 7888 6464 4 MP
PP
0 sg
-93 0 0 83 93 0 0 -83 7888 6464 5 MP stroke
c8
0 81 93 0 0 -81 7981 6464 4 MP
PP
0 sg
-93 0 0 81 93 0 0 -81 7981 6464 5 MP stroke
c8
0 69 93 0 0 -69 8074 6464 4 MP
PP
0 sg
-93 0 0 69 93 0 0 -69 8074 6464 5 MP stroke
c8
0 0 93 0 0 0 8167 6464 4 MP
PP
0 sg
-93 0 0 0 93 0 0 0 8167 6464 5 MP stroke
c8
0 88 93 0 0 -88 8260 6464 4 MP
PP
0 sg
-93 0 0 88 93 0 0 -88 8260 6464 5 MP stroke
c8
0 64 93 0 0 -64 8353 6464 4 MP
PP
0 sg
-93 0 0 64 93 0 0 -64 8353 6464 5 MP stroke
c8
0 57 93 0 0 -57 8446 6464 4 MP
PP
0 sg
-93 0 0 57 93 0 0 -57 8446 6464 5 MP stroke
c8
0 83 93 0 0 -83 8539 6464 4 MP
PP
0 sg
-93 0 0 83 93 0 0 -83 8539 6464 5 MP stroke
c8
0 45 93 0 0 -45 8632 6464 4 MP
PP
0 sg
-93 0 0 45 93 0 0 -45 8632 6464 5 MP stroke
c8
0 62 93 0 0 -62 8725 6464 4 MP
PP
0 sg
-93 0 0 62 93 0 0 -62 8725 6464 5 MP stroke
c8
0 47 93 0 0 -47 8818 6464 4 MP
PP
0 sg
-93 0 0 47 93 0 0 -47 8818 6464 5 MP stroke
c8
0 50 93 0 0 -50 8911 6464 4 MP
PP
0 sg
-93 0 0 50 93 0 0 -50 8911 6464 5 MP stroke
c8
0 51 93 0 0 -51 9004 6464 4 MP
PP
0 sg
-93 0 0 51 93 0 0 -51 9004 6464 5 MP stroke
c8
0 37 93 0 0 -37 9097 6464 4 MP
PP
0 sg
-93 0 0 37 93 0 0 -37 9097 6464 5 MP stroke
c8
0 38 93 0 0 -38 9190 6464 4 MP
PP
0 sg
-93 0 0 38 93 0 0 -38 9190 6464 5 MP stroke
c8
0 30 93 0 0 -30 9283 6464 4 MP
PP
0 sg
-93 0 0 30 93 0 0 -30 9283 6464 5 MP stroke
c8
0 42 93 0 0 -42 9376 6464 4 MP
PP
0 sg
-93 0 0 42 93 0 0 -42 9376 6464 5 MP stroke
c8
0 0 93 0 0 0 9469 6464 4 MP
PP
0 sg
-93 0 0 0 93 0 0 0 9469 6464 5 MP stroke
c8
0 22 94 0 0 -22 9562 6464 4 MP
PP
0 sg
-94 0 0 22 94 0 0 -22 9562 6464 5 MP stroke
c8
0 33 93 0 0 -33 9656 6464 4 MP
PP
0 sg
-93 0 0 33 93 0 0 -33 9656 6464 5 MP stroke
c8
0 28 93 0 0 -28 9749 6464 4 MP
PP
0 sg
-93 0 0 28 93 0 0 -28 9749 6464 5 MP stroke
c8
0 20 93 0 0 -20 9842 6464 4 MP
PP
0 sg
-93 0 0 20 93 0 0 -20 9842 6464 5 MP stroke
c8
0 15 93 0 0 -15 9935 6464 4 MP
PP
0 sg
-93 0 0 15 93 0 0 -15 9935 6464 5 MP stroke
c8
0 14 93 0 0 -14 10028 6464 4 MP
PP
0 sg
-93 0 0 14 93 0 0 -14 10028 6464 5 MP stroke
c8
0 16 93 0 0 -16 10121 6464 4 MP
PP
0 sg
-93 0 0 16 93 0 0 -16 10121 6464 5 MP stroke
c8
0 16 93 0 0 -16 10214 6464 4 MP
PP
0 sg
-93 0 0 16 93 0 0 -16 10214 6464 5 MP stroke
c8
0 14 93 0 0 -14 10307 6464 4 MP
PP
0 sg
-93 0 0 14 93 0 0 -14 10307 6464 5 MP stroke
c8
0 9 93 0 0 -9 10400 6464 4 MP
PP
0 sg
-93 0 0 9 93 0 0 -9 10400 6464 5 MP stroke
c8
0 0 93 0 0 0 10493 6464 4 MP
PP
0 sg
-93 0 0 0 93 0 0 0 10493 6464 5 MP stroke
c8
0 0 93 0 0 0 10586 6464 4 MP
PP
0 sg
-93 0 0 0 93 0 0 0 10586 6464 5 MP stroke
c8
0 0 93 0 0 0 10679 6464 4 MP
PP
0 sg
-93 0 0 0 93 0 0 0 10679 6464 5 MP stroke
c8
0 32 93 0 0 -32 10772 6464 4 MP
PP
0 sg
-93 0 0 32 93 0 0 -32 10772 6464 5 MP stroke
gr

6420 6913 mt 
(Age) s
1043 4010 mt  -90 rotate
(Frequency) s
90 rotate

end %%Color Dict

eplot
%%EndObject

epage
end

showpage

%%Trailer
%%EOF
