%!PS-Adobe-3.0 EPSF-3.0
%%Creator: MATLAB, The MathWorks, Inc. Version 7.13.0.564 (R2011b). Operating System: Darwin 12.4.0 Darwin Kernel Version 12.4.0: Wed May  1 17:57:12 PDT 2013; root:xnu-2050.24.15~1/RELEASE_X86_64 x86_64.
%%Title: /Users/tozammel/Documents/research/projects/networks/writeup/icdm13/figs/figdata/dominator_duration_random1.eps
%%CreationDate: 06/21/2013  19:19:46
%%DocumentNeededFonts: Helvetica
%%DocumentProcessColors: Cyan Magenta Yellow Black
%%LanguageLevel: 2
%%Pages: 1
%%BoundingBox:  -114   122   725   669
%%EndComments

%%BeginProlog
% MathWorks dictionary
/MathWorks 160 dict begin
% definition operators
/bdef {bind def} bind def
/ldef {load def} bind def
/xdef {exch def} bdef
/xstore {exch store} bdef
% operator abbreviations
/c  /clip ldef
/cc /concat ldef
/cp /closepath ldef
/gr /grestore ldef
/gs /gsave ldef
/mt /moveto ldef
/np /newpath ldef
/cm /currentmatrix ldef
/sm /setmatrix ldef
/rm /rmoveto ldef
/rl /rlineto ldef
/s {show newpath} bdef
/sc {setcmykcolor} bdef
/sr /setrgbcolor ldef
/sg /setgray ldef
/w /setlinewidth ldef
/j /setlinejoin ldef
/cap /setlinecap ldef
/rc {rectclip} bdef
/rf {rectfill} bdef
% page state control
/pgsv () def
/bpage {/pgsv save def} bdef
/epage {pgsv restore} bdef
/bplot /gsave ldef
/eplot {stroke grestore} bdef
% orientation switch
/portraitMode 0 def /landscapeMode 1 def /rotateMode 2 def
% coordinate system mappings
/dpi2point 0 def
% font control
/FontSize 0 def
/FMS {/FontSize xstore findfont [FontSize 0 0 FontSize neg 0 0]
  makefont setfont} bdef
/reencode {exch dup where {pop load} {pop StandardEncoding} ifelse
  exch dup 3 1 roll findfont dup length dict begin
  { 1 index /FID ne {def}{pop pop} ifelse } forall
  /Encoding exch def currentdict end definefont pop} bdef
/isroman {findfont /CharStrings get /Agrave known} bdef
/FMSR {3 1 roll 1 index dup isroman {reencode} {pop pop} ifelse
  exch FMS} bdef
/csm {1 dpi2point div -1 dpi2point div scale neg translate
 dup landscapeMode eq {pop -90 rotate}
  {rotateMode eq {90 rotate} if} ifelse} bdef
% line types: solid, dotted, dashed, dotdash
/SO { [] 0 setdash } bdef
/DO { [.5 dpi2point mul 4 dpi2point mul] 0 setdash } bdef
/DA { [6 dpi2point mul] 0 setdash } bdef
/DD { [.5 dpi2point mul 4 dpi2point mul 6 dpi2point mul 4
  dpi2point mul] 0 setdash } bdef
% macros for lines and objects
/L {lineto stroke} bdef
/MP {3 1 roll moveto 1 sub {rlineto} repeat} bdef
/AP {{rlineto} repeat} bdef
/PDlw -1 def
/W {/PDlw currentlinewidth def setlinewidth} def
/PP {closepath eofill} bdef
/DP {closepath stroke} bdef
/MR {4 -2 roll moveto dup  0 exch rlineto exch 0 rlineto
  neg 0 exch rlineto closepath} bdef
/FR {MR stroke} bdef
/PR {MR fill} bdef
/L1i {{currentfile picstr readhexstring pop} image} bdef
/tMatrix matrix def
/MakeOval {newpath tMatrix currentmatrix pop translate scale
0 0 1 0 360 arc tMatrix setmatrix} bdef
/FO {MakeOval stroke} bdef
/PO {MakeOval fill} bdef
/PD {currentlinewidth 2 div 0 360 arc fill
   PDlw -1 eq not {PDlw w /PDlw -1 def} if} def
/FA {newpath tMatrix currentmatrix pop translate scale
  0 0 1 5 -2 roll arc tMatrix setmatrix stroke} bdef
/PA {newpath tMatrix currentmatrix pop	translate 0 0 moveto scale
  0 0 1 5 -2 roll arc closepath tMatrix setmatrix fill} bdef
/FAn {newpath tMatrix currentmatrix pop translate scale
  0 0 1 5 -2 roll arcn tMatrix setmatrix stroke} bdef
/PAn {newpath tMatrix currentmatrix pop translate 0 0 moveto scale
  0 0 1 5 -2 roll arcn closepath tMatrix setmatrix fill} bdef
/vradius 0 def /hradius 0 def /lry 0 def
/lrx 0 def /uly 0 def /ulx 0 def /rad 0 def
/MRR {/vradius xdef /hradius xdef /lry xdef /lrx xdef /uly xdef
  /ulx xdef newpath tMatrix currentmatrix pop ulx hradius add uly
  vradius add translate hradius vradius scale 0 0 1 180 270 arc 
  tMatrix setmatrix lrx hradius sub uly vradius add translate
  hradius vradius scale 0 0 1 270 360 arc tMatrix setmatrix
  lrx hradius sub lry vradius sub translate hradius vradius scale
  0 0 1 0 90 arc tMatrix setmatrix ulx hradius add lry vradius sub
  translate hradius vradius scale 0 0 1 90 180 arc tMatrix setmatrix
  closepath} bdef
/FRR {MRR stroke } bdef
/PRR {MRR fill } bdef
/MlrRR {/lry xdef /lrx xdef /uly xdef /ulx xdef /rad lry uly sub 2 div def
  newpath tMatrix currentmatrix pop ulx rad add uly rad add translate
  rad rad scale 0 0 1 90 270 arc tMatrix setmatrix lrx rad sub lry rad
  sub translate rad rad scale 0 0 1 270 90 arc tMatrix setmatrix
  closepath} bdef
/FlrRR {MlrRR stroke } bdef
/PlrRR {MlrRR fill } bdef
/MtbRR {/lry xdef /lrx xdef /uly xdef /ulx xdef /rad lrx ulx sub 2 div def
  newpath tMatrix currentmatrix pop ulx rad add uly rad add translate
  rad rad scale 0 0 1 180 360 arc tMatrix setmatrix lrx rad sub lry rad
  sub translate rad rad scale 0 0 1 0 180 arc tMatrix setmatrix
  closepath} bdef
/FtbRR {MtbRR stroke } bdef
/PtbRR {MtbRR fill } bdef
/stri 6 array def /dtri 6 array def
/smat 6 array def /dmat 6 array def
/tmat1 6 array def /tmat2 6 array def /dif 3 array def
/asub {/ind2 exch def /ind1 exch def dup dup
  ind1 get exch ind2 get sub exch } bdef
/tri_to_matrix {
  2 0 asub 3 1 asub 4 0 asub 5 1 asub
  dup 0 get exch 1 get 7 -1 roll astore } bdef
/compute_transform {
  dmat dtri tri_to_matrix tmat1 invertmatrix 
  smat stri tri_to_matrix tmat2 concatmatrix } bdef
/ds {stri astore pop} bdef
/dt {dtri astore pop} bdef
/db {2 copy /cols xdef /rows xdef mul dup 3 mul string
  currentfile 
  3 index 0 eq {/ASCIIHexDecode filter}
  {/ASCII85Decode filter 3 index 2 eq {/RunLengthDecode filter} if }
  ifelse exch readstring pop
  dup 0 3 index getinterval /rbmap xdef
  dup 2 index dup getinterval /gbmap xdef
  1 index dup 2 mul exch getinterval /bbmap xdef pop pop}bdef
/it {gs np dtri aload pop moveto lineto lineto cp c
  cols rows 8 compute_transform 
  rbmap gbmap bbmap true 3 colorimage gr}bdef
/il {newpath moveto lineto stroke}bdef
currentdict end def
%%EndProlog

%%BeginSetup
MathWorks begin

0 cap

end
%%EndSetup

%%Page: 1 1
%%BeginPageSetup
%%PageBoundingBox:  -114   122   725   669
MathWorks begin
bpage
%%EndPageSetup

%%BeginObject: obj1
bplot

/dpi2point 12 def
portraitMode -1368 8028 csm

    0     0 10079  6555 rc
85 dict begin %Colortable dictionary
/c0 { 0.000000 0.000000 0.000000 sr} bdef
/c1 { 1.000000 1.000000 1.000000 sr} bdef
/c2 { 0.900000 0.000000 0.000000 sr} bdef
/c3 { 0.000000 0.820000 0.000000 sr} bdef
/c4 { 0.000000 0.000000 0.800000 sr} bdef
/c5 { 0.910000 0.820000 0.320000 sr} bdef
/c6 { 1.000000 0.260000 0.820000 sr} bdef
/c7 { 0.000000 0.820000 0.820000 sr} bdef
c0
1 j
1 sg
   0    0 10080 6556 rf
6 w
0 4761 7172 0 0 -4761 1949 5483 4 MP
PP
-7172 0 0 4761 7172 0 0 -4761 1949 5483 5 MP stroke
4 w
DO
SO
6 w
0 sg
1949 5483 mt 9121 5483 L
1949  722 mt 9121  722 L
1949 5483 mt 1949  722 L
9121 5483 mt 9121  722 L
1949 5483 mt 9121 5483 L
1949 5483 mt 1949  722 L
2779 5483 mt 2779 5411 L
2779  722 mt 2779  793 L
%%IncludeResource: font Helvetica
/Helvetica /ISOLatin1Encoding 216 FMSR

2719 5718 mt 
(1) s
3609 5483 mt 3609 5411 L
3609  722 mt 3609  793 L
3549 5718 mt 
(2) s
4439 5483 mt 4439 5411 L
4439  722 mt 4439  793 L
4379 5718 mt 
(3) s
5269 5483 mt 5269 5411 L
5269  722 mt 5269  793 L
5209 5718 mt 
(4) s
6099 5483 mt 6099 5411 L
6099  722 mt 6099  793 L
6039 5718 mt 
(5) s
6929 5483 mt 6929 5411 L
6929  722 mt 6929  793 L
6869 5718 mt 
(6) s
7759 5483 mt 7759 5411 L
7759  722 mt 7759  793 L
7699 5718 mt 
(7) s
8589 5483 mt 8589 5411 L
8589  722 mt 8589  793 L
8529 5718 mt 
(8) s
8633 6040 mt 
(x 10) s
%%IncludeResource: font Helvetica
/Helvetica /ISOLatin1Encoding 144 FMSR

9041 5906 mt 
(4) s
1949 5483 mt 2020 5483 L
9121 5483 mt 9049 5483 L
%%IncludeResource: font Helvetica
/Helvetica /ISOLatin1Encoding 216 FMSR

1794 5563 mt 
(0) s
1949 4954 mt 2020 4954 L
9121 4954 mt 9049 4954 L
1554 5034 mt 
(100) s
1949 4425 mt 2020 4425 L
9121 4425 mt 9049 4425 L
1554 4505 mt 
(200) s
1949 3896 mt 2020 3896 L
9121 3896 mt 9049 3896 L
1554 3976 mt 
(300) s
1949 3367 mt 2020 3367 L
9121 3367 mt 9049 3367 L
1554 3447 mt 
(400) s
1949 2838 mt 2020 2838 L
9121 2838 mt 9049 2838 L
1554 2918 mt 
(500) s
1949 2309 mt 2020 2309 L
9121 2309 mt 9049 2309 L
1554 2389 mt 
(600) s
1949 1780 mt 2020 1780 L
9121 1780 mt 9049 1780 L
1554 1860 mt 
(700) s
1949 1251 mt 2020 1251 L
9121 1251 mt 9049 1251 L
1554 1331 mt 
(800) s
1949  722 mt 2020  722 L
9121  722 mt 9049  722 L
1554  802 mt 
(900) s
1949 5483 mt 9121 5483 L
1949  722 mt 9121  722 L
1949 5483 mt 1949  722 L
9121 5483 mt 9121  722 L
gs 1949 722 7173 4762 rc
/c8 { 0.000000 0.000000 0.562500 sr} bdef
c8
0 4608 66 0 0 -4608 1949 5483 4 MP
PP
0 sg
-66 0 0 4608 66 0 0 -4608 1949 5483 5 MP stroke
c8
0 1778 67 0 0 -1778 2015 5483 4 MP
PP
0 sg
-67 0 0 1778 67 0 0 -1778 2015 5483 5 MP stroke
c8
0 1508 67 0 0 -1508 2082 5483 4 MP
PP
0 sg
-67 0 0 1508 67 0 0 -1508 2082 5483 5 MP stroke
c8
0 778 66 0 0 -778 2149 5483 4 MP
PP
0 sg
-66 0 0 778 66 0 0 -778 2149 5483 5 MP stroke
c8
0 731 67 0 0 -731 2215 5483 4 MP
PP
0 sg
-67 0 0 731 67 0 0 -731 2215 5483 5 MP stroke
c8
0 535 67 0 0 -535 2282 5483 4 MP
PP
0 sg
-67 0 0 535 67 0 0 -535 2282 5483 5 MP stroke
c8
0 371 67 0 0 -371 2349 5483 4 MP
PP
0 sg
-67 0 0 371 67 0 0 -371 2349 5483 5 MP stroke
c8
0 186 66 0 0 -186 2416 5483 4 MP
PP
0 sg
-66 0 0 186 66 0 0 -186 2416 5483 5 MP stroke
c8
0 318 67 0 0 -318 2482 5483 4 MP
PP
0 sg
-67 0 0 318 67 0 0 -318 2482 5483 5 MP stroke
c8
0 127 67 0 0 -127 2549 5483 4 MP
PP
0 sg
-67 0 0 127 67 0 0 -127 2549 5483 5 MP stroke
c8
0 170 67 0 0 -170 2616 5483 4 MP
PP
0 sg
-67 0 0 170 67 0 0 -170 2616 5483 5 MP stroke
c8
0 143 66 0 0 -143 2683 5483 4 MP
PP
0 sg
-66 0 0 143 66 0 0 -143 2683 5483 5 MP stroke
c8
0 85 67 0 0 -85 2749 5483 4 MP
PP
0 sg
-67 0 0 85 67 0 0 -85 2749 5483 5 MP stroke
c8
0 80 67 0 0 -80 2816 5483 4 MP
PP
0 sg
-67 0 0 80 67 0 0 -80 2816 5483 5 MP stroke
c8
0 117 67 0 0 -117 2883 5483 4 MP
PP
0 sg
-67 0 0 117 67 0 0 -117 2883 5483 5 MP stroke
c8
0 96 66 0 0 -96 2950 5483 4 MP
PP
0 sg
-66 0 0 96 66 0 0 -96 2950 5483 5 MP stroke
c8
0 80 67 0 0 -80 3016 5483 4 MP
PP
0 sg
-67 0 0 80 67 0 0 -80 3016 5483 5 MP stroke
c8
0 122 67 0 0 -122 3083 5483 4 MP
PP
0 sg
-67 0 0 122 67 0 0 -122 3083 5483 5 MP stroke
c8
0 32 67 0 0 -32 3150 5483 4 MP
PP
0 sg
-67 0 0 32 67 0 0 -32 3150 5483 5 MP stroke
c8
0 48 66 0 0 -48 3217 5483 4 MP
PP
0 sg
-66 0 0 48 66 0 0 -48 3217 5483 5 MP stroke
c8
0 43 67 0 0 -43 3283 5483 4 MP
PP
0 sg
-67 0 0 43 67 0 0 -43 3283 5483 5 MP stroke
c8
0 22 67 0 0 -22 3350 5483 4 MP
PP
0 sg
-67 0 0 22 67 0 0 -22 3350 5483 5 MP stroke
c8
0 38 66 0 0 -38 3417 5483 4 MP
PP
0 sg
-66 0 0 38 66 0 0 -38 3417 5483 5 MP stroke
c8
0 38 67 0 0 -38 3483 5483 4 MP
PP
0 sg
-67 0 0 38 67 0 0 -38 3483 5483 5 MP stroke
c8
0 53 67 0 0 -53 3550 5483 4 MP
PP
0 sg
-67 0 0 53 67 0 0 -53 3550 5483 5 MP stroke
c8
0 32 67 0 0 -32 3617 5483 4 MP
PP
0 sg
-67 0 0 32 67 0 0 -32 3617 5483 5 MP stroke
c8
0 48 66 0 0 -48 3684 5483 4 MP
PP
0 sg
-66 0 0 48 66 0 0 -48 3684 5483 5 MP stroke
c8
0 85 67 0 0 -85 3750 5483 4 MP
PP
0 sg
-67 0 0 85 67 0 0 -85 3750 5483 5 MP stroke
c8
0 127 67 0 0 -127 3817 5483 4 MP
PP
0 sg
-67 0 0 127 67 0 0 -127 3817 5483 5 MP stroke
c8
0 418 67 0 0 -418 3884 5483 4 MP
PP
0 sg
-67 0 0 418 67 0 0 -418 3884 5483 5 MP stroke
c8
0 106 66 0 0 -106 3951 5483 4 MP
PP
0 sg
-66 0 0 106 66 0 0 -106 3951 5483 5 MP stroke
c8
0 122 67 0 0 -122 4017 5483 4 MP
PP
0 sg
-67 0 0 122 67 0 0 -122 4017 5483 5 MP stroke
c8
0 59 67 0 0 -59 4084 5483 4 MP
PP
0 sg
-67 0 0 59 67 0 0 -59 4084 5483 5 MP stroke
c8
0 32 67 0 0 -32 4151 5483 4 MP
PP
0 sg
-67 0 0 32 67 0 0 -32 4151 5483 5 MP stroke
c8
0 11 66 0 0 -11 4218 5483 4 MP
PP
0 sg
-66 0 0 11 66 0 0 -11 4218 5483 5 MP stroke
c8
0 43 67 0 0 -43 4284 5483 4 MP
PP
0 sg
-67 0 0 43 67 0 0 -43 4284 5483 5 MP stroke
c8
0 43 67 0 0 -43 4351 5483 4 MP
PP
0 sg
-67 0 0 43 67 0 0 -43 4351 5483 5 MP stroke
c8
0 27 67 0 0 -27 4418 5483 4 MP
PP
0 sg
-67 0 0 27 67 0 0 -27 4418 5483 5 MP stroke
c8
0 22 66 0 0 -22 4485 5483 4 MP
PP
0 sg
-66 0 0 22 66 0 0 -22 4485 5483 5 MP stroke
c8
0 22 67 0 0 -22 4551 5483 4 MP
PP
0 sg
-67 0 0 22 67 0 0 -22 4551 5483 5 MP stroke
c8
0 11 67 0 0 -11 4618 5483 4 MP
PP
0 sg
-67 0 0 11 67 0 0 -11 4618 5483 5 MP stroke
c8
0 43 67 0 0 -43 4685 5483 4 MP
PP
0 sg
-67 0 0 43 67 0 0 -43 4685 5483 5 MP stroke
c8
0 27 66 0 0 -27 4752 5483 4 MP
PP
0 sg
-66 0 0 27 66 0 0 -27 4752 5483 5 MP stroke
c8
0 16 67 0 0 -16 4818 5483 4 MP
PP
0 sg
-67 0 0 16 67 0 0 -16 4818 5483 5 MP stroke
c8
0 43 67 0 0 -43 4885 5483 4 MP
PP
0 sg
-67 0 0 43 67 0 0 -43 4885 5483 5 MP stroke
c8
0 16 66 0 0 -16 4952 5483 4 MP
PP
0 sg
-66 0 0 16 66 0 0 -16 4952 5483 5 MP stroke
c8
0 6 67 0 0 -6 5018 5483 4 MP
PP
0 sg
-67 0 0 6 67 0 0 -6 5018 5483 5 MP stroke
c8
0 6 67 0 0 -6 5085 5483 4 MP
PP
0 sg
-67 0 0 6 67 0 0 -6 5085 5483 5 MP stroke
c8
0 22 67 0 0 -22 5152 5483 4 MP
PP
0 sg
-67 0 0 22 67 0 0 -22 5152 5483 5 MP stroke
c8
0 0 66 0 0 0 5219 5483 4 MP
PP
0 sg
-66 0 0 0 66 0 0 0 5219 5483 5 MP stroke
c8
0 6 67 0 0 -6 5285 5483 4 MP
PP
0 sg
-67 0 0 6 67 0 0 -6 5285 5483 5 MP stroke
c8
0 43 67 0 0 -43 5352 5483 4 MP
PP
0 sg
-67 0 0 43 67 0 0 -43 5352 5483 5 MP stroke
c8
0 0 67 0 0 0 5419 5483 4 MP
PP
0 sg
-67 0 0 0 67 0 0 0 5419 5483 5 MP stroke
c8
0 22 66 0 0 -22 5486 5483 4 MP
PP
0 sg
-66 0 0 22 66 0 0 -22 5486 5483 5 MP stroke
c8
0 6 67 0 0 -6 5552 5483 4 MP
PP
0 sg
-67 0 0 6 67 0 0 -6 5552 5483 5 MP stroke
c8
0 11 67 0 0 -11 5619 5483 4 MP
PP
0 sg
-67 0 0 11 67 0 0 -11 5619 5483 5 MP stroke
c8
0 11 67 0 0 -11 5686 5483 4 MP
PP
0 sg
-67 0 0 11 67 0 0 -11 5686 5483 5 MP stroke
c8
0 22 66 0 0 -22 5753 5483 4 MP
PP
0 sg
-66 0 0 22 66 0 0 -22 5753 5483 5 MP stroke
c8
0 27 67 0 0 -27 5819 5483 4 MP
PP
0 sg
-67 0 0 27 67 0 0 -27 5819 5483 5 MP stroke
c8
0 11 67 0 0 -11 5886 5483 4 MP
PP
0 sg
-67 0 0 11 67 0 0 -11 5886 5483 5 MP stroke
c8
0 11 67 0 0 -11 5953 5483 4 MP
PP
0 sg
-67 0 0 11 67 0 0 -11 5953 5483 5 MP stroke
c8
0 11 66 0 0 -11 6020 5483 4 MP
PP
0 sg
-66 0 0 11 66 0 0 -11 6020 5483 5 MP stroke
c8
0 6 67 0 0 -6 6086 5483 4 MP
PP
0 sg
-67 0 0 6 67 0 0 -6 6086 5483 5 MP stroke
c8
0 0 67 0 0 0 6153 5483 4 MP
PP
0 sg
-67 0 0 0 67 0 0 0 6153 5483 5 MP stroke
c8
0 22 67 0 0 -22 6220 5483 4 MP
PP
0 sg
-67 0 0 22 67 0 0 -22 6220 5483 5 MP stroke
c8
0 0 66 0 0 0 6287 5483 4 MP
PP
0 sg
-66 0 0 0 66 0 0 0 6287 5483 5 MP stroke
c8
0 0 67 0 0 0 6353 5483 4 MP
PP
0 sg
-67 0 0 0 67 0 0 0 6353 5483 5 MP stroke
c8
0 6 67 0 0 -6 6420 5483 4 MP
PP
0 sg
-67 0 0 6 67 0 0 -6 6420 5483 5 MP stroke
c8
0 0 66 0 0 0 6487 5483 4 MP
PP
0 sg
-66 0 0 0 66 0 0 0 6487 5483 5 MP stroke
c8
0 0 67 0 0 0 6553 5483 4 MP
PP
0 sg
-67 0 0 0 67 0 0 0 6553 5483 5 MP stroke
c8
0 0 67 0 0 0 6620 5483 4 MP
PP
0 sg
-67 0 0 0 67 0 0 0 6620 5483 5 MP stroke
c8
0 6 67 0 0 -6 6687 5483 4 MP
PP
0 sg
-67 0 0 6 67 0 0 -6 6687 5483 5 MP stroke
c8
0 6 66 0 0 -6 6754 5483 4 MP
PP
0 sg
-66 0 0 6 66 0 0 -6 6754 5483 5 MP stroke
c8
0 0 67 0 0 0 6820 5483 4 MP
PP
0 sg
-67 0 0 0 67 0 0 0 6820 5483 5 MP stroke
c8
0 0 67 0 0 0 6887 5483 4 MP
PP
0 sg
-67 0 0 0 67 0 0 0 6887 5483 5 MP stroke
c8
0 6 67 0 0 -6 6954 5483 4 MP
PP
0 sg
-67 0 0 6 67 0 0 -6 6954 5483 5 MP stroke
c8
0 6 66 0 0 -6 7021 5483 4 MP
PP
0 sg
-66 0 0 6 66 0 0 -6 7021 5483 5 MP stroke
c8
0 0 67 0 0 0 7087 5483 4 MP
PP
0 sg
-67 0 0 0 67 0 0 0 7087 5483 5 MP stroke
c8
0 0 67 0 0 0 7154 5483 4 MP
PP
0 sg
-67 0 0 0 67 0 0 0 7154 5483 5 MP stroke
c8
0 0 67 0 0 0 7221 5483 4 MP
PP
0 sg
-67 0 0 0 67 0 0 0 7221 5483 5 MP stroke
c8
0 0 66 0 0 0 7288 5483 4 MP
PP
0 sg
-66 0 0 0 66 0 0 0 7288 5483 5 MP stroke
c8
0 0 67 0 0 0 7354 5483 4 MP
PP
0 sg
-67 0 0 0 67 0 0 0 7354 5483 5 MP stroke
c8
0 16 67 0 0 -16 7421 5483 4 MP
PP
0 sg
-67 0 0 16 67 0 0 -16 7421 5483 5 MP stroke
c8
0 6 67 0 0 -6 7488 5483 4 MP
PP
0 sg
-67 0 0 6 67 0 0 -6 7488 5483 5 MP stroke
c8
0 0 66 0 0 0 7555 5483 4 MP
PP
0 sg
-66 0 0 0 66 0 0 0 7555 5483 5 MP stroke
c8
0 0 67 0 0 0 7621 5483 4 MP
PP
0 sg
-67 0 0 0 67 0 0 0 7621 5483 5 MP stroke
c8
0 0 67 0 0 0 7688 5483 4 MP
PP
0 sg
-67 0 0 0 67 0 0 0 7688 5483 5 MP stroke
c8
0 6 66 0 0 -6 7755 5483 4 MP
PP
0 sg
-66 0 0 6 66 0 0 -6 7755 5483 5 MP stroke
c8
0 0 67 0 0 0 7821 5483 4 MP
PP
0 sg
-67 0 0 0 67 0 0 0 7821 5483 5 MP stroke
c8
0 6 67 0 0 -6 7888 5483 4 MP
PP
0 sg
-67 0 0 6 67 0 0 -6 7888 5483 5 MP stroke
c8
0 0 67 0 0 0 7955 5483 4 MP
PP
0 sg
-67 0 0 0 67 0 0 0 7955 5483 5 MP stroke
c8
0 11 66 0 0 -11 8022 5483 4 MP
PP
0 sg
-66 0 0 11 66 0 0 -11 8022 5483 5 MP stroke
c8
0 11 67 0 0 -11 8088 5483 4 MP
PP
0 sg
-67 0 0 11 67 0 0 -11 8088 5483 5 MP stroke
c8
0 0 67 0 0 0 8155 5483 4 MP
PP
0 sg
-67 0 0 0 67 0 0 0 8155 5483 5 MP stroke
c8
0 6 67 0 0 -6 8222 5483 4 MP
PP
0 sg
-67 0 0 6 67 0 0 -6 8222 5483 5 MP stroke
c8
0 11 66 0 0 -11 8289 5483 4 MP
PP
0 sg
-66 0 0 11 66 0 0 -11 8289 5483 5 MP stroke
c8
0 0 67 0 0 0 8355 5483 4 MP
PP
0 sg
-67 0 0 0 67 0 0 0 8355 5483 5 MP stroke
c8
0 6 67 0 0 -6 8422 5483 4 MP
PP
0 sg
-67 0 0 6 67 0 0 -6 8422 5483 5 MP stroke
c8
0 0 67 0 0 0 8489 5483 4 MP
PP
0 sg
-67 0 0 0 67 0 0 0 8489 5483 5 MP stroke
c8
0 6 66 0 0 -6 8556 5483 4 MP
PP
0 sg
-66 0 0 6 66 0 0 -6 8556 5483 5 MP stroke
gr

%%IncludeResource: font Helvetica
/Helvetica /ISOLatin1Encoding 264 FMSR

4706 5967 mt 
(Duration \(sec\)) s
1440 3721 mt  -90 rotate
(Frequency) s
90 rotate

end %%Color Dict

eplot
%%EndObject

epage
end

showpage

%%Trailer
%%EOF
