%!PS-Adobe-3.0 EPSF-3.0
%%Creator: MATLAB, The MathWorks, Inc. Version 7.13.0.564 (R2011b). Operating System: Darwin 12.4.0 Darwin Kernel Version 12.4.0: Wed May  1 17:57:12 PDT 2013; root:xnu-2050.24.15~1/RELEASE_X86_64 x86_64.
%%Title: /Users/tozammel/Documents/research/projects/networks/writeup/icdm13/figs/figdata/fig2a1.eps
%%CreationDate: 06/21/2013  19:56:30
%%DocumentNeededFonts: Helvetica
%%DocumentProcessColors: Cyan Magenta Yellow Black
%%LanguageLevel: 2
%%Pages: 1
%%BoundingBox:   -79   147   692   645
%%EndComments

%%BeginProlog
% MathWorks dictionary
/MathWorks 160 dict begin
% definition operators
/bdef {bind def} bind def
/ldef {load def} bind def
/xdef {exch def} bdef
/xstore {exch store} bdef
% operator abbreviations
/c  /clip ldef
/cc /concat ldef
/cp /closepath ldef
/gr /grestore ldef
/gs /gsave ldef
/mt /moveto ldef
/np /newpath ldef
/cm /currentmatrix ldef
/sm /setmatrix ldef
/rm /rmoveto ldef
/rl /rlineto ldef
/s {show newpath} bdef
/sc {setcmykcolor} bdef
/sr /setrgbcolor ldef
/sg /setgray ldef
/w /setlinewidth ldef
/j /setlinejoin ldef
/cap /setlinecap ldef
/rc {rectclip} bdef
/rf {rectfill} bdef
% page state control
/pgsv () def
/bpage {/pgsv save def} bdef
/epage {pgsv restore} bdef
/bplot /gsave ldef
/eplot {stroke grestore} bdef
% orientation switch
/portraitMode 0 def /landscapeMode 1 def /rotateMode 2 def
% coordinate system mappings
/dpi2point 0 def
% font control
/FontSize 0 def
/FMS {/FontSize xstore findfont [FontSize 0 0 FontSize neg 0 0]
  makefont setfont} bdef
/reencode {exch dup where {pop load} {pop StandardEncoding} ifelse
  exch dup 3 1 roll findfont dup length dict begin
  { 1 index /FID ne {def}{pop pop} ifelse } forall
  /Encoding exch def currentdict end definefont pop} bdef
/isroman {findfont /CharStrings get /Agrave known} bdef
/FMSR {3 1 roll 1 index dup isroman {reencode} {pop pop} ifelse
  exch FMS} bdef
/csm {1 dpi2point div -1 dpi2point div scale neg translate
 dup landscapeMode eq {pop -90 rotate}
  {rotateMode eq {90 rotate} if} ifelse} bdef
% line types: solid, dotted, dashed, dotdash
/SO { [] 0 setdash } bdef
/DO { [.5 dpi2point mul 4 dpi2point mul] 0 setdash } bdef
/DA { [6 dpi2point mul] 0 setdash } bdef
/DD { [.5 dpi2point mul 4 dpi2point mul 6 dpi2point mul 4
  dpi2point mul] 0 setdash } bdef
% macros for lines and objects
/L {lineto stroke} bdef
/MP {3 1 roll moveto 1 sub {rlineto} repeat} bdef
/AP {{rlineto} repeat} bdef
/PDlw -1 def
/W {/PDlw currentlinewidth def setlinewidth} def
/PP {closepath eofill} bdef
/DP {closepath stroke} bdef
/MR {4 -2 roll moveto dup  0 exch rlineto exch 0 rlineto
  neg 0 exch rlineto closepath} bdef
/FR {MR stroke} bdef
/PR {MR fill} bdef
/L1i {{currentfile picstr readhexstring pop} image} bdef
/tMatrix matrix def
/MakeOval {newpath tMatrix currentmatrix pop translate scale
0 0 1 0 360 arc tMatrix setmatrix} bdef
/FO {MakeOval stroke} bdef
/PO {MakeOval fill} bdef
/PD {currentlinewidth 2 div 0 360 arc fill
   PDlw -1 eq not {PDlw w /PDlw -1 def} if} def
/FA {newpath tMatrix currentmatrix pop translate scale
  0 0 1 5 -2 roll arc tMatrix setmatrix stroke} bdef
/PA {newpath tMatrix currentmatrix pop	translate 0 0 moveto scale
  0 0 1 5 -2 roll arc closepath tMatrix setmatrix fill} bdef
/FAn {newpath tMatrix currentmatrix pop translate scale
  0 0 1 5 -2 roll arcn tMatrix setmatrix stroke} bdef
/PAn {newpath tMatrix currentmatrix pop translate 0 0 moveto scale
  0 0 1 5 -2 roll arcn closepath tMatrix setmatrix fill} bdef
/vradius 0 def /hradius 0 def /lry 0 def
/lrx 0 def /uly 0 def /ulx 0 def /rad 0 def
/MRR {/vradius xdef /hradius xdef /lry xdef /lrx xdef /uly xdef
  /ulx xdef newpath tMatrix currentmatrix pop ulx hradius add uly
  vradius add translate hradius vradius scale 0 0 1 180 270 arc 
  tMatrix setmatrix lrx hradius sub uly vradius add translate
  hradius vradius scale 0 0 1 270 360 arc tMatrix setmatrix
  lrx hradius sub lry vradius sub translate hradius vradius scale
  0 0 1 0 90 arc tMatrix setmatrix ulx hradius add lry vradius sub
  translate hradius vradius scale 0 0 1 90 180 arc tMatrix setmatrix
  closepath} bdef
/FRR {MRR stroke } bdef
/PRR {MRR fill } bdef
/MlrRR {/lry xdef /lrx xdef /uly xdef /ulx xdef /rad lry uly sub 2 div def
  newpath tMatrix currentmatrix pop ulx rad add uly rad add translate
  rad rad scale 0 0 1 90 270 arc tMatrix setmatrix lrx rad sub lry rad
  sub translate rad rad scale 0 0 1 270 90 arc tMatrix setmatrix
  closepath} bdef
/FlrRR {MlrRR stroke } bdef
/PlrRR {MlrRR fill } bdef
/MtbRR {/lry xdef /lrx xdef /uly xdef /ulx xdef /rad lrx ulx sub 2 div def
  newpath tMatrix currentmatrix pop ulx rad add uly rad add translate
  rad rad scale 0 0 1 180 360 arc tMatrix setmatrix lrx rad sub lry rad
  sub translate rad rad scale 0 0 1 0 180 arc tMatrix setmatrix
  closepath} bdef
/FtbRR {MtbRR stroke } bdef
/PtbRR {MtbRR fill } bdef
/stri 6 array def /dtri 6 array def
/smat 6 array def /dmat 6 array def
/tmat1 6 array def /tmat2 6 array def /dif 3 array def
/asub {/ind2 exch def /ind1 exch def dup dup
  ind1 get exch ind2 get sub exch } bdef
/tri_to_matrix {
  2 0 asub 3 1 asub 4 0 asub 5 1 asub
  dup 0 get exch 1 get 7 -1 roll astore } bdef
/compute_transform {
  dmat dtri tri_to_matrix tmat1 invertmatrix 
  smat stri tri_to_matrix tmat2 concatmatrix } bdef
/ds {stri astore pop} bdef
/dt {dtri astore pop} bdef
/db {2 copy /cols xdef /rows xdef mul dup 3 mul string
  currentfile 
  3 index 0 eq {/ASCIIHexDecode filter}
  {/ASCII85Decode filter 3 index 2 eq {/RunLengthDecode filter} if }
  ifelse exch readstring pop
  dup 0 3 index getinterval /rbmap xdef
  dup 2 index dup getinterval /gbmap xdef
  1 index dup 2 mul exch getinterval /bbmap xdef pop pop}bdef
/it {gs np dtri aload pop moveto lineto lineto cp c
  cols rows 8 compute_transform 
  rbmap gbmap bbmap true 3 colorimage gr}bdef
/il {newpath moveto lineto stroke}bdef
currentdict end def
%%EndProlog

%%BeginSetup
MathWorks begin

0 cap

end
%%EndSetup

%%Page: 1 1
%%BeginPageSetup
%%PageBoundingBox:   -79   147   692   645
MathWorks begin
bpage
%%EndPageSetup

%%BeginObject: obj1
bplot

/dpi2point 12 def
portraitMode -0948 7740 csm

    0     0  9252  5969 rc
85 dict begin %Colortable dictionary
/c0 { 0.000000 0.000000 0.000000 sr} bdef
/c1 { 1.000000 1.000000 1.000000 sr} bdef
/c2 { 0.900000 0.000000 0.000000 sr} bdef
/c3 { 0.000000 0.820000 0.000000 sr} bdef
/c4 { 0.000000 0.000000 0.800000 sr} bdef
/c5 { 0.910000 0.820000 0.320000 sr} bdef
/c6 { 1.000000 0.260000 0.820000 sr} bdef
/c7 { 0.000000 0.820000 0.820000 sr} bdef
c0
1 j
1 sg
   0    0 9253 5970 rf
6 w
0 4864 7170 0 0 -4864 1203 5312 4 MP
PP
-7170 0 0 4864 7170 0 0 -4864 1203 5312 5 MP stroke
4 w
DO
SO
6 w
0 sg
1203 5312 mt 8373 5312 L
1203  448 mt 8373  448 L
1203 5312 mt 1203  448 L
8373 5312 mt 8373  448 L
1203 5312 mt 8373 5312 L
1203 5312 mt 1203  448 L
1203 5312 mt 1203 5240 L
1203  448 mt 1203  519 L
%%IncludeResource: font Helvetica
/Helvetica /ISOLatin1Encoding 216 FMSR

1143 5547 mt 
(0) s
2398 5312 mt 2398 5240 L
2398  448 mt 2398  519 L
2278 5547 mt 
(50) s
3593 5312 mt 3593 5240 L
3593  448 mt 3593  519 L
3413 5547 mt 
(100) s
4788 5312 mt 4788 5240 L
4788  448 mt 4788  519 L
4608 5547 mt 
(150) s
5983 5312 mt 5983 5240 L
5983  448 mt 5983  519 L
5803 5547 mt 
(200) s
7178 5312 mt 7178 5240 L
7178  448 mt 7178  519 L
6998 5547 mt 
(250) s
8373 5312 mt 8373 5240 L
8373  448 mt 8373  519 L
8193 5547 mt 
(300) s
1203 5312 mt 1274 5312 L
8373 5312 mt 8301 5312 L
1048 5392 mt 
(0) s
1203 4501 mt 1274 4501 L
8373 4501 mt 8301 4501 L
 628 4581 mt 
(0.005) s
1203 3690 mt 1274 3690 L
8373 3690 mt 8301 3690 L
 748 3770 mt 
(0.01) s
1203 2880 mt 1274 2880 L
8373 2880 mt 8301 2880 L
 628 2960 mt 
(0.015) s
1203 2069 mt 1274 2069 L
8373 2069 mt 8301 2069 L
 748 2149 mt 
(0.02) s
1203 1258 mt 1274 1258 L
8373 1258 mt 8301 1258 L
 628 1338 mt 
(0.025) s
1203  448 mt 1274  448 L
8373  448 mt 8301  448 L
 748  528 mt 
(0.03) s
1203 5312 mt 8373 5312 L
1203  448 mt 8373  448 L
1203 5312 mt 1203  448 L
8373 5312 mt 8373  448 L
gs 1203 448 7171 4865 rc
24 w
/c8 { 1.000000 0.000000 0.000000 sr} bdef
c8
24 0 24 0 24 0 24 0 24 0 24 0 24 0 24 0 
24 0 23 0 24 0 24 0 24 0 24 0 24 0 24 0 
24 0 24 0 24 0 23 0 24 0 24 0 24 0 24 0 
24 0 24 0 24 0 24 0 24 0 23 0 24 0 24 0 
24 0 24 0 24 0 24 0 24 0 24 0 24 0 23 0 
24 0 24 0 24 0 24 0 24 0 24 0 24 0 24 0 
24 3 23 -3 24 0 24 0 24 0 24 3 24 -3 24 0 
24 0 24 0 24 3 23 0 24 -3 24 0 24 0 24 3 
24 -3 24 3 24 0 24 -3 24 0 23 5 24 -2 24 0 
24 -3 24 0 24 5 24 0 24 3 24 -8 24 3 23 5 
24 -8 24 0 24 0 24 0 24 0 24 10 24 -2 24 -3 
24 3 23 2 24 0 24 2 24 -4 24 4 24 0 24 0 
24 17 24 -7 24 5 23 -5 24 -5 24 7 24 17 24 0 
24 -2 24 -3 24 15 24 -3 24 -2 23 26 24 0 24 -5 
24 15 24 0 24 19 24 21 24 -21 24 43 24 26 23 -36 
24 65 24 -17 24 12 24 5 24 2 24 69 24 19 24 15 
24 19 23 31 24 105 24 2 24 43 24 105 24 36 24 62 
24 151 24 -27 24 139 23 55 24 150 24 110 24 17 24 95 
24 249 24 7 24 177 24 241 24 126 23 158 24 -7 24 251 
24 117 24 -20 24 246 24 15 24 79 24 226 24 -62 23 210 
24 122 24 -67 24 -21 24 19 24 172 24 -208 24 62 24 -119 
24 239 23 -105 24 -270 24 172 24 -129 24 -153 24 -62 24 -189 
24 -174 24 107 24 -129 23 -224 24 -112 24 9 24 -114 24 -175 
24 -126 24 -77 24 -153 24 63 24 -158 23 -62 24 -167 24 -129 
24 -12 24 -60 24 -172 24 -62 24 10 24 -122 24 -10 23 -83 
24 -48 24 -10 24 -52 24 -36 24 -100 24 7 24 10 24 -86 
24 -20 23 -11 24 4 24 -47 24 -17 24 -41 24 43 24 -95 
24 26 24 -36 24 -26 23 -7 24 -29 24 26 24 -50 24 -17 
24 -23 24 -24 24 12 24 4 24 8 23 -65 24 29 24 -7 
24 12 24 -20 24 3 24 -17 24 12 24 5 24 -19 23 2 
24 10 24 0 24 -22 24 0 24 -5 24 19 24 -14 24 -7 
24 -14 23 14 24 -5 24 0 24 15 24 -22 24 7 24 5 
24 -10 24 -2 24 7 23 -14 24 12 24 0 24 -10 24 -5 
24 8 24 2 24 -2 24 -3 24 0 23 3 24 -8 24 5 
24 -5 24 0 24 0 24 8 24 -8 24 3 24 -3 23 3 
24 -3 24 0 24 0 24 0 24 0 24 0 24 3 24 0 
24 -3 23 0 24 3 24 -3 24 0 24 0 24 0 24 0 
24 0 24 0 24 0 1226 5312 300 MP stroke
gr

24 w
c8
1190 5312 mt 1262 5312 L
1226 5276 mt 1226 5348 L
1214 5312 mt 1286 5312 L
1250 5276 mt 1250 5348 L
1238 5312 mt 1310 5312 L
1274 5276 mt 1274 5348 L
1262 5312 mt 1334 5312 L
1298 5276 mt 1298 5348 L
1286 5312 mt 1358 5312 L
1322 5276 mt 1322 5348 L
1310 5312 mt 1382 5312 L
1346 5276 mt 1346 5348 L
1334 5312 mt 1406 5312 L
1370 5276 mt 1370 5348 L
1358 5312 mt 1430 5312 L
1394 5276 mt 1394 5348 L
1382 5309 mt 1454 5309 L
1418 5273 mt 1418 5345 L
1406 5312 mt 1478 5312 L
1442 5276 mt 1442 5348 L
1429 5312 mt 1501 5312 L
1465 5276 mt 1465 5348 L
1453 5309 mt 1525 5309 L
1489 5273 mt 1489 5345 L
1477 5309 mt 1549 5309 L
1513 5273 mt 1513 5345 L
1501 5312 mt 1573 5312 L
1537 5276 mt 1537 5348 L
1525 5312 mt 1597 5312 L
1561 5276 mt 1561 5348 L
1549 5312 mt 1621 5312 L
1585 5276 mt 1585 5348 L
1573 5312 mt 1645 5312 L
1609 5276 mt 1609 5348 L
1597 5312 mt 1669 5312 L
1633 5276 mt 1633 5348 L
1621 5312 mt 1693 5312 L
1657 5276 mt 1657 5348 L
1645 5309 mt 1717 5309 L
1681 5273 mt 1681 5345 L
1668 5312 mt 1740 5312 L
1704 5276 mt 1704 5348 L
1692 5309 mt 1764 5309 L
1728 5273 mt 1728 5345 L
1716 5312 mt 1788 5312 L
1752 5276 mt 1752 5348 L
1740 5304 mt 1812 5304 L
1776 5268 mt 1776 5340 L
1764 5312 mt 1836 5312 L
1800 5276 mt 1800 5348 L
1788 5312 mt 1860 5312 L
1824 5276 mt 1824 5348 L
1812 5312 mt 1884 5312 L
1848 5276 mt 1848 5348 L
1836 5307 mt 1908 5307 L
1872 5271 mt 1872 5343 L
1860 5312 mt 1932 5312 L
1896 5276 mt 1896 5348 L
1884 5304 mt 1956 5304 L
1920 5268 mt 1920 5340 L
1907 5307 mt 1979 5307 L
1943 5271 mt 1943 5343 L
1931 5307 mt 2003 5307 L
1967 5271 mt 1967 5343 L
1955 5304 mt 2027 5304 L
1991 5268 mt 1991 5340 L
1979 5302 mt 2051 5302 L
2015 5266 mt 2015 5338 L
2003 5304 mt 2075 5304 L
2039 5268 mt 2039 5340 L
2027 5312 mt 2099 5312 L
2063 5276 mt 2063 5348 L
2051 5307 mt 2123 5307 L
2087 5271 mt 2087 5343 L
2075 5297 mt 2147 5297 L
2111 5261 mt 2111 5333 L
2099 5297 mt 2171 5297 L
2135 5261 mt 2135 5333 L
2123 5309 mt 2195 5309 L
2159 5273 mt 2159 5345 L
2146 5295 mt 2218 5295 L
2182 5259 mt 2182 5331 L
2170 5302 mt 2242 5302 L
2206 5266 mt 2206 5338 L
2194 5300 mt 2266 5300 L
2230 5264 mt 2230 5336 L
2218 5290 mt 2290 5290 L
2254 5254 mt 2254 5326 L
2242 5295 mt 2314 5295 L
2278 5259 mt 2278 5331 L
2266 5302 mt 2338 5302 L
2302 5266 mt 2302 5338 L
2290 5280 mt 2362 5280 L
2326 5244 mt 2326 5316 L
2314 5295 mt 2386 5295 L
2350 5259 mt 2350 5331 L
2338 5295 mt 2410 5295 L
2374 5259 mt 2374 5331 L
2362 5290 mt 2434 5290 L
2398 5254 mt 2398 5326 L
2385 5304 mt 2457 5304 L
2421 5268 mt 2421 5340 L
2409 5290 mt 2481 5290 L
2445 5254 mt 2445 5326 L
2433 5283 mt 2505 5283 L
2469 5247 mt 2469 5319 L
2457 5269 mt 2529 5269 L
2493 5233 mt 2493 5305 L
2481 5288 mt 2553 5288 L
2517 5252 mt 2517 5324 L
2505 5283 mt 2577 5283 L
2541 5247 mt 2541 5319 L
2529 5283 mt 2601 5283 L
2565 5247 mt 2565 5319 L
2553 5261 mt 2625 5261 L
2589 5225 mt 2589 5297 L
2577 5261 mt 2649 5261 L
2613 5225 mt 2613 5297 L
2601 5271 mt 2673 5271 L
2637 5235 mt 2637 5307 L
2624 5273 mt 2696 5273 L
2660 5237 mt 2660 5309 L
2648 5254 mt 2720 5254 L
2684 5218 mt 2684 5290 L
2672 5259 mt 2744 5259 L
2708 5223 mt 2708 5295 L
2696 5271 mt 2768 5271 L
2732 5235 mt 2732 5307 L
2720 5254 mt 2792 5254 L
2756 5218 mt 2756 5290 L
2744 5257 mt 2816 5257 L
2780 5221 mt 2780 5293 L
2768 5237 mt 2840 5237 L
2804 5201 mt 2804 5273 L
2792 5249 mt 2864 5249 L
2828 5213 mt 2828 5285 L
2816 5242 mt 2888 5242 L
2852 5206 mt 2852 5278 L
2840 5271 mt 2912 5271 L
2876 5235 mt 2876 5307 L
2863 5206 mt 2935 5206 L
2899 5170 mt 2899 5242 L
2887 5214 mt 2959 5214 L
2923 5178 mt 2923 5250 L
2911 5218 mt 2983 5218 L
2947 5182 mt 2947 5254 L
2935 5230 mt 3007 5230 L
2971 5194 mt 2971 5266 L
2959 5206 mt 3031 5206 L
2995 5170 mt 2995 5242 L
2983 5183 mt 3055 5183 L
3019 5147 mt 3019 5219 L
3007 5166 mt 3079 5166 L
3043 5130 mt 3043 5202 L
3031 5116 mt 3103 5116 L
3067 5080 mt 3067 5152 L
3055 5142 mt 3127 5142 L
3091 5106 mt 3091 5178 L
3079 5113 mt 3151 5113 L
3115 5077 mt 3115 5149 L
3102 5106 mt 3174 5106 L
3138 5070 mt 3138 5142 L
3126 5080 mt 3198 5080 L
3162 5044 mt 3162 5116 L
3150 5044 mt 3222 5044 L
3186 5008 mt 3186 5080 L
3174 5070 mt 3246 5070 L
3210 5034 mt 3210 5106 L
3198 4975 mt 3270 4975 L
3234 4939 mt 3234 5011 L
3222 5018 mt 3294 5018 L
3258 4982 mt 3258 5054 L
3246 4977 mt 3318 4977 L
3282 4941 mt 3282 5013 L
3270 4960 mt 3342 4960 L
3306 4924 mt 3306 4996 L
3294 4913 mt 3366 4913 L
3330 4877 mt 3330 4949 L
3318 4917 mt 3390 4917 L
3354 4881 mt 3354 4953 L
3341 4906 mt 3413 4906 L
3377 4870 mt 3377 4942 L
3365 4886 mt 3437 4886 L
3401 4850 mt 3401 4922 L
3389 4800 mt 3461 4800 L
3425 4764 mt 3425 4836 L
3413 4810 mt 3485 4810 L
3449 4774 mt 3449 4846 L
3437 4817 mt 3509 4817 L
3473 4781 mt 3473 4853 L
3461 4717 mt 3533 4717 L
3497 4681 mt 3497 4753 L
3485 4681 mt 3557 4681 L
3521 4645 mt 3521 4717 L
3509 4629 mt 3581 4629 L
3545 4593 mt 3545 4665 L
3533 4619 mt 3605 4619 L
3569 4583 mt 3569 4655 L
3557 4571 mt 3629 4571 L
3593 4535 mt 3593 4607 L
3580 4488 mt 3652 4488 L
3616 4452 mt 3616 4524 L
3604 4478 mt 3676 4478 L
3640 4442 mt 3640 4514 L
3628 4356 mt 3700 4356 L
3664 4320 mt 3664 4392 L
3652 4366 mt 3724 4366 L
3688 4330 mt 3688 4402 L
3676 4304 mt 3748 4304 L
3712 4268 mt 3712 4340 L
3700 4132 mt 3772 4132 L
3736 4096 mt 3736 4168 L
3724 4072 mt 3796 4072 L
3760 4036 mt 3760 4108 L
3748 4060 mt 3820 4060 L
3784 4024 mt 3784 4096 L
3772 3931 mt 3844 3931 L
3808 3895 mt 3808 3967 L
3796 3764 mt 3868 3764 L
3832 3728 mt 3832 3800 L
3819 3702 mt 3891 3702 L
3855 3666 mt 3855 3738 L
3843 3544 mt 3915 3544 L
3879 3508 mt 3879 3580 L
3867 3607 mt 3939 3607 L
3903 3571 mt 3903 3643 L
3891 3454 mt 3963 3454 L
3927 3418 mt 3927 3490 L
3915 3377 mt 3987 3377 L
3951 3341 mt 3951 3413 L
3939 3251 mt 4011 3251 L
3975 3215 mt 3975 3287 L
3963 3076 mt 4035 3076 L
3999 3040 mt 3999 3112 L
3987 2962 mt 4059 2962 L
4023 2926 mt 4023 2998 L
4011 2971 mt 4083 2971 L
4047 2935 mt 4047 3007 L
4035 2859 mt 4107 2859 L
4071 2823 mt 4071 2895 L
4058 2635 mt 4130 2635 L
4094 2599 mt 4094 2671 L
4082 2506 mt 4154 2506 L
4118 2470 mt 4118 2542 L
4106 2613 mt 4178 2613 L
4142 2577 mt 4142 2649 L
4130 2439 mt 4202 2439 L
4166 2403 mt 4166 2475 L
4154 2250 mt 4226 2250 L
4190 2214 mt 4190 2286 L
4178 2188 mt 4250 2188 L
4214 2152 mt 4214 2224 L
4202 2035 mt 4274 2035 L
4238 1999 mt 4238 2071 L
4226 1906 mt 4298 1906 L
4262 1870 mt 4262 1942 L
4250 2078 mt 4322 2078 L
4286 2042 mt 4286 2114 L
4274 1808 mt 4346 1808 L
4310 1772 mt 4310 1844 L
4297 1703 mt 4369 1703 L
4333 1667 mt 4333 1739 L
4321 1942 mt 4393 1942 L
4357 1906 mt 4357 1978 L
4345 1823 mt 4417 1823 L
4381 1787 mt 4381 1859 L
4369 1885 mt 4441 1885 L
4405 1849 mt 4405 1921 L
4393 1677 mt 4465 1677 L
4429 1641 mt 4429 1713 L
4417 1849 mt 4489 1849 L
4453 1813 mt 4453 1885 L
4441 1868 mt 4513 1868 L
4477 1832 mt 4477 1904 L
4465 1847 mt 4537 1847 L
4501 1811 mt 4501 1883 L
4489 1780 mt 4561 1780 L
4525 1744 mt 4525 1816 L
4513 1902 mt 4585 1902 L
4549 1866 mt 4549 1938 L
4536 2112 mt 4608 2112 L
4572 2076 mt 4572 2148 L
4560 2050 mt 4632 2050 L
4596 2014 mt 4596 2086 L
4584 2276 mt 4656 2276 L
4620 2240 mt 4620 2312 L
4608 2355 mt 4680 2355 L
4644 2319 mt 4644 2391 L
4632 2370 mt 4704 2370 L
4668 2334 mt 4668 2406 L
4656 2616 mt 4728 2616 L
4692 2580 mt 4692 2652 L
4680 2596 mt 4752 2596 L
4716 2560 mt 4716 2632 L
4704 2713 mt 4776 2713 L
4740 2677 mt 4740 2749 L
4728 2964 mt 4800 2964 L
4764 2928 mt 4764 3000 L
4752 2957 mt 4824 2957 L
4788 2921 mt 4788 2993 L
4775 3115 mt 4847 3115 L
4811 3079 mt 4811 3151 L
4799 3241 mt 4871 3241 L
4835 3205 mt 4835 3277 L
4823 3482 mt 4895 3482 L
4859 3446 mt 4859 3518 L
4847 3659 mt 4919 3659 L
4883 3623 mt 4883 3695 L
4871 3666 mt 4943 3666 L
4907 3630 mt 4907 3702 L
4895 3915 mt 4967 3915 L
4931 3879 mt 4931 3951 L
4919 4010 mt 4991 4010 L
4955 3974 mt 4955 4046 L
4943 4027 mt 5015 4027 L
4979 3991 mt 4979 4063 L
4967 4137 mt 5039 4137 L
5003 4101 mt 5003 4173 L
4991 4287 mt 5063 4287 L
5027 4251 mt 5027 4323 L
5014 4342 mt 5086 4342 L
5050 4306 mt 5050 4378 L
5038 4481 mt 5110 4481 L
5074 4445 mt 5074 4517 L
5062 4454 mt 5134 4454 L
5098 4418 mt 5098 4490 L
5086 4605 mt 5158 4605 L
5122 4569 mt 5122 4641 L
5110 4667 mt 5182 4667 L
5146 4631 mt 5146 4703 L
5134 4703 mt 5206 4703 L
5170 4667 mt 5170 4739 L
5158 4808 mt 5230 4808 L
5194 4772 mt 5194 4844 L
5182 4851 mt 5254 4851 L
5218 4815 mt 5218 4887 L
5206 4853 mt 5278 4853 L
5242 4817 mt 5242 4889 L
5230 4958 mt 5302 4958 L
5266 4922 mt 5266 4994 L
5253 4989 mt 5325 4989 L
5289 4953 mt 5289 5025 L
5277 5008 mt 5349 5008 L
5313 4972 mt 5313 5044 L
5301 5023 mt 5373 5023 L
5337 4987 mt 5337 5059 L
5325 5042 mt 5397 5042 L
5361 5006 mt 5361 5078 L
5349 5111 mt 5421 5111 L
5385 5075 mt 5385 5147 L
5373 5113 mt 5445 5113 L
5409 5077 mt 5409 5149 L
5397 5118 mt 5469 5118 L
5433 5082 mt 5433 5154 L
5421 5130 mt 5493 5130 L
5457 5094 mt 5457 5166 L
5445 5113 mt 5517 5113 L
5481 5077 mt 5481 5149 L
5469 5178 mt 5541 5178 L
5505 5142 mt 5505 5214 L
5492 5142 mt 5564 5142 L
5528 5106 mt 5528 5178 L
5516 5168 mt 5588 5168 L
5552 5132 mt 5552 5204 L
5540 5211 mt 5612 5211 L
5576 5175 mt 5576 5247 L
5564 5190 mt 5636 5190 L
5600 5154 mt 5600 5226 L
5588 5211 mt 5660 5211 L
5624 5175 mt 5624 5247 L
5612 5230 mt 5684 5230 L
5648 5194 mt 5648 5266 L
5636 5230 mt 5708 5230 L
5672 5194 mt 5672 5266 L
5660 5245 mt 5732 5245 L
5696 5209 mt 5696 5281 L
5684 5240 mt 5756 5240 L
5720 5204 mt 5720 5276 L
5708 5240 mt 5780 5240 L
5744 5204 mt 5744 5276 L
5731 5266 mt 5803 5266 L
5767 5230 mt 5767 5302 L
5755 5264 mt 5827 5264 L
5791 5228 mt 5791 5300 L
5779 5261 mt 5851 5261 L
5815 5225 mt 5815 5297 L
5803 5276 mt 5875 5276 L
5839 5240 mt 5839 5312 L
5827 5273 mt 5899 5273 L
5863 5237 mt 5863 5309 L
5851 5271 mt 5923 5271 L
5887 5235 mt 5887 5307 L
5875 5271 mt 5947 5271 L
5911 5235 mt 5911 5307 L
5899 5288 mt 5971 5288 L
5935 5252 mt 5935 5324 L
5923 5295 mt 5995 5295 L
5959 5259 mt 5959 5331 L
5947 5290 mt 6019 5290 L
5983 5254 mt 5983 5326 L
5970 5285 mt 6042 5285 L
6006 5249 mt 6006 5321 L
5994 5290 mt 6066 5290 L
6030 5254 mt 6030 5326 L
6018 5283 mt 6090 5283 L
6054 5247 mt 6054 5319 L
6042 5300 mt 6114 5300 L
6078 5264 mt 6078 5336 L
6066 5300 mt 6138 5300 L
6102 5264 mt 6102 5336 L
6090 5300 mt 6162 5300 L
6126 5264 mt 6126 5336 L
6114 5304 mt 6186 5304 L
6150 5268 mt 6150 5340 L
6138 5300 mt 6210 5300 L
6174 5264 mt 6174 5336 L
6162 5302 mt 6234 5302 L
6198 5266 mt 6198 5338 L
6186 5302 mt 6258 5302 L
6222 5266 mt 6222 5338 L
6209 5304 mt 6281 5304 L
6245 5268 mt 6245 5340 L
6233 5307 mt 6305 5307 L
6269 5271 mt 6269 5343 L
6257 5304 mt 6329 5304 L
6293 5268 mt 6293 5340 L
6281 5302 mt 6353 5302 L
6317 5266 mt 6317 5338 L
6305 5312 mt 6377 5312 L
6341 5276 mt 6341 5348 L
6329 5312 mt 6401 5312 L
6365 5276 mt 6365 5348 L
6353 5312 mt 6425 5312 L
6389 5276 mt 6389 5348 L
6377 5312 mt 6449 5312 L
6413 5276 mt 6413 5348 L
6401 5312 mt 6473 5312 L
6437 5276 mt 6437 5348 L
6425 5304 mt 6497 5304 L
6461 5268 mt 6461 5340 L
6448 5309 mt 6520 5309 L
6484 5273 mt 6484 5345 L
6472 5312 mt 6544 5312 L
6508 5276 mt 6508 5348 L
6496 5304 mt 6568 5304 L
6532 5268 mt 6532 5340 L
6520 5307 mt 6592 5307 L
6556 5271 mt 6556 5343 L
6544 5307 mt 6616 5307 L
6580 5271 mt 6580 5343 L
6568 5312 mt 6640 5312 L
6604 5276 mt 6604 5348 L
6592 5312 mt 6664 5312 L
6628 5276 mt 6628 5348 L
6616 5309 mt 6688 5309 L
6652 5273 mt 6652 5345 L
6640 5309 mt 6712 5309 L
6676 5273 mt 6676 5345 L
6664 5307 mt 6736 5307 L
6700 5271 mt 6700 5343 L
6687 5312 mt 6759 5312 L
6723 5276 mt 6723 5348 L
6711 5312 mt 6783 5312 L
6747 5276 mt 6747 5348 L
6735 5309 mt 6807 5309 L
6771 5273 mt 6771 5345 L
6759 5309 mt 6831 5309 L
6795 5273 mt 6795 5345 L
6783 5312 mt 6855 5312 L
6819 5276 mt 6819 5348 L
6807 5309 mt 6879 5309 L
6843 5273 mt 6843 5345 L
6831 5312 mt 6903 5312 L
6867 5276 mt 6867 5348 L
6855 5312 mt 6927 5312 L
6891 5276 mt 6891 5348 L
6879 5312 mt 6951 5312 L
6915 5276 mt 6915 5348 L
6903 5309 mt 6975 5309 L
6939 5273 mt 6939 5345 L
6926 5309 mt 6998 5309 L
6962 5273 mt 6962 5345 L
6950 5312 mt 7022 5312 L
6986 5276 mt 6986 5348 L
6974 5312 mt 7046 5312 L
7010 5276 mt 7010 5348 L
6998 5312 mt 7070 5312 L
7034 5276 mt 7034 5348 L
7022 5312 mt 7094 5312 L
7058 5276 mt 7058 5348 L
7046 5309 mt 7118 5309 L
7082 5273 mt 7082 5345 L
7070 5312 mt 7142 5312 L
7106 5276 mt 7106 5348 L
7094 5312 mt 7166 5312 L
7130 5276 mt 7130 5348 L
7118 5312 mt 7190 5312 L
7154 5276 mt 7154 5348 L
7142 5312 mt 7214 5312 L
7178 5276 mt 7178 5348 L
7165 5309 mt 7237 5309 L
7201 5273 mt 7201 5345 L
7189 5312 mt 7261 5312 L
7225 5276 mt 7225 5348 L
7213 5312 mt 7285 5312 L
7249 5276 mt 7249 5348 L
7237 5312 mt 7309 5312 L
7273 5276 mt 7273 5348 L
7261 5312 mt 7333 5312 L
7297 5276 mt 7297 5348 L
7285 5312 mt 7357 5312 L
7321 5276 mt 7321 5348 L
7309 5312 mt 7381 5312 L
7345 5276 mt 7345 5348 L
7333 5312 mt 7405 5312 L
7369 5276 mt 7369 5348 L
7357 5312 mt 7429 5312 L
7393 5276 mt 7393 5348 L
7381 5312 mt 7453 5312 L
7417 5276 mt 7417 5348 L
7404 5312 mt 7476 5312 L
7440 5276 mt 7440 5348 L
7428 5312 mt 7500 5312 L
7464 5276 mt 7464 5348 L
7452 5312 mt 7524 5312 L
7488 5276 mt 7488 5348 L
7476 5312 mt 7548 5312 L
7512 5276 mt 7512 5348 L
7500 5312 mt 7572 5312 L
7536 5276 mt 7536 5348 L
7524 5312 mt 7596 5312 L
7560 5276 mt 7560 5348 L
7548 5312 mt 7620 5312 L
7584 5276 mt 7584 5348 L
7572 5312 mt 7644 5312 L
7608 5276 mt 7608 5348 L
7596 5312 mt 7668 5312 L
7632 5276 mt 7632 5348 L
7620 5312 mt 7692 5312 L
7656 5276 mt 7656 5348 L
7643 5312 mt 7715 5312 L
7679 5276 mt 7679 5348 L
7667 5312 mt 7739 5312 L
7703 5276 mt 7703 5348 L
7691 5312 mt 7763 5312 L
7727 5276 mt 7727 5348 L
7715 5312 mt 7787 5312 L
7751 5276 mt 7751 5348 L
7739 5312 mt 7811 5312 L
7775 5276 mt 7775 5348 L
7763 5312 mt 7835 5312 L
7799 5276 mt 7799 5348 L
7787 5312 mt 7859 5312 L
7823 5276 mt 7823 5348 L
7811 5312 mt 7883 5312 L
7847 5276 mt 7847 5348 L
7835 5312 mt 7907 5312 L
7871 5276 mt 7871 5348 L
7859 5312 mt 7931 5312 L
7895 5276 mt 7895 5348 L
7882 5312 mt 7954 5312 L
7918 5276 mt 7918 5348 L
7906 5312 mt 7978 5312 L
7942 5276 mt 7942 5348 L
7930 5312 mt 8002 5312 L
7966 5276 mt 7966 5348 L
7954 5312 mt 8026 5312 L
7990 5276 mt 7990 5348 L
7978 5312 mt 8050 5312 L
8014 5276 mt 8014 5348 L
8002 5312 mt 8074 5312 L
8038 5276 mt 8038 5348 L
8026 5312 mt 8098 5312 L
8062 5276 mt 8062 5348 L
8050 5312 mt 8122 5312 L
8086 5276 mt 8086 5348 L
8074 5312 mt 8146 5312 L
8110 5276 mt 8110 5348 L
8098 5312 mt 8170 5312 L
8134 5276 mt 8134 5348 L
8121 5312 mt 8193 5312 L
8157 5276 mt 8157 5348 L
8145 5312 mt 8217 5312 L
8181 5276 mt 8181 5348 L
8169 5312 mt 8241 5312 L
8205 5276 mt 8205 5348 L
8193 5312 mt 8265 5312 L
8229 5276 mt 8229 5348 L
8217 5312 mt 8289 5312 L
8253 5276 mt 8253 5348 L
8241 5312 mt 8313 5312 L
8277 5276 mt 8277 5348 L
8265 5312 mt 8337 5312 L
8301 5276 mt 8301 5348 L
8289 5312 mt 8361 5312 L
8325 5276 mt 8325 5348 L
8313 5312 mt 8385 5312 L
8349 5276 mt 8349 5348 L
8337 5312 mt 8409 5312 L
8373 5276 mt 8373 5348 L
1201 5287 mt 1251 5337 L
1251 5287 mt 1201 5337 L
1225 5287 mt 1275 5337 L
1275 5287 mt 1225 5337 L
1249 5287 mt 1299 5337 L
1299 5287 mt 1249 5337 L
1273 5287 mt 1323 5337 L
1323 5287 mt 1273 5337 L
1297 5287 mt 1347 5337 L
1347 5287 mt 1297 5337 L
1321 5287 mt 1371 5337 L
1371 5287 mt 1321 5337 L
1345 5287 mt 1395 5337 L
1395 5287 mt 1345 5337 L
1369 5287 mt 1419 5337 L
1419 5287 mt 1369 5337 L
1393 5284 mt 1443 5334 L
1443 5284 mt 1393 5334 L
1417 5287 mt 1467 5337 L
1467 5287 mt 1417 5337 L
1440 5287 mt 1490 5337 L
1490 5287 mt 1440 5337 L
1464 5284 mt 1514 5334 L
1514 5284 mt 1464 5334 L
1488 5284 mt 1538 5334 L
1538 5284 mt 1488 5334 L
1512 5287 mt 1562 5337 L
1562 5287 mt 1512 5337 L
1536 5287 mt 1586 5337 L
1586 5287 mt 1536 5337 L
1560 5287 mt 1610 5337 L
1610 5287 mt 1560 5337 L
1584 5287 mt 1634 5337 L
1634 5287 mt 1584 5337 L
1608 5287 mt 1658 5337 L
1658 5287 mt 1608 5337 L
1632 5287 mt 1682 5337 L
1682 5287 mt 1632 5337 L
1656 5284 mt 1706 5334 L
1706 5284 mt 1656 5334 L
1679 5287 mt 1729 5337 L
1729 5287 mt 1679 5337 L
1703 5284 mt 1753 5334 L
1753 5284 mt 1703 5334 L
1727 5287 mt 1777 5337 L
1777 5287 mt 1727 5337 L
1751 5279 mt 1801 5329 L
1801 5279 mt 1751 5329 L
1775 5287 mt 1825 5337 L
1825 5287 mt 1775 5337 L
1799 5287 mt 1849 5337 L
1849 5287 mt 1799 5337 L
1823 5287 mt 1873 5337 L
1873 5287 mt 1823 5337 L
1847 5282 mt 1897 5332 L
1897 5282 mt 1847 5332 L
1871 5287 mt 1921 5337 L
1921 5287 mt 1871 5337 L
1895 5279 mt 1945 5329 L
1945 5279 mt 1895 5329 L
1918 5282 mt 1968 5332 L
1968 5282 mt 1918 5332 L
1942 5282 mt 1992 5332 L
1992 5282 mt 1942 5332 L
1966 5279 mt 2016 5329 L
2016 5279 mt 1966 5329 L
1990 5277 mt 2040 5327 L
2040 5277 mt 1990 5327 L
2014 5279 mt 2064 5329 L
2064 5279 mt 2014 5329 L
2038 5287 mt 2088 5337 L
2088 5287 mt 2038 5337 L
2062 5282 mt 2112 5332 L
2112 5282 mt 2062 5332 L
2086 5272 mt 2136 5322 L
2136 5272 mt 2086 5322 L
2110 5272 mt 2160 5322 L
2160 5272 mt 2110 5322 L
2134 5284 mt 2184 5334 L
2184 5284 mt 2134 5334 L
2157 5270 mt 2207 5320 L
2207 5270 mt 2157 5320 L
2181 5277 mt 2231 5327 L
2231 5277 mt 2181 5327 L
2205 5275 mt 2255 5325 L
2255 5275 mt 2205 5325 L
2229 5265 mt 2279 5315 L
2279 5265 mt 2229 5315 L
2253 5270 mt 2303 5320 L
2303 5270 mt 2253 5320 L
2277 5277 mt 2327 5327 L
2327 5277 mt 2277 5327 L
2301 5255 mt 2351 5305 L
2351 5255 mt 2301 5305 L
2325 5270 mt 2375 5320 L
2375 5270 mt 2325 5320 L
2349 5270 mt 2399 5320 L
2399 5270 mt 2349 5320 L
2373 5265 mt 2423 5315 L
2423 5265 mt 2373 5315 L
2396 5279 mt 2446 5329 L
2446 5279 mt 2396 5329 L
2420 5265 mt 2470 5315 L
2470 5265 mt 2420 5315 L
2444 5258 mt 2494 5308 L
2494 5258 mt 2444 5308 L
2468 5244 mt 2518 5294 L
2518 5244 mt 2468 5294 L
2492 5263 mt 2542 5313 L
2542 5263 mt 2492 5313 L
2516 5258 mt 2566 5308 L
2566 5258 mt 2516 5308 L
2540 5258 mt 2590 5308 L
2590 5258 mt 2540 5308 L
2564 5236 mt 2614 5286 L
2614 5236 mt 2564 5286 L
2588 5236 mt 2638 5286 L
2638 5236 mt 2588 5286 L
2612 5246 mt 2662 5296 L
2662 5246 mt 2612 5296 L
2635 5248 mt 2685 5298 L
2685 5248 mt 2635 5298 L
2659 5229 mt 2709 5279 L
2709 5229 mt 2659 5279 L
2683 5234 mt 2733 5284 L
2733 5234 mt 2683 5284 L
2707 5246 mt 2757 5296 L
2757 5246 mt 2707 5296 L
2731 5229 mt 2781 5279 L
2781 5229 mt 2731 5279 L
2755 5232 mt 2805 5282 L
2805 5232 mt 2755 5282 L
2779 5212 mt 2829 5262 L
2829 5212 mt 2779 5262 L
2803 5224 mt 2853 5274 L
2853 5224 mt 2803 5274 L
2827 5217 mt 2877 5267 L
2877 5217 mt 2827 5267 L
2851 5246 mt 2901 5296 L
2901 5246 mt 2851 5296 L
2874 5181 mt 2924 5231 L
2924 5181 mt 2874 5231 L
2898 5189 mt 2948 5239 L
2948 5189 mt 2898 5239 L
2922 5193 mt 2972 5243 L
2972 5193 mt 2922 5243 L
2946 5205 mt 2996 5255 L
2996 5205 mt 2946 5255 L
2970 5181 mt 3020 5231 L
3020 5181 mt 2970 5231 L
2994 5158 mt 3044 5208 L
3044 5158 mt 2994 5208 L
3018 5141 mt 3068 5191 L
3068 5141 mt 3018 5191 L
3042 5091 mt 3092 5141 L
3092 5091 mt 3042 5141 L
3066 5117 mt 3116 5167 L
3116 5117 mt 3066 5167 L
3090 5088 mt 3140 5138 L
3140 5088 mt 3090 5138 L
3113 5081 mt 3163 5131 L
3163 5081 mt 3113 5131 L
3137 5055 mt 3187 5105 L
3187 5055 mt 3137 5105 L
3161 5019 mt 3211 5069 L
3211 5019 mt 3161 5069 L
3185 5045 mt 3235 5095 L
3235 5045 mt 3185 5095 L
3209 4950 mt 3259 5000 L
3259 4950 mt 3209 5000 L
3233 4993 mt 3283 5043 L
3283 4993 mt 3233 5043 L
3257 4952 mt 3307 5002 L
3307 4952 mt 3257 5002 L
3281 4935 mt 3331 4985 L
3331 4935 mt 3281 4985 L
3305 4888 mt 3355 4938 L
3355 4888 mt 3305 4938 L
3329 4892 mt 3379 4942 L
3379 4892 mt 3329 4942 L
3352 4881 mt 3402 4931 L
3402 4881 mt 3352 4931 L
3376 4861 mt 3426 4911 L
3426 4861 mt 3376 4911 L
3400 4775 mt 3450 4825 L
3450 4775 mt 3400 4825 L
3424 4785 mt 3474 4835 L
3474 4785 mt 3424 4835 L
3448 4792 mt 3498 4842 L
3498 4792 mt 3448 4842 L
3472 4692 mt 3522 4742 L
3522 4692 mt 3472 4742 L
3496 4656 mt 3546 4706 L
3546 4656 mt 3496 4706 L
3520 4604 mt 3570 4654 L
3570 4604 mt 3520 4654 L
3544 4594 mt 3594 4644 L
3594 4594 mt 3544 4644 L
3568 4546 mt 3618 4596 L
3618 4546 mt 3568 4596 L
3591 4463 mt 3641 4513 L
3641 4463 mt 3591 4513 L
3615 4453 mt 3665 4503 L
3665 4453 mt 3615 4503 L
3639 4331 mt 3689 4381 L
3689 4331 mt 3639 4381 L
3663 4341 mt 3713 4391 L
3713 4341 mt 3663 4391 L
3687 4279 mt 3737 4329 L
3737 4279 mt 3687 4329 L
3711 4107 mt 3761 4157 L
3761 4107 mt 3711 4157 L
3735 4047 mt 3785 4097 L
3785 4047 mt 3735 4097 L
3759 4035 mt 3809 4085 L
3809 4035 mt 3759 4085 L
3783 3906 mt 3833 3956 L
3833 3906 mt 3783 3956 L
3807 3739 mt 3857 3789 L
3857 3739 mt 3807 3789 L
3830 3677 mt 3880 3727 L
3880 3677 mt 3830 3727 L
3854 3519 mt 3904 3569 L
3904 3519 mt 3854 3569 L
3878 3582 mt 3928 3632 L
3928 3582 mt 3878 3632 L
3902 3429 mt 3952 3479 L
3952 3429 mt 3902 3479 L
3926 3352 mt 3976 3402 L
3976 3352 mt 3926 3402 L
3950 3226 mt 4000 3276 L
4000 3226 mt 3950 3276 L
3974 3051 mt 4024 3101 L
4024 3051 mt 3974 3101 L
3998 2937 mt 4048 2987 L
4048 2937 mt 3998 2987 L
4022 2946 mt 4072 2996 L
4072 2946 mt 4022 2996 L
4046 2834 mt 4096 2884 L
4096 2834 mt 4046 2884 L
4069 2610 mt 4119 2660 L
4119 2610 mt 4069 2660 L
4093 2481 mt 4143 2531 L
4143 2481 mt 4093 2531 L
4117 2588 mt 4167 2638 L
4167 2588 mt 4117 2638 L
4141 2414 mt 4191 2464 L
4191 2414 mt 4141 2464 L
4165 2225 mt 4215 2275 L
4215 2225 mt 4165 2275 L
4189 2163 mt 4239 2213 L
4239 2163 mt 4189 2213 L
4213 2010 mt 4263 2060 L
4263 2010 mt 4213 2060 L
4237 1881 mt 4287 1931 L
4287 1881 mt 4237 1931 L
4261 2053 mt 4311 2103 L
4311 2053 mt 4261 2103 L
4285 1783 mt 4335 1833 L
4335 1783 mt 4285 1833 L
4308 1678 mt 4358 1728 L
4358 1678 mt 4308 1728 L
4332 1917 mt 4382 1967 L
4382 1917 mt 4332 1967 L
4356 1798 mt 4406 1848 L
4406 1798 mt 4356 1848 L
4380 1860 mt 4430 1910 L
4430 1860 mt 4380 1910 L
4404 1652 mt 4454 1702 L
4454 1652 mt 4404 1702 L
4428 1824 mt 4478 1874 L
4478 1824 mt 4428 1874 L
4452 1843 mt 4502 1893 L
4502 1843 mt 4452 1893 L
4476 1822 mt 4526 1872 L
4526 1822 mt 4476 1872 L
4500 1755 mt 4550 1805 L
4550 1755 mt 4500 1805 L
4524 1877 mt 4574 1927 L
4574 1877 mt 4524 1927 L
4547 2087 mt 4597 2137 L
4597 2087 mt 4547 2137 L
4571 2025 mt 4621 2075 L
4621 2025 mt 4571 2075 L
4595 2251 mt 4645 2301 L
4645 2251 mt 4595 2301 L
4619 2330 mt 4669 2380 L
4669 2330 mt 4619 2380 L
4643 2345 mt 4693 2395 L
4693 2345 mt 4643 2395 L
4667 2591 mt 4717 2641 L
4717 2591 mt 4667 2641 L
4691 2571 mt 4741 2621 L
4741 2571 mt 4691 2621 L
4715 2688 mt 4765 2738 L
4765 2688 mt 4715 2738 L
4739 2939 mt 4789 2989 L
4789 2939 mt 4739 2989 L
4763 2932 mt 4813 2982 L
4813 2932 mt 4763 2982 L
4786 3090 mt 4836 3140 L
4836 3090 mt 4786 3140 L
4810 3216 mt 4860 3266 L
4860 3216 mt 4810 3266 L
4834 3457 mt 4884 3507 L
4884 3457 mt 4834 3507 L
4858 3634 mt 4908 3684 L
4908 3634 mt 4858 3684 L
4882 3641 mt 4932 3691 L
4932 3641 mt 4882 3691 L
4906 3890 mt 4956 3940 L
4956 3890 mt 4906 3940 L
4930 3985 mt 4980 4035 L
4980 3985 mt 4930 4035 L
4954 4002 mt 5004 4052 L
5004 4002 mt 4954 4052 L
4978 4112 mt 5028 4162 L
5028 4112 mt 4978 4162 L
5002 4262 mt 5052 4312 L
5052 4262 mt 5002 4312 L
5025 4317 mt 5075 4367 L
5075 4317 mt 5025 4367 L
5049 4456 mt 5099 4506 L
5099 4456 mt 5049 4506 L
5073 4429 mt 5123 4479 L
5123 4429 mt 5073 4479 L
5097 4580 mt 5147 4630 L
5147 4580 mt 5097 4630 L
5121 4642 mt 5171 4692 L
5171 4642 mt 5121 4692 L
5145 4678 mt 5195 4728 L
5195 4678 mt 5145 4728 L
5169 4783 mt 5219 4833 L
5219 4783 mt 5169 4833 L
5193 4826 mt 5243 4876 L
5243 4826 mt 5193 4876 L
5217 4828 mt 5267 4878 L
5267 4828 mt 5217 4878 L
5241 4933 mt 5291 4983 L
5291 4933 mt 5241 4983 L
5264 4964 mt 5314 5014 L
5314 4964 mt 5264 5014 L
5288 4983 mt 5338 5033 L
5338 4983 mt 5288 5033 L
5312 4998 mt 5362 5048 L
5362 4998 mt 5312 5048 L
5336 5017 mt 5386 5067 L
5386 5017 mt 5336 5067 L
5360 5086 mt 5410 5136 L
5410 5086 mt 5360 5136 L
5384 5088 mt 5434 5138 L
5434 5088 mt 5384 5138 L
5408 5093 mt 5458 5143 L
5458 5093 mt 5408 5143 L
5432 5105 mt 5482 5155 L
5482 5105 mt 5432 5155 L
5456 5088 mt 5506 5138 L
5506 5088 mt 5456 5138 L
5480 5153 mt 5530 5203 L
5530 5153 mt 5480 5203 L
5503 5117 mt 5553 5167 L
5553 5117 mt 5503 5167 L
5527 5143 mt 5577 5193 L
5577 5143 mt 5527 5193 L
5551 5186 mt 5601 5236 L
5601 5186 mt 5551 5236 L
5575 5165 mt 5625 5215 L
5625 5165 mt 5575 5215 L
5599 5186 mt 5649 5236 L
5649 5186 mt 5599 5236 L
5623 5205 mt 5673 5255 L
5673 5205 mt 5623 5255 L
5647 5205 mt 5697 5255 L
5697 5205 mt 5647 5255 L
5671 5220 mt 5721 5270 L
5721 5220 mt 5671 5270 L
5695 5215 mt 5745 5265 L
5745 5215 mt 5695 5265 L
5719 5215 mt 5769 5265 L
5769 5215 mt 5719 5265 L
5742 5241 mt 5792 5291 L
5792 5241 mt 5742 5291 L
5766 5239 mt 5816 5289 L
5816 5239 mt 5766 5289 L
5790 5236 mt 5840 5286 L
5840 5236 mt 5790 5286 L
5814 5251 mt 5864 5301 L
5864 5251 mt 5814 5301 L
5838 5248 mt 5888 5298 L
5888 5248 mt 5838 5298 L
5862 5246 mt 5912 5296 L
5912 5246 mt 5862 5296 L
5886 5246 mt 5936 5296 L
5936 5246 mt 5886 5296 L
5910 5263 mt 5960 5313 L
5960 5263 mt 5910 5313 L
5934 5270 mt 5984 5320 L
5984 5270 mt 5934 5320 L
5958 5265 mt 6008 5315 L
6008 5265 mt 5958 5315 L
5981 5260 mt 6031 5310 L
6031 5260 mt 5981 5310 L
6005 5265 mt 6055 5315 L
6055 5265 mt 6005 5315 L
6029 5258 mt 6079 5308 L
6079 5258 mt 6029 5308 L
6053 5275 mt 6103 5325 L
6103 5275 mt 6053 5325 L
6077 5275 mt 6127 5325 L
6127 5275 mt 6077 5325 L
6101 5275 mt 6151 5325 L
6151 5275 mt 6101 5325 L
6125 5279 mt 6175 5329 L
6175 5279 mt 6125 5329 L
6149 5275 mt 6199 5325 L
6199 5275 mt 6149 5325 L
6173 5277 mt 6223 5327 L
6223 5277 mt 6173 5327 L
6197 5277 mt 6247 5327 L
6247 5277 mt 6197 5327 L
6220 5279 mt 6270 5329 L
6270 5279 mt 6220 5329 L
6244 5282 mt 6294 5332 L
6294 5282 mt 6244 5332 L
6268 5279 mt 6318 5329 L
6318 5279 mt 6268 5329 L
6292 5277 mt 6342 5327 L
6342 5277 mt 6292 5327 L
6316 5287 mt 6366 5337 L
6366 5287 mt 6316 5337 L
6340 5287 mt 6390 5337 L
6390 5287 mt 6340 5337 L
6364 5287 mt 6414 5337 L
6414 5287 mt 6364 5337 L
6388 5287 mt 6438 5337 L
6438 5287 mt 6388 5337 L
6412 5287 mt 6462 5337 L
6462 5287 mt 6412 5337 L
6436 5279 mt 6486 5329 L
6486 5279 mt 6436 5329 L
6459 5284 mt 6509 5334 L
6509 5284 mt 6459 5334 L
6483 5287 mt 6533 5337 L
6533 5287 mt 6483 5337 L
6507 5279 mt 6557 5329 L
6557 5279 mt 6507 5329 L
6531 5282 mt 6581 5332 L
6581 5282 mt 6531 5332 L
6555 5282 mt 6605 5332 L
6605 5282 mt 6555 5332 L
6579 5287 mt 6629 5337 L
6629 5287 mt 6579 5337 L
6603 5287 mt 6653 5337 L
6653 5287 mt 6603 5337 L
6627 5284 mt 6677 5334 L
6677 5284 mt 6627 5334 L
6651 5284 mt 6701 5334 L
6701 5284 mt 6651 5334 L
6675 5282 mt 6725 5332 L
6725 5282 mt 6675 5332 L
6698 5287 mt 6748 5337 L
6748 5287 mt 6698 5337 L
6722 5287 mt 6772 5337 L
6772 5287 mt 6722 5337 L
6746 5284 mt 6796 5334 L
6796 5284 mt 6746 5334 L
6770 5284 mt 6820 5334 L
6820 5284 mt 6770 5334 L
6794 5287 mt 6844 5337 L
6844 5287 mt 6794 5337 L
6818 5284 mt 6868 5334 L
6868 5284 mt 6818 5334 L
6842 5287 mt 6892 5337 L
6892 5287 mt 6842 5337 L
6866 5287 mt 6916 5337 L
6916 5287 mt 6866 5337 L
6890 5287 mt 6940 5337 L
6940 5287 mt 6890 5337 L
6914 5284 mt 6964 5334 L
6964 5284 mt 6914 5334 L
6937 5284 mt 6987 5334 L
6987 5284 mt 6937 5334 L
6961 5287 mt 7011 5337 L
7011 5287 mt 6961 5337 L
6985 5287 mt 7035 5337 L
7035 5287 mt 6985 5337 L
7009 5287 mt 7059 5337 L
7059 5287 mt 7009 5337 L
7033 5287 mt 7083 5337 L
7083 5287 mt 7033 5337 L
7057 5284 mt 7107 5334 L
7107 5284 mt 7057 5334 L
7081 5287 mt 7131 5337 L
7131 5287 mt 7081 5337 L
7105 5287 mt 7155 5337 L
7155 5287 mt 7105 5337 L
7129 5287 mt 7179 5337 L
7179 5287 mt 7129 5337 L
7153 5287 mt 7203 5337 L
7203 5287 mt 7153 5337 L
7176 5284 mt 7226 5334 L
7226 5284 mt 7176 5334 L
7200 5287 mt 7250 5337 L
7250 5287 mt 7200 5337 L
7224 5287 mt 7274 5337 L
7274 5287 mt 7224 5337 L
7248 5287 mt 7298 5337 L
7298 5287 mt 7248 5337 L
7272 5287 mt 7322 5337 L
7322 5287 mt 7272 5337 L
7296 5287 mt 7346 5337 L
7346 5287 mt 7296 5337 L
7320 5287 mt 7370 5337 L
7370 5287 mt 7320 5337 L
7344 5287 mt 7394 5337 L
7394 5287 mt 7344 5337 L
7368 5287 mt 7418 5337 L
7418 5287 mt 7368 5337 L
7392 5287 mt 7442 5337 L
7442 5287 mt 7392 5337 L
7415 5287 mt 7465 5337 L
7465 5287 mt 7415 5337 L
7439 5287 mt 7489 5337 L
7489 5287 mt 7439 5337 L
7463 5287 mt 7513 5337 L
7513 5287 mt 7463 5337 L
7487 5287 mt 7537 5337 L
7537 5287 mt 7487 5337 L
7511 5287 mt 7561 5337 L
7561 5287 mt 7511 5337 L
7535 5287 mt 7585 5337 L
7585 5287 mt 7535 5337 L
7559 5287 mt 7609 5337 L
7609 5287 mt 7559 5337 L
7583 5287 mt 7633 5337 L
7633 5287 mt 7583 5337 L
7607 5287 mt 7657 5337 L
7657 5287 mt 7607 5337 L
7631 5287 mt 7681 5337 L
7681 5287 mt 7631 5337 L
7654 5287 mt 7704 5337 L
7704 5287 mt 7654 5337 L
7678 5287 mt 7728 5337 L
7728 5287 mt 7678 5337 L
7702 5287 mt 7752 5337 L
7752 5287 mt 7702 5337 L
7726 5287 mt 7776 5337 L
7776 5287 mt 7726 5337 L
7750 5287 mt 7800 5337 L
7800 5287 mt 7750 5337 L
7774 5287 mt 7824 5337 L
7824 5287 mt 7774 5337 L
7798 5287 mt 7848 5337 L
7848 5287 mt 7798 5337 L
7822 5287 mt 7872 5337 L
7872 5287 mt 7822 5337 L
7846 5287 mt 7896 5337 L
7896 5287 mt 7846 5337 L
7870 5287 mt 7920 5337 L
7920 5287 mt 7870 5337 L
7893 5287 mt 7943 5337 L
7943 5287 mt 7893 5337 L
7917 5287 mt 7967 5337 L
7967 5287 mt 7917 5337 L
7941 5287 mt 7991 5337 L
7991 5287 mt 7941 5337 L
7965 5287 mt 8015 5337 L
8015 5287 mt 7965 5337 L
7989 5287 mt 8039 5337 L
8039 5287 mt 7989 5337 L
8013 5287 mt 8063 5337 L
8063 5287 mt 8013 5337 L
8037 5287 mt 8087 5337 L
8087 5287 mt 8037 5337 L
8061 5287 mt 8111 5337 L
8111 5287 mt 8061 5337 L
8085 5287 mt 8135 5337 L
8135 5287 mt 8085 5337 L
8109 5287 mt 8159 5337 L
8159 5287 mt 8109 5337 L
8132 5287 mt 8182 5337 L
8182 5287 mt 8132 5337 L
8156 5287 mt 8206 5337 L
8206 5287 mt 8156 5337 L
8180 5287 mt 8230 5337 L
8230 5287 mt 8180 5337 L
8204 5287 mt 8254 5337 L
8254 5287 mt 8204 5337 L
8228 5287 mt 8278 5337 L
8278 5287 mt 8228 5337 L
8252 5287 mt 8302 5337 L
8302 5287 mt 8252 5337 L
8276 5287 mt 8326 5337 L
8326 5287 mt 8276 5337 L
8300 5287 mt 8350 5337 L
8350 5287 mt 8300 5337 L
8324 5287 mt 8374 5337 L
8374 5287 mt 8324 5337 L
8348 5287 mt 8398 5337 L
8398 5287 mt 8348 5337 L
gs 1203 448 7171 4865 rc
/c9 { 0.000000 0.000000 1.000000 sr} bdef
c9
24 0 24 0 24 0 24 0 24 0 24 0 24 0 24 0 
24 0 23 0 24 0 24 0 24 0 24 0 24 0 24 0 
24 0 24 0 24 0 23 0 24 0 24 0 24 0 24 0 
24 0 24 0 24 0 24 6 24 -6 23 0 24 0 24 0 
24 0 24 0 24 0 24 0 24 0 24 0 24 0 23 0 
24 0 24 0 24 12 24 -12 24 0 24 6 24 -6 24 12 
24 -6 23 0 24 0 24 6 24 -12 24 6 24 6 24 -12 
24 0 24 0 24 6 23 0 24 -6 24 0 24 0 24 12 
24 6 24 -6 24 -6 24 6 24 6 23 -6 24 0 24 0 
24 17 24 6 24 -6 24 0 24 17 24 29 24 -52 23 12 
24 28 24 -28 24 5 24 0 24 0 24 23 24 -5 24 0 
24 0 23 40 24 11 24 -11 24 0 24 5 24 0 24 -23 
24 40 24 35 24 11 23 -11 24 51 24 -23 24 46 24 11 
24 6 24 6 24 51 24 -28 24 -12 23 63 24 200 24 -74 
24 5 24 -11 24 131 24 35 24 -40 24 125 24 -11 23 -114 
24 188 24 -11 24 -23 24 171 24 0 24 211 24 -40 24 52 
24 108 23 -17 24 234 24 172 24 -172 24 109 24 348 24 -45 
24 -6 24 360 24 -86 23 23 24 137 24 297 24 -240 24 57 
24 132 24 376 24 -51 24 -183 24 257 23 -11 24 -46 24 331 
24 -171 24 52 24 125 24 -394 24 354 24 -223 24 292 23 -292 
24 -51 24 -183 24 212 24 -63 24 -206 24 69 24 -57 24 -292 
24 -194 23 -46 24 23 24 -45 24 -86 24 -143 24 -46 24 -5 
24 -17 24 -172 24 -91 23 -11 24 -183 24 -46 24 -148 24 114 
24 -109 24 -45 24 -200 24 -23 24 -29 23 -137 24 57 24 -40 
24 -74 24 -40 24 -63 24 -5 24 -57 24 -63 24 -12 23 -40 
24 23 24 -46 24 -22 24 -40 24 -86 24 57 24 -23 24 -17 
24 0 23 -23 24 -23 24 -85 24 125 24 -51 24 -57 24 34 
24 -51 24 -23 24 -12 23 23 24 -5 24 -18 24 -11 24 0 
24 -34 24 28 24 17 24 -28 24 11 23 -28 24 11 24 -6 
24 0 24 -5 24 -12 24 0 24 -5 24 17 24 11 23 -6 
24 -5 24 -23 24 17 24 -6 24 17 24 -17 24 -5 24 5 
24 -17 23 0 24 0 24 -6 24 18 24 0 24 -12 24 6 
24 -12 24 0 24 12 23 -12 24 6 24 6 24 -6 24 -6 
24 23 24 -23 24 0 24 0 24 0 23 0 24 6 24 -6 
24 0 24 0 24 0 24 0 24 0 24 6 24 -6 23 6 
24 -6 24 0 24 6 24 -6 24 6 24 -6 24 0 24 0 
24 0 23 0 24 6 24 -6 24 0 24 0 24 0 24 0 
24 0 24 0 24 0 1226 5312 300 MP stroke
gr

c9
1190 5312 mt 1262 5312 L
1226 5276 mt 1226 5348 L
1214 5312 mt 1286 5312 L
1250 5276 mt 1250 5348 L
1238 5312 mt 1310 5312 L
1274 5276 mt 1274 5348 L
1262 5312 mt 1334 5312 L
1298 5276 mt 1298 5348 L
1286 5312 mt 1358 5312 L
1322 5276 mt 1322 5348 L
1310 5312 mt 1382 5312 L
1346 5276 mt 1346 5348 L
1334 5312 mt 1406 5312 L
1370 5276 mt 1370 5348 L
1358 5312 mt 1430 5312 L
1394 5276 mt 1394 5348 L
1382 5306 mt 1454 5306 L
1418 5270 mt 1418 5342 L
1406 5312 mt 1478 5312 L
1442 5276 mt 1442 5348 L
1429 5312 mt 1501 5312 L
1465 5276 mt 1465 5348 L
1453 5312 mt 1525 5312 L
1489 5276 mt 1489 5348 L
1477 5312 mt 1549 5312 L
1513 5276 mt 1513 5348 L
1501 5312 mt 1573 5312 L
1537 5276 mt 1537 5348 L
1525 5306 mt 1597 5306 L
1561 5270 mt 1561 5342 L
1549 5312 mt 1621 5312 L
1585 5276 mt 1585 5348 L
1573 5306 mt 1645 5306 L
1609 5270 mt 1609 5342 L
1597 5312 mt 1669 5312 L
1633 5276 mt 1633 5348 L
1621 5312 mt 1693 5312 L
1657 5276 mt 1657 5348 L
1645 5306 mt 1717 5306 L
1681 5270 mt 1681 5342 L
1668 5312 mt 1740 5312 L
1704 5276 mt 1704 5348 L
1692 5306 mt 1764 5306 L
1728 5270 mt 1728 5342 L
1716 5312 mt 1788 5312 L
1752 5276 mt 1752 5348 L
1740 5312 mt 1812 5312 L
1776 5276 mt 1776 5348 L
1764 5312 mt 1836 5312 L
1800 5276 mt 1800 5348 L
1788 5312 mt 1860 5312 L
1824 5276 mt 1824 5348 L
1812 5312 mt 1884 5312 L
1848 5276 mt 1848 5348 L
1836 5312 mt 1908 5312 L
1872 5276 mt 1872 5348 L
1860 5306 mt 1932 5306 L
1896 5270 mt 1896 5342 L
1884 5312 mt 1956 5312 L
1920 5276 mt 1920 5348 L
1907 5312 mt 1979 5312 L
1943 5276 mt 1943 5348 L
1931 5312 mt 2003 5312 L
1967 5276 mt 1967 5348 L
1955 5312 mt 2027 5312 L
1991 5276 mt 1991 5348 L
1979 5312 mt 2051 5312 L
2015 5276 mt 2015 5348 L
2003 5289 mt 2075 5289 L
2039 5253 mt 2039 5325 L
2027 5312 mt 2099 5312 L
2063 5276 mt 2063 5348 L
2051 5306 mt 2123 5306 L
2087 5270 mt 2087 5342 L
2075 5300 mt 2147 5300 L
2111 5264 mt 2111 5336 L
2099 5306 mt 2171 5306 L
2135 5270 mt 2135 5342 L
2123 5312 mt 2195 5312 L
2159 5276 mt 2159 5348 L
2146 5300 mt 2218 5300 L
2182 5264 mt 2182 5336 L
2170 5312 mt 2242 5312 L
2206 5276 mt 2206 5348 L
2194 5312 mt 2266 5312 L
2230 5276 mt 2230 5348 L
2218 5300 mt 2290 5300 L
2254 5264 mt 2254 5336 L
2242 5306 mt 2314 5306 L
2278 5270 mt 2278 5342 L
2266 5294 mt 2338 5294 L
2302 5258 mt 2302 5330 L
2290 5294 mt 2362 5294 L
2326 5258 mt 2326 5330 L
2314 5312 mt 2386 5312 L
2350 5276 mt 2350 5348 L
2338 5306 mt 2410 5306 L
2374 5270 mt 2374 5342 L
2362 5306 mt 2434 5306 L
2398 5270 mt 2398 5342 L
2385 5306 mt 2457 5306 L
2421 5270 mt 2421 5342 L
2409 5289 mt 2481 5289 L
2445 5253 mt 2445 5325 L
2433 5294 mt 2505 5294 L
2469 5258 mt 2469 5330 L
2457 5289 mt 2529 5289 L
2493 5253 mt 2493 5325 L
2481 5272 mt 2553 5272 L
2517 5236 mt 2517 5308 L
2505 5289 mt 2577 5289 L
2541 5253 mt 2541 5325 L
2529 5283 mt 2601 5283 L
2565 5247 mt 2565 5319 L
2553 5300 mt 2625 5300 L
2589 5264 mt 2589 5336 L
2577 5277 mt 2649 5277 L
2613 5241 mt 2613 5313 L
2601 5272 mt 2673 5272 L
2637 5236 mt 2637 5308 L
2624 5266 mt 2696 5266 L
2660 5230 mt 2660 5302 L
2648 5277 mt 2720 5277 L
2684 5241 mt 2684 5313 L
2672 5294 mt 2744 5294 L
2708 5258 mt 2708 5330 L
2696 5289 mt 2768 5289 L
2732 5253 mt 2732 5325 L
2720 5289 mt 2792 5289 L
2756 5253 mt 2756 5325 L
2744 5277 mt 2816 5277 L
2780 5241 mt 2780 5313 L
2768 5272 mt 2840 5272 L
2804 5236 mt 2804 5308 L
2792 5272 mt 2864 5272 L
2828 5236 mt 2828 5308 L
2816 5266 mt 2888 5266 L
2852 5230 mt 2852 5302 L
2840 5277 mt 2912 5277 L
2876 5241 mt 2876 5313 L
2863 5249 mt 2935 5249 L
2899 5213 mt 2899 5285 L
2887 5260 mt 2959 5260 L
2923 5224 mt 2923 5296 L
2911 5232 mt 2983 5232 L
2947 5196 mt 2947 5268 L
2935 5249 mt 3007 5249 L
2971 5213 mt 2971 5285 L
2959 5277 mt 3031 5277 L
2995 5241 mt 2995 5313 L
2983 5243 mt 3055 5243 L
3019 5207 mt 3019 5279 L
3007 5243 mt 3079 5243 L
3043 5207 mt 3043 5279 L
3031 5232 mt 3103 5232 L
3067 5196 mt 3067 5268 L
3055 5214 mt 3127 5214 L
3091 5178 mt 3091 5250 L
3079 5209 mt 3151 5209 L
3115 5173 mt 3115 5245 L
3102 5232 mt 3174 5232 L
3138 5196 mt 3138 5268 L
3126 5220 mt 3198 5220 L
3162 5184 mt 3162 5256 L
3150 5197 mt 3222 5197 L
3186 5161 mt 3186 5233 L
3174 5146 mt 3246 5146 L
3210 5110 mt 3210 5182 L
3198 5180 mt 3270 5180 L
3234 5144 mt 3234 5216 L
3222 5123 mt 3294 5123 L
3258 5087 mt 3258 5159 L
3246 5072 mt 3318 5072 L
3282 5036 mt 3282 5108 L
3270 5197 mt 3342 5197 L
3306 5161 mt 3306 5233 L
3294 5112 mt 3366 5112 L
3330 5076 mt 3330 5148 L
3318 5089 mt 3390 5089 L
3354 5053 mt 3354 5125 L
3341 5066 mt 3413 5066 L
3377 5030 mt 3377 5102 L
3365 5066 mt 3437 5066 L
3401 5030 mt 3401 5102 L
3389 5049 mt 3461 5049 L
3425 5013 mt 3425 5085 L
3413 5026 mt 3485 5026 L
3449 4990 mt 3449 5062 L
3437 5083 mt 3509 5083 L
3473 5047 mt 3473 5119 L
3461 4997 mt 3533 4997 L
3497 4961 mt 3497 5033 L
3485 4957 mt 3557 4957 L
3521 4921 mt 3521 4993 L
3509 4935 mt 3581 4935 L
3545 4899 mt 3545 4971 L
3533 4889 mt 3605 4889 L
3569 4853 mt 3569 4925 L
3557 4912 mt 3629 4912 L
3593 4876 mt 3593 4948 L
3580 4872 mt 3652 4872 L
3616 4836 mt 3616 4908 L
3604 4860 mt 3676 4860 L
3640 4824 mt 3640 4896 L
3628 4797 mt 3700 4797 L
3664 4761 mt 3664 4833 L
3652 4740 mt 3724 4740 L
3688 4704 mt 3688 4776 L
3676 4735 mt 3748 4735 L
3712 4699 mt 3712 4771 L
3700 4672 mt 3772 4672 L
3736 4636 mt 3736 4708 L
3724 4632 mt 3796 4632 L
3760 4596 mt 3760 4668 L
3748 4558 mt 3820 4558 L
3784 4522 mt 3784 4594 L
3772 4518 mt 3844 4518 L
3808 4482 mt 3808 4554 L
3796 4575 mt 3868 4575 L
3832 4539 mt 3832 4611 L
3819 4438 mt 3891 4438 L
3855 4402 mt 3855 4474 L
3843 4409 mt 3915 4409 L
3879 4373 mt 3879 4445 L
3867 4386 mt 3939 4386 L
3903 4350 mt 3903 4422 L
3891 4186 mt 3963 4186 L
3927 4150 mt 3927 4222 L
3915 4141 mt 3987 4141 L
3951 4105 mt 3951 4177 L
3939 4032 mt 4011 4032 L
3975 3996 mt 3975 4068 L
3963 4146 mt 4035 4146 L
3999 4110 mt 3999 4182 L
3987 3998 mt 4059 3998 L
4023 3962 mt 4023 4034 L
4011 3952 mt 4083 3952 L
4047 3916 mt 4047 3988 L
4035 3769 mt 4107 3769 L
4071 3733 mt 4071 3805 L
4058 3758 mt 4130 3758 L
4094 3722 mt 4094 3794 L
4082 3667 mt 4154 3667 L
4118 3631 mt 4118 3703 L
4106 3495 mt 4178 3495 L
4142 3459 mt 4142 3531 L
4130 3478 mt 4202 3478 L
4166 3442 mt 4166 3514 L
4154 3473 mt 4226 3473 L
4190 3437 mt 4190 3509 L
4178 3427 mt 4250 3427 L
4214 3391 mt 4214 3463 L
4202 3284 mt 4274 3284 L
4238 3248 mt 4238 3320 L
4226 3198 mt 4298 3198 L
4262 3162 mt 4262 3234 L
4250 3153 mt 4322 3153 L
4286 3117 mt 4286 3189 L
4274 3176 mt 4346 3176 L
4310 3140 mt 4310 3212 L
4297 3130 mt 4369 3130 L
4333 3094 mt 4333 3166 L
4321 2936 mt 4393 2936 L
4357 2900 mt 4357 2972 L
4345 2644 mt 4417 2644 L
4381 2608 mt 4381 2680 L
4369 2587 mt 4441 2587 L
4405 2551 mt 4405 2623 L
4393 2656 mt 4465 2656 L
4429 2620 mt 4429 2692 L
4417 2450 mt 4489 2450 L
4453 2414 mt 4453 2486 L
4441 2387 mt 4513 2387 L
4477 2351 mt 4477 2423 L
4465 2599 mt 4537 2599 L
4501 2563 mt 4501 2635 L
4489 2416 mt 4561 2416 L
4525 2380 mt 4525 2452 L
4513 2365 mt 4585 2365 L
4549 2329 mt 4549 2401 L
4536 2073 mt 4608 2073 L
4572 2037 mt 4572 2109 L
4560 2365 mt 4632 2365 L
4596 2329 mt 4596 2401 L
4584 2142 mt 4656 2142 L
4620 2106 mt 4620 2178 L
4608 2496 mt 4680 2496 L
4644 2460 mt 4644 2532 L
4632 2102 mt 4704 2102 L
4668 2066 mt 4668 2138 L
4656 2227 mt 4728 2227 L
4692 2191 mt 4692 2263 L
4680 2279 mt 4752 2279 L
4716 2243 mt 4716 2315 L
4704 2108 mt 4776 2108 L
4740 2072 mt 4740 2144 L
4728 2439 mt 4800 2439 L
4764 2403 mt 4764 2475 L
4752 2393 mt 4824 2393 L
4788 2357 mt 4788 2429 L
4775 2382 mt 4847 2382 L
4811 2346 mt 4811 2418 L
4799 2639 mt 4871 2639 L
4835 2603 mt 4835 2675 L
4823 2456 mt 4895 2456 L
4859 2420 mt 4859 2492 L
4847 2405 mt 4919 2405 L
4883 2369 mt 4883 2441 L
4871 2781 mt 4943 2781 L
4907 2745 mt 4907 2817 L
4895 2913 mt 4967 2913 L
4931 2877 mt 4931 2949 L
4919 2970 mt 4991 2970 L
4955 2934 mt 4955 3006 L
4943 2730 mt 5015 2730 L
4979 2694 mt 4979 2766 L
4967 3027 mt 5039 3027 L
5003 2991 mt 5003 3063 L
4991 3164 mt 5063 3164 L
5027 3128 mt 5027 3200 L
5014 3187 mt 5086 3187 L
5050 3151 mt 5050 3223 L
5038 3101 mt 5110 3101 L
5074 3065 mt 5074 3137 L
5062 3461 mt 5134 3461 L
5098 3425 mt 5098 3497 L
5086 3455 mt 5158 3455 L
5122 3419 mt 5122 3491 L
5110 3410 mt 5182 3410 L
5146 3374 mt 5146 3446 L
5134 3758 mt 5206 3758 L
5170 3722 mt 5170 3794 L
5158 3867 mt 5230 3867 L
5194 3831 mt 5194 3903 L
5182 3695 mt 5254 3695 L
5218 3659 mt 5218 3731 L
5206 3867 mt 5278 3867 L
5242 3831 mt 5242 3903 L
5230 4101 mt 5302 4101 L
5266 4065 mt 5266 4137 L
5253 4084 mt 5325 4084 L
5289 4048 mt 5289 4120 L
5277 4192 mt 5349 4192 L
5313 4156 mt 5313 4228 L
5301 4244 mt 5373 4244 L
5337 4208 mt 5337 4280 L
5325 4204 mt 5397 4204 L
5361 4168 mt 5361 4240 L
5349 4415 mt 5421 4415 L
5385 4379 mt 5385 4451 L
5373 4415 mt 5445 4415 L
5409 4379 mt 5409 4451 L
5397 4586 mt 5469 4586 L
5433 4550 mt 5433 4622 L
5421 4563 mt 5493 4563 L
5457 4527 mt 5457 4599 L
5445 4552 mt 5517 4552 L
5481 4516 mt 5481 4588 L
5469 4740 mt 5541 4740 L
5505 4704 mt 5505 4776 L
5492 4626 mt 5564 4626 L
5528 4590 mt 5528 4662 L
5516 4615 mt 5588 4615 L
5552 4579 mt 5552 4651 L
5540 4740 mt 5612 4740 L
5576 4704 mt 5576 4776 L
5564 4700 mt 5636 4700 L
5600 4664 mt 5600 4736 L
5588 4735 mt 5660 4735 L
5624 4699 mt 5624 4771 L
5612 4866 mt 5684 4866 L
5648 4830 mt 5648 4902 L
5636 4855 mt 5708 4855 L
5672 4819 mt 5672 4891 L
5660 4860 mt 5732 4860 L
5696 4824 mt 5696 4896 L
5684 4786 mt 5756 4786 L
5720 4750 mt 5720 4822 L
5708 4986 mt 5780 4986 L
5744 4950 mt 5744 5022 L
5731 5049 mt 5803 5049 L
5767 5013 mt 5767 5085 L
5755 5037 mt 5827 5037 L
5791 5001 mt 5791 5073 L
5779 5009 mt 5851 5009 L
5815 4973 mt 5815 5045 L
5803 5060 mt 5875 5060 L
5839 5024 mt 5839 5096 L
5827 5066 mt 5899 5066 L
5863 5030 mt 5863 5102 L
5851 5072 mt 5923 5072 L
5887 5036 mt 5887 5108 L
5875 5083 mt 5947 5083 L
5911 5047 mt 5911 5119 L
5899 5129 mt 5971 5129 L
5935 5093 mt 5935 5165 L
5923 5106 mt 5995 5106 L
5959 5070 mt 5959 5142 L
5947 5157 mt 6019 5157 L
5983 5121 mt 5983 5193 L
5970 5146 mt 6042 5146 L
6006 5110 mt 6006 5182 L
5994 5157 mt 6066 5157 L
6030 5121 mt 6030 5193 L
6018 5192 mt 6090 5192 L
6054 5156 mt 6054 5228 L
6042 5232 mt 6114 5232 L
6078 5196 mt 6078 5268 L
6066 5209 mt 6138 5209 L
6102 5173 mt 6102 5245 L
6090 5209 mt 6162 5209 L
6126 5173 mt 6126 5245 L
6114 5214 mt 6186 5214 L
6150 5178 mt 6150 5250 L
6138 5214 mt 6210 5214 L
6174 5178 mt 6174 5250 L
6162 5203 mt 6234 5203 L
6198 5167 mt 6198 5239 L
6186 5214 mt 6258 5214 L
6222 5178 mt 6222 5250 L
6209 5254 mt 6281 5254 L
6245 5218 mt 6245 5290 L
6233 5254 mt 6305 5254 L
6269 5218 mt 6269 5290 L
6257 5254 mt 6329 5254 L
6293 5218 mt 6293 5290 L
6281 5249 mt 6353 5249 L
6317 5213 mt 6317 5285 L
6305 5272 mt 6377 5272 L
6341 5236 mt 6341 5308 L
6329 5272 mt 6401 5272 L
6365 5236 mt 6365 5308 L
6353 5272 mt 6425 5272 L
6389 5236 mt 6389 5308 L
6377 5277 mt 6449 5277 L
6413 5241 mt 6413 5313 L
6401 5249 mt 6473 5249 L
6437 5213 mt 6437 5285 L
6425 5277 mt 6497 5277 L
6461 5241 mt 6461 5313 L
6448 5289 mt 6520 5289 L
6484 5253 mt 6484 5325 L
6472 5237 mt 6544 5237 L
6508 5201 mt 6508 5273 L
6496 5266 mt 6568 5266 L
6532 5230 mt 6532 5302 L
6520 5283 mt 6592 5283 L
6556 5247 mt 6556 5319 L
6544 5283 mt 6616 5283 L
6580 5247 mt 6580 5319 L
6568 5277 mt 6640 5277 L
6604 5241 mt 6604 5313 L
6592 5283 mt 6664 5283 L
6628 5247 mt 6628 5319 L
6616 5300 mt 6688 5300 L
6652 5264 mt 6652 5336 L
6640 5300 mt 6712 5300 L
6676 5264 mt 6676 5336 L
6664 5300 mt 6736 5300 L
6700 5264 mt 6700 5336 L
6687 5294 mt 6759 5294 L
6723 5258 mt 6723 5330 L
6711 5300 mt 6783 5300 L
6747 5264 mt 6747 5336 L
6735 5306 mt 6807 5306 L
6771 5270 mt 6771 5342 L
6759 5300 mt 6831 5300 L
6795 5264 mt 6795 5336 L
6783 5294 mt 6855 5294 L
6819 5258 mt 6819 5330 L
6807 5300 mt 6879 5300 L
6843 5264 mt 6843 5336 L
6831 5312 mt 6903 5312 L
6867 5276 mt 6867 5348 L
6855 5312 mt 6927 5312 L
6891 5276 mt 6891 5348 L
6879 5312 mt 6951 5312 L
6915 5276 mt 6915 5348 L
6903 5306 mt 6975 5306 L
6939 5270 mt 6939 5342 L
6926 5306 mt 6998 5306 L
6962 5270 mt 6962 5342 L
6950 5312 mt 7022 5312 L
6986 5276 mt 6986 5348 L
6974 5312 mt 7046 5312 L
7010 5276 mt 7010 5348 L
6998 5312 mt 7070 5312 L
7034 5276 mt 7034 5348 L
7022 5300 mt 7094 5300 L
7058 5264 mt 7058 5336 L
7046 5306 mt 7118 5306 L
7082 5270 mt 7082 5342 L
7070 5312 mt 7142 5312 L
7106 5276 mt 7106 5348 L
7094 5300 mt 7166 5300 L
7130 5264 mt 7130 5336 L
7118 5306 mt 7190 5306 L
7154 5270 mt 7154 5342 L
7142 5306 mt 7214 5306 L
7178 5270 mt 7178 5342 L
7165 5306 mt 7237 5306 L
7201 5270 mt 7201 5342 L
7189 5300 mt 7261 5300 L
7225 5264 mt 7225 5336 L
7213 5312 mt 7285 5312 L
7249 5276 mt 7249 5348 L
7237 5306 mt 7309 5306 L
7273 5270 mt 7273 5342 L
7261 5312 mt 7333 5312 L
7297 5276 mt 7297 5348 L
7285 5312 mt 7357 5312 L
7321 5276 mt 7321 5348 L
7309 5300 mt 7381 5300 L
7345 5264 mt 7345 5336 L
7333 5312 mt 7405 5312 L
7369 5276 mt 7369 5348 L
7357 5312 mt 7429 5312 L
7393 5276 mt 7393 5348 L
7381 5312 mt 7453 5312 L
7417 5276 mt 7417 5348 L
7404 5312 mt 7476 5312 L
7440 5276 mt 7440 5348 L
7428 5312 mt 7500 5312 L
7464 5276 mt 7464 5348 L
7452 5312 mt 7524 5312 L
7488 5276 mt 7488 5348 L
7476 5312 mt 7548 5312 L
7512 5276 mt 7512 5348 L
7500 5312 mt 7572 5312 L
7536 5276 mt 7536 5348 L
7524 5312 mt 7596 5312 L
7560 5276 mt 7560 5348 L
7548 5312 mt 7620 5312 L
7584 5276 mt 7584 5348 L
7572 5312 mt 7644 5312 L
7608 5276 mt 7608 5348 L
7596 5312 mt 7668 5312 L
7632 5276 mt 7632 5348 L
7620 5312 mt 7692 5312 L
7656 5276 mt 7656 5348 L
7643 5312 mt 7715 5312 L
7679 5276 mt 7679 5348 L
7667 5306 mt 7739 5306 L
7703 5270 mt 7703 5342 L
7691 5312 mt 7763 5312 L
7727 5276 mt 7727 5348 L
7715 5312 mt 7787 5312 L
7751 5276 mt 7751 5348 L
7739 5312 mt 7811 5312 L
7775 5276 mt 7775 5348 L
7763 5312 mt 7835 5312 L
7799 5276 mt 7799 5348 L
7787 5312 mt 7859 5312 L
7823 5276 mt 7823 5348 L
7811 5312 mt 7883 5312 L
7847 5276 mt 7847 5348 L
7835 5312 mt 7907 5312 L
7871 5276 mt 7871 5348 L
7859 5312 mt 7931 5312 L
7895 5276 mt 7895 5348 L
7882 5312 mt 7954 5312 L
7918 5276 mt 7918 5348 L
7906 5312 mt 7978 5312 L
7942 5276 mt 7942 5348 L
7930 5312 mt 8002 5312 L
7966 5276 mt 7966 5348 L
7954 5312 mt 8026 5312 L
7990 5276 mt 7990 5348 L
7978 5312 mt 8050 5312 L
8014 5276 mt 8014 5348 L
8002 5312 mt 8074 5312 L
8038 5276 mt 8038 5348 L
8026 5312 mt 8098 5312 L
8062 5276 mt 8062 5348 L
8050 5312 mt 8122 5312 L
8086 5276 mt 8086 5348 L
8074 5312 mt 8146 5312 L
8110 5276 mt 8110 5348 L
8098 5312 mt 8170 5312 L
8134 5276 mt 8134 5348 L
8121 5312 mt 8193 5312 L
8157 5276 mt 8157 5348 L
8145 5312 mt 8217 5312 L
8181 5276 mt 8181 5348 L
8169 5312 mt 8241 5312 L
8205 5276 mt 8205 5348 L
8193 5312 mt 8265 5312 L
8229 5276 mt 8229 5348 L
8217 5312 mt 8289 5312 L
8253 5276 mt 8253 5348 L
8241 5312 mt 8313 5312 L
8277 5276 mt 8277 5348 L
8265 5312 mt 8337 5312 L
8301 5276 mt 8301 5348 L
8289 5312 mt 8361 5312 L
8325 5276 mt 8325 5348 L
8313 5312 mt 8385 5312 L
8349 5276 mt 8349 5348 L
8337 5312 mt 8409 5312 L
8373 5276 mt 8373 5348 L
gs 1203 448 7171 4865 rc
gr

0 sg
%%IncludeResource: font Helvetica
/Helvetica /ISOLatin1Encoding 264 FMSR

4556 5796 mt 
(Day) s
 514 3666 mt  -90 rotate
(Daily incident) s
90 rotate
%%IncludeResource: font Helvetica
/Helvetica /ISOLatin1Encoding 120 FMSR

1186 5355 mt 
( ) s
8357  490 mt 
( ) s
6 w
1 sg
0 890 2966 0 0 -890 5347 1398 4 MP
PP
-2966 0 0 890 2966 0 0 -890 5347 1398 5 MP stroke
4 w
DO
SO
6 w
0 sg
5347 1398 mt 8313 1398 L
5347  508 mt 8313  508 L
5347 1398 mt 5347  508 L
8313 1398 mt 8313  508 L
5347 1398 mt 8313 1398 L
5347 1398 mt 5347  508 L
5347 1398 mt 8313 1398 L
5347  508 mt 8313  508 L
5347 1398 mt 5347  508 L
8313 1398 mt 8313  508 L
%%IncludeResource: font Helvetica
/Helvetica /ISOLatin1Encoding 360 FMSR

5807  867 mt 
(Sensor Group) s
gs 5347 508 2967 891 rc
24 w
c8
354 0 5417 740 2 MP stroke
gs 5496 642 197 197 rc
5558  740 mt 5630  740 L
5594  704 mt 5594  776 L
5569  715 mt 5619  765 L
5619  715 mt 5569  765 L
gr

gr

24 w
c8
0 sg
5807 1294 mt 
(Random Group) s
gs 5347 508 2967 891 rc
c9
354 0 5417 1165 2 MP stroke
gs 5496 1067 197 197 rc
5558 1165 mt 5630 1165 L
5594 1129 mt 5594 1201 L
gr

6 w
gr

6 w
c9

end %%Color Dict

eplot
%%EndObject

epage
end

showpage

%%Trailer
%%EOF
