%!PS-Adobe-3.0 EPSF-3.0
%%Creator: MATLAB, The MathWorks, Inc. Version 7.13.0.564 (R2011b). Operating System: Darwin 12.4.0 Darwin Kernel Version 12.4.0: Wed May  1 17:57:12 PDT 2013; root:xnu-2050.24.15~1/RELEASE_X86_64 x86_64.
%%Title: /Users/tozammel/Documents/research/projects/networks/writeup/icdm13/figs/figdata/miami_leadtime_vs_size.eps
%%CreationDate: 06/21/2013  12:36:16
%%DocumentNeededFonts: Helvetica
%%DocumentProcessColors: Cyan Magenta Yellow Black
%%LanguageLevel: 2
%%Pages: 1
%%BoundingBox:   -52   171   666   621
%%EndComments

%%BeginProlog
% MathWorks dictionary
/MathWorks 160 dict begin
% definition operators
/bdef {bind def} bind def
/ldef {load def} bind def
/xdef {exch def} bdef
/xstore {exch store} bdef
% operator abbreviations
/c  /clip ldef
/cc /concat ldef
/cp /closepath ldef
/gr /grestore ldef
/gs /gsave ldef
/mt /moveto ldef
/np /newpath ldef
/cm /currentmatrix ldef
/sm /setmatrix ldef
/rm /rmoveto ldef
/rl /rlineto ldef
/s {show newpath} bdef
/sc {setcmykcolor} bdef
/sr /setrgbcolor ldef
/sg /setgray ldef
/w /setlinewidth ldef
/j /setlinejoin ldef
/cap /setlinecap ldef
/rc {rectclip} bdef
/rf {rectfill} bdef
% page state control
/pgsv () def
/bpage {/pgsv save def} bdef
/epage {pgsv restore} bdef
/bplot /gsave ldef
/eplot {stroke grestore} bdef
% orientation switch
/portraitMode 0 def /landscapeMode 1 def /rotateMode 2 def
% coordinate system mappings
/dpi2point 0 def
% font control
/FontSize 0 def
/FMS {/FontSize xstore findfont [FontSize 0 0 FontSize neg 0 0]
  makefont setfont} bdef
/reencode {exch dup where {pop load} {pop StandardEncoding} ifelse
  exch dup 3 1 roll findfont dup length dict begin
  { 1 index /FID ne {def}{pop pop} ifelse } forall
  /Encoding exch def currentdict end definefont pop} bdef
/isroman {findfont /CharStrings get /Agrave known} bdef
/FMSR {3 1 roll 1 index dup isroman {reencode} {pop pop} ifelse
  exch FMS} bdef
/csm {1 dpi2point div -1 dpi2point div scale neg translate
 dup landscapeMode eq {pop -90 rotate}
  {rotateMode eq {90 rotate} if} ifelse} bdef
% line types: solid, dotted, dashed, dotdash
/SO { [] 0 setdash } bdef
/DO { [.5 dpi2point mul 4 dpi2point mul] 0 setdash } bdef
/DA { [6 dpi2point mul] 0 setdash } bdef
/DD { [.5 dpi2point mul 4 dpi2point mul 6 dpi2point mul 4
  dpi2point mul] 0 setdash } bdef
% macros for lines and objects
/L {lineto stroke} bdef
/MP {3 1 roll moveto 1 sub {rlineto} repeat} bdef
/AP {{rlineto} repeat} bdef
/PDlw -1 def
/W {/PDlw currentlinewidth def setlinewidth} def
/PP {closepath eofill} bdef
/DP {closepath stroke} bdef
/MR {4 -2 roll moveto dup  0 exch rlineto exch 0 rlineto
  neg 0 exch rlineto closepath} bdef
/FR {MR stroke} bdef
/PR {MR fill} bdef
/L1i {{currentfile picstr readhexstring pop} image} bdef
/tMatrix matrix def
/MakeOval {newpath tMatrix currentmatrix pop translate scale
0 0 1 0 360 arc tMatrix setmatrix} bdef
/FO {MakeOval stroke} bdef
/PO {MakeOval fill} bdef
/PD {currentlinewidth 2 div 0 360 arc fill
   PDlw -1 eq not {PDlw w /PDlw -1 def} if} def
/FA {newpath tMatrix currentmatrix pop translate scale
  0 0 1 5 -2 roll arc tMatrix setmatrix stroke} bdef
/PA {newpath tMatrix currentmatrix pop	translate 0 0 moveto scale
  0 0 1 5 -2 roll arc closepath tMatrix setmatrix fill} bdef
/FAn {newpath tMatrix currentmatrix pop translate scale
  0 0 1 5 -2 roll arcn tMatrix setmatrix stroke} bdef
/PAn {newpath tMatrix currentmatrix pop translate 0 0 moveto scale
  0 0 1 5 -2 roll arcn closepath tMatrix setmatrix fill} bdef
/vradius 0 def /hradius 0 def /lry 0 def
/lrx 0 def /uly 0 def /ulx 0 def /rad 0 def
/MRR {/vradius xdef /hradius xdef /lry xdef /lrx xdef /uly xdef
  /ulx xdef newpath tMatrix currentmatrix pop ulx hradius add uly
  vradius add translate hradius vradius scale 0 0 1 180 270 arc 
  tMatrix setmatrix lrx hradius sub uly vradius add translate
  hradius vradius scale 0 0 1 270 360 arc tMatrix setmatrix
  lrx hradius sub lry vradius sub translate hradius vradius scale
  0 0 1 0 90 arc tMatrix setmatrix ulx hradius add lry vradius sub
  translate hradius vradius scale 0 0 1 90 180 arc tMatrix setmatrix
  closepath} bdef
/FRR {MRR stroke } bdef
/PRR {MRR fill } bdef
/MlrRR {/lry xdef /lrx xdef /uly xdef /ulx xdef /rad lry uly sub 2 div def
  newpath tMatrix currentmatrix pop ulx rad add uly rad add translate
  rad rad scale 0 0 1 90 270 arc tMatrix setmatrix lrx rad sub lry rad
  sub translate rad rad scale 0 0 1 270 90 arc tMatrix setmatrix
  closepath} bdef
/FlrRR {MlrRR stroke } bdef
/PlrRR {MlrRR fill } bdef
/MtbRR {/lry xdef /lrx xdef /uly xdef /ulx xdef /rad lrx ulx sub 2 div def
  newpath tMatrix currentmatrix pop ulx rad add uly rad add translate
  rad rad scale 0 0 1 180 360 arc tMatrix setmatrix lrx rad sub lry rad
  sub translate rad rad scale 0 0 1 0 180 arc tMatrix setmatrix
  closepath} bdef
/FtbRR {MtbRR stroke } bdef
/PtbRR {MtbRR fill } bdef
/stri 6 array def /dtri 6 array def
/smat 6 array def /dmat 6 array def
/tmat1 6 array def /tmat2 6 array def /dif 3 array def
/asub {/ind2 exch def /ind1 exch def dup dup
  ind1 get exch ind2 get sub exch } bdef
/tri_to_matrix {
  2 0 asub 3 1 asub 4 0 asub 5 1 asub
  dup 0 get exch 1 get 7 -1 roll astore } bdef
/compute_transform {
  dmat dtri tri_to_matrix tmat1 invertmatrix 
  smat stri tri_to_matrix tmat2 concatmatrix } bdef
/ds {stri astore pop} bdef
/dt {dtri astore pop} bdef
/db {2 copy /cols xdef /rows xdef mul dup 3 mul string
  currentfile 
  3 index 0 eq {/ASCIIHexDecode filter}
  {/ASCII85Decode filter 3 index 2 eq {/RunLengthDecode filter} if }
  ifelse exch readstring pop
  dup 0 3 index getinterval /rbmap xdef
  dup 2 index dup getinterval /gbmap xdef
  1 index dup 2 mul exch getinterval /bbmap xdef pop pop}bdef
/it {gs np dtri aload pop moveto lineto lineto cp c
  cols rows 8 compute_transform 
  rbmap gbmap bbmap true 3 colorimage gr}bdef
/il {newpath moveto lineto stroke}bdef
currentdict end def
%%EndProlog

%%BeginSetup
MathWorks begin

0 cap

end
%%EndSetup

%%Page: 1 1
%%BeginPageSetup
%%PageBoundingBox:   -52   171   666   621
MathWorks begin
bpage
%%EndPageSetup

%%BeginObject: obj1
bplot

/dpi2point 12 def
portraitMode -0624 7452 csm

    0     0  8627  5393 rc
85 dict begin %Colortable dictionary
/c0 { 0.000000 0.000000 0.000000 sr} bdef
/c1 { 1.000000 1.000000 1.000000 sr} bdef
/c2 { 0.900000 0.000000 0.000000 sr} bdef
/c3 { 0.000000 0.820000 0.000000 sr} bdef
/c4 { 0.000000 0.000000 0.800000 sr} bdef
/c5 { 0.910000 0.820000 0.320000 sr} bdef
/c6 { 1.000000 0.260000 0.820000 sr} bdef
/c7 { 0.000000 0.820000 0.820000 sr} bdef
c0
1 j
1 sg
   0    0 8628 5394 rf
6 w
0 4396 6686 0 0 -4396 1121 4800 4 MP
PP
-6686 0 0 4396 6686 0 0 -4396 1121 4800 5 MP stroke
4 w
DO
SO
6 w
0 sg
1121 4800 mt 7807 4800 L
1121  404 mt 7807  404 L
1121 4800 mt 1121  404 L
7807 4800 mt 7807  404 L
1121 4800 mt 7807 4800 L
1121 4800 mt 1121  404 L
1121 4800 mt 1121 4733 L
1121  404 mt 1121  470 L
%%IncludeResource: font Helvetica
/Helvetica /ISOLatin1Encoding 120 FMSR

1088 4945 mt 
(0) s
2236 4800 mt 2236 4733 L
2236  404 mt 2236  470 L
2203 4945 mt 
(1) s
3350 4800 mt 3350 4733 L
3350  404 mt 3350  470 L
3317 4945 mt 
(2) s
4464 4800 mt 4464 4733 L
4464  404 mt 4464  470 L
4431 4945 mt 
(3) s
5578 4800 mt 5578 4733 L
5578  404 mt 5578  470 L
5545 4945 mt 
(4) s
6692 4800 mt 6692 4733 L
6692  404 mt 6692  470 L
6659 4945 mt 
(5) s
7807 4800 mt 7807 4733 L
7807  404 mt 7807  470 L
7774 4945 mt 
(6) s
1121 4800 mt 1188 4800 L
7807 4800 mt 7740 4800 L
1021 4844 mt 
(8) s
1121 4172 mt 1188 4172 L
7807 4172 mt 7740 4172 L
 954 4216 mt 
(10) s
1121 3544 mt 1188 3544 L
7807 3544 mt 7740 3544 L
 954 3588 mt 
(12) s
1121 2916 mt 1188 2916 L
7807 2916 mt 7740 2916 L
 954 2960 mt 
(14) s
1121 2288 mt 1188 2288 L
7807 2288 mt 7740 2288 L
 954 2332 mt 
(16) s
1121 1660 mt 1188 1660 L
7807 1660 mt 7740 1660 L
 954 1704 mt 
(18) s
1121 1032 mt 1188 1032 L
7807 1032 mt 7740 1032 L
 954 1076 mt 
(20) s
1121  404 mt 1188  404 L
7807  404 mt 7740  404 L
 954  448 mt 
(22) s
1121 4800 mt 7807 4800 L
1121  404 mt 7807  404 L
1121 4800 mt 1121  404 L
7807 4800 mt 7807  404 L
gs 1122 404 6686 4397 rc
24 w
/c8 { 0.000000 0.000000 1.000000 sr} bdef
c8
0 1909 1233 561 2 MP stroke
110 0 1178 561 2 MP stroke
110 0 1178 2470 2 MP stroke
0 879 1679 2288 2 MP stroke
109 0 1624 2288 2 MP stroke
109 0 1624 3167 2 MP stroke
0 666 2236 2912 2 MP stroke
109 0 2181 2912 2 MP stroke
109 0 2181 3578 2 MP stroke
0 471 3907 3653 2 MP stroke
110 0 3852 3653 2 MP stroke
110 0 3852 4124 2 MP stroke
0 257 6692 4407 2 MP stroke
109 0 6638 4407 2 MP stroke
109 0 6638 4664 2 MP stroke
2785 647 1671 644 557 518 446 1212 1233 1515 5 MP stroke
gr

24 w
c8
1197 1515 mt 1269 1515 L
1233 1479 mt 1233 1551 L
1643 2727 mt 1715 2727 L
1679 2691 mt 1679 2763 L
2200 3245 mt 2272 3245 L
2236 3209 mt 2236 3281 L
3871 3889 mt 3943 3889 L
3907 3853 mt 3907 3925 L
6656 4536 mt 6728 4536 L
6692 4500 mt 6692 4572 L
1208 1490 mt 1258 1540 L
1258 1490 mt 1208 1540 L
1654 2702 mt 1704 2752 L
1704 2702 mt 1654 2752 L
2211 3220 mt 2261 3270 L
2261 3220 mt 2211 3270 L
3882 3864 mt 3932 3914 L
3932 3864 mt 3882 3914 L
6667 4511 mt 6717 4561 L
6717 4511 mt 6667 4561 L
gs 1122 404 6686 4397 rc
gr

0 sg
%%IncludeResource: font Helvetica
/Helvetica /ISOLatin1Encoding 216 FMSR

2844 5159 mt 
(Sensor Set Size \(% of population\)) s
 851 3381 mt  -90 rotate
(Lead Time \(day\)) s
90 rotate
6 w

end %%Color Dict

eplot
%%EndObject

epage
end

showpage

%%Trailer
%%EOF
