%!PS-Adobe-3.0 EPSF-3.0
%%Creator: MATLAB, The MathWorks, Inc. Version 7.13.0.564 (R2011b). Operating System: Darwin 12.4.0 Darwin Kernel Version 12.4.0: Wed May  1 17:57:12 PDT 2013; root:xnu-2050.24.15~1/RELEASE_X86_64 x86_64.
%%Title: /Users/tozammel/Documents/research/projects/networks/writeup/icdm13/figs/figdata/miami_mean_lead_vs_sensor_size1.eps
%%CreationDate: 06/21/2013  19:06:12
%%DocumentNeededFonts: Helvetica
%%DocumentProcessColors: Cyan Magenta Yellow Black
%%LanguageLevel: 2
%%Pages: 1
%%BoundingBox:  -114   122   725   669
%%EndComments

%%BeginProlog
% MathWorks dictionary
/MathWorks 160 dict begin
% definition operators
/bdef {bind def} bind def
/ldef {load def} bind def
/xdef {exch def} bdef
/xstore {exch store} bdef
% operator abbreviations
/c  /clip ldef
/cc /concat ldef
/cp /closepath ldef
/gr /grestore ldef
/gs /gsave ldef
/mt /moveto ldef
/np /newpath ldef
/cm /currentmatrix ldef
/sm /setmatrix ldef
/rm /rmoveto ldef
/rl /rlineto ldef
/s {show newpath} bdef
/sc {setcmykcolor} bdef
/sr /setrgbcolor ldef
/sg /setgray ldef
/w /setlinewidth ldef
/j /setlinejoin ldef
/cap /setlinecap ldef
/rc {rectclip} bdef
/rf {rectfill} bdef
% page state control
/pgsv () def
/bpage {/pgsv save def} bdef
/epage {pgsv restore} bdef
/bplot /gsave ldef
/eplot {stroke grestore} bdef
% orientation switch
/portraitMode 0 def /landscapeMode 1 def /rotateMode 2 def
% coordinate system mappings
/dpi2point 0 def
% font control
/FontSize 0 def
/FMS {/FontSize xstore findfont [FontSize 0 0 FontSize neg 0 0]
  makefont setfont} bdef
/reencode {exch dup where {pop load} {pop StandardEncoding} ifelse
  exch dup 3 1 roll findfont dup length dict begin
  { 1 index /FID ne {def}{pop pop} ifelse } forall
  /Encoding exch def currentdict end definefont pop} bdef
/isroman {findfont /CharStrings get /Agrave known} bdef
/FMSR {3 1 roll 1 index dup isroman {reencode} {pop pop} ifelse
  exch FMS} bdef
/csm {1 dpi2point div -1 dpi2point div scale neg translate
 dup landscapeMode eq {pop -90 rotate}
  {rotateMode eq {90 rotate} if} ifelse} bdef
% line types: solid, dotted, dashed, dotdash
/SO { [] 0 setdash } bdef
/DO { [.5 dpi2point mul 4 dpi2point mul] 0 setdash } bdef
/DA { [6 dpi2point mul] 0 setdash } bdef
/DD { [.5 dpi2point mul 4 dpi2point mul 6 dpi2point mul 4
  dpi2point mul] 0 setdash } bdef
% macros for lines and objects
/L {lineto stroke} bdef
/MP {3 1 roll moveto 1 sub {rlineto} repeat} bdef
/AP {{rlineto} repeat} bdef
/PDlw -1 def
/W {/PDlw currentlinewidth def setlinewidth} def
/PP {closepath eofill} bdef
/DP {closepath stroke} bdef
/MR {4 -2 roll moveto dup  0 exch rlineto exch 0 rlineto
  neg 0 exch rlineto closepath} bdef
/FR {MR stroke} bdef
/PR {MR fill} bdef
/L1i {{currentfile picstr readhexstring pop} image} bdef
/tMatrix matrix def
/MakeOval {newpath tMatrix currentmatrix pop translate scale
0 0 1 0 360 arc tMatrix setmatrix} bdef
/FO {MakeOval stroke} bdef
/PO {MakeOval fill} bdef
/PD {currentlinewidth 2 div 0 360 arc fill
   PDlw -1 eq not {PDlw w /PDlw -1 def} if} def
/FA {newpath tMatrix currentmatrix pop translate scale
  0 0 1 5 -2 roll arc tMatrix setmatrix stroke} bdef
/PA {newpath tMatrix currentmatrix pop	translate 0 0 moveto scale
  0 0 1 5 -2 roll arc closepath tMatrix setmatrix fill} bdef
/FAn {newpath tMatrix currentmatrix pop translate scale
  0 0 1 5 -2 roll arcn tMatrix setmatrix stroke} bdef
/PAn {newpath tMatrix currentmatrix pop translate 0 0 moveto scale
  0 0 1 5 -2 roll arcn closepath tMatrix setmatrix fill} bdef
/vradius 0 def /hradius 0 def /lry 0 def
/lrx 0 def /uly 0 def /ulx 0 def /rad 0 def
/MRR {/vradius xdef /hradius xdef /lry xdef /lrx xdef /uly xdef
  /ulx xdef newpath tMatrix currentmatrix pop ulx hradius add uly
  vradius add translate hradius vradius scale 0 0 1 180 270 arc 
  tMatrix setmatrix lrx hradius sub uly vradius add translate
  hradius vradius scale 0 0 1 270 360 arc tMatrix setmatrix
  lrx hradius sub lry vradius sub translate hradius vradius scale
  0 0 1 0 90 arc tMatrix setmatrix ulx hradius add lry vradius sub
  translate hradius vradius scale 0 0 1 90 180 arc tMatrix setmatrix
  closepath} bdef
/FRR {MRR stroke } bdef
/PRR {MRR fill } bdef
/MlrRR {/lry xdef /lrx xdef /uly xdef /ulx xdef /rad lry uly sub 2 div def
  newpath tMatrix currentmatrix pop ulx rad add uly rad add translate
  rad rad scale 0 0 1 90 270 arc tMatrix setmatrix lrx rad sub lry rad
  sub translate rad rad scale 0 0 1 270 90 arc tMatrix setmatrix
  closepath} bdef
/FlrRR {MlrRR stroke } bdef
/PlrRR {MlrRR fill } bdef
/MtbRR {/lry xdef /lrx xdef /uly xdef /ulx xdef /rad lrx ulx sub 2 div def
  newpath tMatrix currentmatrix pop ulx rad add uly rad add translate
  rad rad scale 0 0 1 180 360 arc tMatrix setmatrix lrx rad sub lry rad
  sub translate rad rad scale 0 0 1 0 180 arc tMatrix setmatrix
  closepath} bdef
/FtbRR {MtbRR stroke } bdef
/PtbRR {MtbRR fill } bdef
/stri 6 array def /dtri 6 array def
/smat 6 array def /dmat 6 array def
/tmat1 6 array def /tmat2 6 array def /dif 3 array def
/asub {/ind2 exch def /ind1 exch def dup dup
  ind1 get exch ind2 get sub exch } bdef
/tri_to_matrix {
  2 0 asub 3 1 asub 4 0 asub 5 1 asub
  dup 0 get exch 1 get 7 -1 roll astore } bdef
/compute_transform {
  dmat dtri tri_to_matrix tmat1 invertmatrix 
  smat stri tri_to_matrix tmat2 concatmatrix } bdef
/ds {stri astore pop} bdef
/dt {dtri astore pop} bdef
/db {2 copy /cols xdef /rows xdef mul dup 3 mul string
  currentfile 
  3 index 0 eq {/ASCIIHexDecode filter}
  {/ASCII85Decode filter 3 index 2 eq {/RunLengthDecode filter} if }
  ifelse exch readstring pop
  dup 0 3 index getinterval /rbmap xdef
  dup 2 index dup getinterval /gbmap xdef
  1 index dup 2 mul exch getinterval /bbmap xdef pop pop}bdef
/it {gs np dtri aload pop moveto lineto lineto cp c
  cols rows 8 compute_transform 
  rbmap gbmap bbmap true 3 colorimage gr}bdef
/il {newpath moveto lineto stroke}bdef
currentdict end def
%%EndProlog

%%BeginSetup
MathWorks begin

0 cap

end
%%EndSetup

%%Page: 1 1
%%BeginPageSetup
%%PageBoundingBox:  -114   122   725   669
MathWorks begin
bpage
%%EndPageSetup

%%BeginObject: obj1
bplot

/dpi2point 12 def
portraitMode -1368 8028 csm

    0     0 10079  6555 rc
85 dict begin %Colortable dictionary
/c0 { 0.000000 0.000000 0.000000 sr} bdef
/c1 { 1.000000 1.000000 1.000000 sr} bdef
/c2 { 0.900000 0.000000 0.000000 sr} bdef
/c3 { 0.000000 0.820000 0.000000 sr} bdef
/c4 { 0.000000 0.000000 0.800000 sr} bdef
/c5 { 0.910000 0.820000 0.320000 sr} bdef
/c6 { 1.000000 0.260000 0.820000 sr} bdef
/c7 { 0.000000 0.820000 0.820000 sr} bdef
c0
1 j
1 sg
   0    0 10080 6556 rf
6 w
0 5342 7811 0 0 -5342 1310 5834 4 MP
PP
-7811 0 0 5342 7811 0 0 -5342 1310 5834 5 MP stroke
4 w
DO
SO
6 w
0 sg
1310 5834 mt 9121 5834 L
1310  492 mt 9121  492 L
1310 5834 mt 1310  492 L
9121 5834 mt 9121  492 L
1310 5834 mt 9121 5834 L
1310 5834 mt 1310  492 L
1310 5834 mt 1310 5755 L
1310  492 mt 1310  570 L
%%IncludeResource: font Helvetica
/Helvetica /ISOLatin1Encoding 216 FMSR

1250 6069 mt 
(0) s
2611 5834 mt 2611 5755 L
2611  492 mt 2611  570 L
2551 6069 mt 
(1) s
3913 5834 mt 3913 5755 L
3913  492 mt 3913  570 L
3853 6069 mt 
(2) s
5215 5834 mt 5215 5755 L
5215  492 mt 5215  570 L
5155 6069 mt 
(3) s
6517 5834 mt 6517 5755 L
6517  492 mt 6517  570 L
6457 6069 mt 
(4) s
7819 5834 mt 7819 5755 L
7819  492 mt 7819  570 L
7759 6069 mt 
(5) s
9121 5834 mt 9121 5755 L
9121  492 mt 9121  570 L
9061 6069 mt 
(6) s
1310 5834 mt 1388 5834 L
9121 5834 mt 9042 5834 L
1155 5914 mt 
(8) s
1310 5299 mt 1388 5299 L
9121 5299 mt 9042 5299 L
1035 5379 mt 
(10) s
1310 4765 mt 1388 4765 L
9121 4765 mt 9042 4765 L
1035 4845 mt 
(12) s
1310 4231 mt 1388 4231 L
9121 4231 mt 9042 4231 L
1035 4311 mt 
(14) s
1310 3697 mt 1388 3697 L
9121 3697 mt 9042 3697 L
1035 3777 mt 
(16) s
1310 3163 mt 1388 3163 L
9121 3163 mt 9042 3163 L
1035 3243 mt 
(18) s
1310 2628 mt 1388 2628 L
9121 2628 mt 9042 2628 L
1035 2708 mt 
(20) s
1310 2094 mt 1388 2094 L
9121 2094 mt 9042 2094 L
1035 2174 mt 
(22) s
1310 1560 mt 1388 1560 L
9121 1560 mt 9042 1560 L
1035 1640 mt 
(24) s
1310 1026 mt 1388 1026 L
9121 1026 mt 9042 1026 L
1035 1106 mt 
(26) s
1310  492 mt 1388  492 L
9121  492 mt 9042  492 L
1035  572 mt 
(28) s
1310 5834 mt 9121 5834 L
1310  492 mt 9121  492 L
1310 5834 mt 1310  492 L
9121 5834 mt 9121  492 L
gs 1310 492 7812 5343 rc
36 w
/c8 { 0.000000 0.000000 1.000000 sr} bdef
c8
0 2409 1440 935 2 MP stroke
127 0 1376 935 2 MP stroke
127 0 1376 3344 2 MP stroke
0 902 1960 2789 2 MP stroke
127 0 1897 2789 2 MP stroke
127 0 1897 3691 2 MP stroke
0 395 2611 3750 2 MP stroke
127 0 2548 3750 2 MP stroke
127 0 2548 4145 2 MP stroke
0 256 4564 4541 2 MP stroke
128 0 4500 4541 2 MP stroke
128 0 4500 4797 2 MP stroke
0 193 7819 5152 2 MP stroke
127 0 7755 5152 2 MP stroke
127 0 7755 5345 2 MP stroke
3255 580 1953 721 651 708 520 1100 1440 2140 5 MP stroke
gr

36 w
c8
gs 1186 1886 6888 3618 rc
0 j
0 -170 -170 0 0 170 170 0 1355 2055 5 MP
DP
0 -170 -170 0 0 170 170 0 1875 3155 5 MP
DP
0 -170 -170 0 0 170 170 0 2526 3863 5 MP
DP
0 -170 -170 0 0 170 170 0 4479 4584 5 MP
DP
0 -170 -170 0 0 170 170 0 7734 5164 5 MP
DP
gr

gs 1310 492 7812 5343 rc
gr

0 sg
%%IncludeResource: font Helvetica
/Helvetica /ISOLatin1Encoding 264 FMSR

3235 6318 mt 
(Sensor Set Size \(% of population\)) s
 921 4481 mt  -90 rotate
(Mean Lead Time \(day\)) s
90 rotate
6 w

end %%Color Dict

eplot
%%EndObject

epage
end

showpage

%%Trailer
%%EOF
