%!PS-Adobe-3.0 EPSF-3.0
%%Creator: MATLAB, The MathWorks, Inc. Version 7.13.0.564 (R2011b). Operating System: Darwin 12.4.0 Darwin Kernel Version 12.4.0: Wed May  1 17:57:12 PDT 2013; root:xnu-2050.24.15~1/RELEASE_X86_64 x86_64.
%%Title: /Users/tozammel/Documents/research/projects/networks/writeup/icdm13/figs/figdata/surrogate_dominator_vs_parameters1.eps
%%CreationDate: 06/21/2013  19:11:24
%%DocumentNeededFonts: Helvetica
%%DocumentProcessColors: Cyan Magenta Yellow Black
%%LanguageLevel: 2
%%Pages: 1
%%BoundingBox:  -114   132   725   659
%%EndComments

%%BeginProlog
% MathWorks dictionary
/MathWorks 160 dict begin
% definition operators
/bdef {bind def} bind def
/ldef {load def} bind def
/xdef {exch def} bdef
/xstore {exch store} bdef
% operator abbreviations
/c  /clip ldef
/cc /concat ldef
/cp /closepath ldef
/gr /grestore ldef
/gs /gsave ldef
/mt /moveto ldef
/np /newpath ldef
/cm /currentmatrix ldef
/sm /setmatrix ldef
/rm /rmoveto ldef
/rl /rlineto ldef
/s {show newpath} bdef
/sc {setcmykcolor} bdef
/sr /setrgbcolor ldef
/sg /setgray ldef
/w /setlinewidth ldef
/j /setlinejoin ldef
/cap /setlinecap ldef
/rc {rectclip} bdef
/rf {rectfill} bdef
% page state control
/pgsv () def
/bpage {/pgsv save def} bdef
/epage {pgsv restore} bdef
/bplot /gsave ldef
/eplot {stroke grestore} bdef
% orientation switch
/portraitMode 0 def /landscapeMode 1 def /rotateMode 2 def
% coordinate system mappings
/dpi2point 0 def
% font control
/FontSize 0 def
/FMS {/FontSize xstore findfont [FontSize 0 0 FontSize neg 0 0]
  makefont setfont} bdef
/reencode {exch dup where {pop load} {pop StandardEncoding} ifelse
  exch dup 3 1 roll findfont dup length dict begin
  { 1 index /FID ne {def}{pop pop} ifelse } forall
  /Encoding exch def currentdict end definefont pop} bdef
/isroman {findfont /CharStrings get /Agrave known} bdef
/FMSR {3 1 roll 1 index dup isroman {reencode} {pop pop} ifelse
  exch FMS} bdef
/csm {1 dpi2point div -1 dpi2point div scale neg translate
 dup landscapeMode eq {pop -90 rotate}
  {rotateMode eq {90 rotate} if} ifelse} bdef
% line types: solid, dotted, dashed, dotdash
/SO { [] 0 setdash } bdef
/DO { [.5 dpi2point mul 4 dpi2point mul] 0 setdash } bdef
/DA { [6 dpi2point mul] 0 setdash } bdef
/DD { [.5 dpi2point mul 4 dpi2point mul 6 dpi2point mul 4
  dpi2point mul] 0 setdash } bdef
% macros for lines and objects
/L {lineto stroke} bdef
/MP {3 1 roll moveto 1 sub {rlineto} repeat} bdef
/AP {{rlineto} repeat} bdef
/PDlw -1 def
/W {/PDlw currentlinewidth def setlinewidth} def
/PP {closepath eofill} bdef
/DP {closepath stroke} bdef
/MR {4 -2 roll moveto dup  0 exch rlineto exch 0 rlineto
  neg 0 exch rlineto closepath} bdef
/FR {MR stroke} bdef
/PR {MR fill} bdef
/L1i {{currentfile picstr readhexstring pop} image} bdef
/tMatrix matrix def
/MakeOval {newpath tMatrix currentmatrix pop translate scale
0 0 1 0 360 arc tMatrix setmatrix} bdef
/FO {MakeOval stroke} bdef
/PO {MakeOval fill} bdef
/PD {currentlinewidth 2 div 0 360 arc fill
   PDlw -1 eq not {PDlw w /PDlw -1 def} if} def
/FA {newpath tMatrix currentmatrix pop translate scale
  0 0 1 5 -2 roll arc tMatrix setmatrix stroke} bdef
/PA {newpath tMatrix currentmatrix pop	translate 0 0 moveto scale
  0 0 1 5 -2 roll arc closepath tMatrix setmatrix fill} bdef
/FAn {newpath tMatrix currentmatrix pop translate scale
  0 0 1 5 -2 roll arcn tMatrix setmatrix stroke} bdef
/PAn {newpath tMatrix currentmatrix pop translate 0 0 moveto scale
  0 0 1 5 -2 roll arcn closepath tMatrix setmatrix fill} bdef
/vradius 0 def /hradius 0 def /lry 0 def
/lrx 0 def /uly 0 def /ulx 0 def /rad 0 def
/MRR {/vradius xdef /hradius xdef /lry xdef /lrx xdef /uly xdef
  /ulx xdef newpath tMatrix currentmatrix pop ulx hradius add uly
  vradius add translate hradius vradius scale 0 0 1 180 270 arc 
  tMatrix setmatrix lrx hradius sub uly vradius add translate
  hradius vradius scale 0 0 1 270 360 arc tMatrix setmatrix
  lrx hradius sub lry vradius sub translate hradius vradius scale
  0 0 1 0 90 arc tMatrix setmatrix ulx hradius add lry vradius sub
  translate hradius vradius scale 0 0 1 90 180 arc tMatrix setmatrix
  closepath} bdef
/FRR {MRR stroke } bdef
/PRR {MRR fill } bdef
/MlrRR {/lry xdef /lrx xdef /uly xdef /ulx xdef /rad lry uly sub 2 div def
  newpath tMatrix currentmatrix pop ulx rad add uly rad add translate
  rad rad scale 0 0 1 90 270 arc tMatrix setmatrix lrx rad sub lry rad
  sub translate rad rad scale 0 0 1 270 90 arc tMatrix setmatrix
  closepath} bdef
/FlrRR {MlrRR stroke } bdef
/PlrRR {MlrRR fill } bdef
/MtbRR {/lry xdef /lrx xdef /uly xdef /ulx xdef /rad lrx ulx sub 2 div def
  newpath tMatrix currentmatrix pop ulx rad add uly rad add translate
  rad rad scale 0 0 1 180 360 arc tMatrix setmatrix lrx rad sub lry rad
  sub translate rad rad scale 0 0 1 0 180 arc tMatrix setmatrix
  closepath} bdef
/FtbRR {MtbRR stroke } bdef
/PtbRR {MtbRR fill } bdef
/stri 6 array def /dtri 6 array def
/smat 6 array def /dmat 6 array def
/tmat1 6 array def /tmat2 6 array def /dif 3 array def
/asub {/ind2 exch def /ind1 exch def dup dup
  ind1 get exch ind2 get sub exch } bdef
/tri_to_matrix {
  2 0 asub 3 1 asub 4 0 asub 5 1 asub
  dup 0 get exch 1 get 7 -1 roll astore } bdef
/compute_transform {
  dmat dtri tri_to_matrix tmat1 invertmatrix 
  smat stri tri_to_matrix tmat2 concatmatrix } bdef
/ds {stri astore pop} bdef
/dt {dtri astore pop} bdef
/db {2 copy /cols xdef /rows xdef mul dup 3 mul string
  currentfile 
  3 index 0 eq {/ASCIIHexDecode filter}
  {/ASCII85Decode filter 3 index 2 eq {/RunLengthDecode filter} if }
  ifelse exch readstring pop
  dup 0 3 index getinterval /rbmap xdef
  dup 2 index dup getinterval /gbmap xdef
  1 index dup 2 mul exch getinterval /bbmap xdef pop pop}bdef
/it {gs np dtri aload pop moveto lineto lineto cp c
  cols rows 8 compute_transform 
  rbmap gbmap bbmap true 3 colorimage gr}bdef
/il {newpath moveto lineto stroke}bdef
currentdict end def
%%EndProlog

%%BeginSetup
MathWorks begin

0 cap

end
%%EndSetup

%%Page: 1 1
%%BeginPageSetup
%%PageBoundingBox:  -114   132   725   659
MathWorks begin
bpage
%%EndPageSetup

%%BeginObject: obj1
bplot

/dpi2point 12 def
portraitMode -1368 7908 csm

    0     0 10079  6317 rc
85 dict begin %Colortable dictionary
/c0 { 0.000000 0.000000 0.000000 sr} bdef
/c1 { 1.000000 1.000000 1.000000 sr} bdef
/c2 { 0.900000 0.000000 0.000000 sr} bdef
/c3 { 0.000000 0.820000 0.000000 sr} bdef
/c4 { 0.000000 0.000000 0.800000 sr} bdef
/c5 { 0.910000 0.820000 0.320000 sr} bdef
/c6 { 1.000000 0.260000 0.820000 sr} bdef
/c7 { 0.000000 0.820000 0.820000 sr} bdef
c0
1 j
1 sg
   0    0 10080 6318 rf
6 w
0 5148 7811 0 0 -5148 1310 5622 4 MP
PP
-7811 0 0 5148 7811 0 0 -5148 1310 5622 5 MP stroke
4 w
DO
SO
6 w
0 sg
1310 5622 mt 9121 5622 L
1310  474 mt 9121  474 L
1310 5622 mt 1310  474 L
9121 5622 mt 9121  474 L
1310 5622 mt 9121 5622 L
1310 5622 mt 1310  474 L
1310 5622 mt 1310 5543 L
1310  474 mt 1310  552 L
%%IncludeResource: font Helvetica
/Helvetica /ISOLatin1Encoding 120 FMSR

1277 5767 mt 
(3) s
2872 5622 mt 2872 5543 L
2872  474 mt 2872  552 L
2789 5767 mt 
(3.5) s
4434 5622 mt 4434 5543 L
4434  474 mt 4434  552 L
4401 5767 mt 
(4) s
5996 5622 mt 5996 5543 L
5996  474 mt 5996  552 L
5913 5767 mt 
(4.5) s
7558 5622 mt 7558 5543 L
7558  474 mt 7558  552 L
7525 5767 mt 
(5) s
9121 5622 mt 9121 5543 L
9121  474 mt 9121  552 L
9038 5767 mt 
(5.5) s
1310 5622 mt 1388 5622 L
9121 5622 mt 9042 5622 L
1209 5666 mt 
(0) s
1310 5050 mt 1388 5050 L
9121 5050 mt 9042 5050 L
1209 5094 mt 
(2) s
1310 4478 mt 1388 4478 L
9121 4478 mt 9042 4478 L
1209 4522 mt 
(4) s
1310 3906 mt 1388 3906 L
9121 3906 mt 9042 3906 L
1209 3950 mt 
(6) s
1310 3334 mt 1388 3334 L
9121 3334 mt 9042 3334 L
1209 3378 mt 
(8) s
1310 2762 mt 1388 2762 L
9121 2762 mt 9042 2762 L
1142 2806 mt 
(10) s
1310 2190 mt 1388 2190 L
9121 2190 mt 9042 2190 L
1142 2234 mt 
(12) s
1310 1618 mt 1388 1618 L
9121 1618 mt 9042 1618 L
1142 1662 mt 
(14) s
1310 1046 mt 1388 1046 L
9121 1046 mt 9042 1046 L
1142 1090 mt 
(16) s
1310  474 mt 1388  474 L
9121  474 mt 9042  474 L
1142  518 mt 
(18) s
1310 5622 mt 9121 5622 L
1310  474 mt 9121  474 L
1310 5622 mt 1310  474 L
9121 5622 mt 9121  474 L
gs 1310 474 7812 5149 rc
36 w
/c8 { 0.000000 0.000000 1.000000 sr} bdef
c8
1563 266 937 389 1562 180 625 111 1562 -211 1562 -3158 1310 5087 7 MP stroke
gr

36 w
c8
0 j
0 -170 -170 0 0 170 170 0 1225 5002 5 MP
DP
0 -170 -170 0 0 170 170 0 2787 1844 5 MP
DP
0 -170 -170 0 0 170 170 0 4349 1633 5 MP
DP
0 -170 -170 0 0 170 170 0 4974 1744 5 MP
DP
0 -170 -170 0 0 170 170 0 6536 1924 5 MP
DP
0 -170 -170 0 0 170 170 0 7473 2313 5 MP
DP
0 -170 -170 0 0 170 170 0 9036 2579 5 MP
DP
gs 1310 474 7812 5149 rc
DA
/c9 { 1.000000 0.000000 0.000000 sr} bdef
c9
1563 366 937 369 1562 358 625 23 1562 360 1562 -3993 1310 4681 7 MP stroke
gr

c9
DA
SO
 108  108 1310 4681 FO
 108  108 2872  688 FO
 108  108 4434 1048 FO
 108  108 5059 1071 FO
 108  108 6621 1429 FO
 108  108 7558 1798 FO
 108  108 9121 2164 FO
DA
gs 1310 474 7812 5149 rc
gr

0 sg
%%IncludeResource: font Helvetica
/Helvetica /ISOLatin1Encoding 264 FMSR

3917 6016 mt 
(Flu Transmission Rate) s
1028 4366 mt  -90 rotate
(Mean Lead Time \(day\)) s
90 rotate
%%IncludeResource: font Helvetica
/Helvetica /ISOLatin1Encoding 120 FMSR

1293 5665 mt 
( ) s
9105  516 mt 
( ) s
SO
6 w
1 sg
0 677 3125 0 0 -677 5798 5068 4 MP
PP
-3125 0 0 677 3125 0 0 -677 5798 5068 5 MP stroke
4 w
DO
SO
6 w
0 sg
5798 5068 mt 8923 5068 L
5798 4391 mt 8923 4391 L
5798 5068 mt 5798 4391 L
8923 5068 mt 8923 4391 L
5798 5068 mt 8923 5068 L
5798 5068 mt 5798 4391 L
5798 5068 mt 8923 5068 L
5798 4391 mt 8923 4391 L
5798 5068 mt 5798 4391 L
8923 5068 mt 8923 4391 L
%%IncludeResource: font Helvetica
/Helvetica /ISOLatin1Encoding 216 FMSR

6305 4649 mt 
(CART Sensors) s
gs 5798 4391 3126 678 rc
36 w
c8
390 0 5875 4571 2 MP stroke
gr

36 w
c8
gs 5816 4317 509 509 rc
0 -170 -170 0 0 170 170 0 5985 4486 5 MP
DP
gr

gs 5798 4391 3126 678 rc
gr

0 sg
6305 4965 mt 
(Dominator Tree Sensors) s
gs 5798 4391 3126 678 rc
DA
c9
390 0 5875 4887 2 MP stroke
SO
gr

c9
gs 5816 4633 509 509 rc
 108  108 6070 4887 FO
gr

gs 5798 4391 3126 678 rc
6 w
gr

6 w

end %%Color Dict

eplot
%%EndObject

epage
end

showpage

%%Trailer
%%EOF
