%!PS-Adobe-3.0 EPSF-3.0
%%Creator: MATLAB, The MathWorks, Inc. Version 8.3.0.532 (R2014a). Operating System: Darwin 13.3.0 Darwin Kernel Version 13.3.0: Tue Jun  3 21:27:35 PDT 2014; root:xnu-2422.110.17~1/RELEASE_X86_64 x86_64.
%%Title: /Users/huijuans/2015Fall/GodBlessPLoSOne/MatLabFig/seattle_mean_lead_vs_sensor_size_08312015.eps
%%CreationDate: 08/31/2015  17:44:50
%%DocumentNeededFonts: Helvetica
%%DocumentProcessColors: Cyan Magenta Yellow Black
%%LanguageLevel: 2
%%Pages: 1
%%BoundingBox:   150   268   460   522
%%EndComments

%%BeginProlog
% MathWorks dictionary
/MathWorks 160 dict begin
% definition operators
/bdef {bind def} bind def
/ldef {load def} bind def
/xdef {exch def} bdef
/xstore {exch store} bdef
% operator abbreviations
/c  /clip ldef
/cc /concat ldef
/cp /closepath ldef
/gr /grestore ldef
/gs /gsave ldef
/mt /moveto ldef
/np /newpath ldef
/cm /currentmatrix ldef
/sm /setmatrix ldef
/rm /rmoveto ldef
/rl /rlineto ldef
/s {show newpath} bdef
/sc {setcmykcolor} bdef
/sr /setrgbcolor ldef
/sg /setgray ldef
/w /setlinewidth ldef
/j /setlinejoin ldef
/cap /setlinecap ldef
/rc {rectclip} bdef
/rf {rectfill} bdef
% page state control
/pgsv () def
/bpage {/pgsv save def} bdef
/epage {pgsv restore} bdef
/bplot /gsave ldef
/eplot {stroke grestore} bdef
% orientation switch
/portraitMode 0 def /landscapeMode 1 def /rotateMode 2 def
% coordinate system mappings
/dpi2point 0 def
% font control
/FontSize 0 def
/FMS {/FontSize xstore findfont [FontSize 0 0 FontSize neg 0 0]
  makefont setfont} bdef
/reencode {exch dup where {pop load} {pop StandardEncoding} ifelse
  exch dup 3 1 roll findfont dup length dict begin
  { 1 index /FID ne {def}{pop pop} ifelse } forall
  /Encoding exch def currentdict end definefont pop} bdef
/isroman {findfont /CharStrings get /Agrave known} bdef
/FMSR {3 1 roll 1 index dup isroman {reencode} {pop pop} ifelse
  exch FMS} bdef
/csm {1 dpi2point div -1 dpi2point div scale neg translate
 dup landscapeMode eq {pop -90 rotate}
  {rotateMode eq {90 rotate} if} ifelse} bdef
% line types: solid, dotted, dashed, dotdash
/SO { [] 0 setdash } bdef
/DO { [.5 dpi2point mul 4 dpi2point mul] 0 setdash } bdef
/DA { [6 dpi2point mul] 0 setdash } bdef
/DD { [.5 dpi2point mul 4 dpi2point mul 6 dpi2point mul 4
  dpi2point mul] 0 setdash } bdef
% macros for lines and objects
/L {lineto stroke} bdef
/MP {3 1 roll moveto 1 sub {rlineto} repeat} bdef
/AP {{rlineto} repeat} bdef
/PDlw -1 def
/W {/PDlw currentlinewidth def setlinewidth} def
/PP {closepath eofill} bdef
/DP {closepath stroke} bdef
/MR {4 -2 roll moveto dup  0 exch rlineto exch 0 rlineto
  neg 0 exch rlineto closepath} bdef
/FR {MR stroke} bdef
/PR {MR fill} bdef
/L1i {{currentfile picstr readhexstring pop} image} bdef
/tMatrix matrix def
/MakeOval {newpath tMatrix currentmatrix pop translate scale
0 0 1 0 360 arc tMatrix setmatrix} bdef
/FO {MakeOval stroke} bdef
/PO {MakeOval fill} bdef
/PD {currentlinewidth 2 div 0 360 arc fill
   PDlw -1 eq not {PDlw w /PDlw -1 def} if} def
/FA {newpath tMatrix currentmatrix pop translate scale
  0 0 1 5 -2 roll arc tMatrix setmatrix stroke} bdef
/PA {newpath tMatrix currentmatrix pop	translate 0 0 moveto scale
  0 0 1 5 -2 roll arc closepath tMatrix setmatrix fill} bdef
/FAn {newpath tMatrix currentmatrix pop translate scale
  0 0 1 5 -2 roll arcn tMatrix setmatrix stroke} bdef
/PAn {newpath tMatrix currentmatrix pop translate 0 0 moveto scale
  0 0 1 5 -2 roll arcn closepath tMatrix setmatrix fill} bdef
/vradius 0 def /hradius 0 def /lry 0 def
/lrx 0 def /uly 0 def /ulx 0 def /rad 0 def
/MRR {/vradius xdef /hradius xdef /lry xdef /lrx xdef /uly xdef
  /ulx xdef newpath tMatrix currentmatrix pop ulx hradius add uly
  vradius add translate hradius vradius scale 0 0 1 180 270 arc 
  tMatrix setmatrix lrx hradius sub uly vradius add translate
  hradius vradius scale 0 0 1 270 360 arc tMatrix setmatrix
  lrx hradius sub lry vradius sub translate hradius vradius scale
  0 0 1 0 90 arc tMatrix setmatrix ulx hradius add lry vradius sub
  translate hradius vradius scale 0 0 1 90 180 arc tMatrix setmatrix
  closepath} bdef
/FRR {MRR stroke } bdef
/PRR {MRR fill } bdef
/MlrRR {/lry xdef /lrx xdef /uly xdef /ulx xdef /rad lry uly sub 2 div def
  newpath tMatrix currentmatrix pop ulx rad add uly rad add translate
  rad rad scale 0 0 1 90 270 arc tMatrix setmatrix lrx rad sub lry rad
  sub translate rad rad scale 0 0 1 270 90 arc tMatrix setmatrix
  closepath} bdef
/FlrRR {MlrRR stroke } bdef
/PlrRR {MlrRR fill } bdef
/MtbRR {/lry xdef /lrx xdef /uly xdef /ulx xdef /rad lrx ulx sub 2 div def
  newpath tMatrix currentmatrix pop ulx rad add uly rad add translate
  rad rad scale 0 0 1 180 360 arc tMatrix setmatrix lrx rad sub lry rad
  sub translate rad rad scale 0 0 1 0 180 arc tMatrix setmatrix
  closepath} bdef
/FtbRR {MtbRR stroke } bdef
/PtbRR {MtbRR fill } bdef
/stri 6 array def /dtri 6 array def
/smat 6 array def /dmat 6 array def
/tmat1 6 array def /tmat2 6 array def /dif 3 array def
/asub {/ind2 exch def /ind1 exch def dup dup
  ind1 get exch ind2 get sub exch } bdef
/tri_to_matrix {
  2 0 asub 3 1 asub 4 0 asub 5 1 asub
  dup 0 get exch 1 get 7 -1 roll astore } bdef
/compute_transform {
  dmat dtri tri_to_matrix tmat1 invertmatrix 
  smat stri tri_to_matrix tmat2 concatmatrix } bdef
/ds {stri astore pop} bdef
/dt {dtri astore pop} bdef
/db {2 copy /cols xdef /rows xdef mul dup 3 mul string
  currentfile 
  3 index 0 eq {/ASCIIHexDecode filter}
  {/ASCII85Decode filter 3 index 2 eq {/RunLengthDecode filter} if }
  ifelse exch readstring pop
  dup 0 3 index getinterval /rbmap xdef
  dup 2 index dup getinterval /gbmap xdef
  1 index dup 2 mul exch getinterval /bbmap xdef pop pop}bdef
/it {gs np dtri aload pop moveto lineto lineto cp c
  cols rows 8 compute_transform 
  rbmap gbmap bbmap true 3 colorimage gr}bdef
/il {newpath moveto lineto stroke}bdef
currentdict end def
%%EndProlog

%%BeginSetup
MathWorks begin

0 cap

end
%%EndSetup

%%Page: 1 1
%%BeginPageSetup
%%PageBoundingBox:   150   268   460   522
MathWorks begin
bpage
%%EndPageSetup

%%BeginObject: obj1
bplot

/dpi2point 12 def
portraitMode 1800 6264 csm

    0     0  3721  3048 rc
85 dict begin %Colortable dictionary
/c0 { 0.000000 0.000000 0.000000 sr} bdef
/c1 { 1.000000 1.000000 1.000000 sr} bdef
/c2 { 0.900000 0.000000 0.000000 sr} bdef
/c3 { 0.000000 0.820000 0.000000 sr} bdef
/c4 { 0.000000 0.000000 0.800000 sr} bdef
/c5 { 0.910000 0.820000 0.320000 sr} bdef
/c6 { 1.000000 0.260000 0.820000 sr} bdef
/c7 { 0.000000 0.820000 0.820000 sr} bdef
c0
1 j
1 sg
   0    0 3722 3049 rf
6 w
0 2450 2884 0 0 -2450 484 2679 4 MP
PP
-2884 0 0 2450 2884 0 0 -2450 484 2679 5 MP stroke
4 w
DO
SO
6 w
0 sg
 484 2679 mt 3368 2679 L
 484  229 mt 3368  229 L
 484 2679 mt  484  229 L
3368 2679 mt 3368  229 L
 484 2679 mt 3368 2679 L
 484 2679 mt  484  229 L
 484 2679 mt  484 2650 L
 484  229 mt  484  257 L
%%IncludeResource: font Helvetica
/Helvetica /ISOLatin1Encoding 150.622 FMSR

 443 2853 mt 
(0) s
 964 2679 mt  964 2650 L
 964  229 mt  964  257 L
 923 2853 mt 
(1) s
1445 2679 mt 1445 2650 L
1445  229 mt 1445  257 L
1404 2853 mt 
(2) s
1926 2679 mt 1926 2650 L
1926  229 mt 1926  257 L
1885 2853 mt 
(3) s
2406 2679 mt 2406 2650 L
2406  229 mt 2406  257 L
2365 2853 mt 
(4) s
2887 2679 mt 2887 2650 L
2887  229 mt 2887  257 L
2846 2853 mt 
(5) s
3368 2679 mt 3368 2650 L
3368  229 mt 3368  257 L
3327 2853 mt 
(6) s
 484 2679 mt  512 2679 L
3368 2679 mt 3339 2679 L
 366 2735 mt 
(8) s
 484 2329 mt  512 2329 L
3368 2329 mt 3339 2329 L
 282 2385 mt 
(10) s
 484 1979 mt  512 1979 L
3368 1979 mt 3339 1979 L
 282 2035 mt 
(12) s
 484 1629 mt  512 1629 L
3368 1629 mt 3339 1629 L
 282 1685 mt 
(14) s
 484 1279 mt  512 1279 L
3368 1279 mt 3339 1279 L
 282 1335 mt 
(16) s
 484  929 mt  512  929 L
3368  929 mt 3339  929 L
 282  985 mt 
(18) s
 484  579 mt  512  579 L
3368  579 mt 3339  579 L
 282  635 mt 
(20) s
 484  229 mt  512  229 L
3368  229 mt 3339  229 L
 282  285 mt 
(22) s
 484 2679 mt 3368 2679 L
 484  229 mt 3368  229 L
 484 2679 mt  484  229 L
3368 2679 mt 3368  229 L
gs 484 229 2885 2451 rc
12 w
/c8 { 0.000000 0.000000 1.000000 sr} bdef
c8
0 1064 532 316 2 MP stroke
47 0 508 316 2 MP stroke
47 0 508 1380 2 MP stroke
0 490 724 1279 2 MP stroke
47 0 700 1279 2 MP stroke
47 0 700 1769 2 MP stroke
0 371 964 1627 2 MP stroke
47 0 941 1627 2 MP stroke
47 0 941 1998 2 MP stroke
0 262 1685 2040 2 MP stroke
47 0 1662 2040 2 MP stroke
47 0 1662 2302 2 MP stroke
0 143 2887 2460 2 MP stroke
47 0 2863 2460 2 MP stroke
47 0 2863 2603 2 MP stroke
1202 361 721 359 240 288 192 676 532 848 5 MP stroke
gr

12 w
c8
0 j
0 -38 -38 0 0 38 38 0 513 829 5 MP
DP
0 -38 -38 0 0 38 38 0 705 1505 5 MP
DP
0 -38 -38 0 0 38 38 0 945 1793 5 MP
DP
0 -38 -38 0 0 38 38 0 1666 2152 5 MP
DP
0 -38 -38 0 0 38 38 0 2868 2513 5 MP
DP
gs 484 229 2885 2451 rc
gr

0 sg
%%IncludeResource: font Helvetica
/Helvetica /ISOLatin1Encoding 144 FMSR

 846 3014 mt 
(Sensor Set Size \(% of population\)) s
 195 2173 mt  -90 rotate
(Mean Lead Time \(day\)) s
90 rotate
6 w

end %%Color Dict

eplot
%%EndObject

epage
end

showpage

%%Trailer
%%EOF
