%!PS-Adobe-3.0 EPSF-3.0
%%Creator: MATLAB, The MathWorks, Inc. Version 8.3.0.532 (R2014a). Operating System: Darwin 13.3.0 Darwin Kernel Version 13.3.0: Tue Jun  3 21:27:35 PDT 2014; root:xnu-2422.110.17~1/RELEASE_X86_64 x86_64.
%%Title: /Users/huijuans/2015Fall/PLoSOne/MatLabFig/miami_noshift1_08272015.eps
%%CreationDate: 08/28/2015  17:58:02
%%DocumentNeededFonts: Helvetica
%%DocumentProcessColors: Cyan Magenta Yellow Black
%%LanguageLevel: 2
%%Pages: 1
%%BoundingBox:     7     6   223   223
%%EndComments

%%BeginProlog
% MathWorks dictionary
/MathWorks 160 dict begin
% definition operators
/bdef {bind def} bind def
/ldef {load def} bind def
/xdef {exch def} bdef
/xstore {exch store} bdef
% operator abbreviations
/c  /clip ldef
/cc /concat ldef
/cp /closepath ldef
/gr /grestore ldef
/gs /gsave ldef
/mt /moveto ldef
/np /newpath ldef
/cm /currentmatrix ldef
/sm /setmatrix ldef
/rm /rmoveto ldef
/rl /rlineto ldef
/s {show newpath} bdef
/sc {setcmykcolor} bdef
/sr /setrgbcolor ldef
/sg /setgray ldef
/w /setlinewidth ldef
/j /setlinejoin ldef
/cap /setlinecap ldef
/rc {rectclip} bdef
/rf {rectfill} bdef
% page state control
/pgsv () def
/bpage {/pgsv save def} bdef
/epage {pgsv restore} bdef
/bplot /gsave ldef
/eplot {stroke grestore} bdef
% orientation switch
/portraitMode 0 def /landscapeMode 1 def /rotateMode 2 def
% coordinate system mappings
/dpi2point 0 def
% font control
/FontSize 0 def
/FMS {/FontSize xstore findfont [FontSize 0 0 FontSize neg 0 0]
  makefont setfont} bdef
/reencode {exch dup where {pop load} {pop StandardEncoding} ifelse
  exch dup 3 1 roll findfont dup length dict begin
  { 1 index /FID ne {def}{pop pop} ifelse } forall
  /Encoding exch def currentdict end definefont pop} bdef
/isroman {findfont /CharStrings get /Agrave known} bdef
/FMSR {3 1 roll 1 index dup isroman {reencode} {pop pop} ifelse
  exch FMS} bdef
/csm {1 dpi2point div -1 dpi2point div scale neg translate
 dup landscapeMode eq {pop -90 rotate}
  {rotateMode eq {90 rotate} if} ifelse} bdef
% line types: solid, dotted, dashed, dotdash
/SO { [] 0 setdash } bdef
/DO { [.5 dpi2point mul 4 dpi2point mul] 0 setdash } bdef
/DA { [6 dpi2point mul] 0 setdash } bdef
/DD { [.5 dpi2point mul 4 dpi2point mul 6 dpi2point mul 4
  dpi2point mul] 0 setdash } bdef
% macros for lines and objects
/L {lineto stroke} bdef
/MP {3 1 roll moveto 1 sub {rlineto} repeat} bdef
/AP {{rlineto} repeat} bdef
/PDlw -1 def
/W {/PDlw currentlinewidth def setlinewidth} def
/PP {closepath eofill} bdef
/DP {closepath stroke} bdef
/MR {4 -2 roll moveto dup  0 exch rlineto exch 0 rlineto
  neg 0 exch rlineto closepath} bdef
/FR {MR stroke} bdef
/PR {MR fill} bdef
/L1i {{currentfile picstr readhexstring pop} image} bdef
/tMatrix matrix def
/MakeOval {newpath tMatrix currentmatrix pop translate scale
0 0 1 0 360 arc tMatrix setmatrix} bdef
/FO {MakeOval stroke} bdef
/PO {MakeOval fill} bdef
/PD {currentlinewidth 2 div 0 360 arc fill
   PDlw -1 eq not {PDlw w /PDlw -1 def} if} def
/FA {newpath tMatrix currentmatrix pop translate scale
  0 0 1 5 -2 roll arc tMatrix setmatrix stroke} bdef
/PA {newpath tMatrix currentmatrix pop	translate 0 0 moveto scale
  0 0 1 5 -2 roll arc closepath tMatrix setmatrix fill} bdef
/FAn {newpath tMatrix currentmatrix pop translate scale
  0 0 1 5 -2 roll arcn tMatrix setmatrix stroke} bdef
/PAn {newpath tMatrix currentmatrix pop translate 0 0 moveto scale
  0 0 1 5 -2 roll arcn closepath tMatrix setmatrix fill} bdef
/vradius 0 def /hradius 0 def /lry 0 def
/lrx 0 def /uly 0 def /ulx 0 def /rad 0 def
/MRR {/vradius xdef /hradius xdef /lry xdef /lrx xdef /uly xdef
  /ulx xdef newpath tMatrix currentmatrix pop ulx hradius add uly
  vradius add translate hradius vradius scale 0 0 1 180 270 arc 
  tMatrix setmatrix lrx hradius sub uly vradius add translate
  hradius vradius scale 0 0 1 270 360 arc tMatrix setmatrix
  lrx hradius sub lry vradius sub translate hradius vradius scale
  0 0 1 0 90 arc tMatrix setmatrix ulx hradius add lry vradius sub
  translate hradius vradius scale 0 0 1 90 180 arc tMatrix setmatrix
  closepath} bdef
/FRR {MRR stroke } bdef
/PRR {MRR fill } bdef
/MlrRR {/lry xdef /lrx xdef /uly xdef /ulx xdef /rad lry uly sub 2 div def
  newpath tMatrix currentmatrix pop ulx rad add uly rad add translate
  rad rad scale 0 0 1 90 270 arc tMatrix setmatrix lrx rad sub lry rad
  sub translate rad rad scale 0 0 1 270 90 arc tMatrix setmatrix
  closepath} bdef
/FlrRR {MlrRR stroke } bdef
/PlrRR {MlrRR fill } bdef
/MtbRR {/lry xdef /lrx xdef /uly xdef /ulx xdef /rad lrx ulx sub 2 div def
  newpath tMatrix currentmatrix pop ulx rad add uly rad add translate
  rad rad scale 0 0 1 180 360 arc tMatrix setmatrix lrx rad sub lry rad
  sub translate rad rad scale 0 0 1 0 180 arc tMatrix setmatrix
  closepath} bdef
/FtbRR {MtbRR stroke } bdef
/PtbRR {MtbRR fill } bdef
/stri 6 array def /dtri 6 array def
/smat 6 array def /dmat 6 array def
/tmat1 6 array def /tmat2 6 array def /dif 3 array def
/asub {/ind2 exch def /ind1 exch def dup dup
  ind1 get exch ind2 get sub exch } bdef
/tri_to_matrix {
  2 0 asub 3 1 asub 4 0 asub 5 1 asub
  dup 0 get exch 1 get 7 -1 roll astore } bdef
/compute_transform {
  dmat dtri tri_to_matrix tmat1 invertmatrix 
  smat stri tri_to_matrix tmat2 concatmatrix } bdef
/ds {stri astore pop} bdef
/dt {dtri astore pop} bdef
/db {2 copy /cols xdef /rows xdef mul dup 3 mul string
  currentfile 
  3 index 0 eq {/ASCIIHexDecode filter}
  {/ASCII85Decode filter 3 index 2 eq {/RunLengthDecode filter} if }
  ifelse exch readstring pop
  dup 0 3 index getinterval /rbmap xdef
  dup 2 index dup getinterval /gbmap xdef
  1 index dup 2 mul exch getinterval /bbmap xdef pop pop}bdef
/it {gs np dtri aload pop moveto lineto lineto cp c
  cols rows 8 compute_transform 
  rbmap gbmap bbmap true 3 colorimage gr}bdef
/il {newpath moveto lineto stroke}bdef
currentdict end def
%%EndProlog

%%BeginSetup
MathWorks begin

0 cap

end
%%EndSetup

%%Page: 1 1
%%BeginPageSetup
%%PageBoundingBox:     7     6   223   223
MathWorks begin
bpage
%%EndPageSetup

%%BeginObject: obj1
bplot

/dpi2point 12 def
portraitMode 0084 2676 csm

    0     0  2594  2594 rc
85 dict begin %Colortable dictionary
/c0 { 0.000000 0.000000 0.000000 sr} bdef
/c1 { 1.000000 1.000000 1.000000 sr} bdef
/c2 { 0.900000 0.000000 0.000000 sr} bdef
/c3 { 0.000000 0.820000 0.000000 sr} bdef
/c4 { 0.000000 0.000000 0.800000 sr} bdef
/c5 { 0.910000 0.820000 0.320000 sr} bdef
/c6 { 1.000000 0.260000 0.820000 sr} bdef
/c7 { 0.000000 0.820000 0.820000 sr} bdef
c0
1 j
1 sg
   0    0 2595 2595 rf
6 w
0 1814 1814 0 0 -1814 605 2162 4 MP
PP
-1814 0 0 1814 1814 0 0 -1814 605 2162 5 MP stroke
4 w
DO
SO
6 w
0 sg
 605 2162 mt 2419 2162 L
 605  348 mt 2419  348 L
 605 2162 mt  605  348 L
2419 2162 mt 2419  348 L
 605 2162 mt 2419 2162 L
 605 2162 mt  605  348 L
 605 2162 mt  605 2143 L
 605  348 mt  605  366 L
%%IncludeResource: font Helvetica
/Helvetica /ISOLatin1Encoding 144 FMSR

 565 2330 mt 
(0) s
1209 2162 mt 1209 2143 L
1209  348 mt 1209  366 L
1089 2330 mt 
(100) s
1814 2162 mt 1814 2143 L
1814  348 mt 1814  366 L
1694 2330 mt 
(200) s
2419 2162 mt 2419 2143 L
2419  348 mt 2419  366 L
2299 2330 mt 
(300) s
 605 2162 mt  623 2162 L
2419 2162 mt 2400 2162 L
 490 2215 mt 
(0) s
 605 1859 mt  623 1859 L
2419 1859 mt 2400 1859 L
 210 1912 mt 
(0.005) s
 605 1557 mt  623 1557 L
2419 1557 mt 2400 1557 L
 290 1610 mt 
(0.01) s
 605 1255 mt  623 1255 L
2419 1255 mt 2400 1255 L
 210 1308 mt 
(0.015) s
 605  952 mt  623  952 L
2419  952 mt 2400  952 L
 290 1005 mt 
(0.02) s
 605  650 mt  623  650 L
2419  650 mt 2400  650 L
 210  703 mt 
(0.025) s
 605  348 mt  623  348 L
2419  348 mt 2400  348 L
 290  401 mt 
(0.03) s
 605 2162 mt 2419 2162 L
 605  348 mt 2419  348 L
 605 2162 mt  605  348 L
2419 2162 mt 2419  348 L
gs 605 348 1815 1815 rc
12 w
/c8 { 1.000000 0.000000 0.000000 sr} bdef
c8
7 0 6 0 6 0 6 0 6 0 6 0 6 0 6 0 
6 0 6 0 6 0 6 0 6 0 6 0 6 0 6 0 
6 0 6 0 6 0 6 0 6 0 7 0 6 0 6 0 
6 0 6 0 6 2 6 0 6 -2 6 0 6 0 6 0 
6 0 6 2 6 -2 6 0 6 2 6 0 6 3 6 -3 
6 -2 6 3 7 -3 6 3 6 -1 6 0 6 2 6 0 
6 -4 6 3 6 1 6 -2 6 1 6 -3 6 5 6 -2 
6 1 6 2 6 -2 6 4 6 2 6 3 6 -7 6 5 
7 -5 6 6 6 -5 6 5 6 -2 6 1 6 3 6 0 
6 -4 6 1 6 9 6 1 6 -9 6 2 6 13 6 -7 
6 9 6 0 6 -4 6 9 6 4 7 9 6 -10 6 13 
6 -6 6 9 6 1 6 4 6 -3 6 11 6 -4 6 10 
6 14 6 -4 6 0 6 7 6 37 6 -24 6 31 6 2 
6 45 6 -33 6 25 7 9 6 8 6 -3 6 37 6 18 
6 26 6 10 6 32 6 31 6 -17 6 53 6 35 6 -4 
6 18 6 72 6 58 6 -46 6 58 6 17 6 3 6 36 
7 63 6 -10 6 71 6 68 6 -35 6 58 6 61 6 36 
6 -16 6 122 6 -48 6 41 6 -2 6 39 6 13 6 0 
6 49 6 73 6 -87 6 29 6 18 6 41 7 -98 6 68 
6 -78 6 48 6 11 6 -82 6 -53 6 -1 6 59 6 -117 
6 -10 6 -47 6 -35 6 -9 6 -87 6 43 6 -98 6 -19 
6 4 6 -46 6 -64 7 -46 6 20 6 -49 6 -71 6 24 
6 -45 6 2 6 -33 6 -26 6 -43 6 3 6 -39 6 -20 
6 -9 6 -74 6 31 6 -2 6 -49 6 -4 6 23 6 -42 
7 -11 6 16 6 -13 6 -36 6 18 6 -18 6 4 6 -20 
6 -15 6 5 6 -9 6 -5 6 0 6 -14 6 4 6 -6 
6 3 6 -15 6 1 6 2 6 -7 6 -5 7 4 6 -7 
6 -3 6 -2 6 0 6 -1 6 -8 6 4 6 2 6 -5 
6 11 6 -3 6 -8 6 2 6 1 6 0 6 -6 6 5 
6 -6 6 2 6 -4 7 3 6 -2 6 3 6 -5 6 4 
6 -5 6 3 6 2 6 -1 6 -3 6 1 6 -1 6 0 
6 -3 6 2 6 1 6 1 6 0 6 -4 6 0 6 3 
6 -1 7 1 6 -1 6 -2 6 2 6 -2 6 0 6 2 
6 0 6 0 6 -2 6 2 6 1 6 -1 6 -2 6 0 
6 0 6 2 6 -2 6 0 6 0 6 0 7 0 6 2 
6 -2 6 0 6 0 6 2 6 0 6 -2 6 0 6 0 
6 0 6 0 6 2 6 -2 6 0 6 0 6 0 6 0 
6 0 6 0 6 0 611 2162 300 MP stroke
gr

12 w
c8
 593 2162 mt  629 2162 L
 611 2144 mt  611 2180 L
 599 2162 mt  635 2162 L
 617 2144 mt  617 2180 L
 605 2162 mt  641 2162 L
 623 2144 mt  623 2180 L
 611 2162 mt  647 2162 L
 629 2144 mt  629 2180 L
 617 2162 mt  653 2162 L
 635 2144 mt  635 2180 L
 623 2162 mt  659 2162 L
 641 2144 mt  641 2180 L
 629 2162 mt  665 2162 L
 647 2144 mt  647 2180 L
 635 2162 mt  671 2162 L
 653 2144 mt  653 2180 L
 641 2160 mt  677 2160 L
 659 2142 mt  659 2178 L
 647 2162 mt  683 2162 L
 665 2144 mt  665 2180 L
 653 2162 mt  689 2162 L
 671 2144 mt  671 2180 L
 659 2162 mt  695 2162 L
 677 2144 mt  677 2180 L
 665 2162 mt  701 2162 L
 683 2144 mt  683 2180 L
 671 2162 mt  707 2162 L
 689 2144 mt  689 2180 L
 677 2160 mt  713 2160 L
 695 2142 mt  695 2178 L
 683 2160 mt  719 2160 L
 701 2142 mt  701 2178 L
 689 2162 mt  725 2162 L
 707 2144 mt  707 2180 L
 695 2162 mt  731 2162 L
 713 2144 mt  713 2180 L
 701 2162 mt  737 2162 L
 719 2144 mt  719 2180 L
 707 2160 mt  743 2160 L
 725 2142 mt  725 2178 L
 713 2162 mt  749 2162 L
 731 2144 mt  731 2180 L
 720 2162 mt  756 2162 L
 738 2144 mt  738 2180 L
 726 2162 mt  762 2162 L
 744 2144 mt  744 2180 L
 732 2162 mt  768 2162 L
 750 2144 mt  750 2180 L
 738 2162 mt  774 2162 L
 756 2144 mt  756 2180 L
 744 2160 mt  780 2160 L
 762 2142 mt  762 2178 L
 750 2162 mt  786 2162 L
 768 2144 mt  768 2180 L
 756 2162 mt  792 2162 L
 774 2144 mt  774 2180 L
 762 2162 mt  798 2162 L
 780 2144 mt  780 2180 L
 768 2160 mt  804 2160 L
 786 2142 mt  786 2178 L
 774 2159 mt  810 2159 L
 792 2141 mt  792 2177 L
 780 2160 mt  816 2160 L
 798 2142 mt  798 2178 L
 786 2162 mt  822 2162 L
 804 2144 mt  804 2180 L
 792 2160 mt  828 2160 L
 810 2142 mt  810 2178 L
 798 2160 mt  834 2160 L
 816 2142 mt  816 2178 L
 804 2160 mt  840 2160 L
 822 2142 mt  822 2178 L
 810 2162 mt  846 2162 L
 828 2144 mt  828 2180 L
 816 2162 mt  852 2162 L
 834 2144 mt  834 2180 L
 822 2160 mt  858 2160 L
 840 2142 mt  840 2178 L
 828 2162 mt  864 2162 L
 846 2144 mt  846 2180 L
 834 2160 mt  870 2160 L
 852 2142 mt  852 2178 L
 840 2159 mt  876 2159 L
 858 2141 mt  858 2177 L
 847 2160 mt  883 2160 L
 865 2142 mt  865 2178 L
 853 2159 mt  889 2159 L
 871 2141 mt  871 2177 L
 859 2162 mt  895 2162 L
 877 2144 mt  877 2180 L
 865 2162 mt  901 2162 L
 883 2144 mt  883 2180 L
 871 2158 mt  907 2158 L
 889 2140 mt  889 2176 L
 877 2158 mt  913 2158 L
 895 2140 mt  895 2176 L
 883 2159 mt  919 2159 L
 901 2141 mt  901 2177 L
 889 2160 mt  925 2160 L
 907 2142 mt  907 2178 L
 895 2162 mt  931 2162 L
 913 2144 mt  913 2180 L
 901 2159 mt  937 2159 L
 919 2141 mt  919 2177 L
 907 2159 mt  943 2159 L
 925 2141 mt  925 2177 L
 913 2158 mt  949 2158 L
 931 2140 mt  931 2176 L
 919 2159 mt  955 2159 L
 937 2141 mt  937 2177 L
 925 2156 mt  961 2156 L
 943 2138 mt  943 2174 L
 931 2155 mt  967 2155 L
 949 2137 mt  949 2173 L
 937 2157 mt  973 2157 L
 955 2139 mt  955 2175 L
 943 2160 mt  979 2160 L
 961 2142 mt  961 2178 L
 949 2155 mt  985 2155 L
 967 2137 mt  967 2173 L
 955 2159 mt  991 2159 L
 973 2141 mt  973 2177 L
 961 2154 mt  997 2154 L
 979 2136 mt  979 2172 L
 967 2157 mt 1003 2157 L
 985 2139 mt  985 2175 L
 973 2155 mt 1009 2155 L
 991 2137 mt  991 2173 L
 980 2158 mt 1016 2158 L
 998 2140 mt  998 2176 L
 986 2154 mt 1022 2154 L
1004 2136 mt 1004 2172 L
 992 2156 mt 1028 2156 L
1010 2138 mt 1010 2174 L
 998 2150 mt 1034 2150 L
1016 2132 mt 1016 2168 L
1004 2155 mt 1040 2155 L
1022 2137 mt 1022 2173 L
1010 2149 mt 1046 2149 L
1028 2131 mt 1028 2167 L
1016 2149 mt 1052 2149 L
1034 2131 mt 1034 2167 L
1022 2150 mt 1058 2150 L
1040 2132 mt 1040 2168 L
1028 2152 mt 1064 2152 L
1046 2134 mt 1046 2170 L
1034 2144 mt 1070 2144 L
1052 2126 mt 1052 2162 L
1040 2141 mt 1076 2141 L
1058 2123 mt 1058 2159 L
1046 2152 mt 1082 2152 L
1064 2134 mt 1064 2170 L
1052 2147 mt 1088 2147 L
1070 2129 mt 1070 2165 L
1058 2149 mt 1094 2149 L
1076 2131 mt 1076 2167 L
1064 2153 mt 1100 2153 L
1082 2135 mt 1082 2171 L
1070 2145 mt 1106 2145 L
1088 2127 mt 1088 2163 L
1076 2144 mt 1112 2144 L
1094 2126 mt 1094 2162 L
1082 2144 mt 1118 2144 L
1100 2126 mt 1100 2162 L
1088 2142 mt 1124 2142 L
1106 2124 mt 1106 2160 L
1094 2139 mt 1130 2139 L
1112 2121 mt 1112 2157 L
1100 2132 mt 1136 2132 L
1118 2114 mt 1118 2150 L
1107 2136 mt 1143 2136 L
1125 2118 mt 1125 2154 L
1113 2131 mt 1149 2131 L
1131 2113 mt 1131 2149 L
1119 2124 mt 1155 2124 L
1137 2106 mt 1137 2142 L
1125 2126 mt 1161 2126 L
1143 2108 mt 1143 2144 L
1131 2127 mt 1167 2127 L
1149 2109 mt 1149 2145 L
1137 2112 mt 1173 2112 L
1155 2094 mt 1155 2130 L
1143 2115 mt 1179 2115 L
1161 2097 mt 1161 2133 L
1149 2109 mt 1185 2109 L
1167 2091 mt 1167 2127 L
1155 2113 mt 1191 2113 L
1173 2095 mt 1173 2131 L
1161 2099 mt 1197 2099 L
1179 2081 mt 1179 2117 L
1167 2099 mt 1203 2099 L
1185 2081 mt 1185 2117 L
1173 2094 mt 1209 2094 L
1191 2076 mt 1191 2112 L
1179 2085 mt 1215 2085 L
1197 2067 mt 1197 2103 L
1185 2090 mt 1221 2090 L
1203 2072 mt 1203 2108 L
1191 2075 mt 1227 2075 L
1209 2057 mt 1209 2093 L
1197 2055 mt 1233 2055 L
1215 2037 mt 1215 2073 L
1203 2059 mt 1239 2059 L
1221 2041 mt 1221 2077 L
1209 2041 mt 1245 2041 L
1227 2023 mt 1227 2059 L
1215 2059 mt 1251 2059 L
1233 2041 mt 1233 2077 L
1221 2023 mt 1257 2023 L
1239 2005 mt 1239 2041 L
1227 2010 mt 1263 2010 L
1245 1992 mt 1245 2028 L
1233 2026 mt 1269 2026 L
1251 2008 mt 1251 2044 L
1240 2015 mt 1276 2015 L
1258 1997 mt 1258 2033 L
1246 1973 mt 1282 1973 L
1264 1955 mt 1264 1991 L
1252 1996 mt 1288 1996 L
1270 1978 mt 1270 2014 L
1258 1992 mt 1294 1992 L
1276 1974 mt 1276 2010 L
1264 1943 mt 1300 1943 L
1282 1925 mt 1282 1961 L
1270 1941 mt 1306 1941 L
1288 1923 mt 1288 1959 L
1276 1972 mt 1312 1972 L
1294 1954 mt 1294 1990 L
1282 1898 mt 1318 1898 L
1300 1880 mt 1300 1916 L
1288 1889 mt 1324 1889 L
1306 1871 mt 1306 1907 L
1294 1869 mt 1330 1869 L
1312 1851 mt 1312 1887 L
1300 1830 mt 1336 1830 L
1318 1812 mt 1318 1848 L
1306 1833 mt 1342 1833 L
1324 1815 mt 1324 1851 L
1312 1790 mt 1348 1790 L
1330 1772 mt 1330 1808 L
1318 1764 mt 1354 1764 L
1336 1746 mt 1336 1782 L
1324 1731 mt 1360 1731 L
1342 1713 mt 1342 1749 L
1330 1733 mt 1366 1733 L
1348 1715 mt 1348 1751 L
1336 1688 mt 1372 1688 L
1354 1670 mt 1354 1706 L
1342 1712 mt 1378 1712 L
1360 1694 mt 1360 1730 L
1348 1641 mt 1384 1641 L
1366 1623 mt 1366 1659 L
1354 1592 mt 1390 1592 L
1372 1574 mt 1372 1610 L
1360 1612 mt 1396 1612 L
1378 1594 mt 1378 1630 L
1367 1566 mt 1403 1566 L
1385 1548 mt 1385 1584 L
1373 1502 mt 1409 1502 L
1391 1484 mt 1391 1520 L
1379 1456 mt 1415 1456 L
1397 1438 mt 1397 1474 L
1385 1460 mt 1421 1460 L
1403 1442 mt 1403 1478 L
1391 1441 mt 1427 1441 L
1409 1423 mt 1409 1459 L
1397 1343 mt 1433 1343 L
1415 1325 mt 1415 1361 L
1403 1386 mt 1439 1386 L
1421 1368 mt 1421 1404 L
1409 1299 mt 1445 1299 L
1427 1281 mt 1427 1317 L
1415 1290 mt 1451 1290 L
1433 1272 mt 1433 1308 L
1421 1255 mt 1457 1255 L
1439 1237 mt 1439 1273 L
1427 1208 mt 1463 1208 L
1445 1190 mt 1445 1226 L
1433 1198 mt 1469 1198 L
1451 1180 mt 1451 1216 L
1439 1081 mt 1475 1081 L
1457 1063 mt 1457 1099 L
1445 1140 mt 1481 1140 L
1463 1122 mt 1463 1158 L
1451 1139 mt 1487 1139 L
1469 1121 mt 1469 1157 L
1457 1086 mt 1493 1086 L
1475 1068 mt 1475 1104 L
1463 1004 mt 1499 1004 L
1481  986 mt 1481 1022 L
1469 1015 mt 1505 1015 L
1487  997 mt 1487 1033 L
1475 1063 mt 1511 1063 L
1493 1045 mt 1493 1081 L
1481  985 mt 1517  985 L
1499  967 mt 1499 1003 L
1487 1053 mt 1523 1053 L
1505 1035 mt 1505 1071 L
1494  955 mt 1530  955 L
1512  937 mt 1512  973 L
1500  996 mt 1536  996 L
1518  978 mt 1518 1014 L
1506 1014 mt 1542 1014 L
1524  996 mt 1524 1032 L
1512 1043 mt 1548 1043 L
1530 1025 mt 1530 1061 L
1518  956 mt 1554  956 L
1536  938 mt 1536  974 L
1524 1029 mt 1560 1029 L
1542 1011 mt 1542 1047 L
1530 1078 mt 1566 1078 L
1548 1060 mt 1548 1096 L
1536 1078 mt 1572 1078 L
1554 1060 mt 1554 1096 L
1542 1091 mt 1578 1091 L
1560 1073 mt 1560 1109 L
1548 1130 mt 1584 1130 L
1566 1112 mt 1566 1148 L
1554 1128 mt 1590 1128 L
1572 1110 mt 1572 1146 L
1560 1169 mt 1596 1169 L
1578 1151 mt 1578 1187 L
1566 1121 mt 1602 1121 L
1584 1103 mt 1584 1139 L
1572 1243 mt 1608 1243 L
1590 1225 mt 1590 1261 L
1578 1227 mt 1614 1227 L
1596 1209 mt 1596 1245 L
1584 1263 mt 1620 1263 L
1602 1245 mt 1602 1281 L
1590 1324 mt 1626 1324 L
1608 1306 mt 1608 1342 L
1596 1382 mt 1632 1382 L
1614 1364 mt 1614 1400 L
1602 1347 mt 1638 1347 L
1620 1329 mt 1620 1365 L
1608 1415 mt 1644 1415 L
1626 1397 mt 1626 1433 L
1614 1486 mt 1650 1486 L
1632 1468 mt 1632 1504 L
1620 1476 mt 1656 1476 L
1638 1458 mt 1638 1494 L
1627 1539 mt 1663 1539 L
1645 1521 mt 1645 1557 L
1633 1575 mt 1669 1575 L
1651 1557 mt 1651 1593 L
1639 1578 mt 1675 1578 L
1657 1560 mt 1657 1596 L
1645 1595 mt 1681 1595 L
1663 1577 mt 1663 1613 L
1651 1653 mt 1687 1653 L
1669 1635 mt 1669 1671 L
1657 1607 mt 1693 1607 L
1675 1589 mt 1675 1625 L
1663 1665 mt 1699 1665 L
1681 1647 mt 1681 1683 L
1669 1737 mt 1705 1737 L
1687 1719 mt 1687 1755 L
1675 1755 mt 1711 1755 L
1693 1737 mt 1693 1773 L
1681 1751 mt 1717 1751 L
1699 1733 mt 1699 1769 L
1687 1786 mt 1723 1786 L
1705 1768 mt 1705 1804 L
1693 1839 mt 1729 1839 L
1711 1821 mt 1711 1857 L
1699 1822 mt 1735 1822 L
1717 1804 mt 1717 1840 L
1705 1853 mt 1741 1853 L
1723 1835 mt 1723 1871 L
1711 1885 mt 1747 1885 L
1729 1867 mt 1729 1903 L
1717 1895 mt 1753 1895 L
1735 1877 mt 1735 1913 L
1723 1921 mt 1759 1921 L
1741 1903 mt 1741 1939 L
1729 1939 mt 1765 1939 L
1747 1921 mt 1747 1957 L
1735 1976 mt 1771 1976 L
1753 1958 mt 1753 1994 L
1741 1973 mt 1777 1973 L
1759 1955 mt 1759 1991 L
1747 1981 mt 1783 1981 L
1765 1963 mt 1765 1999 L
1754 1990 mt 1790 1990 L
1772 1972 mt 1772 2008 L
1760 2015 mt 1796 2015 L
1778 1997 mt 1778 2033 L
1766 1982 mt 1802 1982 L
1784 1964 mt 1784 2000 L
1772 2027 mt 1808 2027 L
1790 2009 mt 1790 2045 L
1778 2029 mt 1814 2029 L
1796 2011 mt 1796 2047 L
1784 2060 mt 1820 2060 L
1802 2042 mt 1802 2078 L
1790 2036 mt 1826 2036 L
1808 2018 mt 1808 2054 L
1796 2073 mt 1832 2073 L
1814 2055 mt 1814 2091 L
1802 2080 mt 1838 2080 L
1820 2062 mt 1820 2098 L
1808 2080 mt 1844 2080 L
1826 2062 mt 1826 2098 L
1814 2076 mt 1850 2076 L
1832 2058 mt 1832 2094 L
1820 2090 mt 1856 2090 L
1838 2072 mt 1838 2108 L
1826 2100 mt 1862 2100 L
1844 2082 mt 1844 2118 L
1832 2096 mt 1868 2096 L
1850 2078 mt 1850 2114 L
1838 2107 mt 1874 2107 L
1856 2089 mt 1856 2125 L
1844 2104 mt 1880 2104 L
1862 2086 mt 1862 2122 L
1850 2108 mt 1886 2108 L
1868 2090 mt 1868 2126 L
1856 2109 mt 1892 2109 L
1874 2091 mt 1874 2127 L
1862 2118 mt 1898 2118 L
1880 2100 mt 1880 2136 L
1868 2112 mt 1904 2112 L
1886 2094 mt 1886 2130 L
1874 2125 mt 1910 2125 L
1892 2107 mt 1892 2143 L
1880 2115 mt 1916 2115 L
1898 2097 mt 1898 2133 L
1887 2124 mt 1923 2124 L
1905 2106 mt 1905 2142 L
1893 2128 mt 1929 2128 L
1911 2110 mt 1911 2146 L
1899 2137 mt 1935 2137 L
1917 2119 mt 1917 2155 L
1905 2133 mt 1941 2133 L
1923 2115 mt 1923 2151 L
1911 2133 mt 1947 2133 L
1929 2115 mt 1929 2151 L
1917 2142 mt 1953 2142 L
1935 2124 mt 1935 2160 L
1923 2135 mt 1959 2135 L
1941 2117 mt 1941 2153 L
1929 2148 mt 1965 2148 L
1947 2130 mt 1947 2166 L
1935 2150 mt 1971 2150 L
1953 2132 mt 1953 2168 L
1941 2141 mt 1977 2141 L
1959 2123 mt 1959 2159 L
1947 2142 mt 1983 2142 L
1965 2124 mt 1965 2160 L
1953 2151 mt 1989 2151 L
1971 2133 mt 1971 2169 L
1959 2152 mt 1995 2152 L
1977 2134 mt 1977 2170 L
1965 2148 mt 2001 2148 L
1983 2130 mt 1983 2166 L
1971 2148 mt 2007 2148 L
1989 2130 mt 1989 2166 L
1977 2151 mt 2013 2151 L
1995 2133 mt 1995 2169 L
1983 2152 mt 2019 2152 L
2001 2134 mt 2001 2170 L
1989 2150 mt 2025 2150 L
2007 2132 mt 2007 2168 L
1995 2155 mt 2031 2155 L
2013 2137 mt 2013 2173 L
2001 2150 mt 2037 2150 L
2019 2132 mt 2019 2168 L
2007 2156 mt 2043 2156 L
2025 2138 mt 2025 2174 L
2014 2151 mt 2050 2151 L
2032 2133 mt 2032 2169 L
2020 2156 mt 2056 2156 L
2038 2138 mt 2038 2174 L
2026 2149 mt 2062 2149 L
2044 2131 mt 2044 2167 L
2032 2152 mt 2068 2152 L
2050 2134 mt 2050 2170 L
2038 2154 mt 2074 2154 L
2056 2136 mt 2056 2172 L
2044 2158 mt 2080 2158 L
2062 2140 mt 2062 2176 L
2050 2156 mt 2086 2156 L
2068 2138 mt 2068 2174 L
2056 2158 mt 2092 2158 L
2074 2140 mt 2074 2176 L
2062 2159 mt 2098 2159 L
2080 2141 mt 2080 2177 L
2068 2157 mt 2104 2157 L
2086 2139 mt 2086 2175 L
2074 2162 mt 2110 2162 L
2092 2144 mt 2092 2180 L
2080 2159 mt 2116 2159 L
2098 2141 mt 2098 2177 L
2086 2160 mt 2122 2160 L
2104 2142 mt 2104 2178 L
2092 2158 mt 2128 2158 L
2110 2140 mt 2110 2176 L
2098 2159 mt 2134 2159 L
2116 2141 mt 2116 2177 L
2104 2162 mt 2140 2162 L
2122 2144 mt 2122 2180 L
2110 2158 mt 2146 2158 L
2128 2140 mt 2128 2176 L
2116 2158 mt 2152 2158 L
2134 2140 mt 2134 2176 L
2122 2160 mt 2158 2160 L
2140 2142 mt 2140 2178 L
2128 2160 mt 2164 2160 L
2146 2142 mt 2146 2178 L
2134 2159 mt 2170 2159 L
2152 2141 mt 2152 2177 L
2140 2162 mt 2176 2162 L
2158 2144 mt 2158 2180 L
2147 2159 mt 2183 2159 L
2165 2141 mt 2165 2177 L
2153 2162 mt 2189 2162 L
2171 2144 mt 2171 2180 L
2159 2160 mt 2195 2160 L
2177 2142 mt 2177 2178 L
2165 2157 mt 2201 2157 L
2183 2139 mt 2183 2175 L
2171 2160 mt 2207 2160 L
2189 2142 mt 2189 2178 L
2177 2160 mt 2213 2160 L
2195 2142 mt 2195 2178 L
2183 2162 mt 2219 2162 L
2201 2144 mt 2201 2180 L
2189 2162 mt 2225 2162 L
2207 2144 mt 2207 2180 L
2195 2160 mt 2231 2160 L
2213 2142 mt 2213 2178 L
2201 2162 mt 2237 2162 L
2219 2144 mt 2219 2180 L
2207 2162 mt 2243 2162 L
2225 2144 mt 2225 2180 L
2213 2162 mt 2249 2162 L
2231 2144 mt 2231 2180 L
2219 2162 mt 2255 2162 L
2237 2144 mt 2237 2180 L
2225 2162 mt 2261 2162 L
2243 2144 mt 2243 2180 L
2231 2160 mt 2267 2160 L
2249 2142 mt 2249 2178 L
2237 2160 mt 2273 2160 L
2255 2142 mt 2255 2178 L
2243 2162 mt 2279 2162 L
2261 2144 mt 2261 2180 L
2249 2162 mt 2285 2162 L
2267 2144 mt 2267 2180 L
2255 2162 mt 2291 2162 L
2273 2144 mt 2273 2180 L
2261 2162 mt 2297 2162 L
2279 2144 mt 2279 2180 L
2267 2162 mt 2303 2162 L
2285 2144 mt 2285 2180 L
2274 2162 mt 2310 2162 L
2292 2144 mt 2292 2180 L
2280 2162 mt 2316 2162 L
2298 2144 mt 2298 2180 L
2286 2162 mt 2322 2162 L
2304 2144 mt 2304 2180 L
2292 2162 mt 2328 2162 L
2310 2144 mt 2310 2180 L
2298 2162 mt 2334 2162 L
2316 2144 mt 2316 2180 L
2304 2162 mt 2340 2162 L
2322 2144 mt 2322 2180 L
2310 2162 mt 2346 2162 L
2328 2144 mt 2328 2180 L
2316 2162 mt 2352 2162 L
2334 2144 mt 2334 2180 L
2322 2162 mt 2358 2162 L
2340 2144 mt 2340 2180 L
2328 2162 mt 2364 2162 L
2346 2144 mt 2346 2180 L
2334 2162 mt 2370 2162 L
2352 2144 mt 2352 2180 L
2340 2162 mt 2376 2162 L
2358 2144 mt 2358 2180 L
2346 2162 mt 2382 2162 L
2364 2144 mt 2364 2180 L
2352 2162 mt 2388 2162 L
2370 2144 mt 2370 2180 L
2358 2162 mt 2394 2162 L
2376 2144 mt 2376 2180 L
2364 2162 mt 2400 2162 L
2382 2144 mt 2382 2180 L
2370 2162 mt 2406 2162 L
2388 2144 mt 2388 2180 L
2376 2162 mt 2412 2162 L
2394 2144 mt 2394 2180 L
2382 2162 mt 2418 2162 L
2400 2144 mt 2400 2180 L
2388 2162 mt 2424 2162 L
2406 2144 mt 2406 2180 L
2394 2162 mt 2430 2162 L
2412 2144 mt 2412 2180 L
2401 2162 mt 2437 2162 L
2419 2144 mt 2419 2180 L
 599 2150 mt  623 2174 L
 623 2150 mt  599 2174 L
 605 2150 mt  629 2174 L
 629 2150 mt  605 2174 L
 611 2150 mt  635 2174 L
 635 2150 mt  611 2174 L
 617 2150 mt  641 2174 L
 641 2150 mt  617 2174 L
 623 2150 mt  647 2174 L
 647 2150 mt  623 2174 L
 629 2150 mt  653 2174 L
 653 2150 mt  629 2174 L
 635 2150 mt  659 2174 L
 659 2150 mt  635 2174 L
 641 2150 mt  665 2174 L
 665 2150 mt  641 2174 L
 647 2148 mt  671 2172 L
 671 2148 mt  647 2172 L
 653 2150 mt  677 2174 L
 677 2150 mt  653 2174 L
 659 2150 mt  683 2174 L
 683 2150 mt  659 2174 L
 665 2150 mt  689 2174 L
 689 2150 mt  665 2174 L
 671 2150 mt  695 2174 L
 695 2150 mt  671 2174 L
 677 2150 mt  701 2174 L
 701 2150 mt  677 2174 L
 683 2148 mt  707 2172 L
 707 2148 mt  683 2172 L
 689 2148 mt  713 2172 L
 713 2148 mt  689 2172 L
 695 2150 mt  719 2174 L
 719 2150 mt  695 2174 L
 701 2150 mt  725 2174 L
 725 2150 mt  701 2174 L
 707 2150 mt  731 2174 L
 731 2150 mt  707 2174 L
 713 2148 mt  737 2172 L
 737 2148 mt  713 2172 L
 719 2150 mt  743 2174 L
 743 2150 mt  719 2174 L
 726 2150 mt  750 2174 L
 750 2150 mt  726 2174 L
 732 2150 mt  756 2174 L
 756 2150 mt  732 2174 L
 738 2150 mt  762 2174 L
 762 2150 mt  738 2174 L
 744 2150 mt  768 2174 L
 768 2150 mt  744 2174 L
 750 2148 mt  774 2172 L
 774 2148 mt  750 2172 L
 756 2150 mt  780 2174 L
 780 2150 mt  756 2174 L
 762 2150 mt  786 2174 L
 786 2150 mt  762 2174 L
 768 2150 mt  792 2174 L
 792 2150 mt  768 2174 L
 774 2148 mt  798 2172 L
 798 2148 mt  774 2172 L
 780 2147 mt  804 2171 L
 804 2147 mt  780 2171 L
 786 2148 mt  810 2172 L
 810 2148 mt  786 2172 L
 792 2150 mt  816 2174 L
 816 2150 mt  792 2174 L
 798 2148 mt  822 2172 L
 822 2148 mt  798 2172 L
 804 2148 mt  828 2172 L
 828 2148 mt  804 2172 L
 810 2148 mt  834 2172 L
 834 2148 mt  810 2172 L
 816 2150 mt  840 2174 L
 840 2150 mt  816 2174 L
 822 2150 mt  846 2174 L
 846 2150 mt  822 2174 L
 828 2148 mt  852 2172 L
 852 2148 mt  828 2172 L
 834 2150 mt  858 2174 L
 858 2150 mt  834 2174 L
 840 2148 mt  864 2172 L
 864 2148 mt  840 2172 L
 846 2147 mt  870 2171 L
 870 2147 mt  846 2171 L
 853 2148 mt  877 2172 L
 877 2148 mt  853 2172 L
 859 2147 mt  883 2171 L
 883 2147 mt  859 2171 L
 865 2150 mt  889 2174 L
 889 2150 mt  865 2174 L
 871 2150 mt  895 2174 L
 895 2150 mt  871 2174 L
 877 2146 mt  901 2170 L
 901 2146 mt  877 2170 L
 883 2146 mt  907 2170 L
 907 2146 mt  883 2170 L
 889 2147 mt  913 2171 L
 913 2147 mt  889 2171 L
 895 2148 mt  919 2172 L
 919 2148 mt  895 2172 L
 901 2150 mt  925 2174 L
 925 2150 mt  901 2174 L
 907 2147 mt  931 2171 L
 931 2147 mt  907 2171 L
 913 2147 mt  937 2171 L
 937 2147 mt  913 2171 L
 919 2146 mt  943 2170 L
 943 2146 mt  919 2170 L
 925 2147 mt  949 2171 L
 949 2147 mt  925 2171 L
 931 2144 mt  955 2168 L
 955 2144 mt  931 2168 L
 937 2143 mt  961 2167 L
 961 2143 mt  937 2167 L
 943 2145 mt  967 2169 L
 967 2145 mt  943 2169 L
 949 2148 mt  973 2172 L
 973 2148 mt  949 2172 L
 955 2143 mt  979 2167 L
 979 2143 mt  955 2167 L
 961 2147 mt  985 2171 L
 985 2147 mt  961 2171 L
 967 2142 mt  991 2166 L
 991 2142 mt  967 2166 L
 973 2145 mt  997 2169 L
 997 2145 mt  973 2169 L
 979 2143 mt 1003 2167 L
1003 2143 mt  979 2167 L
 986 2146 mt 1010 2170 L
1010 2146 mt  986 2170 L
 992 2142 mt 1016 2166 L
1016 2142 mt  992 2166 L
 998 2144 mt 1022 2168 L
1022 2144 mt  998 2168 L
1004 2138 mt 1028 2162 L
1028 2138 mt 1004 2162 L
1010 2143 mt 1034 2167 L
1034 2143 mt 1010 2167 L
1016 2137 mt 1040 2161 L
1040 2137 mt 1016 2161 L
1022 2137 mt 1046 2161 L
1046 2137 mt 1022 2161 L
1028 2138 mt 1052 2162 L
1052 2138 mt 1028 2162 L
1034 2140 mt 1058 2164 L
1058 2140 mt 1034 2164 L
1040 2132 mt 1064 2156 L
1064 2132 mt 1040 2156 L
1046 2129 mt 1070 2153 L
1070 2129 mt 1046 2153 L
1052 2140 mt 1076 2164 L
1076 2140 mt 1052 2164 L
1058 2135 mt 1082 2159 L
1082 2135 mt 1058 2159 L
1064 2137 mt 1088 2161 L
1088 2137 mt 1064 2161 L
1070 2141 mt 1094 2165 L
1094 2141 mt 1070 2165 L
1076 2133 mt 1100 2157 L
1100 2133 mt 1076 2157 L
1082 2132 mt 1106 2156 L
1106 2132 mt 1082 2156 L
1088 2132 mt 1112 2156 L
1112 2132 mt 1088 2156 L
1094 2130 mt 1118 2154 L
1118 2130 mt 1094 2154 L
1100 2127 mt 1124 2151 L
1124 2127 mt 1100 2151 L
1106 2120 mt 1130 2144 L
1130 2120 mt 1106 2144 L
1113 2124 mt 1137 2148 L
1137 2124 mt 1113 2148 L
1119 2119 mt 1143 2143 L
1143 2119 mt 1119 2143 L
1125 2112 mt 1149 2136 L
1149 2112 mt 1125 2136 L
1131 2114 mt 1155 2138 L
1155 2114 mt 1131 2138 L
1137 2115 mt 1161 2139 L
1161 2115 mt 1137 2139 L
1143 2100 mt 1167 2124 L
1167 2100 mt 1143 2124 L
1149 2103 mt 1173 2127 L
1173 2103 mt 1149 2127 L
1155 2097 mt 1179 2121 L
1179 2097 mt 1155 2121 L
1161 2101 mt 1185 2125 L
1185 2101 mt 1161 2125 L
1167 2087 mt 1191 2111 L
1191 2087 mt 1167 2111 L
1173 2087 mt 1197 2111 L
1197 2087 mt 1173 2111 L
1179 2082 mt 1203 2106 L
1203 2082 mt 1179 2106 L
1185 2073 mt 1209 2097 L
1209 2073 mt 1185 2097 L
1191 2078 mt 1215 2102 L
1215 2078 mt 1191 2102 L
1197 2063 mt 1221 2087 L
1221 2063 mt 1197 2087 L
1203 2043 mt 1227 2067 L
1227 2043 mt 1203 2067 L
1209 2047 mt 1233 2071 L
1233 2047 mt 1209 2071 L
1215 2029 mt 1239 2053 L
1239 2029 mt 1215 2053 L
1221 2047 mt 1245 2071 L
1245 2047 mt 1221 2071 L
1227 2011 mt 1251 2035 L
1251 2011 mt 1227 2035 L
1233 1998 mt 1257 2022 L
1257 1998 mt 1233 2022 L
1239 2014 mt 1263 2038 L
1263 2014 mt 1239 2038 L
1246 2003 mt 1270 2027 L
1270 2003 mt 1246 2027 L
1252 1961 mt 1276 1985 L
1276 1961 mt 1252 1985 L
1258 1984 mt 1282 2008 L
1282 1984 mt 1258 2008 L
1264 1980 mt 1288 2004 L
1288 1980 mt 1264 2004 L
1270 1931 mt 1294 1955 L
1294 1931 mt 1270 1955 L
1276 1929 mt 1300 1953 L
1300 1929 mt 1276 1953 L
1282 1960 mt 1306 1984 L
1306 1960 mt 1282 1984 L
1288 1886 mt 1312 1910 L
1312 1886 mt 1288 1910 L
1294 1877 mt 1318 1901 L
1318 1877 mt 1294 1901 L
1300 1857 mt 1324 1881 L
1324 1857 mt 1300 1881 L
1306 1818 mt 1330 1842 L
1330 1818 mt 1306 1842 L
1312 1821 mt 1336 1845 L
1336 1821 mt 1312 1845 L
1318 1778 mt 1342 1802 L
1342 1778 mt 1318 1802 L
1324 1752 mt 1348 1776 L
1348 1752 mt 1324 1776 L
1330 1719 mt 1354 1743 L
1354 1719 mt 1330 1743 L
1336 1721 mt 1360 1745 L
1360 1721 mt 1336 1745 L
1342 1676 mt 1366 1700 L
1366 1676 mt 1342 1700 L
1348 1700 mt 1372 1724 L
1372 1700 mt 1348 1724 L
1354 1629 mt 1378 1653 L
1378 1629 mt 1354 1653 L
1360 1580 mt 1384 1604 L
1384 1580 mt 1360 1604 L
1366 1600 mt 1390 1624 L
1390 1600 mt 1366 1624 L
1373 1554 mt 1397 1578 L
1397 1554 mt 1373 1578 L
1379 1490 mt 1403 1514 L
1403 1490 mt 1379 1514 L
1385 1444 mt 1409 1468 L
1409 1444 mt 1385 1468 L
1391 1448 mt 1415 1472 L
1415 1448 mt 1391 1472 L
1397 1429 mt 1421 1453 L
1421 1429 mt 1397 1453 L
1403 1331 mt 1427 1355 L
1427 1331 mt 1403 1355 L
1409 1374 mt 1433 1398 L
1433 1374 mt 1409 1398 L
1415 1287 mt 1439 1311 L
1439 1287 mt 1415 1311 L
1421 1278 mt 1445 1302 L
1445 1278 mt 1421 1302 L
1427 1243 mt 1451 1267 L
1451 1243 mt 1427 1267 L
1433 1196 mt 1457 1220 L
1457 1196 mt 1433 1220 L
1439 1186 mt 1463 1210 L
1463 1186 mt 1439 1210 L
1445 1069 mt 1469 1093 L
1469 1069 mt 1445 1093 L
1451 1128 mt 1475 1152 L
1475 1128 mt 1451 1152 L
1457 1127 mt 1481 1151 L
1481 1127 mt 1457 1151 L
1463 1074 mt 1487 1098 L
1487 1074 mt 1463 1098 L
1469  992 mt 1493 1016 L
1493  992 mt 1469 1016 L
1475 1003 mt 1499 1027 L
1499 1003 mt 1475 1027 L
1481 1051 mt 1505 1075 L
1505 1051 mt 1481 1075 L
1487  973 mt 1511  997 L
1511  973 mt 1487  997 L
1493 1041 mt 1517 1065 L
1517 1041 mt 1493 1065 L
1500  943 mt 1524  967 L
1524  943 mt 1500  967 L
1506  984 mt 1530 1008 L
1530  984 mt 1506 1008 L
1512 1002 mt 1536 1026 L
1536 1002 mt 1512 1026 L
1518 1031 mt 1542 1055 L
1542 1031 mt 1518 1055 L
1524  944 mt 1548  968 L
1548  944 mt 1524  968 L
1530 1017 mt 1554 1041 L
1554 1017 mt 1530 1041 L
1536 1066 mt 1560 1090 L
1560 1066 mt 1536 1090 L
1542 1066 mt 1566 1090 L
1566 1066 mt 1542 1090 L
1548 1079 mt 1572 1103 L
1572 1079 mt 1548 1103 L
1554 1118 mt 1578 1142 L
1578 1118 mt 1554 1142 L
1560 1116 mt 1584 1140 L
1584 1116 mt 1560 1140 L
1566 1157 mt 1590 1181 L
1590 1157 mt 1566 1181 L
1572 1109 mt 1596 1133 L
1596 1109 mt 1572 1133 L
1578 1231 mt 1602 1255 L
1602 1231 mt 1578 1255 L
1584 1215 mt 1608 1239 L
1608 1215 mt 1584 1239 L
1590 1251 mt 1614 1275 L
1614 1251 mt 1590 1275 L
1596 1312 mt 1620 1336 L
1620 1312 mt 1596 1336 L
1602 1370 mt 1626 1394 L
1626 1370 mt 1602 1394 L
1608 1335 mt 1632 1359 L
1632 1335 mt 1608 1359 L
1614 1403 mt 1638 1427 L
1638 1403 mt 1614 1427 L
1620 1474 mt 1644 1498 L
1644 1474 mt 1620 1498 L
1626 1464 mt 1650 1488 L
1650 1464 mt 1626 1488 L
1633 1527 mt 1657 1551 L
1657 1527 mt 1633 1551 L
1639 1563 mt 1663 1587 L
1663 1563 mt 1639 1587 L
1645 1566 mt 1669 1590 L
1669 1566 mt 1645 1590 L
1651 1583 mt 1675 1607 L
1675 1583 mt 1651 1607 L
1657 1641 mt 1681 1665 L
1681 1641 mt 1657 1665 L
1663 1595 mt 1687 1619 L
1687 1595 mt 1663 1619 L
1669 1653 mt 1693 1677 L
1693 1653 mt 1669 1677 L
1675 1725 mt 1699 1749 L
1699 1725 mt 1675 1749 L
1681 1743 mt 1705 1767 L
1705 1743 mt 1681 1767 L
1687 1739 mt 1711 1763 L
1711 1739 mt 1687 1763 L
1693 1774 mt 1717 1798 L
1717 1774 mt 1693 1798 L
1699 1827 mt 1723 1851 L
1723 1827 mt 1699 1851 L
1705 1810 mt 1729 1834 L
1729 1810 mt 1705 1834 L
1711 1841 mt 1735 1865 L
1735 1841 mt 1711 1865 L
1717 1873 mt 1741 1897 L
1741 1873 mt 1717 1897 L
1723 1883 mt 1747 1907 L
1747 1883 mt 1723 1907 L
1729 1909 mt 1753 1933 L
1753 1909 mt 1729 1933 L
1735 1927 mt 1759 1951 L
1759 1927 mt 1735 1951 L
1741 1964 mt 1765 1988 L
1765 1964 mt 1741 1988 L
1747 1961 mt 1771 1985 L
1771 1961 mt 1747 1985 L
1753 1969 mt 1777 1993 L
1777 1969 mt 1753 1993 L
1760 1978 mt 1784 2002 L
1784 1978 mt 1760 2002 L
1766 2003 mt 1790 2027 L
1790 2003 mt 1766 2027 L
1772 1970 mt 1796 1994 L
1796 1970 mt 1772 1994 L
1778 2015 mt 1802 2039 L
1802 2015 mt 1778 2039 L
1784 2017 mt 1808 2041 L
1808 2017 mt 1784 2041 L
1790 2048 mt 1814 2072 L
1814 2048 mt 1790 2072 L
1796 2024 mt 1820 2048 L
1820 2024 mt 1796 2048 L
1802 2061 mt 1826 2085 L
1826 2061 mt 1802 2085 L
1808 2068 mt 1832 2092 L
1832 2068 mt 1808 2092 L
1814 2068 mt 1838 2092 L
1838 2068 mt 1814 2092 L
1820 2064 mt 1844 2088 L
1844 2064 mt 1820 2088 L
1826 2078 mt 1850 2102 L
1850 2078 mt 1826 2102 L
1832 2088 mt 1856 2112 L
1856 2088 mt 1832 2112 L
1838 2084 mt 1862 2108 L
1862 2084 mt 1838 2108 L
1844 2095 mt 1868 2119 L
1868 2095 mt 1844 2119 L
1850 2092 mt 1874 2116 L
1874 2092 mt 1850 2116 L
1856 2096 mt 1880 2120 L
1880 2096 mt 1856 2120 L
1862 2097 mt 1886 2121 L
1886 2097 mt 1862 2121 L
1868 2106 mt 1892 2130 L
1892 2106 mt 1868 2130 L
1874 2100 mt 1898 2124 L
1898 2100 mt 1874 2124 L
1880 2113 mt 1904 2137 L
1904 2113 mt 1880 2137 L
1886 2103 mt 1910 2127 L
1910 2103 mt 1886 2127 L
1893 2112 mt 1917 2136 L
1917 2112 mt 1893 2136 L
1899 2116 mt 1923 2140 L
1923 2116 mt 1899 2140 L
1905 2125 mt 1929 2149 L
1929 2125 mt 1905 2149 L
1911 2121 mt 1935 2145 L
1935 2121 mt 1911 2145 L
1917 2121 mt 1941 2145 L
1941 2121 mt 1917 2145 L
1923 2130 mt 1947 2154 L
1947 2130 mt 1923 2154 L
1929 2123 mt 1953 2147 L
1953 2123 mt 1929 2147 L
1935 2136 mt 1959 2160 L
1959 2136 mt 1935 2160 L
1941 2138 mt 1965 2162 L
1965 2138 mt 1941 2162 L
1947 2129 mt 1971 2153 L
1971 2129 mt 1947 2153 L
1953 2130 mt 1977 2154 L
1977 2130 mt 1953 2154 L
1959 2139 mt 1983 2163 L
1983 2139 mt 1959 2163 L
1965 2140 mt 1989 2164 L
1989 2140 mt 1965 2164 L
1971 2136 mt 1995 2160 L
1995 2136 mt 1971 2160 L
1977 2136 mt 2001 2160 L
2001 2136 mt 1977 2160 L
1983 2139 mt 2007 2163 L
2007 2139 mt 1983 2163 L
1989 2140 mt 2013 2164 L
2013 2140 mt 1989 2164 L
1995 2138 mt 2019 2162 L
2019 2138 mt 1995 2162 L
2001 2143 mt 2025 2167 L
2025 2143 mt 2001 2167 L
2007 2138 mt 2031 2162 L
2031 2138 mt 2007 2162 L
2013 2144 mt 2037 2168 L
2037 2144 mt 2013 2168 L
2020 2139 mt 2044 2163 L
2044 2139 mt 2020 2163 L
2026 2144 mt 2050 2168 L
2050 2144 mt 2026 2168 L
2032 2137 mt 2056 2161 L
2056 2137 mt 2032 2161 L
2038 2140 mt 2062 2164 L
2062 2140 mt 2038 2164 L
2044 2142 mt 2068 2166 L
2068 2142 mt 2044 2166 L
2050 2146 mt 2074 2170 L
2074 2146 mt 2050 2170 L
2056 2144 mt 2080 2168 L
2080 2144 mt 2056 2168 L
2062 2146 mt 2086 2170 L
2086 2146 mt 2062 2170 L
2068 2147 mt 2092 2171 L
2092 2147 mt 2068 2171 L
2074 2145 mt 2098 2169 L
2098 2145 mt 2074 2169 L
2080 2150 mt 2104 2174 L
2104 2150 mt 2080 2174 L
2086 2147 mt 2110 2171 L
2110 2147 mt 2086 2171 L
2092 2148 mt 2116 2172 L
2116 2148 mt 2092 2172 L
2098 2146 mt 2122 2170 L
2122 2146 mt 2098 2170 L
2104 2147 mt 2128 2171 L
2128 2147 mt 2104 2171 L
2110 2150 mt 2134 2174 L
2134 2150 mt 2110 2174 L
2116 2146 mt 2140 2170 L
2140 2146 mt 2116 2170 L
2122 2146 mt 2146 2170 L
2146 2146 mt 2122 2170 L
2128 2148 mt 2152 2172 L
2152 2148 mt 2128 2172 L
2134 2148 mt 2158 2172 L
2158 2148 mt 2134 2172 L
2140 2147 mt 2164 2171 L
2164 2147 mt 2140 2171 L
2146 2150 mt 2170 2174 L
2170 2150 mt 2146 2174 L
2153 2147 mt 2177 2171 L
2177 2147 mt 2153 2171 L
2159 2150 mt 2183 2174 L
2183 2150 mt 2159 2174 L
2165 2148 mt 2189 2172 L
2189 2148 mt 2165 2172 L
2171 2145 mt 2195 2169 L
2195 2145 mt 2171 2169 L
2177 2148 mt 2201 2172 L
2201 2148 mt 2177 2172 L
2183 2148 mt 2207 2172 L
2207 2148 mt 2183 2172 L
2189 2150 mt 2213 2174 L
2213 2150 mt 2189 2174 L
2195 2150 mt 2219 2174 L
2219 2150 mt 2195 2174 L
2201 2148 mt 2225 2172 L
2225 2148 mt 2201 2172 L
2207 2150 mt 2231 2174 L
2231 2150 mt 2207 2174 L
2213 2150 mt 2237 2174 L
2237 2150 mt 2213 2174 L
2219 2150 mt 2243 2174 L
2243 2150 mt 2219 2174 L
2225 2150 mt 2249 2174 L
2249 2150 mt 2225 2174 L
2231 2150 mt 2255 2174 L
2255 2150 mt 2231 2174 L
2237 2148 mt 2261 2172 L
2261 2148 mt 2237 2172 L
2243 2148 mt 2267 2172 L
2267 2148 mt 2243 2172 L
2249 2150 mt 2273 2174 L
2273 2150 mt 2249 2174 L
2255 2150 mt 2279 2174 L
2279 2150 mt 2255 2174 L
2261 2150 mt 2285 2174 L
2285 2150 mt 2261 2174 L
2267 2150 mt 2291 2174 L
2291 2150 mt 2267 2174 L
2273 2150 mt 2297 2174 L
2297 2150 mt 2273 2174 L
2280 2150 mt 2304 2174 L
2304 2150 mt 2280 2174 L
2286 2150 mt 2310 2174 L
2310 2150 mt 2286 2174 L
2292 2150 mt 2316 2174 L
2316 2150 mt 2292 2174 L
2298 2150 mt 2322 2174 L
2322 2150 mt 2298 2174 L
2304 2150 mt 2328 2174 L
2328 2150 mt 2304 2174 L
2310 2150 mt 2334 2174 L
2334 2150 mt 2310 2174 L
2316 2150 mt 2340 2174 L
2340 2150 mt 2316 2174 L
2322 2150 mt 2346 2174 L
2346 2150 mt 2322 2174 L
2328 2150 mt 2352 2174 L
2352 2150 mt 2328 2174 L
2334 2150 mt 2358 2174 L
2358 2150 mt 2334 2174 L
2340 2150 mt 2364 2174 L
2364 2150 mt 2340 2174 L
2346 2150 mt 2370 2174 L
2370 2150 mt 2346 2174 L
2352 2150 mt 2376 2174 L
2376 2150 mt 2352 2174 L
2358 2150 mt 2382 2174 L
2382 2150 mt 2358 2174 L
2364 2150 mt 2388 2174 L
2388 2150 mt 2364 2174 L
2370 2150 mt 2394 2174 L
2394 2150 mt 2370 2174 L
2376 2150 mt 2400 2174 L
2400 2150 mt 2376 2174 L
2382 2150 mt 2406 2174 L
2406 2150 mt 2382 2174 L
2388 2150 mt 2412 2174 L
2412 2150 mt 2388 2174 L
2394 2150 mt 2418 2174 L
2418 2150 mt 2394 2174 L
2400 2150 mt 2424 2174 L
2424 2150 mt 2400 2174 L
2407 2150 mt 2431 2174 L
2431 2150 mt 2407 2174 L
gs 605 348 1815 1815 rc
/c9 { 0.000000 0.000000 1.000000 sr} bdef
c9
7 0 6 0 6 0 6 0 6 0 6 0 6 0 6 0 
6 0 6 0 6 0 6 0 6 0 6 0 6 0 6 0 
6 0 6 0 6 0 6 0 6 0 7 0 6 0 6 0 
6 0 6 0 6 0 6 4 6 -4 6 0 6 0 6 0 
6 0 6 0 6 0 6 0 6 0 6 0 6 2 6 2 
6 -4 6 2 7 0 6 0 6 0 6 2 6 -2 6 -2 
6 4 6 -4 6 0 6 2 6 -2 6 2 6 -2 6 2 
6 6 6 -6 6 2 6 2 6 -2 6 2 6 2 6 -4 
7 0 6 4 6 -4 6 8 6 2 6 -4 6 0 6 -8 
6 8 6 2 6 0 6 2 6 6 6 0 6 8 6 -6 
6 -4 6 14 6 -2 6 10 6 -18 7 8 6 12 6 2 
6 -4 6 10 6 12 6 14 6 -16 6 -10 6 34 6 -4 
6 18 6 -30 6 34 6 -10 6 4 6 34 6 -10 6 -6 
6 44 6 -8 6 21 7 44 6 -24 6 -6 6 46 6 -24 
6 38 6 50 6 6 6 14 6 33 6 -23 6 35 6 40 
6 10 6 60 6 -2 6 117 6 -2 6 -12 6 60 6 37 
7 -49 6 77 6 88 6 45 6 -13 6 99 6 -70 6 16 
6 32 6 151 6 -73 6 73 6 96 6 -68 6 -18 6 95 
6 -23 6 115 6 -18 6 -16 6 -22 6 -20 7 12 6 60 
6 -131 6 28 6 -2 6 -50 6 -6 6 -22 6 -18 6 -40 
6 -61 6 -2 6 -70 6 -4 6 -26 6 -73 6 -20 6 -24 
6 -105 6 36 6 -28 7 -42 6 -26 6 -42 6 -37 6 -34 
6 -6 6 -44 6 -50 6 12 6 -22 6 -33 6 -22 6 46 
6 -78 6 0 6 -46 6 -2 6 -16 6 0 6 -21 6 31 
7 -33 6 -36 6 -4 6 6 6 -30 6 40 6 -26 6 -12 
6 -18 6 8 6 -18 6 -8 6 -12 6 0 6 10 6 -8 
6 -12 6 4 6 -6 6 -2 6 6 6 -14 7 18 6 -26 
6 8 6 2 6 -12 6 4 6 0 6 4 6 0 6 -10 
6 4 6 0 6 -8 6 8 6 -8 6 0 6 0 6 2 
6 -4 6 -2 6 6 7 -2 6 -2 6 2 6 -4 6 4 
6 2 6 -6 6 0 6 6 6 -6 6 0 6 -2 6 2 
6 0 6 -2 6 2 6 -2 6 2 6 0 6 0 6 -2 
6 0 7 0 6 0 6 0 6 2 6 0 6 -2 6 0 
6 0 6 0 6 2 6 -2 6 0 6 0 6 0 6 0 
6 0 6 2 6 -2 6 0 6 2 6 -2 7 0 6 0 
6 0 6 0 6 0 6 0 6 0 6 0 6 0 6 0 
6 0 6 0 6 0 6 0 6 0 6 0 6 0 6 0 
6 0 6 0 6 0 611 2162 300 MP stroke
gr

c9
gs 574 884 1883 1316 rc
 593 2162 mt  629 2162 L
 611 2144 mt  611 2180 L
 599 2162 mt  635 2162 L
 617 2144 mt  617 2180 L
 605 2162 mt  641 2162 L
 623 2144 mt  623 2180 L
 611 2162 mt  647 2162 L
 629 2144 mt  629 2180 L
 617 2162 mt  653 2162 L
 635 2144 mt  635 2180 L
 623 2162 mt  659 2162 L
 641 2144 mt  641 2180 L
 629 2162 mt  665 2162 L
 647 2144 mt  647 2180 L
 635 2162 mt  671 2162 L
 653 2144 mt  653 2180 L
 641 2162 mt  677 2162 L
 659 2144 mt  659 2180 L
 647 2162 mt  683 2162 L
 665 2144 mt  665 2180 L
 653 2162 mt  689 2162 L
 671 2144 mt  671 2180 L
 659 2162 mt  695 2162 L
 677 2144 mt  677 2180 L
 665 2162 mt  701 2162 L
 683 2144 mt  683 2180 L
 671 2162 mt  707 2162 L
 689 2144 mt  689 2180 L
 677 2162 mt  713 2162 L
 695 2144 mt  695 2180 L
 683 2162 mt  719 2162 L
 701 2144 mt  701 2180 L
 689 2162 mt  725 2162 L
 707 2144 mt  707 2180 L
 695 2162 mt  731 2162 L
 713 2144 mt  713 2180 L
 701 2162 mt  737 2162 L
 719 2144 mt  719 2180 L
 707 2162 mt  743 2162 L
 725 2144 mt  725 2180 L
 713 2162 mt  749 2162 L
 731 2144 mt  731 2180 L
 720 2162 mt  756 2162 L
 738 2144 mt  738 2180 L
 726 2160 mt  762 2160 L
 744 2142 mt  744 2178 L
 732 2162 mt  768 2162 L
 750 2144 mt  750 2180 L
 738 2162 mt  774 2162 L
 756 2144 mt  756 2180 L
 744 2160 mt  780 2160 L
 762 2142 mt  762 2178 L
 750 2162 mt  786 2162 L
 768 2144 mt  768 2180 L
 756 2162 mt  792 2162 L
 774 2144 mt  774 2180 L
 762 2162 mt  798 2162 L
 780 2144 mt  780 2180 L
 768 2162 mt  804 2162 L
 786 2144 mt  786 2180 L
 774 2162 mt  810 2162 L
 792 2144 mt  792 2180 L
 780 2162 mt  816 2162 L
 798 2144 mt  798 2180 L
 786 2160 mt  822 2160 L
 804 2142 mt  804 2178 L
 792 2162 mt  828 2162 L
 810 2144 mt  810 2180 L
 798 2162 mt  834 2162 L
 816 2144 mt  816 2180 L
 804 2162 mt  840 2162 L
 822 2144 mt  822 2180 L
 810 2162 mt  846 2162 L
 828 2144 mt  828 2180 L
 816 2160 mt  852 2160 L
 834 2142 mt  834 2178 L
 822 2160 mt  858 2160 L
 840 2142 mt  840 2178 L
 828 2162 mt  864 2162 L
 846 2144 mt  846 2180 L
 834 2162 mt  870 2162 L
 852 2144 mt  852 2180 L
 840 2162 mt  876 2162 L
 858 2144 mt  858 2180 L
 847 2162 mt  883 2162 L
 865 2144 mt  865 2180 L
 853 2162 mt  889 2162 L
 871 2144 mt  871 2180 L
 859 2160 mt  895 2160 L
 877 2142 mt  877 2178 L
 865 2160 mt  901 2160 L
 883 2142 mt  883 2178 L
 871 2160 mt  907 2160 L
 889 2142 mt  889 2178 L
 877 2162 mt  913 2162 L
 895 2144 mt  895 2180 L
 883 2160 mt  919 2160 L
 901 2142 mt  901 2178 L
 889 2162 mt  925 2162 L
 907 2144 mt  907 2180 L
 895 2160 mt  931 2160 L
 913 2142 mt  913 2178 L
 901 2160 mt  937 2160 L
 919 2142 mt  919 2178 L
 907 2162 mt  943 2162 L
 925 2144 mt  925 2180 L
 913 2160 mt  949 2160 L
 931 2142 mt  931 2178 L
 919 2160 mt  955 2160 L
 937 2142 mt  937 2178 L
 925 2154 mt  961 2154 L
 943 2136 mt  943 2172 L
 931 2160 mt  967 2160 L
 949 2142 mt  949 2178 L
 937 2160 mt  973 2160 L
 955 2142 mt  955 2178 L
 943 2154 mt  979 2154 L
 961 2136 mt  961 2172 L
 949 2156 mt  985 2156 L
 967 2138 mt  967 2174 L
 955 2160 mt  991 2160 L
 973 2142 mt  973 2178 L
 961 2156 mt  997 2156 L
 979 2138 mt  979 2174 L
 967 2158 mt 1003 2158 L
 985 2140 mt  985 2176 L
 973 2156 mt 1009 2156 L
 991 2138 mt  991 2174 L
 980 2154 mt 1016 2154 L
 998 2136 mt  998 2172 L
 986 2160 mt 1022 2160 L
1004 2142 mt 1004 2178 L
 992 2158 mt 1028 2158 L
1010 2140 mt 1010 2176 L
 998 2154 mt 1034 2154 L
1016 2136 mt 1016 2172 L
1004 2156 mt 1040 2156 L
1022 2138 mt 1022 2174 L
1010 2156 mt 1046 2156 L
1028 2138 mt 1028 2174 L
1016 2156 mt 1052 2156 L
1034 2138 mt 1034 2174 L
1022 2148 mt 1058 2148 L
1040 2130 mt 1040 2166 L
1028 2156 mt 1064 2156 L
1046 2138 mt 1046 2174 L
1034 2148 mt 1070 2148 L
1052 2130 mt 1052 2166 L
1040 2148 mt 1076 2148 L
1058 2130 mt 1058 2166 L
1046 2152 mt 1082 2152 L
1064 2134 mt 1064 2170 L
1052 2142 mt 1088 2142 L
1070 2124 mt 1070 2160 L
1058 2142 mt 1094 2142 L
1076 2124 mt 1076 2160 L
1064 2146 mt 1100 2146 L
1082 2128 mt 1082 2164 L
1070 2146 mt 1106 2146 L
1088 2128 mt 1088 2164 L
1076 2150 mt 1112 2150 L
1094 2132 mt 1094 2168 L
1082 2138 mt 1118 2138 L
1100 2120 mt 1100 2156 L
1088 2140 mt 1124 2140 L
1106 2122 mt 1106 2158 L
1094 2148 mt 1130 2148 L
1112 2130 mt 1112 2166 L
1100 2122 mt 1136 2122 L
1118 2104 mt 1118 2140 L
1107 2140 mt 1143 2140 L
1125 2122 mt 1125 2158 L
1113 2126 mt 1149 2126 L
1131 2108 mt 1131 2144 L
1119 2132 mt 1155 2132 L
1137 2114 mt 1137 2150 L
1125 2130 mt 1161 2130 L
1143 2112 mt 1143 2148 L
1131 2124 mt 1167 2124 L
1149 2106 mt 1149 2142 L
1137 2128 mt 1173 2128 L
1155 2110 mt 1155 2146 L
1143 2116 mt 1179 2116 L
1161 2098 mt 1161 2134 L
1149 2108 mt 1185 2108 L
1167 2090 mt 1167 2126 L
1155 2118 mt 1191 2118 L
1173 2100 mt 1173 2136 L
1161 2118 mt 1197 2118 L
1179 2100 mt 1179 2136 L
1167 2106 mt 1203 2106 L
1185 2088 mt 1185 2124 L
1173 2098 mt 1209 2098 L
1191 2080 mt 1191 2116 L
1179 2080 mt 1215 2080 L
1197 2062 mt 1197 2098 L
1185 2088 mt 1221 2088 L
1203 2070 mt 1203 2106 L
1191 2070 mt 1227 2070 L
1209 2052 mt 1209 2088 L
1197 2058 mt 1233 2058 L
1215 2040 mt 1215 2076 L
1203 2032 mt 1239 2032 L
1221 2014 mt 1221 2050 L
1209 2072 mt 1245 2072 L
1227 2054 mt 1227 2090 L
1215 2042 mt 1251 2042 L
1233 2024 mt 1233 2060 L
1221 2048 mt 1257 2048 L
1239 2030 mt 1239 2066 L
1227 2044 mt 1263 2044 L
1245 2026 mt 1245 2062 L
1233 2008 mt 1269 2008 L
1251 1990 mt 1251 2026 L
1240 1975 mt 1276 1975 L
1258 1957 mt 1258 1993 L
1246 2006 mt 1282 2006 L
1264 1988 mt 1264 2024 L
1252 1985 mt 1288 1985 L
1270 1967 mt 1270 2003 L
1258 1985 mt 1294 1985 L
1276 1967 mt 1276 2003 L
1264 1969 mt 1300 1969 L
1282 1951 mt 1282 1987 L
1270 1967 mt 1306 1967 L
1288 1949 mt 1288 1985 L
1276 1921 mt 1312 1921 L
1294 1903 mt 1294 1939 L
1282 1921 mt 1318 1921 L
1300 1903 mt 1300 1939 L
1288 1843 mt 1324 1843 L
1306 1825 mt 1306 1861 L
1294 1889 mt 1330 1889 L
1312 1871 mt 1312 1907 L
1300 1867 mt 1336 1867 L
1318 1849 mt 1318 1885 L
1306 1834 mt 1342 1834 L
1324 1816 mt 1324 1852 L
1312 1812 mt 1348 1812 L
1330 1794 mt 1330 1830 L
1318 1824 mt 1354 1824 L
1336 1806 mt 1336 1842 L
1324 1774 mt 1360 1774 L
1342 1756 mt 1342 1792 L
1330 1730 mt 1366 1730 L
1348 1712 mt 1348 1748 L
1336 1724 mt 1372 1724 L
1354 1706 mt 1354 1742 L
1342 1690 mt 1378 1690 L
1360 1672 mt 1360 1708 L
1348 1653 mt 1384 1653 L
1366 1635 mt 1366 1671 L
1354 1611 mt 1390 1611 L
1372 1593 mt 1372 1629 L
1360 1585 mt 1396 1585 L
1378 1567 mt 1378 1603 L
1367 1543 mt 1403 1543 L
1385 1525 mt 1385 1561 L
1373 1515 mt 1409 1515 L
1391 1497 mt 1391 1533 L
1379 1551 mt 1415 1551 L
1397 1533 mt 1397 1569 L
1385 1446 mt 1421 1446 L
1403 1428 mt 1403 1464 L
1391 1422 mt 1427 1422 L
1409 1404 mt 1409 1440 L
1397 1402 mt 1433 1402 L
1415 1384 mt 1415 1420 L
1403 1329 mt 1439 1329 L
1421 1311 mt 1421 1347 L
1409 1303 mt 1445 1303 L
1427 1285 mt 1427 1321 L
1415 1299 mt 1451 1299 L
1433 1281 mt 1433 1317 L
1421 1229 mt 1457 1229 L
1439 1211 mt 1439 1247 L
1427 1227 mt 1463 1227 L
1445 1209 mt 1445 1245 L
1433 1166 mt 1469 1166 L
1451 1148 mt 1451 1184 L
1439 1126 mt 1475 1126 L
1457 1108 mt 1457 1144 L
1445 1108 mt 1481 1108 L
1463 1090 mt 1463 1126 L
1451 1086 mt 1487 1086 L
1469 1068 mt 1469 1104 L
1457 1080 mt 1493 1080 L
1475 1062 mt 1475 1098 L
1463 1030 mt 1499 1030 L
1481 1012 mt 1481 1048 L
1469 1028 mt 1505 1028 L
1487 1010 mt 1487 1046 L
1475 1056 mt 1511 1056 L
1493 1038 mt 1493 1074 L
1481  925 mt 1517  925 L
1499  907 mt 1499  943 L
1487  985 mt 1523  985 L
1505  967 mt 1505 1003 L
1494  997 mt 1530  997 L
1512  979 mt 1512 1015 L
1500  977 mt 1536  977 L
1518  959 mt 1518  995 L
1506  955 mt 1542  955 L
1524  937 mt 1524  973 L
1512  939 mt 1548  939 L
1530  921 mt 1530  957 L
1518  921 mt 1554  921 L
1536  903 mt 1536  939 L
1524 1036 mt 1560 1036 L
1542 1018 mt 1542 1054 L
1530 1013 mt 1566 1013 L
1548  995 mt 1548 1031 L
1536 1108 mt 1572 1108 L
1554 1090 mt 1554 1126 L
1542 1090 mt 1578 1090 L
1560 1072 mt 1560 1108 L
1548 1022 mt 1584 1022 L
1566 1004 mt 1566 1040 L
1554 1118 mt 1590 1118 L
1572 1100 mt 1572 1136 L
1560 1191 mt 1596 1191 L
1578 1173 mt 1578 1209 L
1566 1118 mt 1602 1118 L
1584 1100 mt 1584 1136 L
1572 1269 mt 1608 1269 L
1590 1251 mt 1590 1287 L
1578 1301 mt 1614 1301 L
1596 1283 mt 1596 1319 L
1584 1317 mt 1620 1317 L
1602 1299 mt 1602 1335 L
1590 1247 mt 1626 1247 L
1608 1229 mt 1608 1265 L
1596 1346 mt 1632 1346 L
1614 1328 mt 1614 1364 L
1602 1333 mt 1638 1333 L
1620 1315 mt 1620 1351 L
1608 1378 mt 1644 1378 L
1626 1360 mt 1626 1396 L
1614 1466 mt 1650 1466 L
1632 1448 mt 1632 1484 L
1620 1543 mt 1656 1543 L
1638 1525 mt 1638 1561 L
1627 1494 mt 1663 1494 L
1645 1476 mt 1645 1512 L
1633 1531 mt 1669 1531 L
1651 1513 mt 1651 1549 L
1639 1591 mt 1675 1591 L
1657 1573 mt 1657 1609 L
1645 1579 mt 1681 1579 L
1663 1561 mt 1663 1597 L
1651 1577 mt 1687 1577 L
1669 1559 mt 1669 1595 L
1657 1694 mt 1693 1694 L
1675 1676 mt 1675 1712 L
1663 1692 mt 1699 1692 L
1681 1674 mt 1681 1710 L
1669 1752 mt 1705 1752 L
1687 1734 mt 1687 1770 L
1675 1762 mt 1711 1762 L
1693 1744 mt 1693 1780 L
1681 1802 mt 1717 1802 L
1699 1784 mt 1699 1820 L
1687 1837 mt 1723 1837 L
1705 1819 mt 1705 1855 L
1693 1814 mt 1729 1814 L
1711 1796 mt 1711 1832 L
1699 1847 mt 1735 1847 L
1717 1829 mt 1717 1865 L
1705 1861 mt 1741 1861 L
1723 1843 mt 1723 1879 L
1711 1867 mt 1747 1867 L
1729 1849 mt 1729 1885 L
1717 1917 mt 1753 1917 L
1735 1899 mt 1735 1935 L
1723 1955 mt 1759 1955 L
1741 1937 mt 1741 1973 L
1729 1931 mt 1765 1931 L
1747 1913 mt 1747 1949 L
1735 1977 mt 1771 1977 L
1753 1959 mt 1753 1995 L
1741 1971 mt 1777 1971 L
1759 1953 mt 1759 1989 L
1747 1947 mt 1783 1947 L
1765 1929 mt 1765 1965 L
1754 1991 mt 1790 1991 L
1772 1973 mt 1772 2009 L
1760 2012 mt 1796 2012 L
1778 1994 mt 1778 2030 L
1766 2004 mt 1802 2004 L
1784 1986 mt 1784 2022 L
1772 2048 mt 1808 2048 L
1790 2030 mt 1790 2066 L
1778 2042 mt 1814 2042 L
1796 2024 mt 1796 2060 L
1784 2032 mt 1820 2032 L
1802 2014 mt 1802 2050 L
1790 2066 mt 1826 2066 L
1808 2048 mt 1808 2084 L
1796 2070 mt 1832 2070 L
1814 2052 mt 1814 2088 L
1802 2060 mt 1838 2060 L
1820 2042 mt 1820 2078 L
1808 2094 mt 1844 2094 L
1826 2076 mt 1826 2112 L
1814 2064 mt 1850 2064 L
1832 2046 mt 1832 2082 L
1820 2082 mt 1856 2082 L
1838 2064 mt 1838 2100 L
1826 2078 mt 1862 2078 L
1844 2060 mt 1844 2096 L
1832 2112 mt 1868 2112 L
1850 2094 mt 1850 2130 L
1838 2102 mt 1874 2102 L
1856 2084 mt 1856 2120 L
1844 2086 mt 1880 2086 L
1862 2068 mt 1862 2104 L
1850 2100 mt 1886 2100 L
1868 2082 mt 1868 2118 L
1856 2112 mt 1892 2112 L
1874 2094 mt 1874 2130 L
1862 2122 mt 1898 2122 L
1880 2104 mt 1880 2140 L
1868 2118 mt 1904 2118 L
1886 2100 mt 1886 2136 L
1874 2120 mt 1910 2120 L
1892 2102 mt 1892 2138 L
1880 2132 mt 1916 2132 L
1898 2114 mt 1898 2150 L
1887 2140 mt 1923 2140 L
1905 2122 mt 1905 2158 L
1893 2122 mt 1929 2122 L
1911 2104 mt 1911 2140 L
1899 2132 mt 1935 2132 L
1917 2114 mt 1917 2150 L
1905 2130 mt 1941 2130 L
1923 2112 mt 1923 2148 L
1911 2144 mt 1947 2144 L
1929 2126 mt 1929 2162 L
1917 2140 mt 1953 2140 L
1935 2122 mt 1935 2158 L
1923 2134 mt 1959 2134 L
1941 2116 mt 1941 2152 L
1929 2142 mt 1965 2142 L
1947 2124 mt 1947 2160 L
1935 2142 mt 1971 2142 L
1953 2124 mt 1953 2160 L
1941 2148 mt 1977 2148 L
1959 2130 mt 1959 2166 L
1947 2150 mt 1983 2150 L
1965 2132 mt 1965 2168 L
1953 2150 mt 1989 2150 L
1971 2132 mt 1971 2168 L
1959 2152 mt 1995 2152 L
1977 2134 mt 1977 2170 L
1965 2160 mt 2001 2160 L
1983 2142 mt 1983 2178 L
1971 2152 mt 2007 2152 L
1989 2134 mt 1989 2170 L
1977 2152 mt 2013 2152 L
1995 2134 mt 1995 2170 L
1983 2148 mt 2019 2148 L
2001 2130 mt 2001 2166 L
1989 2150 mt 2025 2150 L
2007 2132 mt 2007 2168 L
1995 2158 mt 2031 2158 L
2013 2140 mt 2013 2176 L
2001 2154 mt 2037 2154 L
2019 2136 mt 2019 2172 L
2007 2158 mt 2043 2158 L
2025 2140 mt 2025 2176 L
2014 2158 mt 2050 2158 L
2032 2140 mt 2032 2176 L
2020 2154 mt 2056 2154 L
2038 2136 mt 2038 2172 L
2026 2156 mt 2062 2156 L
2044 2138 mt 2044 2174 L
2032 2158 mt 2068 2158 L
2050 2140 mt 2050 2176 L
2038 2156 mt 2074 2156 L
2056 2138 mt 2056 2174 L
2044 2158 mt 2080 2158 L
2062 2140 mt 2062 2176 L
2050 2160 mt 2086 2160 L
2068 2142 mt 2068 2178 L
2056 2154 mt 2092 2154 L
2074 2136 mt 2074 2172 L
2062 2160 mt 2098 2160 L
2080 2142 mt 2080 2178 L
2068 2162 mt 2104 2162 L
2086 2144 mt 2086 2180 L
2074 2160 mt 2110 2160 L
2092 2142 mt 2092 2178 L
2080 2162 mt 2116 2162 L
2098 2144 mt 2098 2180 L
2086 2160 mt 2122 2160 L
2104 2142 mt 2104 2178 L
2092 2162 mt 2128 2162 L
2110 2144 mt 2110 2180 L
2098 2162 mt 2134 2162 L
2116 2144 mt 2116 2180 L
2104 2158 mt 2140 2158 L
2122 2140 mt 2122 2176 L
2110 2162 mt 2146 2162 L
2128 2144 mt 2128 2180 L
2116 2160 mt 2152 2160 L
2134 2142 mt 2134 2178 L
2122 2158 mt 2158 2158 L
2140 2140 mt 2140 2176 L
2128 2160 mt 2164 2160 L
2146 2142 mt 2146 2178 L
2134 2160 mt 2170 2160 L
2152 2142 mt 2152 2178 L
2140 2160 mt 2176 2160 L
2158 2142 mt 2158 2178 L
2147 2160 mt 2183 2160 L
2165 2142 mt 2165 2178 L
2153 2162 mt 2189 2162 L
2171 2144 mt 2171 2180 L
2159 2158 mt 2195 2158 L
2177 2140 mt 2177 2176 L
2165 2160 mt 2201 2160 L
2183 2142 mt 2183 2178 L
2171 2162 mt 2207 2162 L
2189 2144 mt 2189 2180 L
2177 2162 mt 2213 2162 L
2195 2144 mt 2195 2180 L
2183 2162 mt 2219 2162 L
2201 2144 mt 2201 2180 L
2189 2162 mt 2225 2162 L
2207 2144 mt 2207 2180 L
2195 2162 mt 2231 2162 L
2213 2144 mt 2213 2180 L
2201 2162 mt 2237 2162 L
2219 2144 mt 2219 2180 L
2207 2162 mt 2243 2162 L
2225 2144 mt 2225 2180 L
2213 2162 mt 2249 2162 L
2231 2144 mt 2231 2180 L
2219 2162 mt 2255 2162 L
2237 2144 mt 2237 2180 L
2225 2162 mt 2261 2162 L
2243 2144 mt 2243 2180 L
2231 2158 mt 2267 2158 L
2249 2140 mt 2249 2176 L
2237 2162 mt 2273 2162 L
2255 2144 mt 2255 2180 L
2243 2162 mt 2279 2162 L
2261 2144 mt 2261 2180 L
2249 2162 mt 2285 2162 L
2267 2144 mt 2267 2180 L
2255 2162 mt 2291 2162 L
2273 2144 mt 2273 2180 L
2261 2162 mt 2297 2162 L
2279 2144 mt 2279 2180 L
2267 2162 mt 2303 2162 L
2285 2144 mt 2285 2180 L
2274 2162 mt 2310 2162 L
2292 2144 mt 2292 2180 L
2280 2162 mt 2316 2162 L
2298 2144 mt 2298 2180 L
2286 2162 mt 2322 2162 L
2304 2144 mt 2304 2180 L
2292 2162 mt 2328 2162 L
2310 2144 mt 2310 2180 L
2298 2162 mt 2334 2162 L
2316 2144 mt 2316 2180 L
2304 2162 mt 2340 2162 L
2322 2144 mt 2322 2180 L
2310 2162 mt 2346 2162 L
2328 2144 mt 2328 2180 L
2316 2162 mt 2352 2162 L
2334 2144 mt 2334 2180 L
2322 2162 mt 2358 2162 L
2340 2144 mt 2340 2180 L
2328 2162 mt 2364 2162 L
2346 2144 mt 2346 2180 L
2334 2162 mt 2370 2162 L
2352 2144 mt 2352 2180 L
2340 2162 mt 2376 2162 L
2358 2144 mt 2358 2180 L
2346 2162 mt 2382 2162 L
2364 2144 mt 2364 2180 L
2352 2162 mt 2388 2162 L
2370 2144 mt 2370 2180 L
2358 2162 mt 2394 2162 L
2376 2144 mt 2376 2180 L
2364 2162 mt 2400 2162 L
2382 2144 mt 2382 2180 L
2370 2162 mt 2406 2162 L
2388 2144 mt 2388 2180 L
2376 2162 mt 2412 2162 L
2394 2144 mt 2394 2180 L
2382 2162 mt 2418 2162 L
2400 2144 mt 2400 2180 L
2388 2162 mt 2424 2162 L
2406 2144 mt 2406 2180 L
2394 2162 mt 2430 2162 L
2412 2144 mt 2412 2180 L
2401 2162 mt 2437 2162 L
2419 2144 mt 2419 2180 L
gr

gs 605 348 1815 1815 rc
gr

0 sg
1385 2491 mt 
(Day) s
 123 1688 mt  -90 rotate
(Daily Incident) s
90 rotate
%%IncludeResource: font Helvetica
/Helvetica /ISOLatin1Encoding 96 FMSR

 584 2205 mt 
( ) s
2399  390 mt 
( ) s
6 w
1 sg
0 469 1548 0 0 -469 864 822 4 MP
PP
-1548 0 0 469 1548 0 0 -469 864 822 5 MP stroke
4 w
DO
SO
6 w
0 sg
 864  822 mt 2412  822 L
 864  353 mt 2412  353 L
 864  822 mt  864  353 L
2412  822 mt 2412  353 L
 864  822 mt 2412  822 L
 864  822 mt  864  353 L
 864  822 mt 2412  822 L
 864  353 mt 2412  353 L
 864  822 mt  864  353 L
2412  822 mt 2412  353 L
%%IncludeResource: font Helvetica
/Helvetica /ISOLatin1Encoding 144 FMSR

1333  532 mt 
(Sensor Group) s
gs 864 353 1549 470 rc
12 w
c8
360 0 936 480 2 MP stroke
gs 1079 443 75 75 rc
1098  480 mt 1134  480 L
1116  462 mt 1116  498 L
1104  468 mt 1128  492 L
1128  468 mt 1104  492 L
gr

gr

12 w
c8
0 sg
1333  746 mt 
(Random Group) s
gs 864 353 1549 470 rc
c9
360 0 936 694 2 MP stroke
gs 1079 657 75 75 rc
1098  694 mt 1134  694 L
1116  676 mt 1116  712 L
gr

6 w
gr

6 w
c9

end %%Color Dict

eplot
%%EndObject

epage
end

showpage

%%Trailer
%%EOF
