%!PS-Adobe-3.0 EPSF-3.0
%%Creator: MATLAB, The MathWorks, Inc. Version 8.3.0.532 (R2014a). Operating System: Darwin 13.3.0 Darwin Kernel Version 13.3.0: Tue Jun  3 21:27:35 PDT 2014; root:xnu-2422.110.17~1/RELEASE_X86_64 x86_64.
%%Title: /Users/huijuans/2015Fall/PLoSOne/MatLabFig/miami_noshift2_08282015.eps
%%CreationDate: 08/28/2015  17:54:43
%%DocumentNeededFonts: Helvetica
%%DocumentProcessColors: Cyan Magenta Yellow Black
%%LanguageLevel: 2
%%Pages: 1
%%BoundingBox:   198   288   414   504
%%EndComments

%%BeginProlog
% MathWorks dictionary
/MathWorks 160 dict begin
% definition operators
/bdef {bind def} bind def
/ldef {load def} bind def
/xdef {exch def} bdef
/xstore {exch store} bdef
% operator abbreviations
/c  /clip ldef
/cc /concat ldef
/cp /closepath ldef
/gr /grestore ldef
/gs /gsave ldef
/mt /moveto ldef
/np /newpath ldef
/cm /currentmatrix ldef
/sm /setmatrix ldef
/rm /rmoveto ldef
/rl /rlineto ldef
/s {show newpath} bdef
/sc {setcmykcolor} bdef
/sr /setrgbcolor ldef
/sg /setgray ldef
/w /setlinewidth ldef
/j /setlinejoin ldef
/cap /setlinecap ldef
/rc {rectclip} bdef
/rf {rectfill} bdef
% page state control
/pgsv () def
/bpage {/pgsv save def} bdef
/epage {pgsv restore} bdef
/bplot /gsave ldef
/eplot {stroke grestore} bdef
% orientation switch
/portraitMode 0 def /landscapeMode 1 def /rotateMode 2 def
% coordinate system mappings
/dpi2point 0 def
% font control
/FontSize 0 def
/FMS {/FontSize xstore findfont [FontSize 0 0 FontSize neg 0 0]
  makefont setfont} bdef
/reencode {exch dup where {pop load} {pop StandardEncoding} ifelse
  exch dup 3 1 roll findfont dup length dict begin
  { 1 index /FID ne {def}{pop pop} ifelse } forall
  /Encoding exch def currentdict end definefont pop} bdef
/isroman {findfont /CharStrings get /Agrave known} bdef
/FMSR {3 1 roll 1 index dup isroman {reencode} {pop pop} ifelse
  exch FMS} bdef
/csm {1 dpi2point div -1 dpi2point div scale neg translate
 dup landscapeMode eq {pop -90 rotate}
  {rotateMode eq {90 rotate} if} ifelse} bdef
% line types: solid, dotted, dashed, dotdash
/SO { [] 0 setdash } bdef
/DO { [.5 dpi2point mul 4 dpi2point mul] 0 setdash } bdef
/DA { [6 dpi2point mul] 0 setdash } bdef
/DD { [.5 dpi2point mul 4 dpi2point mul 6 dpi2point mul 4
  dpi2point mul] 0 setdash } bdef
% macros for lines and objects
/L {lineto stroke} bdef
/MP {3 1 roll moveto 1 sub {rlineto} repeat} bdef
/AP {{rlineto} repeat} bdef
/PDlw -1 def
/W {/PDlw currentlinewidth def setlinewidth} def
/PP {closepath eofill} bdef
/DP {closepath stroke} bdef
/MR {4 -2 roll moveto dup  0 exch rlineto exch 0 rlineto
  neg 0 exch rlineto closepath} bdef
/FR {MR stroke} bdef
/PR {MR fill} bdef
/L1i {{currentfile picstr readhexstring pop} image} bdef
/tMatrix matrix def
/MakeOval {newpath tMatrix currentmatrix pop translate scale
0 0 1 0 360 arc tMatrix setmatrix} bdef
/FO {MakeOval stroke} bdef
/PO {MakeOval fill} bdef
/PD {currentlinewidth 2 div 0 360 arc fill
   PDlw -1 eq not {PDlw w /PDlw -1 def} if} def
/FA {newpath tMatrix currentmatrix pop translate scale
  0 0 1 5 -2 roll arc tMatrix setmatrix stroke} bdef
/PA {newpath tMatrix currentmatrix pop	translate 0 0 moveto scale
  0 0 1 5 -2 roll arc closepath tMatrix setmatrix fill} bdef
/FAn {newpath tMatrix currentmatrix pop translate scale
  0 0 1 5 -2 roll arcn tMatrix setmatrix stroke} bdef
/PAn {newpath tMatrix currentmatrix pop translate 0 0 moveto scale
  0 0 1 5 -2 roll arcn closepath tMatrix setmatrix fill} bdef
/vradius 0 def /hradius 0 def /lry 0 def
/lrx 0 def /uly 0 def /ulx 0 def /rad 0 def
/MRR {/vradius xdef /hradius xdef /lry xdef /lrx xdef /uly xdef
  /ulx xdef newpath tMatrix currentmatrix pop ulx hradius add uly
  vradius add translate hradius vradius scale 0 0 1 180 270 arc 
  tMatrix setmatrix lrx hradius sub uly vradius add translate
  hradius vradius scale 0 0 1 270 360 arc tMatrix setmatrix
  lrx hradius sub lry vradius sub translate hradius vradius scale
  0 0 1 0 90 arc tMatrix setmatrix ulx hradius add lry vradius sub
  translate hradius vradius scale 0 0 1 90 180 arc tMatrix setmatrix
  closepath} bdef
/FRR {MRR stroke } bdef
/PRR {MRR fill } bdef
/MlrRR {/lry xdef /lrx xdef /uly xdef /ulx xdef /rad lry uly sub 2 div def
  newpath tMatrix currentmatrix pop ulx rad add uly rad add translate
  rad rad scale 0 0 1 90 270 arc tMatrix setmatrix lrx rad sub lry rad
  sub translate rad rad scale 0 0 1 270 90 arc tMatrix setmatrix
  closepath} bdef
/FlrRR {MlrRR stroke } bdef
/PlrRR {MlrRR fill } bdef
/MtbRR {/lry xdef /lrx xdef /uly xdef /ulx xdef /rad lrx ulx sub 2 div def
  newpath tMatrix currentmatrix pop ulx rad add uly rad add translate
  rad rad scale 0 0 1 180 360 arc tMatrix setmatrix lrx rad sub lry rad
  sub translate rad rad scale 0 0 1 0 180 arc tMatrix setmatrix
  closepath} bdef
/FtbRR {MtbRR stroke } bdef
/PtbRR {MtbRR fill } bdef
/stri 6 array def /dtri 6 array def
/smat 6 array def /dmat 6 array def
/tmat1 6 array def /tmat2 6 array def /dif 3 array def
/asub {/ind2 exch def /ind1 exch def dup dup
  ind1 get exch ind2 get sub exch } bdef
/tri_to_matrix {
  2 0 asub 3 1 asub 4 0 asub 5 1 asub
  dup 0 get exch 1 get 7 -1 roll astore } bdef
/compute_transform {
  dmat dtri tri_to_matrix tmat1 invertmatrix 
  smat stri tri_to_matrix tmat2 concatmatrix } bdef
/ds {stri astore pop} bdef
/dt {dtri astore pop} bdef
/db {2 copy /cols xdef /rows xdef mul dup 3 mul string
  currentfile 
  3 index 0 eq {/ASCIIHexDecode filter}
  {/ASCII85Decode filter 3 index 2 eq {/RunLengthDecode filter} if }
  ifelse exch readstring pop
  dup 0 3 index getinterval /rbmap xdef
  dup 2 index dup getinterval /gbmap xdef
  1 index dup 2 mul exch getinterval /bbmap xdef pop pop}bdef
/it {gs np dtri aload pop moveto lineto lineto cp c
  cols rows 8 compute_transform 
  rbmap gbmap bbmap true 3 colorimage gr}bdef
/il {newpath moveto lineto stroke}bdef
currentdict end def
%%EndProlog

%%BeginSetup
MathWorks begin

0 cap

end
%%EndSetup

%%Page: 1 1
%%BeginPageSetup
%%PageBoundingBox:   198   288   414   504
MathWorks begin
bpage
%%EndPageSetup

%%BeginObject: obj1
bplot

/dpi2point 12 def
portraitMode 2376 6048 csm

    0     0  2592  2592 rc
85 dict begin %Colortable dictionary
/c0 { 0.000000 0.000000 0.000000 sr} bdef
/c1 { 1.000000 1.000000 1.000000 sr} bdef
/c2 { 0.900000 0.000000 0.000000 sr} bdef
/c3 { 0.000000 0.820000 0.000000 sr} bdef
/c4 { 0.000000 0.000000 0.800000 sr} bdef
/c5 { 0.910000 0.820000 0.320000 sr} bdef
/c6 { 1.000000 0.260000 0.820000 sr} bdef
/c7 { 0.000000 0.820000 0.820000 sr} bdef
c0
1 j
1 sg
   0    0 2593 2593 rf
6 w
0 1814 1814 0 0 -1814 605 2160 4 MP
PP
-1814 0 0 1814 1814 0 0 -1814 605 2160 5 MP stroke
4 w
DO
SO
6 w
0 sg
 605 2160 mt 2419 2160 L
 605  346 mt 2419  346 L
 605 2160 mt  605  346 L
2419 2160 mt 2419  346 L
 605 2160 mt 2419 2160 L
 605 2160 mt  605  346 L
 605 2160 mt  605 2141 L
 605  346 mt  605  364 L
%%IncludeResource: font Helvetica
/Helvetica /ISOLatin1Encoding 144 FMSR

 565 2328 mt 
(0) s
1209 2160 mt 1209 2141 L
1209  346 mt 1209  364 L
1089 2328 mt 
(100) s
1814 2160 mt 1814 2141 L
1814  346 mt 1814  364 L
1694 2328 mt 
(200) s
2419 2160 mt 2419 2141 L
2419  346 mt 2419  364 L
2299 2328 mt 
(300) s
 605 2160 mt  623 2160 L
2419 2160 mt 2400 2160 L
 490 2213 mt 
(0) s
 605 1857 mt  623 1857 L
2419 1857 mt 2400 1857 L
 210 1910 mt 
(0.005) s
 605 1555 mt  623 1555 L
2419 1555 mt 2400 1555 L
 290 1608 mt 
(0.01) s
 605 1253 mt  623 1253 L
2419 1253 mt 2400 1253 L
 210 1306 mt 
(0.015) s
 605  950 mt  623  950 L
2419  950 mt 2400  950 L
 290 1003 mt 
(0.02) s
 605  648 mt  623  648 L
2419  648 mt 2400  648 L
 210  701 mt 
(0.025) s
 605  346 mt  623  346 L
2419  346 mt 2400  346 L
 290  399 mt 
(0.03) s
 605 2160 mt 2419 2160 L
 605  346 mt 2419  346 L
 605 2160 mt  605  346 L
2419 2160 mt 2419  346 L
gs 605 346 1815 1815 rc
12 w
/c8 { 1.000000 0.000000 0.000000 sr} bdef
c8
7 0 6 0 6 0 6 0 6 0 6 0 6 0 6 0 
6 0 6 0 6 0 6 0 6 0 6 0 6 0 6 0 
6 0 6 0 6 0 6 0 6 0 7 0 6 0 6 0 
6 0 6 0 6 0 6 0 6 0 6 0 6 0 6 0 
6 0 6 0 6 0 6 0 6 0 6 0 6 0 6 0 
6 1 6 0 7 0 6 0 6 0 6 0 6 0 6 0 
6 0 6 1 6 0 6 0 6 0 6 0 6 0 6 1 
6 0 6 0 6 1 6 0 6 0 6 1 6 0 6 0 
7 1 6 0 6 1 6 1 6 0 6 1 6 1 6 0 
6 1 6 1 6 1 6 1 6 2 6 1 6 1 6 2 
6 1 6 2 6 2 6 2 6 2 7 3 6 2 6 3 
6 3 6 3 6 3 6 4 6 4 6 4 6 5 6 5 
6 5 6 6 6 6 6 6 6 7 6 8 6 8 6 9 
6 9 6 10 6 11 7 11 6 12 6 13 6 14 6 15 
6 15 6 17 6 18 6 18 6 20 6 21 6 22 6 23 
6 24 6 26 6 26 6 28 6 29 6 30 6 31 6 31 
7 33 6 33 6 34 6 34 6 35 6 35 6 34 6 34 
6 34 6 32 6 32 6 30 6 28 6 27 6 24 6 22 
6 19 6 16 6 13 6 10 6 6 6 4 7 -1 6 -4 
6 -7 6 -11 6 -13 6 -17 6 -20 6 -22 6 -25 6 -27 
6 -29 6 -30 6 -32 6 -33 6 -33 6 -35 6 -34 6 -35 
6 -34 6 -34 6 -34 7 -33 6 -33 6 -31 6 -31 6 -30 
6 -28 6 -28 6 -26 6 -25 6 -24 6 -23 6 -22 6 -20 
6 -20 6 -18 6 -18 6 -16 6 -16 6 -14 6 -14 6 -13 
7 -12 6 -11 6 -10 6 -10 6 -9 6 -9 6 -8 6 -7 
6 -7 6 -7 6 -6 6 -5 6 -5 6 -5 6 -5 6 -4 
6 -4 6 -3 6 -4 6 -3 6 -3 6 -3 7 -2 6 -2 
6 -2 6 -2 6 -2 6 -2 6 -2 6 -1 6 -1 6 -2 
6 -1 6 -1 6 -1 6 -1 6 -1 6 -1 6 0 6 -1 
6 -1 6 0 6 -1 7 0 6 -1 6 0 6 -1 6 0 
6 0 6 -1 6 0 6 0 6 0 6 -1 6 0 6 0 
6 0 6 0 6 -1 6 0 6 0 6 0 6 0 6 0 
6 0 7 0 6 0 6 -1 6 0 6 0 6 0 6 0 
6 0 6 0 6 0 6 0 6 0 6 0 6 0 6 0 
6 0 6 0 6 0 6 0 6 0 6 0 7 0 6 0 
6 0 6 0 6 0 6 0 6 0 6 0 6 0 6 0 
6 0 6 0 6 0 6 0 6 0 6 0 6 0 6 0 
6 0 6 0 6 0 611 2159 300 MP stroke
gr

12 w
c8
 599 2159 mt  623 2159 L
 611 2147 mt  611 2171 L
 605 2159 mt  629 2159 L
 617 2147 mt  617 2171 L
 611 2159 mt  635 2159 L
 623 2147 mt  623 2171 L
 617 2159 mt  641 2159 L
 629 2147 mt  629 2171 L
 623 2159 mt  647 2159 L
 635 2147 mt  635 2171 L
 629 2159 mt  653 2159 L
 641 2147 mt  641 2171 L
 635 2159 mt  659 2159 L
 647 2147 mt  647 2171 L
 641 2159 mt  665 2159 L
 653 2147 mt  653 2171 L
 647 2159 mt  671 2159 L
 659 2147 mt  659 2171 L
 653 2159 mt  677 2159 L
 665 2147 mt  665 2171 L
 659 2159 mt  683 2159 L
 671 2147 mt  671 2171 L
 665 2159 mt  689 2159 L
 677 2147 mt  677 2171 L
 671 2159 mt  695 2159 L
 683 2147 mt  683 2171 L
 677 2159 mt  701 2159 L
 689 2147 mt  689 2171 L
 683 2159 mt  707 2159 L
 695 2147 mt  695 2171 L
 689 2159 mt  713 2159 L
 701 2147 mt  701 2171 L
 695 2159 mt  719 2159 L
 707 2147 mt  707 2171 L
 701 2159 mt  725 2159 L
 713 2147 mt  713 2171 L
 707 2159 mt  731 2159 L
 719 2147 mt  719 2171 L
 713 2159 mt  737 2159 L
 725 2147 mt  725 2171 L
 719 2159 mt  743 2159 L
 731 2147 mt  731 2171 L
 726 2159 mt  750 2159 L
 738 2147 mt  738 2171 L
 732 2159 mt  756 2159 L
 744 2147 mt  744 2171 L
 738 2159 mt  762 2159 L
 750 2147 mt  750 2171 L
 744 2159 mt  768 2159 L
 756 2147 mt  756 2171 L
 750 2159 mt  774 2159 L
 762 2147 mt  762 2171 L
 756 2159 mt  780 2159 L
 768 2147 mt  768 2171 L
 762 2159 mt  786 2159 L
 774 2147 mt  774 2171 L
 768 2159 mt  792 2159 L
 780 2147 mt  780 2171 L
 774 2159 mt  798 2159 L
 786 2147 mt  786 2171 L
 780 2159 mt  804 2159 L
 792 2147 mt  792 2171 L
 786 2159 mt  810 2159 L
 798 2147 mt  798 2171 L
 792 2159 mt  816 2159 L
 804 2147 mt  804 2171 L
 798 2159 mt  822 2159 L
 810 2147 mt  810 2171 L
 804 2159 mt  828 2159 L
 816 2147 mt  816 2171 L
 810 2159 mt  834 2159 L
 822 2147 mt  822 2171 L
 816 2159 mt  840 2159 L
 828 2147 mt  828 2171 L
 822 2159 mt  846 2159 L
 834 2147 mt  834 2171 L
 828 2159 mt  852 2159 L
 840 2147 mt  840 2171 L
 834 2159 mt  858 2159 L
 846 2147 mt  846 2171 L
 840 2158 mt  864 2158 L
 852 2146 mt  852 2170 L
 846 2158 mt  870 2158 L
 858 2146 mt  858 2170 L
 853 2158 mt  877 2158 L
 865 2146 mt  865 2170 L
 859 2158 mt  883 2158 L
 871 2146 mt  871 2170 L
 865 2158 mt  889 2158 L
 877 2146 mt  877 2170 L
 871 2158 mt  895 2158 L
 883 2146 mt  883 2170 L
 877 2158 mt  901 2158 L
 889 2146 mt  889 2170 L
 883 2158 mt  907 2158 L
 895 2146 mt  895 2170 L
 889 2158 mt  913 2158 L
 901 2146 mt  901 2170 L
 895 2157 mt  919 2157 L
 907 2145 mt  907 2169 L
 901 2157 mt  925 2157 L
 913 2145 mt  913 2169 L
 907 2157 mt  931 2157 L
 919 2145 mt  919 2169 L
 913 2157 mt  937 2157 L
 925 2145 mt  925 2169 L
 919 2157 mt  943 2157 L
 931 2145 mt  931 2169 L
 925 2156 mt  949 2156 L
 937 2144 mt  937 2168 L
 931 2156 mt  955 2156 L
 943 2144 mt  943 2168 L
 937 2156 mt  961 2156 L
 949 2144 mt  949 2168 L
 943 2156 mt  967 2156 L
 955 2144 mt  955 2168 L
 949 2155 mt  973 2155 L
 961 2143 mt  961 2167 L
 955 2155 mt  979 2155 L
 967 2143 mt  967 2167 L
 961 2155 mt  985 2155 L
 973 2143 mt  973 2167 L
 967 2154 mt  991 2154 L
 979 2142 mt  979 2166 L
 973 2154 mt  997 2154 L
 985 2142 mt  985 2166 L
 979 2153 mt 1003 2153 L
 991 2141 mt  991 2165 L
 986 2153 mt 1010 2153 L
 998 2141 mt  998 2165 L
 992 2152 mt 1016 2152 L
1004 2140 mt 1004 2164 L
 998 2152 mt 1022 2152 L
1010 2140 mt 1010 2164 L
1004 2151 mt 1028 2151 L
1016 2139 mt 1016 2163 L
1010 2150 mt 1034 2150 L
1022 2138 mt 1022 2162 L
1016 2150 mt 1040 2150 L
1028 2138 mt 1028 2162 L
1022 2149 mt 1046 2149 L
1034 2137 mt 1034 2161 L
1028 2148 mt 1052 2148 L
1040 2136 mt 1040 2160 L
1034 2147 mt 1058 2147 L
1046 2135 mt 1046 2159 L
1040 2146 mt 1064 2146 L
1052 2134 mt 1052 2158 L
1046 2145 mt 1070 2145 L
1058 2133 mt 1058 2157 L
1052 2144 mt 1076 2144 L
1064 2132 mt 1064 2156 L
1058 2142 mt 1082 2142 L
1070 2130 mt 1070 2154 L
1064 2141 mt 1088 2141 L
1076 2129 mt 1076 2153 L
1070 2140 mt 1094 2140 L
1082 2128 mt 1082 2152 L
1076 2138 mt 1100 2138 L
1088 2126 mt 1088 2150 L
1082 2136 mt 1106 2136 L
1094 2124 mt 1094 2148 L
1088 2134 mt 1112 2134 L
1100 2122 mt 1100 2146 L
1094 2132 mt 1118 2132 L
1106 2120 mt 1106 2144 L
1100 2130 mt 1124 2130 L
1112 2118 mt 1112 2142 L
1106 2128 mt 1130 2128 L
1118 2116 mt 1118 2140 L
1113 2126 mt 1137 2126 L
1125 2114 mt 1125 2138 L
1119 2123 mt 1143 2123 L
1131 2111 mt 1131 2135 L
1125 2120 mt 1149 2120 L
1137 2108 mt 1137 2132 L
1131 2117 mt 1155 2117 L
1143 2105 mt 1143 2129 L
1137 2113 mt 1161 2113 L
1149 2101 mt 1149 2125 L
1143 2110 mt 1167 2110 L
1155 2098 mt 1155 2122 L
1149 2106 mt 1173 2106 L
1161 2094 mt 1161 2118 L
1155 2102 mt 1179 2102 L
1167 2090 mt 1167 2114 L
1161 2097 mt 1185 2097 L
1173 2085 mt 1173 2109 L
1167 2092 mt 1191 2092 L
1179 2080 mt 1179 2104 L
1173 2087 mt 1197 2087 L
1185 2075 mt 1185 2099 L
1179 2082 mt 1203 2082 L
1191 2070 mt 1191 2094 L
1185 2076 mt 1209 2076 L
1197 2064 mt 1197 2088 L
1191 2069 mt 1215 2069 L
1203 2057 mt 1203 2081 L
1197 2062 mt 1221 2062 L
1209 2050 mt 1209 2074 L
1203 2055 mt 1227 2055 L
1215 2043 mt 1215 2067 L
1209 2047 mt 1233 2047 L
1221 2035 mt 1221 2059 L
1215 2038 mt 1239 2038 L
1227 2026 mt 1227 2050 L
1221 2029 mt 1245 2029 L
1233 2017 mt 1233 2041 L
1227 2019 mt 1251 2019 L
1239 2007 mt 1239 2031 L
1233 2009 mt 1257 2009 L
1245 1997 mt 1245 2021 L
1239 1998 mt 1263 1998 L
1251 1986 mt 1251 2010 L
1246 1986 mt 1270 1986 L
1258 1974 mt 1258 1998 L
1252 1973 mt 1276 1973 L
1264 1961 mt 1264 1985 L
1258 1959 mt 1282 1959 L
1270 1947 mt 1270 1971 L
1264 1945 mt 1288 1945 L
1276 1933 mt 1276 1957 L
1270 1929 mt 1294 1929 L
1282 1917 mt 1282 1941 L
1276 1913 mt 1300 1913 L
1288 1901 mt 1288 1925 L
1282 1895 mt 1306 1895 L
1294 1883 mt 1294 1907 L
1288 1877 mt 1312 1877 L
1300 1865 mt 1300 1889 L
1294 1857 mt 1318 1857 L
1306 1845 mt 1306 1869 L
1300 1837 mt 1324 1837 L
1312 1825 mt 1312 1849 L
1306 1815 mt 1330 1815 L
1318 1803 mt 1318 1827 L
1312 1792 mt 1336 1792 L
1324 1780 mt 1324 1804 L
1318 1768 mt 1342 1768 L
1330 1756 mt 1330 1780 L
1324 1743 mt 1348 1743 L
1336 1731 mt 1336 1755 L
1330 1717 mt 1354 1717 L
1342 1705 mt 1342 1729 L
1336 1689 mt 1360 1689 L
1348 1677 mt 1348 1701 L
1342 1661 mt 1366 1661 L
1354 1649 mt 1354 1673 L
1348 1631 mt 1372 1631 L
1360 1619 mt 1360 1643 L
1354 1600 mt 1378 1600 L
1366 1588 mt 1366 1612 L
1360 1569 mt 1384 1569 L
1372 1557 mt 1372 1581 L
1366 1536 mt 1390 1536 L
1378 1524 mt 1378 1548 L
1373 1503 mt 1397 1503 L
1385 1491 mt 1385 1515 L
1379 1469 mt 1403 1469 L
1391 1457 mt 1391 1481 L
1385 1435 mt 1409 1435 L
1397 1423 mt 1397 1447 L
1391 1401 mt 1415 1401 L
1403 1389 mt 1403 1413 L
1397 1366 mt 1421 1366 L
1409 1354 mt 1409 1378 L
1403 1332 mt 1427 1332 L
1415 1320 mt 1415 1344 L
1409 1297 mt 1433 1297 L
1421 1285 mt 1421 1309 L
1415 1264 mt 1439 1264 L
1427 1252 mt 1427 1276 L
1421 1231 mt 1445 1231 L
1433 1219 mt 1433 1243 L
1427 1199 mt 1451 1199 L
1439 1187 mt 1439 1211 L
1433 1169 mt 1457 1169 L
1445 1157 mt 1445 1181 L
1439 1140 mt 1463 1140 L
1451 1128 mt 1451 1152 L
1445 1113 mt 1469 1113 L
1457 1101 mt 1457 1125 L
1451 1088 mt 1475 1088 L
1463 1076 mt 1463 1100 L
1457 1066 mt 1481 1066 L
1469 1054 mt 1469 1078 L
1463 1046 mt 1487 1046 L
1475 1034 mt 1475 1058 L
1469 1029 mt 1493 1029 L
1481 1017 mt 1481 1041 L
1475 1016 mt 1499 1016 L
1487 1004 mt 1487 1028 L
1481 1005 mt 1505 1005 L
1493  993 mt 1493 1017 L
1487  998 mt 1511  998 L
1499  986 mt 1499 1010 L
1493  994 mt 1517  994 L
1505  982 mt 1505 1006 L
1500  993 mt 1524  993 L
1512  981 mt 1512 1005 L
1506  997 mt 1530  997 L
1518  985 mt 1518 1009 L
1512 1003 mt 1536 1003 L
1524  991 mt 1524 1015 L
1518 1013 mt 1542 1013 L
1530 1001 mt 1530 1025 L
1524 1026 mt 1548 1026 L
1536 1014 mt 1536 1038 L
1530 1042 mt 1554 1042 L
1542 1030 mt 1542 1054 L
1536 1061 mt 1560 1061 L
1548 1049 mt 1548 1073 L
1542 1083 mt 1566 1083 L
1554 1071 mt 1554 1095 L
1548 1107 mt 1572 1107 L
1560 1095 mt 1560 1119 L
1554 1134 mt 1578 1134 L
1566 1122 mt 1566 1146 L
1560 1162 mt 1584 1162 L
1572 1150 mt 1572 1174 L
1566 1192 mt 1590 1192 L
1578 1180 mt 1578 1204 L
1572 1224 mt 1596 1224 L
1584 1212 mt 1584 1236 L
1578 1256 mt 1602 1256 L
1590 1244 mt 1590 1268 L
1584 1290 mt 1608 1290 L
1596 1278 mt 1596 1302 L
1590 1324 mt 1614 1324 L
1602 1312 mt 1602 1336 L
1596 1358 mt 1620 1358 L
1608 1346 mt 1608 1370 L
1602 1393 mt 1626 1393 L
1614 1381 mt 1614 1405 L
1608 1428 mt 1632 1428 L
1620 1416 mt 1620 1440 L
1614 1462 mt 1638 1462 L
1626 1450 mt 1626 1474 L
1620 1496 mt 1644 1496 L
1632 1484 mt 1632 1508 L
1626 1529 mt 1650 1529 L
1638 1517 mt 1638 1541 L
1633 1562 mt 1657 1562 L
1645 1550 mt 1645 1574 L
1639 1593 mt 1663 1593 L
1651 1581 mt 1651 1605 L
1645 1624 mt 1669 1624 L
1657 1612 mt 1657 1636 L
1651 1654 mt 1675 1654 L
1663 1642 mt 1663 1666 L
1657 1683 mt 1681 1683 L
1669 1671 mt 1669 1695 L
1663 1711 mt 1687 1711 L
1675 1699 mt 1675 1723 L
1669 1737 mt 1693 1737 L
1681 1725 mt 1681 1749 L
1675 1763 mt 1699 1763 L
1687 1751 mt 1687 1775 L
1681 1787 mt 1705 1787 L
1693 1775 mt 1693 1799 L
1687 1810 mt 1711 1810 L
1699 1798 mt 1699 1822 L
1693 1832 mt 1717 1832 L
1705 1820 mt 1705 1844 L
1699 1853 mt 1723 1853 L
1711 1841 mt 1711 1865 L
1705 1873 mt 1729 1873 L
1717 1861 mt 1717 1885 L
1711 1891 mt 1735 1891 L
1723 1879 mt 1723 1903 L
1717 1909 mt 1741 1909 L
1729 1897 mt 1729 1921 L
1723 1926 mt 1747 1926 L
1735 1914 mt 1735 1938 L
1729 1941 mt 1753 1941 L
1741 1929 mt 1741 1953 L
1735 1956 mt 1759 1956 L
1747 1944 mt 1747 1968 L
1741 1970 mt 1765 1970 L
1753 1958 mt 1753 1982 L
1747 1983 mt 1771 1983 L
1759 1971 mt 1759 1995 L
1753 1995 mt 1777 1995 L
1765 1983 mt 1765 2007 L
1760 2006 mt 1784 2006 L
1772 1994 mt 1772 2018 L
1766 2017 mt 1790 2017 L
1778 2005 mt 1778 2029 L
1772 2027 mt 1796 2027 L
1784 2015 mt 1784 2039 L
1778 2036 mt 1802 2036 L
1790 2024 mt 1790 2048 L
1784 2045 mt 1808 2045 L
1796 2033 mt 1796 2057 L
1790 2053 mt 1814 2053 L
1802 2041 mt 1802 2065 L
1796 2061 mt 1820 2061 L
1808 2049 mt 1808 2073 L
1802 2068 mt 1826 2068 L
1814 2056 mt 1814 2080 L
1808 2074 mt 1832 2074 L
1820 2062 mt 1820 2086 L
1814 2080 mt 1838 2080 L
1826 2068 mt 1826 2092 L
1820 2086 mt 1844 2086 L
1832 2074 mt 1832 2098 L
1826 2091 mt 1850 2091 L
1838 2079 mt 1838 2103 L
1832 2096 mt 1856 2096 L
1844 2084 mt 1844 2108 L
1838 2101 mt 1862 2101 L
1850 2089 mt 1850 2113 L
1844 2105 mt 1868 2105 L
1856 2093 mt 1856 2117 L
1850 2109 mt 1874 2109 L
1862 2097 mt 1862 2121 L
1856 2113 mt 1880 2113 L
1868 2101 mt 1868 2125 L
1862 2116 mt 1886 2116 L
1874 2104 mt 1874 2128 L
1868 2119 mt 1892 2119 L
1880 2107 mt 1880 2131 L
1874 2122 mt 1898 2122 L
1886 2110 mt 1886 2134 L
1880 2125 mt 1904 2125 L
1892 2113 mt 1892 2137 L
1886 2127 mt 1910 2127 L
1898 2115 mt 1898 2139 L
1893 2130 mt 1917 2130 L
1905 2118 mt 1905 2142 L
1899 2132 mt 1923 2132 L
1911 2120 mt 1911 2144 L
1905 2134 mt 1929 2134 L
1917 2122 mt 1917 2146 L
1911 2136 mt 1935 2136 L
1923 2124 mt 1923 2148 L
1917 2138 mt 1941 2138 L
1929 2126 mt 1929 2150 L
1923 2139 mt 1947 2139 L
1935 2127 mt 1935 2151 L
1929 2141 mt 1953 2141 L
1941 2129 mt 1941 2153 L
1935 2142 mt 1959 2142 L
1947 2130 mt 1947 2154 L
1941 2143 mt 1965 2143 L
1953 2131 mt 1953 2155 L
1947 2145 mt 1971 2145 L
1959 2133 mt 1959 2157 L
1953 2146 mt 1977 2146 L
1965 2134 mt 1965 2158 L
1959 2147 mt 1983 2147 L
1971 2135 mt 1971 2159 L
1965 2148 mt 1989 2148 L
1977 2136 mt 1977 2160 L
1971 2149 mt 1995 2149 L
1983 2137 mt 1983 2161 L
1977 2149 mt 2001 2149 L
1989 2137 mt 1989 2161 L
1983 2150 mt 2007 2150 L
1995 2138 mt 1995 2162 L
1989 2151 mt 2013 2151 L
2001 2139 mt 2001 2163 L
1995 2151 mt 2019 2151 L
2007 2139 mt 2007 2163 L
2001 2152 mt 2025 2152 L
2013 2140 mt 2013 2164 L
2007 2153 mt 2031 2153 L
2019 2141 mt 2019 2165 L
2013 2153 mt 2037 2153 L
2025 2141 mt 2025 2165 L
2020 2154 mt 2044 2154 L
2032 2142 mt 2032 2166 L
2026 2154 mt 2050 2154 L
2038 2142 mt 2038 2166 L
2032 2154 mt 2056 2154 L
2044 2142 mt 2044 2166 L
2038 2155 mt 2062 2155 L
2050 2143 mt 2050 2167 L
2044 2155 mt 2068 2155 L
2056 2143 mt 2056 2167 L
2050 2155 mt 2074 2155 L
2062 2143 mt 2062 2167 L
2056 2156 mt 2080 2156 L
2068 2144 mt 2068 2168 L
2062 2156 mt 2086 2156 L
2074 2144 mt 2074 2168 L
2068 2156 mt 2092 2156 L
2080 2144 mt 2080 2168 L
2074 2157 mt 2098 2157 L
2086 2145 mt 2086 2169 L
2080 2157 mt 2104 2157 L
2092 2145 mt 2092 2169 L
2086 2157 mt 2110 2157 L
2098 2145 mt 2098 2169 L
2092 2157 mt 2116 2157 L
2104 2145 mt 2104 2169 L
2098 2157 mt 2122 2157 L
2110 2145 mt 2110 2169 L
2104 2157 mt 2128 2157 L
2116 2145 mt 2116 2169 L
2110 2158 mt 2134 2158 L
2122 2146 mt 2122 2170 L
2116 2158 mt 2140 2158 L
2128 2146 mt 2128 2170 L
2122 2158 mt 2146 2158 L
2134 2146 mt 2134 2170 L
2128 2158 mt 2152 2158 L
2140 2146 mt 2140 2170 L
2134 2158 mt 2158 2158 L
2146 2146 mt 2146 2170 L
2140 2158 mt 2164 2158 L
2152 2146 mt 2152 2170 L
2146 2158 mt 2170 2158 L
2158 2146 mt 2158 2170 L
2153 2158 mt 2177 2158 L
2165 2146 mt 2165 2170 L
2159 2158 mt 2183 2158 L
2171 2146 mt 2171 2170 L
2165 2159 mt 2189 2159 L
2177 2147 mt 2177 2171 L
2171 2159 mt 2195 2159 L
2183 2147 mt 2183 2171 L
2177 2159 mt 2201 2159 L
2189 2147 mt 2189 2171 L
2183 2159 mt 2207 2159 L
2195 2147 mt 2195 2171 L
2189 2159 mt 2213 2159 L
2201 2147 mt 2201 2171 L
2195 2159 mt 2219 2159 L
2207 2147 mt 2207 2171 L
2201 2159 mt 2225 2159 L
2213 2147 mt 2213 2171 L
2207 2159 mt 2231 2159 L
2219 2147 mt 2219 2171 L
2213 2159 mt 2237 2159 L
2225 2147 mt 2225 2171 L
2219 2159 mt 2243 2159 L
2231 2147 mt 2231 2171 L
2225 2159 mt 2249 2159 L
2237 2147 mt 2237 2171 L
2231 2159 mt 2255 2159 L
2243 2147 mt 2243 2171 L
2237 2159 mt 2261 2159 L
2249 2147 mt 2249 2171 L
2243 2159 mt 2267 2159 L
2255 2147 mt 2255 2171 L
2249 2159 mt 2273 2159 L
2261 2147 mt 2261 2171 L
2255 2159 mt 2279 2159 L
2267 2147 mt 2267 2171 L
2261 2159 mt 2285 2159 L
2273 2147 mt 2273 2171 L
2267 2159 mt 2291 2159 L
2279 2147 mt 2279 2171 L
2273 2159 mt 2297 2159 L
2285 2147 mt 2285 2171 L
2280 2159 mt 2304 2159 L
2292 2147 mt 2292 2171 L
2286 2159 mt 2310 2159 L
2298 2147 mt 2298 2171 L
2292 2159 mt 2316 2159 L
2304 2147 mt 2304 2171 L
2298 2159 mt 2322 2159 L
2310 2147 mt 2310 2171 L
2304 2159 mt 2328 2159 L
2316 2147 mt 2316 2171 L
2310 2159 mt 2334 2159 L
2322 2147 mt 2322 2171 L
2316 2159 mt 2340 2159 L
2328 2147 mt 2328 2171 L
2322 2159 mt 2346 2159 L
2334 2147 mt 2334 2171 L
2328 2159 mt 2352 2159 L
2340 2147 mt 2340 2171 L
2334 2159 mt 2358 2159 L
2346 2147 mt 2346 2171 L
2340 2159 mt 2364 2159 L
2352 2147 mt 2352 2171 L
2346 2159 mt 2370 2159 L
2358 2147 mt 2358 2171 L
2352 2159 mt 2376 2159 L
2364 2147 mt 2364 2171 L
2358 2159 mt 2382 2159 L
2370 2147 mt 2370 2171 L
2364 2159 mt 2388 2159 L
2376 2147 mt 2376 2171 L
2370 2159 mt 2394 2159 L
2382 2147 mt 2382 2171 L
2376 2159 mt 2400 2159 L
2388 2147 mt 2388 2171 L
2382 2159 mt 2406 2159 L
2394 2147 mt 2394 2171 L
2388 2159 mt 2412 2159 L
2400 2147 mt 2400 2171 L
2394 2159 mt 2418 2159 L
2406 2147 mt 2406 2171 L
2400 2159 mt 2424 2159 L
2412 2147 mt 2412 2171 L
2407 2159 mt 2431 2159 L
2419 2147 mt 2419 2171 L
 603 2151 mt  619 2167 L
 619 2151 mt  603 2167 L
 609 2151 mt  625 2167 L
 625 2151 mt  609 2167 L
 615 2151 mt  631 2167 L
 631 2151 mt  615 2167 L
 621 2151 mt  637 2167 L
 637 2151 mt  621 2167 L
 627 2151 mt  643 2167 L
 643 2151 mt  627 2167 L
 633 2151 mt  649 2167 L
 649 2151 mt  633 2167 L
 639 2151 mt  655 2167 L
 655 2151 mt  639 2167 L
 645 2151 mt  661 2167 L
 661 2151 mt  645 2167 L
 651 2151 mt  667 2167 L
 667 2151 mt  651 2167 L
 657 2151 mt  673 2167 L
 673 2151 mt  657 2167 L
 663 2151 mt  679 2167 L
 679 2151 mt  663 2167 L
 669 2151 mt  685 2167 L
 685 2151 mt  669 2167 L
 675 2151 mt  691 2167 L
 691 2151 mt  675 2167 L
 681 2151 mt  697 2167 L
 697 2151 mt  681 2167 L
 687 2151 mt  703 2167 L
 703 2151 mt  687 2167 L
 693 2151 mt  709 2167 L
 709 2151 mt  693 2167 L
 699 2151 mt  715 2167 L
 715 2151 mt  699 2167 L
 705 2151 mt  721 2167 L
 721 2151 mt  705 2167 L
 711 2151 mt  727 2167 L
 727 2151 mt  711 2167 L
 717 2151 mt  733 2167 L
 733 2151 mt  717 2167 L
 723 2151 mt  739 2167 L
 739 2151 mt  723 2167 L
 730 2151 mt  746 2167 L
 746 2151 mt  730 2167 L
 736 2151 mt  752 2167 L
 752 2151 mt  736 2167 L
 742 2151 mt  758 2167 L
 758 2151 mt  742 2167 L
 748 2151 mt  764 2167 L
 764 2151 mt  748 2167 L
 754 2151 mt  770 2167 L
 770 2151 mt  754 2167 L
 760 2151 mt  776 2167 L
 776 2151 mt  760 2167 L
 766 2151 mt  782 2167 L
 782 2151 mt  766 2167 L
 772 2151 mt  788 2167 L
 788 2151 mt  772 2167 L
 778 2151 mt  794 2167 L
 794 2151 mt  778 2167 L
 784 2151 mt  800 2167 L
 800 2151 mt  784 2167 L
 790 2151 mt  806 2167 L
 806 2151 mt  790 2167 L
 796 2151 mt  812 2167 L
 812 2151 mt  796 2167 L
 802 2151 mt  818 2167 L
 818 2151 mt  802 2167 L
 808 2151 mt  824 2167 L
 824 2151 mt  808 2167 L
 814 2151 mt  830 2167 L
 830 2151 mt  814 2167 L
 820 2151 mt  836 2167 L
 836 2151 mt  820 2167 L
 826 2151 mt  842 2167 L
 842 2151 mt  826 2167 L
 832 2151 mt  848 2167 L
 848 2151 mt  832 2167 L
 838 2151 mt  854 2167 L
 854 2151 mt  838 2167 L
 844 2150 mt  860 2166 L
 860 2150 mt  844 2166 L
 850 2150 mt  866 2166 L
 866 2150 mt  850 2166 L
 857 2150 mt  873 2166 L
 873 2150 mt  857 2166 L
 863 2150 mt  879 2166 L
 879 2150 mt  863 2166 L
 869 2150 mt  885 2166 L
 885 2150 mt  869 2166 L
 875 2150 mt  891 2166 L
 891 2150 mt  875 2166 L
 881 2150 mt  897 2166 L
 897 2150 mt  881 2166 L
 887 2150 mt  903 2166 L
 903 2150 mt  887 2166 L
 893 2150 mt  909 2166 L
 909 2150 mt  893 2166 L
 899 2149 mt  915 2165 L
 915 2149 mt  899 2165 L
 905 2149 mt  921 2165 L
 921 2149 mt  905 2165 L
 911 2149 mt  927 2165 L
 927 2149 mt  911 2165 L
 917 2149 mt  933 2165 L
 933 2149 mt  917 2165 L
 923 2149 mt  939 2165 L
 939 2149 mt  923 2165 L
 929 2148 mt  945 2164 L
 945 2148 mt  929 2164 L
 935 2148 mt  951 2164 L
 951 2148 mt  935 2164 L
 941 2148 mt  957 2164 L
 957 2148 mt  941 2164 L
 947 2148 mt  963 2164 L
 963 2148 mt  947 2164 L
 953 2147 mt  969 2163 L
 969 2147 mt  953 2163 L
 959 2147 mt  975 2163 L
 975 2147 mt  959 2163 L
 965 2147 mt  981 2163 L
 981 2147 mt  965 2163 L
 971 2146 mt  987 2162 L
 987 2146 mt  971 2162 L
 977 2146 mt  993 2162 L
 993 2146 mt  977 2162 L
 983 2145 mt  999 2161 L
 999 2145 mt  983 2161 L
 990 2145 mt 1006 2161 L
1006 2145 mt  990 2161 L
 996 2144 mt 1012 2160 L
1012 2144 mt  996 2160 L
1002 2144 mt 1018 2160 L
1018 2144 mt 1002 2160 L
1008 2143 mt 1024 2159 L
1024 2143 mt 1008 2159 L
1014 2142 mt 1030 2158 L
1030 2142 mt 1014 2158 L
1020 2142 mt 1036 2158 L
1036 2142 mt 1020 2158 L
1026 2141 mt 1042 2157 L
1042 2141 mt 1026 2157 L
1032 2140 mt 1048 2156 L
1048 2140 mt 1032 2156 L
1038 2139 mt 1054 2155 L
1054 2139 mt 1038 2155 L
1044 2138 mt 1060 2154 L
1060 2138 mt 1044 2154 L
1050 2137 mt 1066 2153 L
1066 2137 mt 1050 2153 L
1056 2136 mt 1072 2152 L
1072 2136 mt 1056 2152 L
1062 2134 mt 1078 2150 L
1078 2134 mt 1062 2150 L
1068 2133 mt 1084 2149 L
1084 2133 mt 1068 2149 L
1074 2132 mt 1090 2148 L
1090 2132 mt 1074 2148 L
1080 2130 mt 1096 2146 L
1096 2130 mt 1080 2146 L
1086 2128 mt 1102 2144 L
1102 2128 mt 1086 2144 L
1092 2126 mt 1108 2142 L
1108 2126 mt 1092 2142 L
1098 2124 mt 1114 2140 L
1114 2124 mt 1098 2140 L
1104 2122 mt 1120 2138 L
1120 2122 mt 1104 2138 L
1110 2120 mt 1126 2136 L
1126 2120 mt 1110 2136 L
1117 2118 mt 1133 2134 L
1133 2118 mt 1117 2134 L
1123 2115 mt 1139 2131 L
1139 2115 mt 1123 2131 L
1129 2112 mt 1145 2128 L
1145 2112 mt 1129 2128 L
1135 2109 mt 1151 2125 L
1151 2109 mt 1135 2125 L
1141 2105 mt 1157 2121 L
1157 2105 mt 1141 2121 L
1147 2102 mt 1163 2118 L
1163 2102 mt 1147 2118 L
1153 2098 mt 1169 2114 L
1169 2098 mt 1153 2114 L
1159 2094 mt 1175 2110 L
1175 2094 mt 1159 2110 L
1165 2089 mt 1181 2105 L
1181 2089 mt 1165 2105 L
1171 2084 mt 1187 2100 L
1187 2084 mt 1171 2100 L
1177 2079 mt 1193 2095 L
1193 2079 mt 1177 2095 L
1183 2074 mt 1199 2090 L
1199 2074 mt 1183 2090 L
1189 2068 mt 1205 2084 L
1205 2068 mt 1189 2084 L
1195 2061 mt 1211 2077 L
1211 2061 mt 1195 2077 L
1201 2054 mt 1217 2070 L
1217 2054 mt 1201 2070 L
1207 2047 mt 1223 2063 L
1223 2047 mt 1207 2063 L
1213 2039 mt 1229 2055 L
1229 2039 mt 1213 2055 L
1219 2030 mt 1235 2046 L
1235 2030 mt 1219 2046 L
1225 2021 mt 1241 2037 L
1241 2021 mt 1225 2037 L
1231 2011 mt 1247 2027 L
1247 2011 mt 1231 2027 L
1237 2001 mt 1253 2017 L
1253 2001 mt 1237 2017 L
1243 1990 mt 1259 2006 L
1259 1990 mt 1243 2006 L
1250 1978 mt 1266 1994 L
1266 1978 mt 1250 1994 L
1256 1965 mt 1272 1981 L
1272 1965 mt 1256 1981 L
1262 1951 mt 1278 1967 L
1278 1951 mt 1262 1967 L
1268 1937 mt 1284 1953 L
1284 1937 mt 1268 1953 L
1274 1921 mt 1290 1937 L
1290 1921 mt 1274 1937 L
1280 1905 mt 1296 1921 L
1296 1905 mt 1280 1921 L
1286 1887 mt 1302 1903 L
1302 1887 mt 1286 1903 L
1292 1869 mt 1308 1885 L
1308 1869 mt 1292 1885 L
1298 1849 mt 1314 1865 L
1314 1849 mt 1298 1865 L
1304 1829 mt 1320 1845 L
1320 1829 mt 1304 1845 L
1310 1807 mt 1326 1823 L
1326 1807 mt 1310 1823 L
1316 1784 mt 1332 1800 L
1332 1784 mt 1316 1800 L
1322 1760 mt 1338 1776 L
1338 1760 mt 1322 1776 L
1328 1735 mt 1344 1751 L
1344 1735 mt 1328 1751 L
1334 1709 mt 1350 1725 L
1350 1709 mt 1334 1725 L
1340 1681 mt 1356 1697 L
1356 1681 mt 1340 1697 L
1346 1653 mt 1362 1669 L
1362 1653 mt 1346 1669 L
1352 1623 mt 1368 1639 L
1368 1623 mt 1352 1639 L
1358 1592 mt 1374 1608 L
1374 1592 mt 1358 1608 L
1364 1561 mt 1380 1577 L
1380 1561 mt 1364 1577 L
1370 1528 mt 1386 1544 L
1386 1528 mt 1370 1544 L
1377 1495 mt 1393 1511 L
1393 1495 mt 1377 1511 L
1383 1461 mt 1399 1477 L
1399 1461 mt 1383 1477 L
1389 1427 mt 1405 1443 L
1405 1427 mt 1389 1443 L
1395 1393 mt 1411 1409 L
1411 1393 mt 1395 1409 L
1401 1358 mt 1417 1374 L
1417 1358 mt 1401 1374 L
1407 1324 mt 1423 1340 L
1423 1324 mt 1407 1340 L
1413 1289 mt 1429 1305 L
1429 1289 mt 1413 1305 L
1419 1256 mt 1435 1272 L
1435 1256 mt 1419 1272 L
1425 1223 mt 1441 1239 L
1441 1223 mt 1425 1239 L
1431 1191 mt 1447 1207 L
1447 1191 mt 1431 1207 L
1437 1161 mt 1453 1177 L
1453 1161 mt 1437 1177 L
1443 1132 mt 1459 1148 L
1459 1132 mt 1443 1148 L
1449 1105 mt 1465 1121 L
1465 1105 mt 1449 1121 L
1455 1080 mt 1471 1096 L
1471 1080 mt 1455 1096 L
1461 1058 mt 1477 1074 L
1477 1058 mt 1461 1074 L
1467 1038 mt 1483 1054 L
1483 1038 mt 1467 1054 L
1473 1021 mt 1489 1037 L
1489 1021 mt 1473 1037 L
1479 1008 mt 1495 1024 L
1495 1008 mt 1479 1024 L
1485  997 mt 1501 1013 L
1501  997 mt 1485 1013 L
1491  990 mt 1507 1006 L
1507  990 mt 1491 1006 L
1497  986 mt 1513 1002 L
1513  986 mt 1497 1002 L
1504  985 mt 1520 1001 L
1520  985 mt 1504 1001 L
1510  989 mt 1526 1005 L
1526  989 mt 1510 1005 L
1516  995 mt 1532 1011 L
1532  995 mt 1516 1011 L
1522 1005 mt 1538 1021 L
1538 1005 mt 1522 1021 L
1528 1018 mt 1544 1034 L
1544 1018 mt 1528 1034 L
1534 1034 mt 1550 1050 L
1550 1034 mt 1534 1050 L
1540 1053 mt 1556 1069 L
1556 1053 mt 1540 1069 L
1546 1075 mt 1562 1091 L
1562 1075 mt 1546 1091 L
1552 1099 mt 1568 1115 L
1568 1099 mt 1552 1115 L
1558 1126 mt 1574 1142 L
1574 1126 mt 1558 1142 L
1564 1154 mt 1580 1170 L
1580 1154 mt 1564 1170 L
1570 1184 mt 1586 1200 L
1586 1184 mt 1570 1200 L
1576 1216 mt 1592 1232 L
1592 1216 mt 1576 1232 L
1582 1248 mt 1598 1264 L
1598 1248 mt 1582 1264 L
1588 1282 mt 1604 1298 L
1604 1282 mt 1588 1298 L
1594 1316 mt 1610 1332 L
1610 1316 mt 1594 1332 L
1600 1350 mt 1616 1366 L
1616 1350 mt 1600 1366 L
1606 1385 mt 1622 1401 L
1622 1385 mt 1606 1401 L
1612 1420 mt 1628 1436 L
1628 1420 mt 1612 1436 L
1618 1454 mt 1634 1470 L
1634 1454 mt 1618 1470 L
1624 1488 mt 1640 1504 L
1640 1488 mt 1624 1504 L
1630 1521 mt 1646 1537 L
1646 1521 mt 1630 1537 L
1637 1554 mt 1653 1570 L
1653 1554 mt 1637 1570 L
1643 1585 mt 1659 1601 L
1659 1585 mt 1643 1601 L
1649 1616 mt 1665 1632 L
1665 1616 mt 1649 1632 L
1655 1646 mt 1671 1662 L
1671 1646 mt 1655 1662 L
1661 1675 mt 1677 1691 L
1677 1675 mt 1661 1691 L
1667 1703 mt 1683 1719 L
1683 1703 mt 1667 1719 L
1673 1729 mt 1689 1745 L
1689 1729 mt 1673 1745 L
1679 1755 mt 1695 1771 L
1695 1755 mt 1679 1771 L
1685 1779 mt 1701 1795 L
1701 1779 mt 1685 1795 L
1691 1802 mt 1707 1818 L
1707 1802 mt 1691 1818 L
1697 1824 mt 1713 1840 L
1713 1824 mt 1697 1840 L
1703 1845 mt 1719 1861 L
1719 1845 mt 1703 1861 L
1709 1865 mt 1725 1881 L
1725 1865 mt 1709 1881 L
1715 1883 mt 1731 1899 L
1731 1883 mt 1715 1899 L
1721 1901 mt 1737 1917 L
1737 1901 mt 1721 1917 L
1727 1918 mt 1743 1934 L
1743 1918 mt 1727 1934 L
1733 1933 mt 1749 1949 L
1749 1933 mt 1733 1949 L
1739 1948 mt 1755 1964 L
1755 1948 mt 1739 1964 L
1745 1962 mt 1761 1978 L
1761 1962 mt 1745 1978 L
1751 1975 mt 1767 1991 L
1767 1975 mt 1751 1991 L
1757 1987 mt 1773 2003 L
1773 1987 mt 1757 2003 L
1764 1998 mt 1780 2014 L
1780 1998 mt 1764 2014 L
1770 2009 mt 1786 2025 L
1786 2009 mt 1770 2025 L
1776 2019 mt 1792 2035 L
1792 2019 mt 1776 2035 L
1782 2028 mt 1798 2044 L
1798 2028 mt 1782 2044 L
1788 2037 mt 1804 2053 L
1804 2037 mt 1788 2053 L
1794 2045 mt 1810 2061 L
1810 2045 mt 1794 2061 L
1800 2053 mt 1816 2069 L
1816 2053 mt 1800 2069 L
1806 2060 mt 1822 2076 L
1822 2060 mt 1806 2076 L
1812 2066 mt 1828 2082 L
1828 2066 mt 1812 2082 L
1818 2072 mt 1834 2088 L
1834 2072 mt 1818 2088 L
1824 2078 mt 1840 2094 L
1840 2078 mt 1824 2094 L
1830 2083 mt 1846 2099 L
1846 2083 mt 1830 2099 L
1836 2088 mt 1852 2104 L
1852 2088 mt 1836 2104 L
1842 2093 mt 1858 2109 L
1858 2093 mt 1842 2109 L
1848 2097 mt 1864 2113 L
1864 2097 mt 1848 2113 L
1854 2101 mt 1870 2117 L
1870 2101 mt 1854 2117 L
1860 2105 mt 1876 2121 L
1876 2105 mt 1860 2121 L
1866 2108 mt 1882 2124 L
1882 2108 mt 1866 2124 L
1872 2111 mt 1888 2127 L
1888 2111 mt 1872 2127 L
1878 2114 mt 1894 2130 L
1894 2114 mt 1878 2130 L
1884 2117 mt 1900 2133 L
1900 2117 mt 1884 2133 L
1890 2119 mt 1906 2135 L
1906 2119 mt 1890 2135 L
1897 2122 mt 1913 2138 L
1913 2122 mt 1897 2138 L
1903 2124 mt 1919 2140 L
1919 2124 mt 1903 2140 L
1909 2126 mt 1925 2142 L
1925 2126 mt 1909 2142 L
1915 2128 mt 1931 2144 L
1931 2128 mt 1915 2144 L
1921 2130 mt 1937 2146 L
1937 2130 mt 1921 2146 L
1927 2131 mt 1943 2147 L
1943 2131 mt 1927 2147 L
1933 2133 mt 1949 2149 L
1949 2133 mt 1933 2149 L
1939 2134 mt 1955 2150 L
1955 2134 mt 1939 2150 L
1945 2135 mt 1961 2151 L
1961 2135 mt 1945 2151 L
1951 2137 mt 1967 2153 L
1967 2137 mt 1951 2153 L
1957 2138 mt 1973 2154 L
1973 2138 mt 1957 2154 L
1963 2139 mt 1979 2155 L
1979 2139 mt 1963 2155 L
1969 2140 mt 1985 2156 L
1985 2140 mt 1969 2156 L
1975 2141 mt 1991 2157 L
1991 2141 mt 1975 2157 L
1981 2141 mt 1997 2157 L
1997 2141 mt 1981 2157 L
1987 2142 mt 2003 2158 L
2003 2142 mt 1987 2158 L
1993 2143 mt 2009 2159 L
2009 2143 mt 1993 2159 L
1999 2143 mt 2015 2159 L
2015 2143 mt 1999 2159 L
2005 2144 mt 2021 2160 L
2021 2144 mt 2005 2160 L
2011 2145 mt 2027 2161 L
2027 2145 mt 2011 2161 L
2017 2145 mt 2033 2161 L
2033 2145 mt 2017 2161 L
2024 2146 mt 2040 2162 L
2040 2146 mt 2024 2162 L
2030 2146 mt 2046 2162 L
2046 2146 mt 2030 2162 L
2036 2146 mt 2052 2162 L
2052 2146 mt 2036 2162 L
2042 2147 mt 2058 2163 L
2058 2147 mt 2042 2163 L
2048 2147 mt 2064 2163 L
2064 2147 mt 2048 2163 L
2054 2147 mt 2070 2163 L
2070 2147 mt 2054 2163 L
2060 2148 mt 2076 2164 L
2076 2148 mt 2060 2164 L
2066 2148 mt 2082 2164 L
2082 2148 mt 2066 2164 L
2072 2148 mt 2088 2164 L
2088 2148 mt 2072 2164 L
2078 2149 mt 2094 2165 L
2094 2149 mt 2078 2165 L
2084 2149 mt 2100 2165 L
2100 2149 mt 2084 2165 L
2090 2149 mt 2106 2165 L
2106 2149 mt 2090 2165 L
2096 2149 mt 2112 2165 L
2112 2149 mt 2096 2165 L
2102 2149 mt 2118 2165 L
2118 2149 mt 2102 2165 L
2108 2149 mt 2124 2165 L
2124 2149 mt 2108 2165 L
2114 2150 mt 2130 2166 L
2130 2150 mt 2114 2166 L
2120 2150 mt 2136 2166 L
2136 2150 mt 2120 2166 L
2126 2150 mt 2142 2166 L
2142 2150 mt 2126 2166 L
2132 2150 mt 2148 2166 L
2148 2150 mt 2132 2166 L
2138 2150 mt 2154 2166 L
2154 2150 mt 2138 2166 L
2144 2150 mt 2160 2166 L
2160 2150 mt 2144 2166 L
2150 2150 mt 2166 2166 L
2166 2150 mt 2150 2166 L
2157 2150 mt 2173 2166 L
2173 2150 mt 2157 2166 L
2163 2150 mt 2179 2166 L
2179 2150 mt 2163 2166 L
2169 2151 mt 2185 2167 L
2185 2151 mt 2169 2167 L
2175 2151 mt 2191 2167 L
2191 2151 mt 2175 2167 L
2181 2151 mt 2197 2167 L
2197 2151 mt 2181 2167 L
2187 2151 mt 2203 2167 L
2203 2151 mt 2187 2167 L
2193 2151 mt 2209 2167 L
2209 2151 mt 2193 2167 L
2199 2151 mt 2215 2167 L
2215 2151 mt 2199 2167 L
2205 2151 mt 2221 2167 L
2221 2151 mt 2205 2167 L
2211 2151 mt 2227 2167 L
2227 2151 mt 2211 2167 L
2217 2151 mt 2233 2167 L
2233 2151 mt 2217 2167 L
2223 2151 mt 2239 2167 L
2239 2151 mt 2223 2167 L
2229 2151 mt 2245 2167 L
2245 2151 mt 2229 2167 L
2235 2151 mt 2251 2167 L
2251 2151 mt 2235 2167 L
2241 2151 mt 2257 2167 L
2257 2151 mt 2241 2167 L
2247 2151 mt 2263 2167 L
2263 2151 mt 2247 2167 L
2253 2151 mt 2269 2167 L
2269 2151 mt 2253 2167 L
2259 2151 mt 2275 2167 L
2275 2151 mt 2259 2167 L
2265 2151 mt 2281 2167 L
2281 2151 mt 2265 2167 L
2271 2151 mt 2287 2167 L
2287 2151 mt 2271 2167 L
2277 2151 mt 2293 2167 L
2293 2151 mt 2277 2167 L
2284 2151 mt 2300 2167 L
2300 2151 mt 2284 2167 L
2290 2151 mt 2306 2167 L
2306 2151 mt 2290 2167 L
2296 2151 mt 2312 2167 L
2312 2151 mt 2296 2167 L
2302 2151 mt 2318 2167 L
2318 2151 mt 2302 2167 L
2308 2151 mt 2324 2167 L
2324 2151 mt 2308 2167 L
2314 2151 mt 2330 2167 L
2330 2151 mt 2314 2167 L
2320 2151 mt 2336 2167 L
2336 2151 mt 2320 2167 L
2326 2151 mt 2342 2167 L
2342 2151 mt 2326 2167 L
2332 2151 mt 2348 2167 L
2348 2151 mt 2332 2167 L
2338 2151 mt 2354 2167 L
2354 2151 mt 2338 2167 L
2344 2151 mt 2360 2167 L
2360 2151 mt 2344 2167 L
2350 2151 mt 2366 2167 L
2366 2151 mt 2350 2167 L
2356 2151 mt 2372 2167 L
2372 2151 mt 2356 2167 L
2362 2151 mt 2378 2167 L
2378 2151 mt 2362 2167 L
2368 2151 mt 2384 2167 L
2384 2151 mt 2368 2167 L
2374 2151 mt 2390 2167 L
2390 2151 mt 2374 2167 L
2380 2151 mt 2396 2167 L
2396 2151 mt 2380 2167 L
2386 2151 mt 2402 2167 L
2402 2151 mt 2386 2167 L
2392 2151 mt 2408 2167 L
2408 2151 mt 2392 2167 L
2398 2151 mt 2414 2167 L
2414 2151 mt 2398 2167 L
2404 2151 mt 2420 2167 L
2420 2151 mt 2404 2167 L
2411 2151 mt 2427 2167 L
2427 2151 mt 2411 2167 L
gs 605 346 1815 1815 rc
/c9 { 0.000000 0.000000 1.000000 sr} bdef
c9
7 0 6 0 6 0 6 0 6 0 6 0 6 0 6 0 
6 0 6 0 6 0 6 0 6 0 6 0 6 0 6 0 
6 0 6 0 6 0 6 0 6 0 7 0 6 0 6 0 
6 0 6 0 6 0 6 0 6 0 6 0 6 0 6 0 
6 0 6 0 6 0 6 0 6 0 6 0 6 0 6 0 
6 0 6 0 7 0 6 1 6 0 6 0 6 0 6 0 
6 0 6 0 6 0 6 0 6 1 6 0 6 0 6 0 
6 0 6 1 6 0 6 0 6 0 6 1 6 0 6 1 
7 0 6 0 6 1 6 0 6 1 6 1 6 0 6 1 
6 1 6 1 6 0 6 1 6 2 6 1 6 1 6 1 
6 2 6 1 6 2 6 2 6 2 7 2 6 2 6 3 
6 2 6 3 6 3 6 4 6 3 6 4 6 5 6 4 
6 5 6 5 6 6 6 6 6 7 6 7 6 8 6 8 
6 9 6 9 6 11 7 10 6 12 6 13 6 13 6 14 
6 16 6 16 6 17 6 18 6 20 6 20 6 22 6 23 
6 24 6 26 6 27 6 28 6 29 6 30 6 32 6 32 
7 34 6 34 6 35 6 36 6 36 6 36 6 37 6 36 
6 35 6 35 6 34 6 32 6 31 6 29 6 27 6 24 
6 21 6 18 6 16 6 11 6 8 6 5 7 0 6 -3 
6 -6 6 -11 6 -14 6 -17 6 -20 6 -23 6 -26 6 -28 
6 -30 6 -32 6 -33 6 -35 6 -35 6 -36 6 -36 6 -37 
6 -36 6 -36 6 -35 7 -35 6 -34 6 -32 6 -32 6 -31 
6 -30 6 -28 6 -27 6 -26 6 -25 6 -23 6 -23 6 -21 
6 -20 6 -18 6 -18 6 -17 6 -15 6 -15 6 -13 6 -13 
7 -12 6 -11 6 -11 6 -10 6 -9 6 -8 6 -8 6 -7 
6 -7 6 -7 6 -5 6 -6 6 -5 6 -5 6 -4 6 -4 
6 -4 6 -3 6 -4 6 -3 6 -2 6 -3 7 -2 6 -2 
6 -2 6 -2 6 -2 6 -2 6 -1 6 -2 6 -1 6 -1 
6 -1 6 -1 6 -1 6 -1 6 -1 6 0 6 -1 6 -1 
6 0 6 -1 6 0 7 -1 6 0 6 -1 6 0 6 0 
6 -1 6 0 6 0 6 -1 6 0 6 0 6 0 6 0 
6 0 6 -1 6 0 6 0 6 0 6 0 6 0 6 0 
6 0 7 -1 6 0 6 0 6 0 6 0 6 0 6 0 
6 0 6 0 6 0 6 0 6 0 6 0 6 0 6 0 
6 0 6 0 6 0 6 0 6 0 6 0 7 0 6 0 
6 0 6 0 6 0 6 0 6 0 6 0 6 0 6 0 
6 0 6 0 6 0 6 0 6 0 6 0 6 0 6 0 
6 0 6 0 6 0 611 2159 300 MP stroke
gr

c9
 599 2159 mt  623 2159 L
 611 2147 mt  611 2171 L
 605 2159 mt  629 2159 L
 617 2147 mt  617 2171 L
 611 2159 mt  635 2159 L
 623 2147 mt  623 2171 L
 617 2159 mt  641 2159 L
 629 2147 mt  629 2171 L
 623 2159 mt  647 2159 L
 635 2147 mt  635 2171 L
 629 2159 mt  653 2159 L
 641 2147 mt  641 2171 L
 635 2159 mt  659 2159 L
 647 2147 mt  647 2171 L
 641 2159 mt  665 2159 L
 653 2147 mt  653 2171 L
 647 2159 mt  671 2159 L
 659 2147 mt  659 2171 L
 653 2159 mt  677 2159 L
 665 2147 mt  665 2171 L
 659 2159 mt  683 2159 L
 671 2147 mt  671 2171 L
 665 2159 mt  689 2159 L
 677 2147 mt  677 2171 L
 671 2159 mt  695 2159 L
 683 2147 mt  683 2171 L
 677 2159 mt  701 2159 L
 689 2147 mt  689 2171 L
 683 2159 mt  707 2159 L
 695 2147 mt  695 2171 L
 689 2159 mt  713 2159 L
 701 2147 mt  701 2171 L
 695 2159 mt  719 2159 L
 707 2147 mt  707 2171 L
 701 2159 mt  725 2159 L
 713 2147 mt  713 2171 L
 707 2159 mt  731 2159 L
 719 2147 mt  719 2171 L
 713 2159 mt  737 2159 L
 725 2147 mt  725 2171 L
 719 2159 mt  743 2159 L
 731 2147 mt  731 2171 L
 726 2159 mt  750 2159 L
 738 2147 mt  738 2171 L
 732 2159 mt  756 2159 L
 744 2147 mt  744 2171 L
 738 2159 mt  762 2159 L
 750 2147 mt  750 2171 L
 744 2159 mt  768 2159 L
 756 2147 mt  756 2171 L
 750 2159 mt  774 2159 L
 762 2147 mt  762 2171 L
 756 2159 mt  780 2159 L
 768 2147 mt  768 2171 L
 762 2159 mt  786 2159 L
 774 2147 mt  774 2171 L
 768 2159 mt  792 2159 L
 780 2147 mt  780 2171 L
 774 2159 mt  798 2159 L
 786 2147 mt  786 2171 L
 780 2159 mt  804 2159 L
 792 2147 mt  792 2171 L
 786 2159 mt  810 2159 L
 798 2147 mt  798 2171 L
 792 2159 mt  816 2159 L
 804 2147 mt  804 2171 L
 798 2159 mt  822 2159 L
 810 2147 mt  810 2171 L
 804 2159 mt  828 2159 L
 816 2147 mt  816 2171 L
 810 2159 mt  834 2159 L
 822 2147 mt  822 2171 L
 816 2159 mt  840 2159 L
 828 2147 mt  828 2171 L
 822 2159 mt  846 2159 L
 834 2147 mt  834 2171 L
 828 2159 mt  852 2159 L
 840 2147 mt  840 2171 L
 834 2159 mt  858 2159 L
 846 2147 mt  846 2171 L
 840 2159 mt  864 2159 L
 852 2147 mt  852 2171 L
 846 2159 mt  870 2159 L
 858 2147 mt  858 2171 L
 853 2158 mt  877 2158 L
 865 2146 mt  865 2170 L
 859 2158 mt  883 2158 L
 871 2146 mt  871 2170 L
 865 2158 mt  889 2158 L
 877 2146 mt  877 2170 L
 871 2158 mt  895 2158 L
 883 2146 mt  883 2170 L
 877 2158 mt  901 2158 L
 889 2146 mt  889 2170 L
 883 2158 mt  907 2158 L
 895 2146 mt  895 2170 L
 889 2158 mt  913 2158 L
 901 2146 mt  901 2170 L
 895 2158 mt  919 2158 L
 907 2146 mt  907 2170 L
 901 2157 mt  925 2157 L
 913 2145 mt  913 2169 L
 907 2157 mt  931 2157 L
 919 2145 mt  919 2169 L
 913 2157 mt  937 2157 L
 925 2145 mt  925 2169 L
 919 2157 mt  943 2157 L
 931 2145 mt  931 2169 L
 925 2157 mt  949 2157 L
 937 2145 mt  937 2169 L
 931 2157 mt  955 2157 L
 943 2145 mt  943 2169 L
 937 2156 mt  961 2156 L
 949 2144 mt  949 2168 L
 943 2156 mt  967 2156 L
 955 2144 mt  955 2168 L
 949 2156 mt  973 2156 L
 961 2144 mt  961 2168 L
 955 2155 mt  979 2155 L
 967 2143 mt  967 2167 L
 961 2155 mt  985 2155 L
 973 2143 mt  973 2167 L
 967 2155 mt  991 2155 L
 979 2143 mt  979 2167 L
 973 2154 mt  997 2154 L
 985 2142 mt  985 2166 L
 979 2154 mt 1003 2154 L
 991 2142 mt  991 2166 L
 986 2153 mt 1010 2153 L
 998 2141 mt  998 2165 L
 992 2153 mt 1016 2153 L
1004 2141 mt 1004 2165 L
 998 2152 mt 1022 2152 L
1010 2140 mt 1010 2164 L
1004 2152 mt 1028 2152 L
1016 2140 mt 1016 2164 L
1010 2151 mt 1034 2151 L
1022 2139 mt 1022 2163 L
1016 2150 mt 1040 2150 L
1028 2138 mt 1028 2162 L
1022 2150 mt 1046 2150 L
1034 2138 mt 1034 2162 L
1028 2149 mt 1052 2149 L
1040 2137 mt 1040 2161 L
1034 2148 mt 1058 2148 L
1046 2136 mt 1046 2160 L
1040 2147 mt 1064 2147 L
1052 2135 mt 1052 2159 L
1046 2146 mt 1070 2146 L
1058 2134 mt 1058 2158 L
1052 2145 mt 1076 2145 L
1064 2133 mt 1064 2157 L
1058 2144 mt 1082 2144 L
1070 2132 mt 1070 2156 L
1064 2143 mt 1088 2143 L
1076 2131 mt 1076 2155 L
1070 2141 mt 1094 2141 L
1082 2129 mt 1082 2153 L
1076 2140 mt 1100 2140 L
1088 2128 mt 1088 2152 L
1082 2138 mt 1106 2138 L
1094 2126 mt 1094 2150 L
1088 2136 mt 1112 2136 L
1100 2124 mt 1100 2148 L
1094 2134 mt 1118 2134 L
1106 2122 mt 1106 2146 L
1100 2132 mt 1124 2132 L
1112 2120 mt 1112 2144 L
1106 2130 mt 1130 2130 L
1118 2118 mt 1118 2142 L
1113 2128 mt 1137 2128 L
1125 2116 mt 1125 2140 L
1119 2125 mt 1143 2125 L
1131 2113 mt 1131 2137 L
1125 2123 mt 1149 2123 L
1137 2111 mt 1137 2135 L
1131 2120 mt 1155 2120 L
1143 2108 mt 1143 2132 L
1137 2116 mt 1161 2116 L
1149 2104 mt 1149 2128 L
1143 2113 mt 1167 2113 L
1155 2101 mt 1155 2125 L
1149 2109 mt 1173 2109 L
1161 2097 mt 1161 2121 L
1155 2105 mt 1179 2105 L
1167 2093 mt 1167 2117 L
1161 2101 mt 1185 2101 L
1173 2089 mt 1173 2113 L
1167 2096 mt 1191 2096 L
1179 2084 mt 1179 2108 L
1173 2091 mt 1197 2091 L
1185 2079 mt 1185 2103 L
1179 2085 mt 1203 2085 L
1191 2073 mt 1191 2097 L
1185 2080 mt 1209 2080 L
1197 2068 mt 1197 2092 L
1191 2073 mt 1215 2073 L
1203 2061 mt 1203 2085 L
1197 2066 mt 1221 2066 L
1209 2054 mt 1209 2078 L
1203 2059 mt 1227 2059 L
1215 2047 mt 1215 2071 L
1209 2051 mt 1233 2051 L
1221 2039 mt 1221 2063 L
1215 2043 mt 1239 2043 L
1227 2031 mt 1227 2055 L
1221 2034 mt 1245 2034 L
1233 2022 mt 1233 2046 L
1227 2024 mt 1251 2024 L
1239 2012 mt 1239 2036 L
1233 2013 mt 1257 2013 L
1245 2001 mt 1245 2025 L
1239 2002 mt 1263 2002 L
1251 1990 mt 1251 2014 L
1246 1990 mt 1270 1990 L
1258 1978 mt 1258 2002 L
1252 1977 mt 1276 1977 L
1264 1965 mt 1264 1989 L
1258 1964 mt 1282 1964 L
1270 1952 mt 1270 1976 L
1264 1949 mt 1288 1949 L
1276 1937 mt 1276 1961 L
1270 1934 mt 1294 1934 L
1282 1922 mt 1282 1946 L
1276 1917 mt 1300 1917 L
1288 1905 mt 1288 1929 L
1282 1899 mt 1306 1899 L
1294 1887 mt 1294 1911 L
1288 1881 mt 1312 1881 L
1300 1869 mt 1300 1893 L
1294 1861 mt 1318 1861 L
1306 1849 mt 1306 1873 L
1300 1840 mt 1324 1840 L
1312 1828 mt 1312 1852 L
1306 1817 mt 1330 1817 L
1318 1805 mt 1318 1829 L
1312 1794 mt 1336 1794 L
1324 1782 mt 1324 1806 L
1318 1769 mt 1342 1769 L
1330 1757 mt 1330 1781 L
1324 1743 mt 1348 1743 L
1336 1731 mt 1336 1755 L
1330 1716 mt 1354 1716 L
1342 1704 mt 1342 1728 L
1336 1688 mt 1360 1688 L
1348 1676 mt 1348 1700 L
1342 1658 mt 1366 1658 L
1354 1646 mt 1354 1670 L
1348 1627 mt 1372 1627 L
1360 1615 mt 1360 1639 L
1354 1595 mt 1378 1595 L
1366 1583 mt 1366 1607 L
1360 1563 mt 1384 1563 L
1372 1551 mt 1372 1575 L
1366 1529 mt 1390 1529 L
1378 1517 mt 1378 1541 L
1373 1494 mt 1397 1494 L
1385 1482 mt 1385 1506 L
1379 1459 mt 1403 1459 L
1391 1447 mt 1391 1471 L
1385 1423 mt 1409 1423 L
1397 1411 mt 1397 1435 L
1391 1387 mt 1415 1387 L
1403 1375 mt 1403 1399 L
1397 1350 mt 1421 1350 L
1409 1338 mt 1409 1362 L
1403 1314 mt 1427 1314 L
1415 1302 mt 1415 1326 L
1409 1278 mt 1433 1278 L
1421 1266 mt 1421 1290 L
1415 1243 mt 1439 1243 L
1427 1231 mt 1427 1255 L
1421 1208 mt 1445 1208 L
1433 1196 mt 1433 1220 L
1427 1175 mt 1451 1175 L
1439 1163 mt 1439 1187 L
1433 1143 mt 1457 1143 L
1445 1131 mt 1445 1155 L
1439 1113 mt 1463 1113 L
1451 1101 mt 1451 1125 L
1445 1085 mt 1469 1085 L
1457 1073 mt 1457 1097 L
1451 1059 mt 1475 1059 L
1463 1047 mt 1463 1071 L
1457 1036 mt 1481 1036 L
1469 1024 mt 1469 1048 L
1463 1016 mt 1487 1016 L
1475 1004 mt 1475 1028 L
1469  999 mt 1493  999 L
1481  987 mt 1481 1011 L
1475  985 mt 1499  985 L
1487  973 mt 1487  997 L
1481  974 mt 1505  974 L
1493  962 mt 1493  986 L
1487  968 mt 1511  968 L
1499  956 mt 1499  980 L
1493  965 mt 1517  965 L
1505  953 mt 1505  977 L
1500  965 mt 1524  965 L
1512  953 mt 1512  977 L
1506  970 mt 1530  970 L
1518  958 mt 1518  982 L
1512  978 mt 1536  978 L
1524  966 mt 1524  990 L
1518  989 mt 1542  989 L
1530  977 mt 1530 1001 L
1524 1005 mt 1548 1005 L
1536  993 mt 1536 1017 L
1530 1023 mt 1554 1023 L
1542 1011 mt 1542 1035 L
1536 1044 mt 1560 1044 L
1548 1032 mt 1548 1056 L
1542 1068 mt 1566 1068 L
1554 1056 mt 1554 1080 L
1548 1095 mt 1572 1095 L
1560 1083 mt 1560 1107 L
1554 1124 mt 1578 1124 L
1566 1112 mt 1566 1136 L
1560 1155 mt 1584 1155 L
1572 1143 mt 1572 1167 L
1566 1187 mt 1590 1187 L
1578 1175 mt 1578 1199 L
1572 1221 mt 1596 1221 L
1584 1209 mt 1584 1233 L
1578 1256 mt 1602 1256 L
1590 1244 mt 1590 1268 L
1584 1291 mt 1608 1291 L
1596 1279 mt 1596 1303 L
1590 1327 mt 1614 1327 L
1602 1315 mt 1602 1339 L
1596 1364 mt 1620 1364 L
1608 1352 mt 1608 1376 L
1602 1400 mt 1626 1400 L
1614 1388 mt 1614 1412 L
1608 1436 mt 1632 1436 L
1620 1424 mt 1620 1448 L
1614 1472 mt 1638 1472 L
1626 1460 mt 1626 1484 L
1620 1507 mt 1644 1507 L
1632 1495 mt 1632 1519 L
1626 1541 mt 1650 1541 L
1638 1529 mt 1638 1553 L
1633 1575 mt 1657 1575 L
1645 1563 mt 1645 1587 L
1639 1607 mt 1663 1607 L
1651 1595 mt 1651 1619 L
1645 1639 mt 1669 1639 L
1657 1627 mt 1657 1651 L
1651 1669 mt 1675 1669 L
1663 1657 mt 1663 1681 L
1657 1698 mt 1681 1698 L
1669 1686 mt 1669 1710 L
1663 1726 mt 1687 1726 L
1675 1714 mt 1675 1738 L
1669 1753 mt 1693 1753 L
1681 1741 mt 1681 1765 L
1675 1779 mt 1699 1779 L
1687 1767 mt 1687 1791 L
1681 1803 mt 1705 1803 L
1693 1791 mt 1693 1815 L
1687 1826 mt 1711 1826 L
1699 1814 mt 1699 1838 L
1693 1848 mt 1717 1848 L
1705 1836 mt 1705 1860 L
1699 1868 mt 1723 1868 L
1711 1856 mt 1711 1880 L
1705 1888 mt 1729 1888 L
1717 1876 mt 1717 1900 L
1711 1906 mt 1735 1906 L
1723 1894 mt 1723 1918 L
1717 1923 mt 1741 1923 L
1729 1911 mt 1729 1935 L
1723 1939 mt 1747 1939 L
1735 1927 mt 1735 1951 L
1729 1955 mt 1753 1955 L
1741 1943 mt 1741 1967 L
1735 1969 mt 1759 1969 L
1747 1957 mt 1747 1981 L
1741 1982 mt 1765 1982 L
1753 1970 mt 1753 1994 L
1747 1995 mt 1771 1995 L
1759 1983 mt 1759 2007 L
1753 2007 mt 1777 2007 L
1765 1995 mt 1765 2019 L
1760 2017 mt 1784 2017 L
1772 2005 mt 1772 2029 L
1766 2028 mt 1790 2028 L
1778 2016 mt 1778 2040 L
1772 2037 mt 1796 2037 L
1784 2025 mt 1784 2049 L
1778 2046 mt 1802 2046 L
1790 2034 mt 1790 2058 L
1784 2054 mt 1808 2054 L
1796 2042 mt 1796 2066 L
1790 2062 mt 1814 2062 L
1802 2050 mt 1802 2074 L
1796 2069 mt 1820 2069 L
1808 2057 mt 1808 2081 L
1802 2076 mt 1826 2076 L
1814 2064 mt 1814 2088 L
1808 2082 mt 1832 2082 L
1820 2070 mt 1820 2094 L
1814 2088 mt 1838 2088 L
1826 2076 mt 1826 2100 L
1820 2093 mt 1844 2093 L
1832 2081 mt 1832 2105 L
1826 2098 mt 1850 2098 L
1838 2086 mt 1838 2110 L
1832 2102 mt 1856 2102 L
1844 2090 mt 1844 2114 L
1838 2107 mt 1862 2107 L
1850 2095 mt 1850 2119 L
1844 2111 mt 1868 2111 L
1856 2099 mt 1856 2123 L
1850 2114 mt 1874 2114 L
1862 2102 mt 1862 2126 L
1856 2118 mt 1880 2118 L
1868 2106 mt 1868 2130 L
1862 2121 mt 1886 2121 L
1874 2109 mt 1874 2133 L
1868 2124 mt 1892 2124 L
1880 2112 mt 1880 2136 L
1874 2126 mt 1898 2126 L
1886 2114 mt 1886 2138 L
1880 2129 mt 1904 2129 L
1892 2117 mt 1892 2141 L
1886 2131 mt 1910 2131 L
1898 2119 mt 1898 2143 L
1893 2133 mt 1917 2133 L
1905 2121 mt 1905 2145 L
1899 2135 mt 1923 2135 L
1911 2123 mt 1911 2147 L
1905 2137 mt 1929 2137 L
1917 2125 mt 1917 2149 L
1911 2139 mt 1935 2139 L
1923 2127 mt 1923 2151 L
1917 2140 mt 1941 2140 L
1929 2128 mt 1929 2152 L
1923 2142 mt 1947 2142 L
1935 2130 mt 1935 2154 L
1929 2143 mt 1953 2143 L
1941 2131 mt 1941 2155 L
1935 2144 mt 1959 2144 L
1947 2132 mt 1947 2156 L
1941 2145 mt 1965 2145 L
1953 2133 mt 1953 2157 L
1947 2147 mt 1971 2147 L
1959 2135 mt 1959 2159 L
1953 2148 mt 1977 2148 L
1965 2136 mt 1965 2160 L
1959 2148 mt 1983 2148 L
1971 2136 mt 1971 2160 L
1965 2149 mt 1989 2149 L
1977 2137 mt 1977 2161 L
1971 2150 mt 1995 2150 L
1983 2138 mt 1983 2162 L
1977 2151 mt 2001 2151 L
1989 2139 mt 1989 2163 L
1983 2151 mt 2007 2151 L
1995 2139 mt 1995 2163 L
1989 2152 mt 2013 2152 L
2001 2140 mt 2001 2164 L
1995 2153 mt 2019 2153 L
2007 2141 mt 2007 2165 L
2001 2153 mt 2025 2153 L
2013 2141 mt 2013 2165 L
2007 2154 mt 2031 2154 L
2019 2142 mt 2019 2166 L
2013 2154 mt 2037 2154 L
2025 2142 mt 2025 2166 L
2020 2154 mt 2044 2154 L
2032 2142 mt 2032 2166 L
2026 2155 mt 2050 2155 L
2038 2143 mt 2038 2167 L
2032 2155 mt 2056 2155 L
2044 2143 mt 2044 2167 L
2038 2156 mt 2062 2156 L
2050 2144 mt 2050 2168 L
2044 2156 mt 2068 2156 L
2056 2144 mt 2056 2168 L
2050 2156 mt 2074 2156 L
2062 2144 mt 2062 2168 L
2056 2156 mt 2080 2156 L
2068 2144 mt 2068 2168 L
2062 2157 mt 2086 2157 L
2074 2145 mt 2074 2169 L
2068 2157 mt 2092 2157 L
2080 2145 mt 2080 2169 L
2074 2157 mt 2098 2157 L
2086 2145 mt 2086 2169 L
2080 2157 mt 2104 2157 L
2092 2145 mt 2092 2169 L
2086 2157 mt 2110 2157 L
2098 2145 mt 2098 2169 L
2092 2158 mt 2116 2158 L
2104 2146 mt 2104 2170 L
2098 2158 mt 2122 2158 L
2110 2146 mt 2110 2170 L
2104 2158 mt 2128 2158 L
2116 2146 mt 2116 2170 L
2110 2158 mt 2134 2158 L
2122 2146 mt 2122 2170 L
2116 2158 mt 2140 2158 L
2128 2146 mt 2128 2170 L
2122 2158 mt 2146 2158 L
2134 2146 mt 2134 2170 L
2128 2158 mt 2152 2158 L
2140 2146 mt 2140 2170 L
2134 2158 mt 2158 2158 L
2146 2146 mt 2146 2170 L
2140 2158 mt 2164 2158 L
2152 2146 mt 2152 2170 L
2146 2159 mt 2170 2159 L
2158 2147 mt 2158 2171 L
2153 2159 mt 2177 2159 L
2165 2147 mt 2165 2171 L
2159 2159 mt 2183 2159 L
2171 2147 mt 2171 2171 L
2165 2159 mt 2189 2159 L
2177 2147 mt 2177 2171 L
2171 2159 mt 2195 2159 L
2183 2147 mt 2183 2171 L
2177 2159 mt 2201 2159 L
2189 2147 mt 2189 2171 L
2183 2159 mt 2207 2159 L
2195 2147 mt 2195 2171 L
2189 2159 mt 2213 2159 L
2201 2147 mt 2201 2171 L
2195 2159 mt 2219 2159 L
2207 2147 mt 2207 2171 L
2201 2159 mt 2225 2159 L
2213 2147 mt 2213 2171 L
2207 2159 mt 2231 2159 L
2219 2147 mt 2219 2171 L
2213 2159 mt 2237 2159 L
2225 2147 mt 2225 2171 L
2219 2159 mt 2243 2159 L
2231 2147 mt 2231 2171 L
2225 2159 mt 2249 2159 L
2237 2147 mt 2237 2171 L
2231 2159 mt 2255 2159 L
2243 2147 mt 2243 2171 L
2237 2159 mt 2261 2159 L
2249 2147 mt 2249 2171 L
2243 2159 mt 2267 2159 L
2255 2147 mt 2255 2171 L
2249 2159 mt 2273 2159 L
2261 2147 mt 2261 2171 L
2255 2159 mt 2279 2159 L
2267 2147 mt 2267 2171 L
2261 2159 mt 2285 2159 L
2273 2147 mt 2273 2171 L
2267 2159 mt 2291 2159 L
2279 2147 mt 2279 2171 L
2273 2159 mt 2297 2159 L
2285 2147 mt 2285 2171 L
2280 2159 mt 2304 2159 L
2292 2147 mt 2292 2171 L
2286 2159 mt 2310 2159 L
2298 2147 mt 2298 2171 L
2292 2159 mt 2316 2159 L
2304 2147 mt 2304 2171 L
2298 2159 mt 2322 2159 L
2310 2147 mt 2310 2171 L
2304 2159 mt 2328 2159 L
2316 2147 mt 2316 2171 L
2310 2159 mt 2334 2159 L
2322 2147 mt 2322 2171 L
2316 2159 mt 2340 2159 L
2328 2147 mt 2328 2171 L
2322 2159 mt 2346 2159 L
2334 2147 mt 2334 2171 L
2328 2159 mt 2352 2159 L
2340 2147 mt 2340 2171 L
2334 2159 mt 2358 2159 L
2346 2147 mt 2346 2171 L
2340 2159 mt 2364 2159 L
2352 2147 mt 2352 2171 L
2346 2159 mt 2370 2159 L
2358 2147 mt 2358 2171 L
2352 2159 mt 2376 2159 L
2364 2147 mt 2364 2171 L
2358 2159 mt 2382 2159 L
2370 2147 mt 2370 2171 L
2364 2159 mt 2388 2159 L
2376 2147 mt 2376 2171 L
2370 2159 mt 2394 2159 L
2382 2147 mt 2382 2171 L
2376 2159 mt 2400 2159 L
2388 2147 mt 2388 2171 L
2382 2159 mt 2406 2159 L
2394 2147 mt 2394 2171 L
2388 2159 mt 2412 2159 L
2400 2147 mt 2400 2171 L
2394 2159 mt 2418 2159 L
2406 2147 mt 2406 2171 L
2400 2159 mt 2424 2159 L
2412 2147 mt 2412 2171 L
2407 2159 mt 2431 2159 L
2419 2147 mt 2419 2171 L
gs 605 346 1815 1815 rc
gr

0 sg
1380 2476 mt 
(Day) s
 123 1686 mt  -90 rotate
(Daily Incident) s
90 rotate
%%IncludeResource: font Helvetica
/Helvetica /ISOLatin1Encoding 96 FMSR

 592 2195 mt 
( ) s
2407  380 mt 
( ) s
6 w
1 sg
0 461 1547 0 0 -461 873 814 4 MP
PP
-1547 0 0 461 1547 0 0 -461 873 814 5 MP stroke
4 w
DO
SO
6 w
0 sg
 873  814 mt 2420  814 L
 873  353 mt 2420  353 L
 873  814 mt  873  353 L
2420  814 mt 2420  353 L
 873  814 mt 2420  814 L
 873  814 mt  873  353 L
 873  814 mt 2420  814 L
 873  353 mt 2420  353 L
 873  814 mt  873  353 L
2420  814 mt 2420  353 L
%%IncludeResource: font Helvetica
/Helvetica /ISOLatin1Encoding 144 FMSR

1341  530 mt 
(Sensor Group) s
gs 873 353 1548 462 rc
12 w
c8
360 0 944 478 2 MP stroke
gs 1099 453 51 51 rc
1112  478 mt 1136  478 L
1124  466 mt 1124  490 L
1116  470 mt 1132  486 L
1132  470 mt 1116  486 L
gr

gr

12 w
c8
0 sg
1341  740 mt 
(Random Group) s
gs 873 353 1548 462 rc
c9
360 0 944 688 2 MP stroke
gs 1099 663 51 51 rc
1112  688 mt 1136  688 L
1124  676 mt 1124  700 L
gr

6 w
gr

6 w
c9

end %%Color Dict

eplot
%%EndObject

epage
end

showpage

%%Trailer
%%EOF
