%!PS-Adobe-3.0 EPSF-3.0
%%Creator: MATLAB, The MathWorks, Inc. Version 7.13.0.564 (R2011b). Operating System: Darwin 13.3.0 Darwin Kernel Version 13.3.0: Tue Jun  3 21:27:35 PDT 2014; root:xnu-2422.110.17~1/RELEASE_X86_64 x86_64.
%%Title: /Users/huijuans/2015Fall/GodBlessPLoSOne/MatLabFig/4methodsComparison_09022015.eps
%%CreationDate: 09/02/2015  17:10:07
%%DocumentNeededFonts: Helvetica
%%DocumentProcessColors: Cyan Magenta Yellow Black
%%LanguageLevel: 2
%%Pages: 1
%%BoundingBox:   728   729   943   945
%%EndComments

%%BeginProlog
% MathWorks dictionary
/MathWorks 160 dict begin
% definition operators
/bdef {bind def} bind def
/ldef {load def} bind def
/xdef {exch def} bdef
/xstore {exch store} bdef
% operator abbreviations
/c  /clip ldef
/cc /concat ldef
/cp /closepath ldef
/gr /grestore ldef
/gs /gsave ldef
/mt /moveto ldef
/np /newpath ldef
/cm /currentmatrix ldef
/sm /setmatrix ldef
/rm /rmoveto ldef
/rl /rlineto ldef
/s {show newpath} bdef
/sc {setcmykcolor} bdef
/sr /setrgbcolor ldef
/sg /setgray ldef
/w /setlinewidth ldef
/j /setlinejoin ldef
/cap /setlinecap ldef
/rc {rectclip} bdef
/rf {rectfill} bdef
% page state control
/pgsv () def
/bpage {/pgsv save def} bdef
/epage {pgsv restore} bdef
/bplot /gsave ldef
/eplot {stroke grestore} bdef
% orientation switch
/portraitMode 0 def /landscapeMode 1 def /rotateMode 2 def
% coordinate system mappings
/dpi2point 0 def
% font control
/FontSize 0 def
/FMS {/FontSize xstore findfont [FontSize 0 0 FontSize neg 0 0]
  makefont setfont} bdef
/reencode {exch dup where {pop load} {pop StandardEncoding} ifelse
  exch dup 3 1 roll findfont dup length dict begin
  { 1 index /FID ne {def}{pop pop} ifelse } forall
  /Encoding exch def currentdict end definefont pop} bdef
/isroman {findfont /CharStrings get /Agrave known} bdef
/FMSR {3 1 roll 1 index dup isroman {reencode} {pop pop} ifelse
  exch FMS} bdef
/csm {1 dpi2point div -1 dpi2point div scale neg translate
 dup landscapeMode eq {pop -90 rotate}
  {rotateMode eq {90 rotate} if} ifelse} bdef
% line types: solid, dotted, dashed, dotdash
/SO { [] 0 setdash } bdef
/DO { [.5 dpi2point mul 4 dpi2point mul] 0 setdash } bdef
/DA { [6 dpi2point mul] 0 setdash } bdef
/DD { [.5 dpi2point mul 4 dpi2point mul 6 dpi2point mul 4
  dpi2point mul] 0 setdash } bdef
% macros for lines and objects
/L {lineto stroke} bdef
/MP {3 1 roll moveto 1 sub {rlineto} repeat} bdef
/AP {{rlineto} repeat} bdef
/PDlw -1 def
/W {/PDlw currentlinewidth def setlinewidth} def
/PP {closepath eofill} bdef
/DP {closepath stroke} bdef
/MR {4 -2 roll moveto dup  0 exch rlineto exch 0 rlineto
  neg 0 exch rlineto closepath} bdef
/FR {MR stroke} bdef
/PR {MR fill} bdef
/L1i {{currentfile picstr readhexstring pop} image} bdef
/tMatrix matrix def
/MakeOval {newpath tMatrix currentmatrix pop translate scale
0 0 1 0 360 arc tMatrix setmatrix} bdef
/FO {MakeOval stroke} bdef
/PO {MakeOval fill} bdef
/PD {currentlinewidth 2 div 0 360 arc fill
   PDlw -1 eq not {PDlw w /PDlw -1 def} if} def
/FA {newpath tMatrix currentmatrix pop translate scale
  0 0 1 5 -2 roll arc tMatrix setmatrix stroke} bdef
/PA {newpath tMatrix currentmatrix pop	translate 0 0 moveto scale
  0 0 1 5 -2 roll arc closepath tMatrix setmatrix fill} bdef
/FAn {newpath tMatrix currentmatrix pop translate scale
  0 0 1 5 -2 roll arcn tMatrix setmatrix stroke} bdef
/PAn {newpath tMatrix currentmatrix pop translate 0 0 moveto scale
  0 0 1 5 -2 roll arcn closepath tMatrix setmatrix fill} bdef
/vradius 0 def /hradius 0 def /lry 0 def
/lrx 0 def /uly 0 def /ulx 0 def /rad 0 def
/MRR {/vradius xdef /hradius xdef /lry xdef /lrx xdef /uly xdef
  /ulx xdef newpath tMatrix currentmatrix pop ulx hradius add uly
  vradius add translate hradius vradius scale 0 0 1 180 270 arc 
  tMatrix setmatrix lrx hradius sub uly vradius add translate
  hradius vradius scale 0 0 1 270 360 arc tMatrix setmatrix
  lrx hradius sub lry vradius sub translate hradius vradius scale
  0 0 1 0 90 arc tMatrix setmatrix ulx hradius add lry vradius sub
  translate hradius vradius scale 0 0 1 90 180 arc tMatrix setmatrix
  closepath} bdef
/FRR {MRR stroke } bdef
/PRR {MRR fill } bdef
/MlrRR {/lry xdef /lrx xdef /uly xdef /ulx xdef /rad lry uly sub 2 div def
  newpath tMatrix currentmatrix pop ulx rad add uly rad add translate
  rad rad scale 0 0 1 90 270 arc tMatrix setmatrix lrx rad sub lry rad
  sub translate rad rad scale 0 0 1 270 90 arc tMatrix setmatrix
  closepath} bdef
/FlrRR {MlrRR stroke } bdef
/PlrRR {MlrRR fill } bdef
/MtbRR {/lry xdef /lrx xdef /uly xdef /ulx xdef /rad lrx ulx sub 2 div def
  newpath tMatrix currentmatrix pop ulx rad add uly rad add translate
  rad rad scale 0 0 1 180 360 arc tMatrix setmatrix lrx rad sub lry rad
  sub translate rad rad scale 0 0 1 0 180 arc tMatrix setmatrix
  closepath} bdef
/FtbRR {MtbRR stroke } bdef
/PtbRR {MtbRR fill } bdef
/stri 6 array def /dtri 6 array def
/smat 6 array def /dmat 6 array def
/tmat1 6 array def /tmat2 6 array def /dif 3 array def
/asub {/ind2 exch def /ind1 exch def dup dup
  ind1 get exch ind2 get sub exch } bdef
/tri_to_matrix {
  2 0 asub 3 1 asub 4 0 asub 5 1 asub
  dup 0 get exch 1 get 7 -1 roll astore } bdef
/compute_transform {
  dmat dtri tri_to_matrix tmat1 invertmatrix 
  smat stri tri_to_matrix tmat2 concatmatrix } bdef
/ds {stri astore pop} bdef
/dt {dtri astore pop} bdef
/db {2 copy /cols xdef /rows xdef mul dup 3 mul string
  currentfile 
  3 index 0 eq {/ASCIIHexDecode filter}
  {/ASCII85Decode filter 3 index 2 eq {/RunLengthDecode filter} if }
  ifelse exch readstring pop
  dup 0 3 index getinterval /rbmap xdef
  dup 2 index dup getinterval /gbmap xdef
  1 index dup 2 mul exch getinterval /bbmap xdef pop pop}bdef
/it {gs np dtri aload pop moveto lineto lineto cp c
  cols rows 8 compute_transform 
  rbmap gbmap bbmap true 3 colorimage gr}bdef
/il {newpath moveto lineto stroke}bdef
currentdict end def
%%EndProlog

%%BeginSetup
MathWorks begin

0 cap

end
%%EndSetup

%%Page: 1 1
%%BeginPageSetup
%%PageBoundingBox:   728   729   943   945
MathWorks begin
bpage
%%EndPageSetup

%%BeginObject: obj1
bplot

/dpi2point 12 def
portraitMode 8736 11340 csm

    0     0  2590  2590 rc
88 dict begin %Colortable dictionary
/c0 { 0.000000 0.000000 0.000000 sr} bdef
/c1 { 1.000000 1.000000 1.000000 sr} bdef
/c2 { 0.900000 0.000000 0.000000 sr} bdef
/c3 { 0.000000 0.820000 0.000000 sr} bdef
/c4 { 0.000000 0.000000 0.800000 sr} bdef
/c5 { 0.910000 0.820000 0.320000 sr} bdef
/c6 { 1.000000 0.260000 0.820000 sr} bdef
/c7 { 0.000000 0.820000 0.820000 sr} bdef
c0
1 j
1 sg
   0    0 2591 2591 rf
6 w
0 1815 1814 0 0 -1815 605 2158 4 MP
PP
-1814 0 0 1815 1814 0 0 -1815 605 2158 5 MP stroke
4 w
DO
SO
6 w
0 sg
 605 2158 mt 2419 2158 L
 605  343 mt 2419  343 L
 605 2158 mt  605  343 L
2419 2158 mt 2419  343 L
 605 2158 mt 2419 2158 L
 605 2158 mt  605  343 L
 605 2158 mt  605 2139 L
 605  344 mt  605  362 L
%%IncludeResource: font Helvetica
/Helvetica /ISOLatin1Encoding 144 FMSR

 525 2326 mt 
(50) s
1171 2158 mt 1171 2139 L
1171  344 mt 1171  362 L
1051 2326 mt 
(100) s
1738 2158 mt 1738 2139 L
1738  344 mt 1738  362 L
1618 2326 mt 
(150) s
2305 2158 mt 2305 2139 L
2305  344 mt 2305  362 L
2185 2326 mt 
(200) s
 605 2158 mt  623 2158 L
2419 2158 mt 2400 2158 L
 490 2211 mt 
(0) s
 605 1898 mt  623 1898 L
2419 1898 mt 2400 1898 L
 210 1951 mt 
(0.005) s
 605 1639 mt  623 1639 L
2419 1639 mt 2400 1639 L
 290 1692 mt 
(0.01) s
 605 1380 mt  623 1380 L
2419 1380 mt 2400 1380 L
 210 1433 mt 
(0.015) s
 605 1121 mt  623 1121 L
2419 1121 mt 2400 1121 L
 290 1174 mt 
(0.02) s
 605  862 mt  623  862 L
2419  862 mt 2400  862 L
 210  915 mt 
(0.025) s
 605  603 mt  623  603 L
2419  603 mt 2400  603 L
 290  656 mt 
(0.03) s
 605  344 mt  623  344 L
2419  344 mt 2400  344 L
 210  397 mt 
(0.035) s
 605 2158 mt 2419 2158 L
 605  343 mt 2419  343 L
 605 2158 mt  605  343 L
2419 2158 mt 2419  343 L
gs 605 344 1815 1815 rc
DD
12 w
11 -2 12 -6 11 -2 11 4 12 2 11 4 11 4 12 -6 
11 4 11 6 12 8 11 -14 11 4 12 10 11 -2 11 7 
12 -7 11 7 11 0 12 8 11 -11 11 25 12 8 11 -24 
11 0 12 16 11 13 11 2 12 -9 11 19 11 17 12 -19 
11 25 11 -17 12 15 11 6 11 12 12 -6 11 33 11 42 
12 -52 11 78 11 -47 12 8 11 13 11 66 12 14 11 -47 
11 78 12 4 11 25 11 19 12 28 11 7 11 49 12 42 
11 -13 11 -20 12 6 11 87 11 -1 12 56 11 56 11 8 
12 46 11 33 11 -21 12 56 11 -8 11 53 12 -10 11 21 
11 62 12 6 11 -35 11 62 12 20 11 -68 11 83 12 -10 
11 43 12 -8 11 -87 11 74 12 -14 11 -4 11 -58 12 -66 
11 111 11 -78 12 -46 11 25 11 -91 12 46 11 -124 11 -42 
12 44 11 -2 11 -48 12 -27 11 4 11 -47 12 -21 11 -12 
11 29 12 -58 11 -17 11 -51 12 -11 11 23 11 -58 12 -51 
11 0 11 33 12 -35 11 -50 11 -12 12 24 11 -33 11 -49 
12 25 11 -31 11 -4 12 -23 11 31 11 -39 12 -19 11 41 
11 -51 12 10 11 -29 11 -6 12 14 11 -25 11 3 12 6 
11 -17 11 15 12 -25 11 -15 11 9 12 -11 11 -10 11 16 
12 -14 11 -6 11 2 12 -2 11 -10 11 -9 12 0 11 2 
11 7 12 2 11 -11 11 -16 12 8 11 -8 11 2 605 2148 160 MP stroke
SO
/c8 { 0.600000 0.200000 0.000000 sr} bdef
c8
11 -7 12 4 11 5 11 -2 12 -6 11 5 11 3 12 0 
11 5 11 -6 12 7 11 1 11 -3 12 9 11 -11 11 14 
12 6 11 -10 11 2 12 2 11 7 11 16 12 -1 11 0 
11 7 12 -2 11 0 11 12 12 -5 11 1 11 19 12 -2 
11 27 11 -8 12 8 11 -12 11 25 12 31 11 -19 11 34 
12 -23 11 51 11 -2 12 -6 11 47 11 1 12 23 11 10 
11 -3 12 51 11 17 11 -9 12 51 11 18 11 8 12 41 
11 7 11 74 12 -31 11 46 11 20 12 -4 11 -12 11 160 
12 -70 11 107 11 48 12 -67 11 83 11 48 12 2 11 11 
11 -35 12 68 11 -7 11 27 12 -61 11 52 11 40 12 13 
11 -69 12 30 11 55 11 -67 12 -40 11 12 11 25 12 -43 
11 -35 11 30 12 -67 11 24 11 -135 12 64 11 -15 11 -4 
12 -52 11 -42 11 -29 12 0 11 -69 11 26 12 14 11 -83 
11 15 12 -24 11 -16 11 -58 12 26 11 -79 11 28 12 -22 
11 -30 11 8 12 -41 11 -8 11 -30 12 -23 11 -11 11 11 
12 -15 11 -16 11 -17 12 2 11 -16 11 -6 12 11 11 -19 
11 -20 12 -14 11 -17 11 -6 12 3 11 -9 11 -14 12 5 
11 -3 11 -15 12 10 11 -9 11 -17 12 -8 11 7 11 -8 
12 0 11 0 11 -19 12 4 11 -14 11 11 12 -1 11 1 
11 -10 12 1 11 3 11 -11 12 1 11 -3 11 4 605 2143 160 MP stroke
DA
/c9 { 1.000000 0.000000 1.000000 sr} bdef
c9
11 3 12 -1 11 1 11 1 12 1 11 -1 11 0 12 3 
11 1 11 0 12 3 11 -2 11 2 12 4 11 0 11 3 
12 1 11 -4 11 2 12 5 11 6 11 -1 12 -5 11 7 
11 4 12 -3 11 10 11 3 12 -5 11 16 11 1 12 -7 
11 11 11 15 12 -1 11 9 11 9 12 7 11 7 11 3 
12 6 11 19 11 22 12 -17 11 13 11 37 12 3 11 -6 
11 29 12 22 11 27 11 14 12 2 11 28 11 15 12 15 
11 28 11 35 12 20 11 46 11 31 12 9 11 18 11 26 
12 61 11 15 11 26 12 55 11 27 11 38 12 6 11 54 
11 -24 12 44 11 6 11 59 12 -16 11 24 11 35 12 -21 
11 13 12 -5 11 4 11 19 12 -33 11 -3 11 15 12 -25 
11 5 11 -40 12 -14 11 -17 11 0 12 -58 11 -40 11 6 
12 -41 11 -26 11 6 12 -47 11 -19 11 -35 12 -17 11 -28 
11 -32 12 -32 11 1 11 -32 12 0 11 -49 11 -25 12 -9 
11 -9 11 -9 12 -23 11 -29 11 -1 12 -15 11 -9 11 -3 
12 -24 11 -10 11 -30 12 1 11 8 11 -18 12 -22 11 -10 
11 -28 12 7 11 -19 11 6 12 -27 11 5 11 -10 12 -10 
11 6 11 -24 12 1 11 -12 11 3 12 -7 11 -2 11 -17 
12 14 11 -10 11 -12 12 9 11 -13 11 7 12 -14 11 -2 
11 5 12 -11 11 3 11 -6 12 -7 11 7 11 4 605 2130 160 MP stroke
SO
/c10 { 0.000000 1.000000 0.000000 sr} bdef
c10
11 1 12 0 11 1 11 -1 12 1 11 0 11 1 12 0 
11 0 11 0 12 3 11 -1 11 -1 12 5 11 -4 11 6 
12 -3 11 -2 11 0 12 5 11 0 11 4 12 -10 11 3 
11 5 12 3 11 1 11 -2 12 -2 11 4 11 2 12 -2 
11 6 11 0 12 6 11 -3 11 7 12 -1 11 1 11 0 
12 -1 11 16 11 -2 12 4 11 7 11 8 12 9 11 3 
11 -1 12 17 11 12 11 8 12 14 11 17 11 12 12 18 
11 6 11 31 12 9 11 43 11 17 12 22 11 10 11 46 
12 45 11 22 11 25 12 42 11 71 11 24 12 14 11 71 
11 -4 12 80 11 6 11 42 12 64 11 11 11 26 12 13 
11 46 12 28 11 -13 11 18 12 -7 11 48 11 2 12 -34 
11 39 11 -8 12 -34 11 -29 11 27 12 -57 11 -18 11 -10 
12 -51 11 -12 11 -19 12 -34 11 -17 11 -30 12 -18 11 -25 
11 -26 12 -12 11 8 11 -58 12 -2 11 -40 11 -36 12 -9 
11 6 11 -48 12 -11 11 -24 11 4 12 -49 11 20 11 -30 
12 -9 11 -15 11 -33 12 -24 11 22 11 -19 12 -19 11 -24 
11 -45 12 23 11 -32 11 8 12 -39 11 10 11 -32 12 -12 
11 2 11 -23 12 8 11 -8 11 -9 12 -8 11 -19 11 -4 
12 11 11 -16 11 -11 12 -4 11 -3 11 12 12 -17 11 4 
11 -5 12 -8 11 -4 11 -14 12 -4 11 15 11 -8 605 2116 160 MP stroke
gr

12 w
c10
gs 580 1096 1853 1088 rc
 604 2108 mt  628 2108 L
 616 2096 mt  616 2120 L
 615 2123 mt  639 2123 L
 627 2111 mt  627 2135 L
 627 2119 mt  651 2119 L
 639 2107 mt  639 2131 L
 638 2105 mt  662 2105 L
 650 2093 mt  650 2117 L
 649 2101 mt  673 2101 L
 661 2089 mt  661 2113 L
 661 2093 mt  685 2093 L
 673 2081 mt  673 2105 L
 672 2088 mt  696 2088 L
 684 2076 mt  684 2100 L
 683 2092 mt  707 2092 L
 695 2080 mt  695 2104 L
 695 2075 mt  719 2075 L
 707 2063 mt  707 2087 L
 706 2087 mt  730 2087 L
 718 2075 mt  718 2099 L
 717 2084 mt  741 2084 L
 729 2072 mt  729 2096 L
 729 2080 mt  753 2080 L
 741 2068 mt  741 2092 L
 740 2069 mt  764 2069 L
 752 2057 mt  752 2081 L
 751 2053 mt  775 2053 L
 763 2041 mt  763 2065 L
 763 2064 mt  787 2064 L
 775 2052 mt  775 2076 L
 774 2060 mt  798 2060 L
 786 2048 mt  786 2072 L
 785 2041 mt  809 2041 L
 797 2029 mt  797 2053 L
 797 2033 mt  821 2033 L
 809 2021 mt  809 2045 L
 808 2024 mt  832 2024 L
 820 2012 mt  820 2036 L
 819 2016 mt  843 2016 L
 831 2004 mt  831 2028 L
 831 2024 mt  855 2024 L
 843 2012 mt  843 2036 L
 842 2001 mt  866 2001 L
 854 1989 mt  854 2013 L
 853 2003 mt  877 2003 L
 865 1991 mt  865 2015 L
 865 1991 mt  889 1991 L
 877 1979 mt  877 2003 L
 876 1959 mt  900 1959 L
 888 1947 mt  888 1971 L
 887 1969 mt  911 1969 L
 899 1957 mt  899 1981 L
 899 1930 mt  923 1930 L
 911 1918 mt  911 1942 L
 910 1938 mt  934 1938 L
 922 1926 mt  922 1950 L
 921 1906 mt  945 1906 L
 933 1894 mt  933 1918 L
 933 1929 mt  957 1929 L
 945 1917 mt  945 1941 L
 944 1884 mt  968 1884 L
 956 1872 mt  956 1896 L
 955 1860 mt  979 1860 L
 967 1848 mt  967 1872 L
 967 1841 mt  991 1841 L
 979 1829 mt  979 1853 L
 978 1822 mt 1002 1822 L
 990 1810 mt  990 1834 L
 989 1844 mt 1013 1844 L
1001 1832 mt 1001 1856 L
1001 1820 mt 1025 1820 L
1013 1808 mt 1013 1832 L
1012 1787 mt 1036 1787 L
1024 1775 mt 1024 1799 L
1023 1772 mt 1047 1772 L
1035 1760 mt 1035 1784 L
1035 1763 mt 1059 1763 L
1047 1751 mt 1047 1775 L
1046 1733 mt 1070 1733 L
1058 1721 mt 1058 1745 L
1057 1753 mt 1081 1753 L
1069 1741 mt 1069 1765 L
1069 1704 mt 1093 1704 L
1081 1692 mt 1081 1716 L
1080 1708 mt 1104 1708 L
1092 1696 mt 1092 1720 L
1091 1684 mt 1115 1684 L
1103 1672 mt 1103 1696 L
1103 1673 mt 1127 1673 L
1115 1661 mt 1115 1685 L
1114 1625 mt 1138 1625 L
1126 1613 mt 1126 1637 L
1125 1631 mt 1149 1631 L
1137 1619 mt 1137 1643 L
1137 1622 mt 1161 1622 L
1149 1610 mt 1149 1634 L
1148 1586 mt 1172 1586 L
1160 1574 mt 1160 1598 L
1159 1546 mt 1183 1546 L
1171 1534 mt 1171 1558 L
1171 1544 mt 1195 1544 L
1183 1532 mt 1183 1556 L
1182 1486 mt 1206 1486 L
1194 1474 mt 1194 1498 L
1193 1494 mt 1217 1494 L
1205 1482 mt 1205 1506 L
1205 1482 mt 1229 1482 L
1217 1470 mt 1217 1494 L
1216 1456 mt 1240 1456 L
1228 1444 mt 1228 1468 L
1227 1431 mt 1251 1431 L
1239 1419 mt 1239 1443 L
1239 1413 mt 1263 1413 L
1251 1401 mt 1251 1425 L
1250 1383 mt 1274 1383 L
1262 1371 mt 1262 1395 L
1261 1366 mt 1285 1366 L
1273 1354 mt 1273 1378 L
1273 1332 mt 1297 1332 L
1285 1320 mt 1285 1344 L
1284 1313 mt 1308 1313 L
1296 1301 mt 1296 1325 L
1295 1301 mt 1319 1301 L
1307 1289 mt 1307 1313 L
1307 1250 mt 1331 1250 L
1319 1238 mt 1319 1262 L
1318 1240 mt 1342 1240 L
1330 1228 mt 1330 1252 L
1329 1222 mt 1353 1222 L
1341 1210 mt 1341 1234 L
1341 1165 mt 1365 1165 L
1353 1153 mt 1353 1177 L
1352 1192 mt 1376 1192 L
1364 1180 mt 1364 1204 L
1363 1163 mt 1387 1163 L
1375 1151 mt 1375 1175 L
1375 1129 mt 1399 1129 L
1387 1117 mt 1387 1141 L
1386 1121 mt 1410 1121 L
1398 1109 mt 1398 1133 L
1397 1160 mt 1421 1160 L
1409 1148 mt 1409 1172 L
1409 1126 mt 1433 1126 L
1421 1114 mt 1421 1138 L
1420 1128 mt 1444 1128 L
1432 1116 mt 1432 1140 L
1431 1176 mt 1455 1176 L
1443 1164 mt 1443 1188 L
1443 1169 mt 1467 1169 L
1455 1157 mt 1455 1181 L
1454 1187 mt 1478 1187 L
1466 1175 mt 1466 1199 L
1465 1174 mt 1489 1174 L
1477 1162 mt 1477 1186 L
1477 1202 mt 1501 1202 L
1489 1190 mt 1489 1214 L
1488 1248 mt 1512 1248 L
1500 1236 mt 1500 1260 L
1500 1261 mt 1524 1261 L
1512 1249 mt 1512 1273 L
1511 1287 mt 1535 1287 L
1523 1275 mt 1523 1299 L
1522 1298 mt 1546 1298 L
1534 1286 mt 1534 1310 L
1534 1362 mt 1558 1362 L
1546 1350 mt 1546 1374 L
1545 1404 mt 1569 1404 L
1557 1392 mt 1557 1416 L
1556 1410 mt 1580 1410 L
1568 1398 mt 1568 1422 L
1568 1490 mt 1592 1490 L
1580 1478 mt 1580 1502 L
1579 1486 mt 1603 1486 L
1591 1474 mt 1591 1498 L
1590 1557 mt 1614 1557 L
1602 1545 mt 1602 1569 L
1602 1571 mt 1626 1571 L
1614 1559 mt 1614 1583 L
1613 1595 mt 1637 1595 L
1625 1583 mt 1625 1607 L
1624 1666 mt 1648 1666 L
1636 1654 mt 1636 1678 L
1636 1708 mt 1660 1708 L
1648 1696 mt 1648 1720 L
1647 1733 mt 1671 1733 L
1659 1721 mt 1659 1745 L
1658 1755 mt 1682 1755 L
1670 1743 mt 1670 1767 L
1670 1800 mt 1694 1800 L
1682 1788 mt 1682 1812 L
1681 1846 mt 1705 1846 L
1693 1834 mt 1693 1858 L
1692 1856 mt 1716 1856 L
1704 1844 mt 1704 1868 L
1704 1878 mt 1728 1878 L
1716 1866 mt 1716 1890 L
1715 1895 mt 1739 1895 L
1727 1883 mt 1727 1907 L
1726 1938 mt 1750 1938 L
1738 1926 mt 1738 1950 L
1738 1947 mt 1762 1947 L
1750 1935 mt 1750 1959 L
1749 1978 mt 1773 1978 L
1761 1966 mt 1761 1990 L
1760 1984 mt 1784 1984 L
1772 1972 mt 1772 1996 L
1772 2002 mt 1796 2002 L
1784 1990 mt 1784 2014 L
1783 2014 mt 1807 2014 L
1795 2002 mt 1795 2026 L
1794 2031 mt 1818 2031 L
1806 2019 mt 1806 2043 L
1806 2045 mt 1830 2045 L
1818 2033 mt 1818 2057 L
1817 2053 mt 1841 2053 L
1829 2041 mt 1829 2065 L
1828 2065 mt 1852 2065 L
1840 2053 mt 1840 2077 L
1840 2082 mt 1864 2082 L
1852 2070 mt 1852 2094 L
1851 2081 mt 1875 2081 L
1863 2069 mt 1863 2093 L
1862 2084 mt 1886 2084 L
1874 2072 mt 1874 2096 L
1874 2093 mt 1898 2093 L
1886 2081 mt 1886 2105 L
1885 2101 mt 1909 2101 L
1897 2089 mt 1897 2113 L
1896 2108 mt 1920 2108 L
1908 2096 mt 1908 2120 L
1908 2112 mt 1932 2112 L
1920 2100 mt 1920 2124 L
1919 2110 mt 1943 2110 L
1931 2098 mt 1931 2122 L
1930 2126 mt 1954 2126 L
1942 2114 mt 1942 2138 L
1942 2125 mt 1966 2125 L
1954 2113 mt 1954 2137 L
1953 2125 mt 1977 2125 L
1965 2113 mt 1965 2137 L
1964 2126 mt 1988 2126 L
1976 2114 mt 1976 2138 L
1976 2125 mt 2000 2125 L
1988 2113 mt 1988 2137 L
1987 2132 mt 2011 2132 L
1999 2120 mt 1999 2144 L
1998 2129 mt 2022 2129 L
2010 2117 mt 2010 2141 L
2010 2135 mt 2034 2135 L
2022 2123 mt 2022 2147 L
2021 2135 mt 2045 2135 L
2033 2123 mt 2033 2147 L
2032 2141 mt 2056 2141 L
2044 2129 mt 2044 2153 L
2044 2139 mt 2068 2139 L
2056 2127 mt 2056 2151 L
2055 2141 mt 2079 2141 L
2067 2129 mt 2067 2153 L
2066 2145 mt 2090 2145 L
2078 2133 mt 2078 2157 L
2078 2143 mt 2102 2143 L
2090 2131 mt 2090 2155 L
2089 2141 mt 2113 2141 L
2101 2129 mt 2101 2153 L
2100 2142 mt 2124 2142 L
2112 2130 mt 2112 2154 L
2112 2145 mt 2136 2145 L
2124 2133 mt 2124 2157 L
2123 2150 mt 2147 2150 L
2135 2138 mt 2135 2162 L
2134 2153 mt 2158 2153 L
2146 2141 mt 2146 2165 L
2146 2143 mt 2170 2143 L
2158 2131 mt 2158 2155 L
2157 2147 mt 2181 2147 L
2169 2135 mt 2169 2159 L
2168 2147 mt 2192 2147 L
2180 2135 mt 2180 2159 L
2180 2152 mt 2204 2152 L
2192 2140 mt 2192 2164 L
2191 2152 mt 2215 2152 L
2203 2140 mt 2203 2164 L
2202 2150 mt 2226 2150 L
2214 2138 mt 2214 2162 L
2214 2147 mt 2238 2147 L
2226 2135 mt 2226 2159 L
2225 2153 mt 2249 2153 L
2237 2141 mt 2237 2165 L
2236 2149 mt 2260 2149 L
2248 2137 mt 2248 2161 L
2248 2154 mt 2272 2154 L
2260 2142 mt 2260 2166 L
2259 2153 mt 2283 2153 L
2271 2141 mt 2271 2165 L
2270 2152 mt 2294 2152 L
2282 2140 mt 2282 2164 L
2282 2155 mt 2306 2155 L
2294 2143 mt 2294 2167 L
2293 2155 mt 2317 2155 L
2305 2143 mt 2305 2167 L
2304 2155 mt 2328 2155 L
2316 2143 mt 2316 2167 L
2316 2155 mt 2340 2155 L
2328 2143 mt 2328 2167 L
2327 2156 mt 2351 2156 L
2339 2144 mt 2339 2168 L
2338 2156 mt 2362 2156 L
2350 2144 mt 2350 2168 L
2350 2157 mt 2374 2157 L
2362 2145 mt 2362 2169 L
2361 2156 mt 2385 2156 L
2373 2144 mt 2373 2168 L
2372 2157 mt 2396 2157 L
2384 2145 mt 2384 2169 L
2384 2157 mt 2408 2157 L
2396 2145 mt 2396 2169 L
2395 2158 mt 2419 2158 L
2407 2146 mt 2407 2170 L
gr

gs 605 344 1815 1815 rc
/c11 { 1.000000 0.000000 0.000000 sr} bdef
c11
11 2 12 -1 11 1 11 -1 12 1 11 0 11 1 12 0 
11 0 11 0 12 3 11 -3 11 0 12 4 11 -2 11 6 
12 -3 11 0 11 -2 12 5 11 -2 11 4 12 -7 11 2 
11 5 12 4 11 -1 11 -2 12 -2 11 5 11 4 12 -4 
11 5 11 1 12 8 11 -5 11 8 12 -4 11 4 11 2 
12 -7 11 20 11 -1 12 6 11 2 11 12 12 6 11 1 
11 2 12 17 11 14 11 7 12 16 11 15 11 14 12 17 
11 -2 11 48 12 9 11 23 11 23 12 20 11 6 11 48 
12 52 11 26 11 31 12 38 11 57 11 25 12 19 11 62 
11 3 12 75 11 15 11 37 12 71 11 6 11 19 12 19 
11 44 12 17 11 1 11 21 12 6 11 36 11 -1 12 -21 
11 30 11 -25 12 -22 11 -23 11 20 12 -52 11 -15 11 -13 
12 -53 11 -11 11 -14 12 -31 11 -30 11 -16 12 -21 11 -45 
11 -18 12 -5 11 0 11 -39 12 -10 11 -51 11 -30 12 -3 
11 -1 11 -48 12 -8 11 -32 11 19 12 -56 11 9 11 -24 
12 -8 11 -6 11 -45 12 -23 11 20 11 -21 12 -14 11 -14 
11 -49 12 19 11 -25 11 -2 12 -33 11 10 11 -31 12 -11 
11 1 11 -22 12 3 11 -4 11 -10 12 -10 11 -19 11 -6 
12 12 11 -12 11 -17 12 -1 11 -2 11 10 12 -18 11 7 
11 -6 12 -8 11 -7 11 -10 12 -6 11 14 11 -7 605 2117 160 MP stroke
gr

c11
gs 580 1093 1853 1091 rc
 608 2102 mt  624 2118 L
 624 2102 mt  608 2118 L
 619 2116 mt  635 2132 L
 635 2116 mt  619 2132 L
 631 2110 mt  647 2126 L
 647 2110 mt  631 2126 L
 642 2100 mt  658 2116 L
 658 2100 mt  642 2116 L
 653 2093 mt  669 2109 L
 669 2093 mt  653 2109 L
 665 2085 mt  681 2101 L
 681 2085 mt  665 2101 L
 676 2079 mt  692 2095 L
 692 2079 mt  676 2095 L
 687 2086 mt  703 2102 L
 703 2086 mt  687 2102 L
 699 2068 mt  715 2084 L
 715 2068 mt  699 2084 L
 710 2078 mt  726 2094 L
 726 2078 mt  710 2094 L
 721 2076 mt  737 2092 L
 737 2076 mt  721 2092 L
 733 2075 mt  749 2091 L
 749 2075 mt  733 2091 L
 744 2058 mt  760 2074 L
 760 2058 mt  744 2074 L
 755 2046 mt  771 2062 L
 771 2046 mt  755 2062 L
 767 2058 mt  783 2074 L
 783 2058 mt  767 2074 L
 778 2052 mt  794 2068 L
 794 2052 mt  778 2068 L
 789 2033 mt  805 2049 L
 805 2033 mt  789 2049 L
 801 2023 mt  817 2039 L
 817 2023 mt  801 2039 L
 812 2013 mt  828 2029 L
 828 2013 mt  812 2029 L
 823 2009 mt  839 2025 L
 839 2009 mt  823 2025 L
 835 2012 mt  851 2028 L
 851 2012 mt  835 2028 L
 846 1990 mt  862 2006 L
 862 1990 mt  846 2006 L
 857 1991 mt  873 2007 L
 873 1991 mt  857 2007 L
 869 1980 mt  885 1996 L
 885 1980 mt  869 1996 L
 880 1949 mt  896 1965 L
 896 1949 mt  880 1965 L
 891 1959 mt  907 1975 L
 907 1959 mt  891 1975 L
 903 1926 mt  919 1942 L
 919 1926 mt  903 1942 L
 914 1924 mt  930 1940 L
 930 1924 mt  914 1940 L
 925 1899 mt  941 1915 L
 941 1899 mt  925 1915 L
 937 1918 mt  953 1934 L
 953 1918 mt  937 1934 L
 948 1869 mt  964 1885 L
 964 1869 mt  948 1885 L
 959 1855 mt  975 1871 L
 975 1855 mt  959 1871 L
 971 1841 mt  987 1857 L
 987 1841 mt  971 1857 L
 982 1820 mt  998 1836 L
 998 1820 mt  982 1836 L
 993 1840 mt 1009 1856 L
1009 1840 mt  993 1856 L
1005 1817 mt 1021 1833 L
1021 1817 mt 1005 1833 L
1016 1772 mt 1032 1788 L
1032 1772 mt 1016 1788 L
1027 1766 mt 1043 1782 L
1043 1766 mt 1027 1782 L
1039 1758 mt 1055 1774 L
1055 1758 mt 1039 1774 L
1050 1734 mt 1066 1750 L
1066 1734 mt 1050 1750 L
1061 1743 mt 1077 1759 L
1077 1743 mt 1061 1759 L
1073 1687 mt 1089 1703 L
1089 1687 mt 1073 1703 L
1084 1706 mt 1100 1722 L
1100 1706 mt 1084 1722 L
1095 1674 mt 1111 1690 L
1111 1674 mt 1095 1690 L
1107 1666 mt 1123 1682 L
1123 1666 mt 1107 1682 L
1118 1618 mt 1134 1634 L
1134 1618 mt 1118 1634 L
1129 1617 mt 1145 1633 L
1145 1617 mt 1129 1633 L
1141 1614 mt 1157 1630 L
1157 1614 mt 1141 1630 L
1152 1584 mt 1168 1600 L
1168 1584 mt 1152 1600 L
1163 1533 mt 1179 1549 L
1179 1533 mt 1163 1549 L
1175 1523 mt 1191 1539 L
1191 1523 mt 1175 1539 L
1186 1484 mt 1202 1500 L
1202 1484 mt 1186 1500 L
1197 1484 mt 1213 1500 L
1213 1484 mt 1197 1500 L
1209 1479 mt 1225 1495 L
1225 1479 mt 1209 1495 L
1220 1461 mt 1236 1477 L
1236 1461 mt 1220 1477 L
1231 1416 mt 1247 1432 L
1247 1416 mt 1231 1432 L
1243 1395 mt 1259 1411 L
1259 1395 mt 1243 1411 L
1254 1379 mt 1270 1395 L
1270 1379 mt 1254 1395 L
1265 1349 mt 1281 1365 L
1281 1349 mt 1265 1365 L
1277 1318 mt 1293 1334 L
1293 1318 mt 1277 1334 L
1288 1304 mt 1304 1320 L
1304 1304 mt 1288 1320 L
1299 1293 mt 1315 1309 L
1315 1293 mt 1299 1309 L
1311 1240 mt 1327 1256 L
1327 1240 mt 1311 1256 L
1322 1227 mt 1338 1243 L
1338 1227 mt 1322 1243 L
1333 1212 mt 1349 1228 L
1349 1212 mt 1333 1228 L
1345 1160 mt 1361 1176 L
1361 1160 mt 1345 1176 L
1356 1180 mt 1372 1196 L
1372 1180 mt 1356 1196 L
1367 1157 mt 1383 1173 L
1383 1157 mt 1367 1173 L
1379 1135 mt 1395 1151 L
1395 1135 mt 1379 1151 L
1390 1110 mt 1406 1126 L
1406 1110 mt 1390 1126 L
1401 1140 mt 1417 1156 L
1417 1140 mt 1401 1156 L
1413 1119 mt 1429 1135 L
1429 1119 mt 1413 1135 L
1424 1118 mt 1440 1134 L
1440 1118 mt 1424 1134 L
1435 1154 mt 1451 1170 L
1451 1154 mt 1435 1170 L
1447 1160 mt 1463 1176 L
1463 1160 mt 1447 1176 L
1458 1181 mt 1474 1197 L
1474 1181 mt 1458 1197 L
1469 1182 mt 1485 1198 L
1485 1182 mt 1469 1198 L
1481 1199 mt 1497 1215 L
1497 1199 mt 1481 1215 L
1492 1243 mt 1508 1259 L
1508 1243 mt 1492 1259 L
1504 1262 mt 1520 1278 L
1520 1262 mt 1504 1278 L
1515 1281 mt 1531 1297 L
1531 1281 mt 1515 1297 L
1526 1287 mt 1542 1303 L
1542 1287 mt 1526 1303 L
1538 1358 mt 1554 1374 L
1554 1358 mt 1538 1374 L
1549 1395 mt 1565 1411 L
1565 1395 mt 1549 1411 L
1560 1410 mt 1576 1426 L
1576 1410 mt 1560 1426 L
1572 1485 mt 1588 1501 L
1588 1485 mt 1572 1501 L
1583 1488 mt 1599 1504 L
1599 1488 mt 1583 1504 L
1594 1550 mt 1610 1566 L
1610 1550 mt 1594 1566 L
1606 1569 mt 1622 1585 L
1622 1569 mt 1606 1585 L
1617 1594 mt 1633 1610 L
1633 1594 mt 1617 1610 L
1628 1651 mt 1644 1667 L
1644 1651 mt 1628 1667 L
1640 1689 mt 1656 1705 L
1656 1689 mt 1640 1705 L
1651 1720 mt 1667 1736 L
1667 1720 mt 1651 1736 L
1662 1746 mt 1678 1762 L
1678 1746 mt 1662 1762 L
1674 1798 mt 1690 1814 L
1690 1798 mt 1674 1814 L
1685 1846 mt 1701 1862 L
1701 1846 mt 1685 1862 L
1696 1852 mt 1712 1868 L
1712 1852 mt 1696 1868 L
1708 1872 mt 1724 1888 L
1724 1872 mt 1708 1888 L
1719 1895 mt 1735 1911 L
1735 1895 mt 1719 1911 L
1730 1918 mt 1746 1934 L
1746 1918 mt 1730 1934 L
1742 1927 mt 1758 1943 L
1758 1927 mt 1742 1943 L
1753 1975 mt 1769 1991 L
1769 1975 mt 1753 1991 L
1764 1973 mt 1780 1989 L
1780 1973 mt 1764 1989 L
1776 1990 mt 1792 2006 L
1792 1990 mt 1776 2006 L
1787 2004 mt 1803 2020 L
1803 2004 mt 1787 2020 L
1798 2019 mt 1814 2035 L
1814 2019 mt 1798 2035 L
1810 2035 mt 1826 2051 L
1826 2035 mt 1810 2051 L
1821 2042 mt 1837 2058 L
1837 2042 mt 1821 2058 L
1832 2056 mt 1848 2072 L
1848 2056 mt 1832 2072 L
1844 2073 mt 1860 2089 L
1860 2073 mt 1844 2089 L
1855 2075 mt 1871 2091 L
1871 2075 mt 1855 2091 L
1866 2076 mt 1882 2092 L
1882 2076 mt 1866 2092 L
1878 2082 mt 1894 2098 L
1894 2082 mt 1878 2098 L
1889 2094 mt 1905 2110 L
1905 2094 mt 1889 2110 L
1900 2096 mt 1916 2112 L
1916 2096 mt 1900 2112 L
1912 2102 mt 1928 2118 L
1928 2102 mt 1912 2118 L
1923 2101 mt 1939 2117 L
1939 2101 mt 1923 2117 L
1934 2121 mt 1950 2137 L
1950 2121 mt 1934 2137 L
1946 2114 mt 1962 2130 L
1962 2114 mt 1946 2130 L
1957 2116 mt 1973 2132 L
1973 2116 mt 1957 2132 L
1968 2120 mt 1984 2136 L
1984 2120 mt 1968 2136 L
1980 2116 mt 1996 2132 L
1996 2116 mt 1980 2132 L
1991 2124 mt 2007 2140 L
2007 2124 mt 1991 2140 L
2002 2119 mt 2018 2135 L
2018 2119 mt 2002 2135 L
2014 2127 mt 2030 2143 L
2030 2127 mt 2014 2143 L
2025 2128 mt 2041 2144 L
2041 2128 mt 2025 2144 L
2036 2133 mt 2052 2149 L
2052 2133 mt 2036 2149 L
2048 2129 mt 2064 2145 L
2064 2129 mt 2048 2145 L
2059 2133 mt 2075 2149 L
2075 2133 mt 2059 2149 L
2070 2138 mt 2086 2154 L
2086 2138 mt 2070 2154 L
2082 2136 mt 2098 2152 L
2098 2136 mt 2082 2152 L
2093 2134 mt 2109 2150 L
2109 2134 mt 2093 2150 L
2104 2133 mt 2120 2149 L
2120 2133 mt 2104 2149 L
2116 2137 mt 2132 2153 L
2132 2137 mt 2116 2153 L
2127 2142 mt 2143 2158 L
2143 2142 mt 2127 2158 L
2138 2144 mt 2154 2160 L
2154 2144 mt 2138 2160 L
2150 2137 mt 2166 2153 L
2166 2137 mt 2150 2153 L
2161 2141 mt 2177 2157 L
2177 2141 mt 2161 2157 L
2172 2139 mt 2188 2155 L
2188 2139 mt 2172 2155 L
2184 2144 mt 2200 2160 L
2200 2144 mt 2184 2160 L
2195 2142 mt 2211 2158 L
2211 2142 mt 2195 2158 L
2206 2142 mt 2222 2158 L
2222 2142 mt 2206 2158 L
2218 2139 mt 2234 2155 L
2234 2139 mt 2218 2155 L
2229 2145 mt 2245 2161 L
2245 2145 mt 2229 2161 L
2240 2143 mt 2256 2159 L
2256 2143 mt 2240 2159 L
2252 2147 mt 2268 2163 L
2268 2147 mt 2252 2163 L
2263 2147 mt 2279 2163 L
2279 2147 mt 2263 2163 L
2274 2144 mt 2290 2160 L
2290 2144 mt 2274 2160 L
2286 2147 mt 2302 2163 L
2302 2147 mt 2286 2163 L
2297 2147 mt 2313 2163 L
2313 2147 mt 2297 2163 L
2308 2147 mt 2324 2163 L
2324 2147 mt 2308 2163 L
2320 2147 mt 2336 2163 L
2336 2147 mt 2320 2163 L
2331 2148 mt 2347 2164 L
2347 2148 mt 2331 2164 L
2342 2148 mt 2358 2164 L
2358 2148 mt 2342 2164 L
2354 2149 mt 2370 2165 L
2370 2149 mt 2354 2165 L
2365 2148 mt 2381 2164 L
2381 2148 mt 2365 2164 L
2376 2149 mt 2392 2165 L
2392 2149 mt 2376 2165 L
2388 2148 mt 2404 2164 L
2404 2148 mt 2388 2164 L
2399 2150 mt 2415 2166 L
2415 2150 mt 2399 2166 L
gr

gs 605 344 1815 1815 rc
gr

0 sg
1385 2487 mt 
(Day) s
 125 1739 mt  -90 rotate
(Daily Incidence) s
90 rotate
%%IncludeResource: font Helvetica
/Helvetica /ISOLatin1Encoding 96 FMSR

 592 2193 mt 
( ) s
2407  378 mt 
( ) s
6 w
1 sg
0 667 1772 0 0 -667 626 1019 4 MP
PP
-1772 0 0 667 1772 0 0 -667 626 1019 5 MP stroke
4 w
DO
SO
6 w
0 sg
 626 1019 mt 2398 1019 L
 626  352 mt 2398  352 L
 626 1019 mt  626  352 L
2398 1019 mt 2398  352 L
 626 1019 mt 2398 1019 L
 626 1019 mt  626  352 L
 626 1019 mt 2398 1019 L
 626  352 mt 2398  352 L
 626 1019 mt  626  352 L
2398 1019 mt 2398  352 L
%%IncludeResource: font Helvetica
/Helvetica /ISOLatin1Encoding 132 FMSR

1090  477 mt 
(Ground Truth) s
gs 626 352 1773 668 rc
DD
12 w
357 0 697 429 2 MP stroke
875 429 PD
gr

12 w
DD
1090  605 mt 
(Top-3 Degree) s
gs 626 352 1773 668 rc
SO
c8
357 0 697 557 2 MP stroke
gr

c8
SO
0 sg
1090  733 mt 
(Top-3 Weight Degree) s
gs 626 352 1773 668 rc
DA
c9
357 0 697 685 2 MP stroke
SO
gr

c9
0 sg
1090  861 mt 
(Transmission Tree) s
gs 626 352 1773 668 rc
c10
357 0 697 813 2 MP stroke
gs 850 788 51 51 rc
 863  813 mt  887  813 L
 875  801 mt  875  825 L
gr

gr

c10
0 sg
1090  989 mt 
(Dominator Tree) s
gs 626 352 1773 668 rc
c11
357 0 697 941 2 MP stroke
gs 850 916 51 51 rc
 867  933 mt  883  949 L
 883  933 mt  867  949 L
gr

6 w
gr

6 w
c11

end %%Color Dict

eplot
%%EndObject

epage
end

showpage

%%Trailer
%%EOF
