%!PS-Adobe-3.0 EPSF-3.0
%%Creator: MATLAB, The MathWorks, Inc. Version 7.13.0.564 (R2011b). Operating System: Darwin 13.3.0 Darwin Kernel Version 13.3.0: Tue Jun  3 21:27:35 PDT 2014; root:xnu-2422.110.17~1/RELEASE_X86_64 x86_64.
%%Title: /Users/huijuans/2015Fall/GodBlessPLoSOne/MatLabFig/expected_inf_time.eps
%%CreationDate: 09/02/2015  15:25:34
%%DocumentNeededFonts: Helvetica
%%DocumentProcessColors: Cyan Magenta Yellow Black
%%LanguageLevel: 2
%%Pages: 1
%%BoundingBox:   198   288   414   504
%%EndComments

%%BeginProlog
% MathWorks dictionary
/MathWorks 160 dict begin
% definition operators
/bdef {bind def} bind def
/ldef {load def} bind def
/xdef {exch def} bdef
/xstore {exch store} bdef
% operator abbreviations
/c  /clip ldef
/cc /concat ldef
/cp /closepath ldef
/gr /grestore ldef
/gs /gsave ldef
/mt /moveto ldef
/np /newpath ldef
/cm /currentmatrix ldef
/sm /setmatrix ldef
/rm /rmoveto ldef
/rl /rlineto ldef
/s {show newpath} bdef
/sc {setcmykcolor} bdef
/sr /setrgbcolor ldef
/sg /setgray ldef
/w /setlinewidth ldef
/j /setlinejoin ldef
/cap /setlinecap ldef
/rc {rectclip} bdef
/rf {rectfill} bdef
% page state control
/pgsv () def
/bpage {/pgsv save def} bdef
/epage {pgsv restore} bdef
/bplot /gsave ldef
/eplot {stroke grestore} bdef
% orientation switch
/portraitMode 0 def /landscapeMode 1 def /rotateMode 2 def
% coordinate system mappings
/dpi2point 0 def
% font control
/FontSize 0 def
/FMS {/FontSize xstore findfont [FontSize 0 0 FontSize neg 0 0]
  makefont setfont} bdef
/reencode {exch dup where {pop load} {pop StandardEncoding} ifelse
  exch dup 3 1 roll findfont dup length dict begin
  { 1 index /FID ne {def}{pop pop} ifelse } forall
  /Encoding exch def currentdict end definefont pop} bdef
/isroman {findfont /CharStrings get /Agrave known} bdef
/FMSR {3 1 roll 1 index dup isroman {reencode} {pop pop} ifelse
  exch FMS} bdef
/csm {1 dpi2point div -1 dpi2point div scale neg translate
 dup landscapeMode eq {pop -90 rotate}
  {rotateMode eq {90 rotate} if} ifelse} bdef
% line types: solid, dotted, dashed, dotdash
/SO { [] 0 setdash } bdef
/DO { [.5 dpi2point mul 4 dpi2point mul] 0 setdash } bdef
/DA { [6 dpi2point mul] 0 setdash } bdef
/DD { [.5 dpi2point mul 4 dpi2point mul 6 dpi2point mul 4
  dpi2point mul] 0 setdash } bdef
% macros for lines and objects
/L {lineto stroke} bdef
/MP {3 1 roll moveto 1 sub {rlineto} repeat} bdef
/AP {{rlineto} repeat} bdef
/PDlw -1 def
/W {/PDlw currentlinewidth def setlinewidth} def
/PP {closepath eofill} bdef
/DP {closepath stroke} bdef
/MR {4 -2 roll moveto dup  0 exch rlineto exch 0 rlineto
  neg 0 exch rlineto closepath} bdef
/FR {MR stroke} bdef
/PR {MR fill} bdef
/L1i {{currentfile picstr readhexstring pop} image} bdef
/tMatrix matrix def
/MakeOval {newpath tMatrix currentmatrix pop translate scale
0 0 1 0 360 arc tMatrix setmatrix} bdef
/FO {MakeOval stroke} bdef
/PO {MakeOval fill} bdef
/PD {currentlinewidth 2 div 0 360 arc fill
   PDlw -1 eq not {PDlw w /PDlw -1 def} if} def
/FA {newpath tMatrix currentmatrix pop translate scale
  0 0 1 5 -2 roll arc tMatrix setmatrix stroke} bdef
/PA {newpath tMatrix currentmatrix pop	translate 0 0 moveto scale
  0 0 1 5 -2 roll arc closepath tMatrix setmatrix fill} bdef
/FAn {newpath tMatrix currentmatrix pop translate scale
  0 0 1 5 -2 roll arcn tMatrix setmatrix stroke} bdef
/PAn {newpath tMatrix currentmatrix pop translate 0 0 moveto scale
  0 0 1 5 -2 roll arcn closepath tMatrix setmatrix fill} bdef
/vradius 0 def /hradius 0 def /lry 0 def
/lrx 0 def /uly 0 def /ulx 0 def /rad 0 def
/MRR {/vradius xdef /hradius xdef /lry xdef /lrx xdef /uly xdef
  /ulx xdef newpath tMatrix currentmatrix pop ulx hradius add uly
  vradius add translate hradius vradius scale 0 0 1 180 270 arc 
  tMatrix setmatrix lrx hradius sub uly vradius add translate
  hradius vradius scale 0 0 1 270 360 arc tMatrix setmatrix
  lrx hradius sub lry vradius sub translate hradius vradius scale
  0 0 1 0 90 arc tMatrix setmatrix ulx hradius add lry vradius sub
  translate hradius vradius scale 0 0 1 90 180 arc tMatrix setmatrix
  closepath} bdef
/FRR {MRR stroke } bdef
/PRR {MRR fill } bdef
/MlrRR {/lry xdef /lrx xdef /uly xdef /ulx xdef /rad lry uly sub 2 div def
  newpath tMatrix currentmatrix pop ulx rad add uly rad add translate
  rad rad scale 0 0 1 90 270 arc tMatrix setmatrix lrx rad sub lry rad
  sub translate rad rad scale 0 0 1 270 90 arc tMatrix setmatrix
  closepath} bdef
/FlrRR {MlrRR stroke } bdef
/PlrRR {MlrRR fill } bdef
/MtbRR {/lry xdef /lrx xdef /uly xdef /ulx xdef /rad lrx ulx sub 2 div def
  newpath tMatrix currentmatrix pop ulx rad add uly rad add translate
  rad rad scale 0 0 1 180 360 arc tMatrix setmatrix lrx rad sub lry rad
  sub translate rad rad scale 0 0 1 0 180 arc tMatrix setmatrix
  closepath} bdef
/FtbRR {MtbRR stroke } bdef
/PtbRR {MtbRR fill } bdef
/stri 6 array def /dtri 6 array def
/smat 6 array def /dmat 6 array def
/tmat1 6 array def /tmat2 6 array def /dif 3 array def
/asub {/ind2 exch def /ind1 exch def dup dup
  ind1 get exch ind2 get sub exch } bdef
/tri_to_matrix {
  2 0 asub 3 1 asub 4 0 asub 5 1 asub
  dup 0 get exch 1 get 7 -1 roll astore } bdef
/compute_transform {
  dmat dtri tri_to_matrix tmat1 invertmatrix 
  smat stri tri_to_matrix tmat2 concatmatrix } bdef
/ds {stri astore pop} bdef
/dt {dtri astore pop} bdef
/db {2 copy /cols xdef /rows xdef mul dup 3 mul string
  currentfile 
  3 index 0 eq {/ASCIIHexDecode filter}
  {/ASCII85Decode filter 3 index 2 eq {/RunLengthDecode filter} if }
  ifelse exch readstring pop
  dup 0 3 index getinterval /rbmap xdef
  dup 2 index dup getinterval /gbmap xdef
  1 index dup 2 mul exch getinterval /bbmap xdef pop pop}bdef
/it {gs np dtri aload pop moveto lineto lineto cp c
  cols rows 8 compute_transform 
  rbmap gbmap bbmap true 3 colorimage gr}bdef
/il {newpath moveto lineto stroke}bdef
currentdict end def
%%EndProlog

%%BeginSetup
MathWorks begin

0 cap

end
%%EndSetup

%%Page: 1 1
%%BeginPageSetup
%%PageBoundingBox:   198   288   414   504
MathWorks begin
bpage
%%EndPageSetup

%%BeginObject: obj1
bplot

/dpi2point 12 def
portraitMode 2376 6048 csm

    0     0  2592  2592 rc
87 dict begin %Colortable dictionary
/c0 { 0.000000 0.000000 0.000000 sr} bdef
/c1 { 1.000000 1.000000 1.000000 sr} bdef
/c2 { 0.900000 0.000000 0.000000 sr} bdef
/c3 { 0.000000 0.820000 0.000000 sr} bdef
/c4 { 0.000000 0.000000 0.800000 sr} bdef
/c5 { 0.910000 0.820000 0.320000 sr} bdef
/c6 { 1.000000 0.260000 0.820000 sr} bdef
/c7 { 0.000000 0.820000 0.820000 sr} bdef
c0
1 j
1 sg
   0    0 2593 2593 rf
6 w
0 1816 1814 0 0 -1816 605 2333 4 MP
PP
-1814 0 0 1816 1814 0 0 -1816 605 2333 5 MP stroke
4 w
DO
SO
6 w
0 sg
 605 2333 mt 2419 2333 L
 605  517 mt 2419  517 L
 605 2333 mt  605  517 L
2419 2333 mt 2419  517 L
 605 2333 mt 2419 2333 L
 605 2333 mt  605  517 L
 831 2333 mt  831 2314 L
 831  518 mt  831  536 L
%%IncludeResource: font Helvetica
/Helvetica /ISOLatin1Encoding 144 FMSR

 634 2501 mt 
(Top-3) s
1285 2333 mt 1285 2314 L
1285  518 mt 1285  536 L
1166 2501 mt 
(WD) s
1738 2333 mt 1738 2314 L
1738  518 mt 1738  536 L
1651 2501 mt 
(TT) s
2192 2333 mt 2192 2314 L
2192  518 mt 2192  536 L
2097 2501 mt 
(DT) s
 605 2333 mt  623 2333 L
2419 2333 mt 2400 2333 L
 490 2386 mt 
(0) s
 605 1728 mt  623 1728 L
2419 1728 mt 2400 1728 L
 410 1781 mt 
(50) s
 605 1123 mt  623 1123 L
2419 1123 mt 2400 1123 L
 330 1176 mt 
(100) s
 605  518 mt  623  518 L
2419  518 mt 2400  518 L
 330  571 mt 
(150) s
 605 2333 mt 2419 2333 L
 605  517 mt 2419  517 L
 605 2333 mt  605  517 L
2419 2333 mt 2419  517 L
gs 605 518 1815 1816 rc
/c8 { 0.000000 0.000000 0.562500 sr} bdef
c8
0 1775 103 0 0 -1775 715 2333 4 MP
PP
0 sg
-103 0 0 1775 103 0 0 -1775 715 2333 5 MP stroke
c8
0 1744 104 0 0 -1744 1168 2333 4 MP
PP
0 sg
-104 0 0 1744 104 0 0 -1744 1168 2333 5 MP stroke
c8
0 1653 103 0 0 -1653 1622 2333 4 MP
PP
0 sg
-103 0 0 1653 103 0 0 -1653 1622 2333 5 MP stroke
c8
0 1653 104 0 0 -1653 2075 2333 4 MP
PP
0 sg
-104 0 0 1653 104 0 0 -1653 2075 2333 5 MP stroke
1814 0 605 2333 2 MP stroke
/c9 { 0.678431 0.921569 1.000000 sr} bdef
c9
0 1776 104 0 0 -1776 844 2333 4 MP
PP
/c10 { 0.039216 0.141176 0.415686 sr} bdef
c10
-104 0 0 1776 104 0 0 -1776 844 2333 5 MP stroke
c9
0 1775 103 0 0 -1775 1298 2333 4 MP
PP
c10
-103 0 0 1775 103 0 0 -1775 1298 2333 5 MP stroke
c9
0 1775 104 0 0 -1775 1751 2333 4 MP
PP
c10
-104 0 0 1775 104 0 0 -1775 1751 2333 5 MP stroke
c9
0 1776 103 0 0 -1776 2205 2333 4 MP
PP
c10
-103 0 0 1776 103 0 0 -1776 2205 2333 5 MP stroke
gr

c10
0 sg
 197 2332 mt  -90 rotate
(Expected Time of Infection) s
90 rotate
%%IncludeResource: font Helvetica
/Helvetica /ISOLatin1Encoding 96 FMSR

 592 2368 mt 
( ) s
2407  552 mt 
( ) s
1 sg
0 462 1079 0 0 -462 1343 482 4 MP
PP
-1079 0 0 462 1079 0 0 -462 1343 482 5 MP stroke
4 w
DO
SO
6 w
0 sg
1343  482 mt 2422  482 L
1343   20 mt 2422   20 L
1343  482 mt 1343   20 L
2422  482 mt 2422   20 L
1343  482 mt 2422  482 L
1343  482 mt 1343   20 L
1343  482 mt 2422  482 L
1343   20 mt 2422   20 L
1343  482 mt 1343   20 L
2422  482 mt 2422   20 L
%%IncludeResource: font Helvetica
/Helvetica /ISOLatin1Encoding 144 FMSR

1801  197 mt 
(Sensors) s
gs 1343 20 1080 463 rc
c8
-352 0 0 157 352 0 0 -157 1413 224 5 MP
PP
0 sg
0 0 -352 0 0 157 352 0 0 -157 1413 224 6 MP stroke
gr

1801  408 mt 
(Random) s
gs 1343 20 1080 463 rc
c9
-352 0 0 157 352 0 0 -157 1413 434 5 MP
PP
c10
0 0 -352 0 0 157 352 0 0 -157 1413 434 6 MP stroke
gr

c10

end %%Color Dict

eplot
%%EndObject

epage
end

showpage

%%Trailer
%%EOF
