0.1 21.83   4.51    21.59   4.18
0.5 17.71   1.69    17.92   1.65
1.0 15.06   0.74    15.17   0.74
2.5 12.36   0.48    12.35   0.50
5.0 10.19   0.36    10.15   0.36
7.5 8.53    0.28    8.46    0.28
10.0    7.36    0.24    7.34    0.24
20.0    4.39    0.12    4.37    0.13
30.0    2.80    0.09    2.83    0.09
40.0    1.97    0.07    1.99    0.08
50.0    1.34    0.07    1.34    0.07
60.0    0.87    0.07    0.88    0.07
70.0    0.50    0.07    0.50    0.06
80.0    0.25    0.07    0.23    0.07
90.0    0.11    0.09    0.11    0.09

