%!PS-Adobe-3.0 EPSF-3.0
%%Creator: MATLAB, The MathWorks, Inc. Version 8.3.0.532 (R2014a). Operating System: Darwin 13.3.0 Darwin Kernel Version 13.3.0: Tue Jun  3 21:27:35 PDT 2014; root:xnu-2422.110.17~1/RELEASE_X86_64 x86_64.
%%Title: /Users/huijuans/2015Fall/GodBlessPLoSOne/MatLabFig_more/Fig1-3/oregonDist.eps
%%CreationDate: 09/29/2015  16:24:13
%%DocumentNeededFonts: Helvetica
%%+ Times-Roman
%%DocumentProcessColors: Cyan Magenta Yellow Black
%%LanguageLevel: 2
%%Pages: 1
%%BoundingBox:   198   288   414   504
%%EndComments

%%BeginProlog
% MathWorks dictionary
/MathWorks 160 dict begin
% definition operators
/bdef {bind def} bind def
/ldef {load def} bind def
/xdef {exch def} bdef
/xstore {exch store} bdef
% operator abbreviations
/c  /clip ldef
/cc /concat ldef
/cp /closepath ldef
/gr /grestore ldef
/gs /gsave ldef
/mt /moveto ldef
/np /newpath ldef
/cm /currentmatrix ldef
/sm /setmatrix ldef
/rm /rmoveto ldef
/rl /rlineto ldef
/s {show newpath} bdef
/sc {setcmykcolor} bdef
/sr /setrgbcolor ldef
/sg /setgray ldef
/w /setlinewidth ldef
/j /setlinejoin ldef
/cap /setlinecap ldef
/rc {rectclip} bdef
/rf {rectfill} bdef
% page state control
/pgsv () def
/bpage {/pgsv save def} bdef
/epage {pgsv restore} bdef
/bplot /gsave ldef
/eplot {stroke grestore} bdef
% orientation switch
/portraitMode 0 def /landscapeMode 1 def /rotateMode 2 def
% coordinate system mappings
/dpi2point 0 def
% font control
/FontSize 0 def
/FMS {/FontSize xstore findfont [FontSize 0 0 FontSize neg 0 0]
  makefont setfont} bdef
/reencode {exch dup where {pop load} {pop StandardEncoding} ifelse
  exch dup 3 1 roll findfont dup length dict begin
  { 1 index /FID ne {def}{pop pop} ifelse } forall
  /Encoding exch def currentdict end definefont pop} bdef
/isroman {findfont /CharStrings get /Agrave known} bdef
/FMSR {3 1 roll 1 index dup isroman {reencode} {pop pop} ifelse
  exch FMS} bdef
/csm {1 dpi2point div -1 dpi2point div scale neg translate
 dup landscapeMode eq {pop -90 rotate}
  {rotateMode eq {90 rotate} if} ifelse} bdef
% line types: solid, dotted, dashed, dotdash
/SO { [] 0 setdash } bdef
/DO { [.5 dpi2point mul 4 dpi2point mul] 0 setdash } bdef
/DA { [6 dpi2point mul] 0 setdash } bdef
/DD { [.5 dpi2point mul 4 dpi2point mul 6 dpi2point mul 4
  dpi2point mul] 0 setdash } bdef
% macros for lines and objects
/L {lineto stroke} bdef
/MP {3 1 roll moveto 1 sub {rlineto} repeat} bdef
/AP {{rlineto} repeat} bdef
/PDlw -1 def
/W {/PDlw currentlinewidth def setlinewidth} def
/PP {closepath eofill} bdef
/DP {closepath stroke} bdef
/MR {4 -2 roll moveto dup  0 exch rlineto exch 0 rlineto
  neg 0 exch rlineto closepath} bdef
/FR {MR stroke} bdef
/PR {MR fill} bdef
/L1i {{currentfile picstr readhexstring pop} image} bdef
/tMatrix matrix def
/MakeOval {newpath tMatrix currentmatrix pop translate scale
0 0 1 0 360 arc tMatrix setmatrix} bdef
/FO {MakeOval stroke} bdef
/PO {MakeOval fill} bdef
/PD {currentlinewidth 2 div 0 360 arc fill
   PDlw -1 eq not {PDlw w /PDlw -1 def} if} def
/FA {newpath tMatrix currentmatrix pop translate scale
  0 0 1 5 -2 roll arc tMatrix setmatrix stroke} bdef
/PA {newpath tMatrix currentmatrix pop	translate 0 0 moveto scale
  0 0 1 5 -2 roll arc closepath tMatrix setmatrix fill} bdef
/FAn {newpath tMatrix currentmatrix pop translate scale
  0 0 1 5 -2 roll arcn tMatrix setmatrix stroke} bdef
/PAn {newpath tMatrix currentmatrix pop translate 0 0 moveto scale
  0 0 1 5 -2 roll arcn closepath tMatrix setmatrix fill} bdef
/vradius 0 def /hradius 0 def /lry 0 def
/lrx 0 def /uly 0 def /ulx 0 def /rad 0 def
/MRR {/vradius xdef /hradius xdef /lry xdef /lrx xdef /uly xdef
  /ulx xdef newpath tMatrix currentmatrix pop ulx hradius add uly
  vradius add translate hradius vradius scale 0 0 1 180 270 arc 
  tMatrix setmatrix lrx hradius sub uly vradius add translate
  hradius vradius scale 0 0 1 270 360 arc tMatrix setmatrix
  lrx hradius sub lry vradius sub translate hradius vradius scale
  0 0 1 0 90 arc tMatrix setmatrix ulx hradius add lry vradius sub
  translate hradius vradius scale 0 0 1 90 180 arc tMatrix setmatrix
  closepath} bdef
/FRR {MRR stroke } bdef
/PRR {MRR fill } bdef
/MlrRR {/lry xdef /lrx xdef /uly xdef /ulx xdef /rad lry uly sub 2 div def
  newpath tMatrix currentmatrix pop ulx rad add uly rad add translate
  rad rad scale 0 0 1 90 270 arc tMatrix setmatrix lrx rad sub lry rad
  sub translate rad rad scale 0 0 1 270 90 arc tMatrix setmatrix
  closepath} bdef
/FlrRR {MlrRR stroke } bdef
/PlrRR {MlrRR fill } bdef
/MtbRR {/lry xdef /lrx xdef /uly xdef /ulx xdef /rad lrx ulx sub 2 div def
  newpath tMatrix currentmatrix pop ulx rad add uly rad add translate
  rad rad scale 0 0 1 180 360 arc tMatrix setmatrix lrx rad sub lry rad
  sub translate rad rad scale 0 0 1 0 180 arc tMatrix setmatrix
  closepath} bdef
/FtbRR {MtbRR stroke } bdef
/PtbRR {MtbRR fill } bdef
/stri 6 array def /dtri 6 array def
/smat 6 array def /dmat 6 array def
/tmat1 6 array def /tmat2 6 array def /dif 3 array def
/asub {/ind2 exch def /ind1 exch def dup dup
  ind1 get exch ind2 get sub exch } bdef
/tri_to_matrix {
  2 0 asub 3 1 asub 4 0 asub 5 1 asub
  dup 0 get exch 1 get 7 -1 roll astore } bdef
/compute_transform {
  dmat dtri tri_to_matrix tmat1 invertmatrix 
  smat stri tri_to_matrix tmat2 concatmatrix } bdef
/ds {stri astore pop} bdef
/dt {dtri astore pop} bdef
/db {2 copy /cols xdef /rows xdef mul dup 3 mul string
  currentfile 
  3 index 0 eq {/ASCIIHexDecode filter}
  {/ASCII85Decode filter 3 index 2 eq {/RunLengthDecode filter} if }
  ifelse exch readstring pop
  dup 0 3 index getinterval /rbmap xdef
  dup 2 index dup getinterval /gbmap xdef
  1 index dup 2 mul exch getinterval /bbmap xdef pop pop}bdef
/it {gs np dtri aload pop moveto lineto lineto cp c
  cols rows 8 compute_transform 
  rbmap gbmap bbmap true 3 colorimage gr}bdef
/il {newpath moveto lineto stroke}bdef
currentdict end def
%%EndProlog

%%BeginSetup
MathWorks begin

0 cap

end
%%EndSetup

%%Page: 1 1
%%BeginPageSetup
%%PageBoundingBox:   198   288   414   504
MathWorks begin
bpage
%%EndPageSetup

%%BeginObject: obj1
bplot

/dpi2point 12 def
portraitMode 2376 6048 csm

    0     0  2592  2592 rc
85 dict begin %Colortable dictionary
/c0 { 0.000000 0.000000 0.000000 sr} bdef
/c1 { 1.000000 1.000000 1.000000 sr} bdef
/c2 { 0.900000 0.000000 0.000000 sr} bdef
/c3 { 0.000000 0.820000 0.000000 sr} bdef
/c4 { 0.000000 0.000000 0.800000 sr} bdef
/c5 { 0.910000 0.820000 0.320000 sr} bdef
/c6 { 1.000000 0.260000 0.820000 sr} bdef
/c7 { 0.000000 0.820000 0.820000 sr} bdef
c0
1 j
1 sg
   0    0 2593 2593 rf
6 w
0 2050 1877 0 0 -2050 469 2244 4 MP
PP
-1877 0 0 2050 1877 0 0 -2050 469 2244 5 MP stroke
4 w
DO
SO
6 w
0 sg
 469 2244 mt 2346 2244 L
 469  194 mt 2346  194 L
 469 2244 mt  469  194 L
2346 2244 mt 2346  194 L
 469 2244 mt 2346 2244 L
 469 2244 mt  469  194 L
 469 2244 mt  469 2223 L
 469  194 mt  469  214 L
%%IncludeResource: font Times-Roman
/Times-Roman /ISOLatin1Encoding 144 FMSR

 353 2407 mt 
(-2) s
 844 2244 mt  844 2223 L
 844  194 mt  844  214 L
 808 2407 mt 
(0) s
1219 2244 mt 1219 2223 L
1219  194 mt 1219  214 L
1183 2407 mt 
(2) s
1595 2244 mt 1595 2223 L
1595  194 mt 1595  214 L
1559 2407 mt 
(4) s
1970 2244 mt 1970 2223 L
1970  194 mt 1970  214 L
1934 2407 mt 
(6) s
2346 2244 mt 2346 2223 L
2346  194 mt 2346  214 L
2310 2407 mt 
(8) s
 469 2244 mt  489 2244 L
2346 2244 mt 2325 2244 L
 362 2295 mt 
(0) s
 469 1788 mt  489 1788 L
2346 1788 mt 2325 1788 L
 218 1839 mt 
(100) s
 469 1332 mt  489 1332 L
2346 1332 mt 2325 1332 L
 218 1383 mt 
(200) s
 469  877 mt  489  877 L
2346  877 mt 2325  877 L
 218  928 mt 
(300) s
 469  421 mt  489  421 L
2346  421 mt 2325  421 L
 218  472 mt 
(400) s
 469 2244 mt 2346 2244 L
 469  194 mt 2346  194 L
 469 2244 mt  469  194 L
2346 2244 mt 2346  194 L
gs 469 194 1878 2051 rc
/c8 { 0.000000 0.000000 0.562500 sr} bdef
c8
0 14 76 0 0 -14 656 2244 4 MP
PP
0 sg
-76 0 0 14 76 0 0 -14 656 2244 5 MP stroke
c8
0 0 77 0 0 0 732 2244 4 MP
PP
0 sg
-77 0 0 0 77 0 0 0 732 2244 5 MP stroke
c8
0 55 76 0 0 -55 809 2244 4 MP
PP
0 sg
-76 0 0 55 76 0 0 -55 809 2244 5 MP stroke
c8
0 0 76 0 0 0 885 2244 4 MP
PP
0 sg
-76 0 0 0 76 0 0 0 885 2244 5 MP stroke
c8
0 37 76 0 0 -37 961 2244 4 MP
PP
0 sg
-76 0 0 37 76 0 0 -37 961 2244 5 MP stroke
c8
0 0 77 0 0 0 1037 2244 4 MP
PP
0 sg
-77 0 0 0 77 0 0 0 1037 2244 5 MP stroke
c8
0 0 76 0 0 0 1114 2244 4 MP
PP
0 sg
-76 0 0 0 76 0 0 0 1114 2244 5 MP stroke
c8
0 5 76 0 0 -5 1190 2244 4 MP
PP
0 sg
-76 0 0 5 76 0 0 -5 1190 2244 5 MP stroke
c8
0 0 76 0 0 0 1266 2244 4 MP
PP
0 sg
-76 0 0 0 76 0 0 0 1266 2244 5 MP stroke
c8
0 10 77 0 0 -10 1342 2244 4 MP
PP
0 sg
-77 0 0 10 77 0 0 -10 1342 2244 5 MP stroke
c8
0 160 76 0 0 -160 1419 2244 4 MP
PP
0 sg
-76 0 0 160 76 0 0 -160 1419 2244 5 MP stroke
c8
0 1107 76 0 0 -1107 1495 2244 4 MP
PP
0 sg
-76 0 0 1107 76 0 0 -1107 1495 2244 5 MP stroke
c8
0 1900 76 0 0 -1900 1571 2244 4 MP
PP
0 sg
-76 0 0 1900 76 0 0 -1900 1571 2244 5 MP stroke
c8
0 1048 76 0 0 -1048 1647 2244 4 MP
PP
0 sg
-76 0 0 1048 76 0 0 -1048 1647 2244 5 MP stroke
c8
0 192 77 0 0 -192 1723 2244 4 MP
PP
0 sg
-77 0 0 192 77 0 0 -192 1723 2244 5 MP stroke
c8
0 10 76 0 0 -10 1800 2244 4 MP
PP
0 sg
-76 0 0 10 76 0 0 -10 1800 2244 5 MP stroke
c8
0 10 76 0 0 -10 1876 2244 4 MP
PP
0 sg
-76 0 0 10 76 0 0 -10 1876 2244 5 MP stroke
c8
0 5 76 0 0 -5 1952 2244 4 MP
PP
0 sg
-76 0 0 5 76 0 0 -5 1952 2244 5 MP stroke
c8
0 0 77 0 0 0 2028 2244 4 MP
PP
0 sg
-77 0 0 0 77 0 0 0 2028 2244 5 MP stroke
c8
0 5 76 0 0 -5 2105 2244 4 MP
PP
0 sg
-76 0 0 5 76 0 0 -5 2105 2244 5 MP stroke
gr

 926 2559 mt 
(Lead Time \(day\)) s
 132 1523 mt  -90 rotate
(Frequency) s
90 rotate

end %%Color Dict

eplot
%%EndObject

epage
end

showpage

%%Trailer
%%EOF
