%!PS-Adobe-3.0 EPSF-3.0
%%Creator: MATLAB, The MathWorks, Inc. Version 8.3.0.532 (R2014a). Operating System: Darwin 13.3.0 Darwin Kernel Version 13.3.0: Tue Jun  3 21:27:35 PDT 2014; root:xnu-2422.110.17~1/RELEASE_X86_64 x86_64.
%%Title: /Users/huijuans/2015Fall/GodBlessPLoSOne/MatLabFig/multidimensionalFitDaily_08282015.eps
%%CreationDate: 08/31/2015  17:12:27
%%DocumentNeededFonts: Helvetica
%%DocumentProcessColors: Cyan Magenta Yellow Black
%%LanguageLevel: 2
%%Pages: 1
%%BoundingBox:   198   288   414   504
%%EndComments

%%BeginProlog
% MathWorks dictionary
/MathWorks 160 dict begin
% definition operators
/bdef {bind def} bind def
/ldef {load def} bind def
/xdef {exch def} bdef
/xstore {exch store} bdef
% operator abbreviations
/c  /clip ldef
/cc /concat ldef
/cp /closepath ldef
/gr /grestore ldef
/gs /gsave ldef
/mt /moveto ldef
/np /newpath ldef
/cm /currentmatrix ldef
/sm /setmatrix ldef
/rm /rmoveto ldef
/rl /rlineto ldef
/s {show newpath} bdef
/sc {setcmykcolor} bdef
/sr /setrgbcolor ldef
/sg /setgray ldef
/w /setlinewidth ldef
/j /setlinejoin ldef
/cap /setlinecap ldef
/rc {rectclip} bdef
/rf {rectfill} bdef
% page state control
/pgsv () def
/bpage {/pgsv save def} bdef
/epage {pgsv restore} bdef
/bplot /gsave ldef
/eplot {stroke grestore} bdef
% orientation switch
/portraitMode 0 def /landscapeMode 1 def /rotateMode 2 def
% coordinate system mappings
/dpi2point 0 def
% font control
/FontSize 0 def
/FMS {/FontSize xstore findfont [FontSize 0 0 FontSize neg 0 0]
  makefont setfont} bdef
/reencode {exch dup where {pop load} {pop StandardEncoding} ifelse
  exch dup 3 1 roll findfont dup length dict begin
  { 1 index /FID ne {def}{pop pop} ifelse } forall
  /Encoding exch def currentdict end definefont pop} bdef
/isroman {findfont /CharStrings get /Agrave known} bdef
/FMSR {3 1 roll 1 index dup isroman {reencode} {pop pop} ifelse
  exch FMS} bdef
/csm {1 dpi2point div -1 dpi2point div scale neg translate
 dup landscapeMode eq {pop -90 rotate}
  {rotateMode eq {90 rotate} if} ifelse} bdef
% line types: solid, dotted, dashed, dotdash
/SO { [] 0 setdash } bdef
/DO { [.5 dpi2point mul 4 dpi2point mul] 0 setdash } bdef
/DA { [6 dpi2point mul] 0 setdash } bdef
/DD { [.5 dpi2point mul 4 dpi2point mul 6 dpi2point mul 4
  dpi2point mul] 0 setdash } bdef
% macros for lines and objects
/L {lineto stroke} bdef
/MP {3 1 roll moveto 1 sub {rlineto} repeat} bdef
/AP {{rlineto} repeat} bdef
/PDlw -1 def
/W {/PDlw currentlinewidth def setlinewidth} def
/PP {closepath eofill} bdef
/DP {closepath stroke} bdef
/MR {4 -2 roll moveto dup  0 exch rlineto exch 0 rlineto
  neg 0 exch rlineto closepath} bdef
/FR {MR stroke} bdef
/PR {MR fill} bdef
/L1i {{currentfile picstr readhexstring pop} image} bdef
/tMatrix matrix def
/MakeOval {newpath tMatrix currentmatrix pop translate scale
0 0 1 0 360 arc tMatrix setmatrix} bdef
/FO {MakeOval stroke} bdef
/PO {MakeOval fill} bdef
/PD {currentlinewidth 2 div 0 360 arc fill
   PDlw -1 eq not {PDlw w /PDlw -1 def} if} def
/FA {newpath tMatrix currentmatrix pop translate scale
  0 0 1 5 -2 roll arc tMatrix setmatrix stroke} bdef
/PA {newpath tMatrix currentmatrix pop	translate 0 0 moveto scale
  0 0 1 5 -2 roll arc closepath tMatrix setmatrix fill} bdef
/FAn {newpath tMatrix currentmatrix pop translate scale
  0 0 1 5 -2 roll arcn tMatrix setmatrix stroke} bdef
/PAn {newpath tMatrix currentmatrix pop translate 0 0 moveto scale
  0 0 1 5 -2 roll arcn closepath tMatrix setmatrix fill} bdef
/vradius 0 def /hradius 0 def /lry 0 def
/lrx 0 def /uly 0 def /ulx 0 def /rad 0 def
/MRR {/vradius xdef /hradius xdef /lry xdef /lrx xdef /uly xdef
  /ulx xdef newpath tMatrix currentmatrix pop ulx hradius add uly
  vradius add translate hradius vradius scale 0 0 1 180 270 arc 
  tMatrix setmatrix lrx hradius sub uly vradius add translate
  hradius vradius scale 0 0 1 270 360 arc tMatrix setmatrix
  lrx hradius sub lry vradius sub translate hradius vradius scale
  0 0 1 0 90 arc tMatrix setmatrix ulx hradius add lry vradius sub
  translate hradius vradius scale 0 0 1 90 180 arc tMatrix setmatrix
  closepath} bdef
/FRR {MRR stroke } bdef
/PRR {MRR fill } bdef
/MlrRR {/lry xdef /lrx xdef /uly xdef /ulx xdef /rad lry uly sub 2 div def
  newpath tMatrix currentmatrix pop ulx rad add uly rad add translate
  rad rad scale 0 0 1 90 270 arc tMatrix setmatrix lrx rad sub lry rad
  sub translate rad rad scale 0 0 1 270 90 arc tMatrix setmatrix
  closepath} bdef
/FlrRR {MlrRR stroke } bdef
/PlrRR {MlrRR fill } bdef
/MtbRR {/lry xdef /lrx xdef /uly xdef /ulx xdef /rad lrx ulx sub 2 div def
  newpath tMatrix currentmatrix pop ulx rad add uly rad add translate
  rad rad scale 0 0 1 180 360 arc tMatrix setmatrix lrx rad sub lry rad
  sub translate rad rad scale 0 0 1 0 180 arc tMatrix setmatrix
  closepath} bdef
/FtbRR {MtbRR stroke } bdef
/PtbRR {MtbRR fill } bdef
/stri 6 array def /dtri 6 array def
/smat 6 array def /dmat 6 array def
/tmat1 6 array def /tmat2 6 array def /dif 3 array def
/asub {/ind2 exch def /ind1 exch def dup dup
  ind1 get exch ind2 get sub exch } bdef
/tri_to_matrix {
  2 0 asub 3 1 asub 4 0 asub 5 1 asub
  dup 0 get exch 1 get 7 -1 roll astore } bdef
/compute_transform {
  dmat dtri tri_to_matrix tmat1 invertmatrix 
  smat stri tri_to_matrix tmat2 concatmatrix } bdef
/ds {stri astore pop} bdef
/dt {dtri astore pop} bdef
/db {2 copy /cols xdef /rows xdef mul dup 3 mul string
  currentfile 
  3 index 0 eq {/ASCIIHexDecode filter}
  {/ASCII85Decode filter 3 index 2 eq {/RunLengthDecode filter} if }
  ifelse exch readstring pop
  dup 0 3 index getinterval /rbmap xdef
  dup 2 index dup getinterval /gbmap xdef
  1 index dup 2 mul exch getinterval /bbmap xdef pop pop}bdef
/it {gs np dtri aload pop moveto lineto lineto cp c
  cols rows 8 compute_transform 
  rbmap gbmap bbmap true 3 colorimage gr}bdef
/il {newpath moveto lineto stroke}bdef
currentdict end def
%%EndProlog

%%BeginSetup
MathWorks begin

0 cap

end
%%EndSetup

%%Page: 1 1
%%BeginPageSetup
%%PageBoundingBox:   198   288   414   504
MathWorks begin
bpage
%%EndPageSetup

%%BeginObject: obj1
bplot

/dpi2point 12 def
portraitMode 2376 6048 csm

    0     0  2592  2592 rc
85 dict begin %Colortable dictionary
/c0 { 0.000000 0.000000 0.000000 sr} bdef
/c1 { 1.000000 1.000000 1.000000 sr} bdef
/c2 { 0.900000 0.000000 0.000000 sr} bdef
/c3 { 0.000000 0.820000 0.000000 sr} bdef
/c4 { 0.000000 0.000000 0.800000 sr} bdef
/c5 { 0.910000 0.820000 0.320000 sr} bdef
/c6 { 1.000000 0.260000 0.820000 sr} bdef
/c7 { 0.000000 0.820000 0.820000 sr} bdef
c0
1 j
1 sg
   0    0 2593 2593 rf
6 w
0 955 -751 -438 0 -955 2285 1896 4 MP
PP
751 438 0 955 -751 -438 0 -955 2285 1896 5 MP stroke
751 438 977 -336 -750 -437 1307 2231 4 MP
PP
-978 335 751 438 977 -336 -750 -437 1307 2231 5 MP stroke
0 955 977 -336 0 -955 557 1794 4 MP
PP
-977 336 0 955 977 -336 0 -955 557 1794 5 MP stroke
4 w
DO
0 sg
1307 2231 mt  557 1794 L
 557 1794 mt  557  839 L
1633 2120 mt  882 1682 L
 882 1682 mt  882  727 L
1959 2008 mt 1208 1570 L
1208 1570 mt 1208  615 L
2285 1896 mt 1534 1458 L
1534 1458 mt 1534  503 L
1307 2231 mt 2285 1896 L
2285 1896 mt 2285  941 L
1057 2086 mt 2034 1750 L
2034 1750 mt 2034  795 L
 807 1940 mt 1784 1604 L
1784 1604 mt 1784  649 L
 557 1794 mt 1534 1458 L
1534 1458 mt 2285 1896 L
 557 1317 mt 1534  981 L
1534  981 mt 2285 1418 L
 557  839 mt 1534  503 L
1534  503 mt 2285  941 L
SO
6 w
1307 2231 mt 2285 1896 L
1307 2231 mt  557 1794 L
 557 1794 mt  557  839 L
1307 2231 mt 1329 2245 L
%%IncludeResource: font Helvetica
/Helvetica /ISOLatin1Encoding 144 FMSR

1359 2396 mt 
(0) s
1633 2120 mt 1655 2133 L
1685 2284 mt 
(100) s
1959 2008 mt 1981 2021 L
2011 2172 mt 
(200) s
2285 1896 mt 2307 1909 L
2337 2060 mt 
(300) s
1307 2231 mt 1282 2240 L
1170 2385 mt 
(0) s
1057 2086 mt 1032 2094 L
 720 2239 mt 
(0.01) s
 807 1940 mt  782 1948 L
 469 2094 mt 
(0.02) s
 557 1794 mt  534 1781 L
 424 1817 mt 
(0) s
 557 1317 mt  534 1304 L
 224 1339 mt 
(0.01) s
 557  839 mt  534  826 L
 224  862 mt 
(0.02) s
%%IncludeResource: font Helvetica
/Helvetica /ISOLatin1Encoding 96 FMSR

2273  537 mt 
( ) s
gs 557 503 1729 1729 rc
12 w
gr

12 w
gs 1201 921 1133 1359 rc
/c8 { 1.000000 0.000000 0.000000 sr} bdef
c8
2260 1896 mt 2308 1896 L
2284 1872 mt 2284 1920 L
2268 1880 mt 2300 1912 L
2300 1880 mt 2268 1912 L
gr

c8
gs 557 503 1729 1729 rc
gr

gs 1125 784 1206 1496 rc
/c9 { 0.000000 0.000000 1.000000 sr} bdef
c9
2257 1897 mt 2305 1897 L
2281 1873 mt 2281 1921 L
gr

c9
gs 557 503 1729 1729 rc
gr

gs 1201 921 1133 1359 rc
c8
2257 1897 mt 2305 1897 L
2281 1873 mt 2281 1921 L
2265 1881 mt 2297 1913 L
2297 1881 mt 2265 1913 L
gr

c8
gs 557 503 1729 1729 rc
gr

gs 1125 784 1206 1496 rc
c9
2254 1898 mt 2302 1898 L
2278 1874 mt 2278 1922 L
gr

c9
gs 557 503 1729 1729 rc
gr

gs 1201 921 1133 1359 rc
c8
2254 1898 mt 2302 1898 L
2278 1874 mt 2278 1922 L
2262 1882 mt 2294 1914 L
2294 1882 mt 2262 1914 L
gr

c8
gs 557 503 1729 1729 rc
gr

gs 1125 784 1206 1496 rc
c9
2251 1899 mt 2299 1899 L
2275 1875 mt 2275 1923 L
gr

c9
gs 557 503 1729 1729 rc
gr

gs 1201 921 1133 1359 rc
c8
2251 1899 mt 2299 1899 L
2275 1875 mt 2275 1923 L
2259 1883 mt 2291 1915 L
2291 1883 mt 2259 1915 L
gr

c8
gs 557 503 1729 1729 rc
gr

gs 1125 784 1206 1496 rc
c9
2247 1900 mt 2295 1900 L
2271 1876 mt 2271 1924 L
gr

c9
gs 557 503 1729 1729 rc
gr

gs 1201 921 1133 1359 rc
c8
2247 1900 mt 2295 1900 L
2271 1876 mt 2271 1924 L
2255 1884 mt 2287 1916 L
2287 1884 mt 2255 1916 L
gr

c8
gs 557 503 1729 1729 rc
gr

gs 1125 784 1206 1496 rc
c9
2244 1901 mt 2292 1901 L
2268 1877 mt 2268 1925 L
gr

c9
gs 557 503 1729 1729 rc
gr

gs 1201 921 1133 1359 rc
c8
2244 1901 mt 2292 1901 L
2268 1877 mt 2268 1925 L
2252 1885 mt 2284 1917 L
2284 1885 mt 2252 1917 L
gr

c8
gs 557 503 1729 1729 rc
gr

gs 1125 784 1206 1496 rc
c9
2241 1903 mt 2289 1903 L
2265 1879 mt 2265 1927 L
gr

c9
gs 557 503 1729 1729 rc
gr

gs 1201 921 1133 1359 rc
c8
2241 1903 mt 2289 1903 L
2265 1879 mt 2265 1927 L
2249 1887 mt 2281 1919 L
2281 1887 mt 2249 1919 L
gr

c8
gs 557 503 1729 1729 rc
gr

gs 1125 784 1206 1496 rc
c9
2238 1904 mt 2286 1904 L
2262 1880 mt 2262 1928 L
gr

c9
gs 557 503 1729 1729 rc
gr

gs 1201 921 1133 1359 rc
c8
2238 1904 mt 2286 1904 L
2262 1880 mt 2262 1928 L
2246 1888 mt 2278 1920 L
2278 1888 mt 2246 1920 L
gr

c8
gs 557 503 1729 1729 rc
gr

gs 1125 784 1206 1496 rc
c9
2234 1905 mt 2282 1905 L
2258 1881 mt 2258 1929 L
gr

c9
gs 557 503 1729 1729 rc
gr

gs 1201 921 1133 1359 rc
c8
2234 1905 mt 2282 1905 L
2258 1881 mt 2258 1929 L
2242 1889 mt 2274 1921 L
2274 1889 mt 2242 1921 L
gr

c8
gs 557 503 1729 1729 rc
gr

gs 1125 784 1206 1496 rc
c9
2231 1906 mt 2279 1906 L
2255 1882 mt 2255 1930 L
gr

c9
gs 557 503 1729 1729 rc
gr

gs 1201 921 1133 1359 rc
c8
2231 1906 mt 2279 1906 L
2255 1882 mt 2255 1930 L
2239 1890 mt 2271 1922 L
2271 1890 mt 2239 1922 L
gr

c8
gs 557 503 1729 1729 rc
gr

gs 1125 784 1206 1496 rc
c9
2228 1907 mt 2276 1907 L
2252 1883 mt 2252 1931 L
gr

c9
gs 557 503 1729 1729 rc
gr

gs 1201 921 1133 1359 rc
c8
2228 1907 mt 2276 1907 L
2252 1883 mt 2252 1931 L
2236 1891 mt 2268 1923 L
2268 1891 mt 2236 1923 L
gr

c8
gs 557 503 1729 1729 rc
gr

gs 1125 784 1206 1496 rc
c9
2225 1908 mt 2273 1908 L
2249 1884 mt 2249 1932 L
gr

c9
gs 557 503 1729 1729 rc
gr

gs 1201 921 1133 1359 rc
c8
2225 1908 mt 2273 1908 L
2249 1884 mt 2249 1932 L
2233 1892 mt 2265 1924 L
2265 1892 mt 2233 1924 L
gr

c8
gs 557 503 1729 1729 rc
gr

gs 1125 784 1206 1496 rc
c9
2221 1909 mt 2269 1909 L
2245 1885 mt 2245 1933 L
gr

c9
gs 557 503 1729 1729 rc
gr

gs 1201 921 1133 1359 rc
c8
2221 1909 mt 2269 1909 L
2245 1885 mt 2245 1933 L
2229 1893 mt 2261 1925 L
2261 1893 mt 2229 1925 L
gr

c8
gs 557 503 1729 1729 rc
gr

gs 1125 784 1206 1496 rc
c9
2218 1910 mt 2266 1910 L
2242 1886 mt 2242 1934 L
gr

c9
gs 557 503 1729 1729 rc
gr

gs 1201 921 1133 1359 rc
c8
2218 1910 mt 2266 1910 L
2242 1886 mt 2242 1934 L
2226 1894 mt 2258 1926 L
2258 1894 mt 2226 1926 L
gr

c8
gs 557 503 1729 1729 rc
gr

gs 1125 784 1206 1496 rc
c9
2215 1912 mt 2263 1912 L
2239 1888 mt 2239 1936 L
gr

c9
gs 557 503 1729 1729 rc
gr

gs 1201 921 1133 1359 rc
c8
2215 1911 mt 2263 1911 L
2239 1887 mt 2239 1935 L
2223 1895 mt 2255 1927 L
2255 1895 mt 2223 1927 L
gr

c8
gs 557 503 1729 1729 rc
gr

gs 1125 784 1206 1496 rc
c9
2212 1913 mt 2260 1913 L
2236 1889 mt 2236 1937 L
gr

c9
gs 557 503 1729 1729 rc
gr

gs 1201 921 1133 1359 rc
c8
2212 1913 mt 2260 1913 L
2236 1889 mt 2236 1937 L
2220 1897 mt 2252 1929 L
2252 1897 mt 2220 1929 L
gr

c8
gs 557 503 1729 1729 rc
gr

gs 1125 784 1206 1496 rc
c9
2208 1914 mt 2256 1914 L
2232 1890 mt 2232 1938 L
gr

c9
gs 557 503 1729 1729 rc
gr

gs 1201 921 1133 1359 rc
c8
2208 1914 mt 2256 1914 L
2232 1890 mt 2232 1938 L
2216 1898 mt 2248 1930 L
2248 1898 mt 2216 1930 L
gr

c8
gs 557 503 1729 1729 rc
gr

gs 1125 784 1206 1496 rc
c9
2205 1915 mt 2253 1915 L
2229 1891 mt 2229 1939 L
gr

c9
gs 557 503 1729 1729 rc
gr

gs 1201 921 1133 1359 rc
c8
2205 1915 mt 2253 1915 L
2229 1891 mt 2229 1939 L
2213 1899 mt 2245 1931 L
2245 1899 mt 2213 1931 L
gr

c8
gs 557 503 1729 1729 rc
gr

gs 1125 784 1206 1496 rc
c9
2202 1916 mt 2250 1916 L
2226 1892 mt 2226 1940 L
gr

c9
gs 557 503 1729 1729 rc
gr

gs 1201 921 1133 1359 rc
c8
2202 1916 mt 2250 1916 L
2226 1892 mt 2226 1940 L
2210 1900 mt 2242 1932 L
2242 1900 mt 2210 1932 L
gr

c8
gs 557 503 1729 1729 rc
gr

gs 1125 784 1206 1496 rc
c9
2199 1917 mt 2247 1917 L
2223 1893 mt 2223 1941 L
gr

c9
gs 557 503 1729 1729 rc
gr

gs 1201 921 1133 1359 rc
c8
2199 1917 mt 2247 1917 L
2223 1893 mt 2223 1941 L
2207 1901 mt 2239 1933 L
2239 1901 mt 2207 1933 L
gr

c8
gs 557 503 1729 1729 rc
gr

gs 1125 784 1206 1496 rc
c9
2195 1918 mt 2243 1918 L
2219 1894 mt 2219 1942 L
gr

c9
gs 557 503 1729 1729 rc
gr

gs 1201 921 1133 1359 rc
c8
2195 1918 mt 2243 1918 L
2219 1894 mt 2219 1942 L
2203 1902 mt 2235 1934 L
2235 1902 mt 2203 1934 L
gr

c8
gs 557 503 1729 1729 rc
gr

gs 1125 784 1206 1496 rc
c9
2192 1919 mt 2240 1919 L
2216 1895 mt 2216 1943 L
gr

c9
gs 557 503 1729 1729 rc
gr

gs 1201 921 1133 1359 rc
c8
2192 1919 mt 2240 1919 L
2216 1895 mt 2216 1943 L
2200 1903 mt 2232 1935 L
2232 1903 mt 2200 1935 L
gr

c8
gs 557 503 1729 1729 rc
gr

gs 1125 784 1206 1496 rc
c9
2189 1920 mt 2237 1920 L
2213 1896 mt 2213 1944 L
gr

c9
gs 557 503 1729 1729 rc
gr

gs 1201 921 1133 1359 rc
c8
2189 1920 mt 2237 1920 L
2213 1896 mt 2213 1944 L
2197 1904 mt 2229 1936 L
2229 1904 mt 2197 1936 L
gr

c8
gs 557 503 1729 1729 rc
gr

gs 1125 784 1206 1496 rc
c9
2186 1922 mt 2234 1922 L
2210 1898 mt 2210 1946 L
gr

c9
gs 557 503 1729 1729 rc
gr

gs 1201 921 1133 1359 rc
c8
2186 1921 mt 2234 1921 L
2210 1897 mt 2210 1945 L
2194 1905 mt 2226 1937 L
2226 1905 mt 2194 1937 L
gr

c8
gs 557 503 1729 1729 rc
gr

gs 1125 784 1206 1496 rc
c9
2182 1923 mt 2230 1923 L
2206 1899 mt 2206 1947 L
gr

c9
gs 557 503 1729 1729 rc
gr

gs 1201 921 1133 1359 rc
c8
2182 1922 mt 2230 1922 L
2206 1898 mt 2206 1946 L
2190 1906 mt 2222 1938 L
2222 1906 mt 2190 1938 L
gr

c8
gs 557 503 1729 1729 rc
gr

gs 1125 784 1206 1496 rc
c9
2179 1924 mt 2227 1924 L
2203 1900 mt 2203 1948 L
gr

c9
gs 557 503 1729 1729 rc
gr

gs 1201 921 1133 1359 rc
c8
2179 1924 mt 2227 1924 L
2203 1900 mt 2203 1948 L
2187 1908 mt 2219 1940 L
2219 1908 mt 2187 1940 L
gr

c8
gs 557 503 1729 1729 rc
gr

gs 1125 784 1206 1496 rc
c9
2176 1925 mt 2224 1925 L
2200 1901 mt 2200 1949 L
gr

c9
gs 557 503 1729 1729 rc
gr

gs 1201 921 1133 1359 rc
c8
2176 1925 mt 2224 1925 L
2200 1901 mt 2200 1949 L
2184 1909 mt 2216 1941 L
2216 1909 mt 2184 1941 L
gr

c8
gs 557 503 1729 1729 rc
gr

gs 1125 784 1206 1496 rc
c9
2173 1926 mt 2221 1926 L
2197 1902 mt 2197 1950 L
gr

c9
gs 557 503 1729 1729 rc
gr

gs 1201 921 1133 1359 rc
c8
2172 1926 mt 2220 1926 L
2196 1902 mt 2196 1950 L
2180 1910 mt 2212 1942 L
2212 1910 mt 2180 1942 L
gr

c8
gs 557 503 1729 1729 rc
gr

gs 1125 784 1206 1496 rc
c9
2169 1927 mt 2217 1927 L
2193 1903 mt 2193 1951 L
gr

c9
gs 557 503 1729 1729 rc
gr

gs 1201 921 1133 1359 rc
c8
2169 1927 mt 2217 1927 L
2193 1903 mt 2193 1951 L
2177 1911 mt 2209 1943 L
2209 1911 mt 2177 1943 L
gr

c8
gs 557 503 1729 1729 rc
gr

gs 1201 921 1133 1359 rc
2166 1928 mt 2214 1928 L
2190 1904 mt 2190 1952 L
2174 1912 mt 2206 1944 L
2206 1912 mt 2174 1944 L
gr

gs 557 503 1729 1729 rc
gr

gs 1125 784 1206 1496 rc
c9
2166 1927 mt 2214 1927 L
2190 1903 mt 2190 1951 L
gr

c9
gs 557 503 1729 1729 rc
gr

gs 1201 921 1133 1359 rc
c8
2163 1929 mt 2211 1929 L
2187 1905 mt 2187 1953 L
2171 1913 mt 2203 1945 L
2203 1913 mt 2171 1945 L
gr

c8
gs 557 503 1729 1729 rc
gr

gs 1125 784 1206 1496 rc
c9
2163 1929 mt 2211 1929 L
2187 1905 mt 2187 1953 L
gr

c9
gs 557 503 1729 1729 rc
gr

gs 1125 784 1206 1496 rc
2159 1931 mt 2207 1931 L
2183 1907 mt 2183 1955 L
gr

gs 557 503 1729 1729 rc
gr

gs 1201 921 1133 1359 rc
c8
2159 1930 mt 2207 1930 L
2183 1906 mt 2183 1954 L
2167 1914 mt 2199 1946 L
2199 1914 mt 2167 1946 L
gr

c8
gs 557 503 1729 1729 rc
gr

gs 1125 784 1206 1496 rc
c9
2156 1932 mt 2204 1932 L
2180 1908 mt 2180 1956 L
gr

c9
gs 557 503 1729 1729 rc
gr

gs 1201 921 1133 1359 rc
c8
2156 1931 mt 2204 1931 L
2180 1907 mt 2180 1955 L
2164 1915 mt 2196 1947 L
2196 1915 mt 2164 1947 L
gr

c8
gs 557 503 1729 1729 rc
gr

gs 1125 784 1206 1496 rc
c9
2153 1933 mt 2201 1933 L
2177 1909 mt 2177 1957 L
gr

c9
gs 557 503 1729 1729 rc
gr

gs 1201 921 1133 1359 rc
c8
2153 1932 mt 2201 1932 L
2177 1908 mt 2177 1956 L
2161 1916 mt 2193 1948 L
2193 1916 mt 2161 1948 L
gr

c8
gs 557 503 1729 1729 rc
gr

gs 1125 784 1206 1496 rc
c9
2150 1934 mt 2198 1934 L
2174 1910 mt 2174 1958 L
gr

c9
gs 557 503 1729 1729 rc
gr

gs 1201 921 1133 1359 rc
c8
2150 1933 mt 2198 1933 L
2174 1909 mt 2174 1957 L
2158 1917 mt 2190 1949 L
2190 1917 mt 2158 1949 L
gr

c8
gs 557 503 1729 1729 rc
gr

gs 1125 784 1206 1496 rc
c9
2146 1935 mt 2194 1935 L
2170 1911 mt 2170 1959 L
gr

c9
gs 557 503 1729 1729 rc
gr

gs 1201 921 1133 1359 rc
c8
2146 1934 mt 2194 1934 L
2170 1910 mt 2170 1958 L
2154 1918 mt 2186 1950 L
2186 1918 mt 2154 1950 L
gr

c8
gs 557 503 1729 1729 rc
gr

gs 1125 784 1206 1496 rc
c9
2143 1936 mt 2191 1936 L
2167 1912 mt 2167 1960 L
gr

c9
gs 557 503 1729 1729 rc
gr

gs 1201 921 1133 1359 rc
c8
2143 1935 mt 2191 1935 L
2167 1911 mt 2167 1959 L
2151 1919 mt 2183 1951 L
2183 1919 mt 2151 1951 L
gr

c8
gs 557 503 1729 1729 rc
gr

gs 1125 784 1206 1496 rc
c9
2140 1937 mt 2188 1937 L
2164 1913 mt 2164 1961 L
gr

c9
gs 557 503 1729 1729 rc
gr

gs 1201 921 1133 1359 rc
c8
2140 1937 mt 2188 1937 L
2164 1913 mt 2164 1961 L
2148 1921 mt 2180 1953 L
2180 1921 mt 2148 1953 L
gr

c8
gs 557 503 1729 1729 rc
gr

gs 1125 784 1206 1496 rc
c9
2137 1938 mt 2185 1938 L
2161 1914 mt 2161 1962 L
gr

c9
gs 557 503 1729 1729 rc
gr

gs 1201 921 1133 1359 rc
c8
2137 1938 mt 2185 1938 L
2161 1914 mt 2161 1962 L
2145 1922 mt 2177 1954 L
2177 1922 mt 2145 1954 L
gr

c8
gs 557 503 1729 1729 rc
gr

gs 1125 784 1206 1496 rc
c9
2133 1939 mt 2181 1939 L
2157 1915 mt 2157 1963 L
gr

c9
gs 557 503 1729 1729 rc
gr

gs 1201 921 1133 1359 rc
c8
2133 1939 mt 2181 1939 L
2157 1915 mt 2157 1963 L
2141 1923 mt 2173 1955 L
2173 1923 mt 2141 1955 L
gr

c8
gs 557 503 1729 1729 rc
gr

gs 1125 784 1206 1496 rc
c9
2130 1941 mt 2178 1941 L
2154 1917 mt 2154 1965 L
gr

c9
gs 557 503 1729 1729 rc
gr

gs 1201 921 1133 1359 rc
c8
2130 1940 mt 2178 1940 L
2154 1916 mt 2154 1964 L
2138 1924 mt 2170 1956 L
2170 1924 mt 2138 1956 L
gr

c8
gs 557 503 1729 1729 rc
gr

gs 1125 784 1206 1496 rc
c9
2127 1942 mt 2175 1942 L
2151 1918 mt 2151 1966 L
gr

c9
gs 557 503 1729 1729 rc
gr

gs 1201 921 1133 1359 rc
c8
2127 1941 mt 2175 1941 L
2151 1917 mt 2151 1965 L
2135 1925 mt 2167 1957 L
2167 1925 mt 2135 1957 L
gr

c8
gs 557 503 1729 1729 rc
gr

gs 1125 784 1206 1496 rc
c9
2124 1943 mt 2172 1943 L
2148 1919 mt 2148 1967 L
gr

c9
gs 557 503 1729 1729 rc
gr

gs 1201 921 1133 1359 rc
c8
2124 1942 mt 2172 1942 L
2148 1918 mt 2148 1966 L
2132 1926 mt 2164 1958 L
2164 1926 mt 2132 1958 L
gr

c8
gs 557 503 1729 1729 rc
gr

gs 1125 784 1206 1496 rc
c9
2120 1944 mt 2168 1944 L
2144 1920 mt 2144 1968 L
gr

c9
gs 557 503 1729 1729 rc
gr

gs 1201 921 1133 1359 rc
c8
2120 1943 mt 2168 1943 L
2144 1919 mt 2144 1967 L
2128 1927 mt 2160 1959 L
2160 1927 mt 2128 1959 L
gr

c8
gs 557 503 1729 1729 rc
gr

gs 1201 921 1133 1359 rc
2117 1944 mt 2165 1944 L
2141 1920 mt 2141 1968 L
2125 1928 mt 2157 1960 L
2157 1928 mt 2125 1960 L
gr

gs 557 503 1729 1729 rc
gr

gs 1125 784 1206 1496 rc
c9
2117 1942 mt 2165 1942 L
2141 1918 mt 2141 1966 L
gr

c9
gs 557 503 1729 1729 rc
gr

gs 1201 921 1133 1359 rc
c8
2114 1945 mt 2162 1945 L
2138 1921 mt 2138 1969 L
2122 1929 mt 2154 1961 L
2154 1929 mt 2122 1961 L
gr

c8
gs 557 503 1729 1729 rc
gr

gs 1125 784 1206 1496 rc
c9
2114 1946 mt 2162 1946 L
2138 1922 mt 2138 1970 L
gr

c9
gs 557 503 1729 1729 rc
gr

gs 1125 784 1206 1496 rc
2111 1947 mt 2159 1947 L
2135 1923 mt 2135 1971 L
gr

gs 557 503 1729 1729 rc
gr

gs 1201 921 1133 1359 rc
c8
2110 1946 mt 2158 1946 L
2134 1922 mt 2134 1970 L
2118 1930 mt 2150 1962 L
2150 1930 mt 2118 1962 L
gr

c8
gs 557 503 1729 1729 rc
gr

gs 1201 921 1133 1359 rc
2107 1947 mt 2155 1947 L
2131 1923 mt 2131 1971 L
2115 1931 mt 2147 1963 L
2147 1931 mt 2115 1963 L
gr

gs 557 503 1729 1729 rc
gr

gs 1125 784 1206 1496 rc
c9
2107 1947 mt 2155 1947 L
2131 1923 mt 2131 1971 L
gr

c9
gs 557 503 1729 1729 rc
gr

gs 1125 784 1206 1496 rc
2104 1950 mt 2152 1950 L
2128 1926 mt 2128 1974 L
gr

gs 557 503 1729 1729 rc
gr

gs 1201 921 1133 1359 rc
c8
2104 1948 mt 2152 1948 L
2128 1924 mt 2128 1972 L
2112 1932 mt 2144 1964 L
2144 1932 mt 2112 1964 L
gr

c8
gs 557 503 1729 1729 rc
gr

gs 1201 921 1133 1359 rc
2101 1949 mt 2149 1949 L
2125 1925 mt 2125 1973 L
2109 1933 mt 2141 1965 L
2141 1933 mt 2109 1965 L
gr

gs 557 503 1729 1729 rc
gr

gs 1125 784 1206 1496 rc
c9
2101 1947 mt 2149 1947 L
2125 1923 mt 2125 1971 L
gr

c9
gs 557 503 1729 1729 rc
gr

gs 1201 921 1133 1359 rc
c8
2097 1950 mt 2145 1950 L
2121 1926 mt 2121 1974 L
2105 1934 mt 2137 1966 L
2137 1934 mt 2105 1966 L
gr

c8
gs 557 503 1729 1729 rc
gr

gs 1125 784 1206 1496 rc
c9
2097 1950 mt 2145 1950 L
2121 1926 mt 2121 1974 L
gr

c9
gs 557 503 1729 1729 rc
gr

gs 1125 784 1206 1496 rc
2094 1951 mt 2142 1951 L
2118 1927 mt 2118 1975 L
gr

gs 557 503 1729 1729 rc
gr

gs 1201 921 1133 1359 rc
c8
2094 1951 mt 2142 1951 L
2118 1927 mt 2118 1975 L
2102 1935 mt 2134 1967 L
2134 1935 mt 2102 1967 L
gr

c8
gs 557 503 1729 1729 rc
gr

gs 1125 784 1206 1496 rc
c9
2091 1952 mt 2139 1952 L
2115 1928 mt 2115 1976 L
gr

c9
gs 557 503 1729 1729 rc
gr

gs 1201 921 1133 1359 rc
c8
2091 1952 mt 2139 1952 L
2115 1928 mt 2115 1976 L
2099 1936 mt 2131 1968 L
2131 1936 mt 2099 1968 L
gr

c8
gs 557 503 1729 1729 rc
gr

gs 1201 921 1133 1359 rc
2087 1953 mt 2135 1953 L
2111 1929 mt 2111 1977 L
2095 1937 mt 2127 1969 L
2127 1937 mt 2095 1969 L
gr

gs 557 503 1729 1729 rc
gr

gs 1125 784 1206 1496 rc
c9
2088 1952 mt 2136 1952 L
2112 1928 mt 2112 1976 L
gr

c9
gs 557 503 1729 1729 rc
gr

gs 1201 921 1133 1359 rc
c8
2084 1954 mt 2132 1954 L
2108 1930 mt 2108 1978 L
2092 1938 mt 2124 1970 L
2124 1938 mt 2092 1970 L
gr

c8
gs 557 503 1729 1729 rc
gr

gs 1125 784 1206 1496 rc
c9
2085 1956 mt 2133 1956 L
2109 1932 mt 2109 1980 L
gr

c9
gs 557 503 1729 1729 rc
gr

gs 1201 921 1133 1359 rc
c8
2081 1955 mt 2129 1955 L
2105 1931 mt 2105 1979 L
2089 1939 mt 2121 1971 L
2121 1939 mt 2089 1971 L
gr

c8
gs 557 503 1729 1729 rc
gr

gs 1125 784 1206 1496 rc
c9
2081 1956 mt 2129 1956 L
2105 1932 mt 2105 1980 L
gr

c9
gs 557 503 1729 1729 rc
gr

gs 1201 921 1133 1359 rc
c8
2078 1956 mt 2126 1956 L
2102 1932 mt 2102 1980 L
2086 1940 mt 2118 1972 L
2118 1940 mt 2086 1972 L
gr

c8
gs 557 503 1729 1729 rc
gr

gs 1125 784 1206 1496 rc
c9
2078 1955 mt 2126 1955 L
2102 1931 mt 2102 1979 L
gr

c9
gs 557 503 1729 1729 rc
gr

gs 1201 921 1133 1359 rc
c8
2074 1957 mt 2122 1957 L
2098 1933 mt 2098 1981 L
2082 1941 mt 2114 1973 L
2114 1941 mt 2082 1973 L
gr

c8
gs 557 503 1729 1729 rc
gr

gs 1125 784 1206 1496 rc
c9
2075 1960 mt 2123 1960 L
2099 1936 mt 2099 1984 L
gr

c9
gs 557 503 1729 1729 rc
gr

gs 1125 784 1206 1496 rc
2071 1961 mt 2119 1961 L
2095 1937 mt 2095 1985 L
gr

gs 557 503 1729 1729 rc
gr

gs 1201 921 1133 1359 rc
c8
2071 1958 mt 2119 1958 L
2095 1934 mt 2095 1982 L
2079 1942 mt 2111 1974 L
2111 1942 mt 2079 1974 L
gr

c8
gs 557 503 1729 1729 rc
gr

gs 1125 784 1206 1496 rc
c9
2068 1962 mt 2116 1962 L
2092 1938 mt 2092 1986 L
gr

c9
gs 557 503 1729 1729 rc
gr

gs 1201 921 1133 1359 rc
c8
2068 1958 mt 2116 1958 L
2092 1934 mt 2092 1982 L
2076 1942 mt 2108 1974 L
2108 1942 mt 2076 1974 L
gr

c8
gs 557 503 1729 1729 rc
gr

gs 1125 784 1206 1496 rc
c9
2065 1961 mt 2113 1961 L
2089 1937 mt 2089 1985 L
gr

c9
gs 557 503 1729 1729 rc
gr

gs 1201 921 1133 1359 rc
c8
2064 1959 mt 2112 1959 L
2088 1935 mt 2088 1983 L
2072 1943 mt 2104 1975 L
2104 1943 mt 2072 1975 L
gr

c8
gs 557 503 1729 1729 rc
gr

gs 1125 784 1206 1496 rc
c9
2061 1962 mt 2109 1962 L
2085 1938 mt 2085 1986 L
gr

c9
gs 557 503 1729 1729 rc
gr

gs 1201 921 1133 1359 rc
c8
2061 1960 mt 2109 1960 L
2085 1936 mt 2085 1984 L
2069 1944 mt 2101 1976 L
2101 1944 mt 2069 1976 L
gr

c8
gs 557 503 1729 1729 rc
gr

gs 1125 784 1206 1496 rc
c9
2058 1965 mt 2106 1965 L
2082 1941 mt 2082 1989 L
gr

c9
gs 557 503 1729 1729 rc
gr

gs 1201 921 1133 1359 rc
c8
2058 1961 mt 2106 1961 L
2082 1937 mt 2082 1985 L
2066 1945 mt 2098 1977 L
2098 1945 mt 2066 1977 L
gr

c8
gs 557 503 1729 1729 rc
gr

gs 1125 784 1206 1496 rc
c9
2055 1966 mt 2103 1966 L
2079 1942 mt 2079 1990 L
gr

c9
gs 557 503 1729 1729 rc
gr

gs 1201 921 1133 1359 rc
c8
2055 1962 mt 2103 1962 L
2079 1938 mt 2079 1986 L
2063 1946 mt 2095 1978 L
2095 1946 mt 2063 1978 L
gr

c8
gs 557 503 1729 1729 rc
gr

gs 1125 784 1206 1496 rc
c9
2052 1967 mt 2100 1967 L
2076 1943 mt 2076 1991 L
gr

c9
gs 557 503 1729 1729 rc
gr

gs 1201 921 1133 1359 rc
c8
2051 1963 mt 2099 1963 L
2075 1939 mt 2075 1987 L
2059 1947 mt 2091 1979 L
2091 1947 mt 2059 1979 L
gr

c8
gs 557 503 1729 1729 rc
gr

gs 1125 784 1206 1496 rc
c9
2048 1965 mt 2096 1965 L
2072 1941 mt 2072 1989 L
gr

c9
gs 557 503 1729 1729 rc
gr

gs 1201 921 1133 1359 rc
c8
2048 1963 mt 2096 1963 L
2072 1939 mt 2072 1987 L
2056 1947 mt 2088 1979 L
2088 1947 mt 2056 1979 L
gr

c8
gs 557 503 1729 1729 rc
gr

gs 1125 784 1206 1496 rc
c9
2045 1965 mt 2093 1965 L
2069 1941 mt 2069 1989 L
gr

c9
gs 557 503 1729 1729 rc
gr

gs 1201 921 1133 1359 rc
c8
2045 1964 mt 2093 1964 L
2069 1940 mt 2069 1988 L
2053 1948 mt 2085 1980 L
2085 1948 mt 2053 1980 L
gr

c8
gs 557 503 1729 1729 rc
gr

gs 1125 784 1206 1496 rc
c9
2042 1967 mt 2090 1967 L
2066 1943 mt 2066 1991 L
gr

c9
gs 557 503 1729 1729 rc
gr

gs 1201 921 1133 1359 rc
c8
2041 1965 mt 2089 1965 L
2065 1941 mt 2065 1989 L
2049 1949 mt 2081 1981 L
2081 1949 mt 2049 1981 L
gr

c8
gs 557 503 1729 1729 rc
gr

gs 1125 784 1206 1496 rc
c9
2039 1970 mt 2087 1970 L
2063 1946 mt 2063 1994 L
gr

c9
gs 557 503 1729 1729 rc
gr

gs 1201 921 1133 1359 rc
c8
2038 1965 mt 2086 1965 L
2062 1941 mt 2062 1989 L
2046 1949 mt 2078 1981 L
2078 1949 mt 2046 1981 L
gr

c8
gs 557 503 1729 1729 rc
gr

gs 1125 784 1206 1496 rc
c9
2036 1970 mt 2084 1970 L
2060 1946 mt 2060 1994 L
gr

c9
gs 557 503 1729 1729 rc
gr

gs 1201 921 1133 1359 rc
c8
2035 1966 mt 2083 1966 L
2059 1942 mt 2059 1990 L
2043 1950 mt 2075 1982 L
2075 1950 mt 2043 1982 L
gr

c8
gs 557 503 1729 1729 rc
gr

gs 1125 784 1206 1496 rc
c9
2032 1969 mt 2080 1969 L
2056 1945 mt 2056 1993 L
gr

c9
gs 557 503 1729 1729 rc
gr

gs 1201 921 1133 1359 rc
c8
2031 1967 mt 2079 1967 L
2055 1943 mt 2055 1991 L
2039 1951 mt 2071 1983 L
2071 1951 mt 2039 1983 L
gr

c8
gs 557 503 1729 1729 rc
gr

gs 1125 784 1206 1496 rc
c9
2028 1972 mt 2076 1972 L
2052 1948 mt 2052 1996 L
gr

c9
gs 557 503 1729 1729 rc
gr

gs 1201 921 1133 1359 rc
c8
2028 1967 mt 2076 1967 L
2052 1943 mt 2052 1991 L
2036 1951 mt 2068 1983 L
2068 1951 mt 2036 1983 L
gr

c8
gs 557 503 1729 1729 rc
gr

gs 1125 784 1206 1496 rc
c9
2025 1973 mt 2073 1973 L
2049 1949 mt 2049 1997 L
gr

c9
gs 557 503 1729 1729 rc
gr

gs 1201 921 1133 1359 rc
c8
2025 1968 mt 2073 1968 L
2049 1944 mt 2049 1992 L
2033 1952 mt 2065 1984 L
2065 1952 mt 2033 1984 L
gr

c8
gs 557 503 1729 1729 rc
gr

gs 1125 784 1206 1496 rc
c9
2022 1974 mt 2070 1974 L
2046 1950 mt 2046 1998 L
gr

c9
gs 557 503 1729 1729 rc
gr

gs 1201 921 1133 1359 rc
c8
2021 1968 mt 2069 1968 L
2045 1944 mt 2045 1992 L
2029 1952 mt 2061 1984 L
2061 1952 mt 2029 1984 L
gr

c8
gs 557 503 1729 1729 rc
gr

gs 1125 784 1206 1496 rc
c9
2019 1970 mt 2067 1970 L
2043 1946 mt 2043 1994 L
gr

c9
gs 557 503 1729 1729 rc
gr

gs 1201 921 1133 1359 rc
c8
2018 1968 mt 2066 1968 L
2042 1944 mt 2042 1992 L
2026 1952 mt 2058 1984 L
2058 1952 mt 2026 1984 L
gr

c8
gs 557 503 1729 1729 rc
gr

gs 1125 784 1206 1496 rc
c9
2016 1970 mt 2064 1970 L
2040 1946 mt 2040 1994 L
gr

c9
gs 557 503 1729 1729 rc
gr

gs 1201 921 1133 1359 rc
c8
2015 1969 mt 2063 1969 L
2039 1945 mt 2039 1993 L
2023 1953 mt 2055 1985 L
2055 1953 mt 2023 1985 L
gr

c8
gs 557 503 1729 1729 rc
gr

gs 1125 784 1206 1496 rc
c9
2012 1972 mt 2060 1972 L
2036 1948 mt 2036 1996 L
gr

c9
gs 557 503 1729 1729 rc
gr

gs 1201 921 1133 1359 rc
c8
2011 1969 mt 2059 1969 L
2035 1945 mt 2035 1993 L
2019 1953 mt 2051 1985 L
2051 1953 mt 2019 1985 L
gr

c8
gs 557 503 1729 1729 rc
gr

gs 1125 784 1206 1496 rc
c9
2009 1973 mt 2057 1973 L
2033 1949 mt 2033 1997 L
gr

c9
gs 557 503 1729 1729 rc
gr

gs 1201 921 1133 1359 rc
c8
2008 1969 mt 2056 1969 L
2032 1945 mt 2032 1993 L
2016 1953 mt 2048 1985 L
2048 1953 mt 2016 1985 L
gr

c8
gs 557 503 1729 1729 rc
gr

gs 1201 921 1133 1359 rc
2004 1970 mt 2052 1970 L
2028 1946 mt 2028 1994 L
2012 1954 mt 2044 1986 L
2044 1954 mt 2012 1986 L
gr

gs 557 503 1729 1729 rc
gr

gs 1125 784 1206 1496 rc
c9
2005 1969 mt 2053 1969 L
2029 1945 mt 2029 1993 L
gr

c9
gs 557 503 1729 1729 rc
gr

gs 1125 784 1206 1496 rc
2003 1962 mt 2051 1962 L
2027 1938 mt 2027 1986 L
gr

gs 557 503 1729 1729 rc
gr

gs 1201 921 1133 1359 rc
c8
2001 1970 mt 2049 1970 L
2025 1946 mt 2025 1994 L
2009 1954 mt 2041 1986 L
2041 1954 mt 2009 1986 L
gr

c8
gs 557 503 1729 1729 rc
gr

gs 1125 784 1206 1496 rc
c9
1999 1978 mt 2047 1978 L
2023 1954 mt 2023 2002 L
gr

c9
gs 557 503 1729 1729 rc
gr

gs 1201 921 1133 1359 rc
c8
1998 1970 mt 2046 1970 L
2022 1946 mt 2022 1994 L
2006 1954 mt 2038 1986 L
2038 1954 mt 2006 1986 L
gr

c8
gs 557 503 1729 1729 rc
gr

gs 1125 784 1206 1496 rc
c9
1995 1976 mt 2043 1976 L
2019 1952 mt 2019 2000 L
gr

c9
gs 557 503 1729 1729 rc
gr

gs 1201 921 1133 1359 rc
c8
1994 1970 mt 2042 1970 L
2018 1946 mt 2018 1994 L
2002 1954 mt 2034 1986 L
2034 1954 mt 2002 1986 L
gr

c8
gs 557 503 1729 1729 rc
gr

gs 1201 921 1133 1359 rc
1991 1969 mt 2039 1969 L
2015 1945 mt 2015 1993 L
1999 1953 mt 2031 1985 L
2031 1953 mt 1999 1985 L
gr

gs 557 503 1729 1729 rc
gr

gs 1125 784 1206 1496 rc
c9
1993 1969 mt 2041 1969 L
2017 1945 mt 2017 1993 L
gr

c9
gs 557 503 1729 1729 rc
gr

gs 1125 784 1206 1496 rc
1990 1979 mt 2038 1979 L
2014 1955 mt 2014 2003 L
gr

gs 557 503 1729 1729 rc
gr

gs 1201 921 1133 1359 rc
c8
1987 1969 mt 2035 1969 L
2011 1945 mt 2011 1993 L
1995 1953 mt 2027 1985 L
2027 1953 mt 1995 1985 L
gr

c8
gs 557 503 1729 1729 rc
gr

gs 1125 784 1206 1496 rc
c9
1987 1978 mt 2035 1978 L
2011 1954 mt 2011 2002 L
gr

c9
gs 557 503 1729 1729 rc
gr

gs 1201 921 1133 1359 rc
c8
1984 1969 mt 2032 1969 L
2008 1945 mt 2008 1993 L
1992 1953 mt 2024 1985 L
2024 1953 mt 1992 1985 L
gr

c8
gs 557 503 1729 1729 rc
gr

gs 1125 784 1206 1496 rc
c9
1983 1979 mt 2031 1979 L
2007 1955 mt 2007 2003 L
gr

c9
gs 557 503 1729 1729 rc
gr

gs 1201 921 1133 1359 rc
c8
1980 1968 mt 2028 1968 L
2004 1944 mt 2004 1992 L
1988 1952 mt 2020 1984 L
2020 1952 mt 1988 1984 L
gr

c8
gs 557 503 1729 1729 rc
gr

gs 1125 784 1206 1496 rc
c9
1980 1980 mt 2028 1980 L
2004 1956 mt 2004 2004 L
gr

c9
gs 557 503 1729 1729 rc
gr

gs 1201 921 1133 1359 rc
c8
1977 1968 mt 2025 1968 L
2001 1944 mt 2001 1992 L
1985 1952 mt 2017 1984 L
2017 1952 mt 1985 1984 L
gr

c8
gs 557 503 1729 1729 rc
gr

gs 1125 784 1206 1496 rc
c9
1975 1974 mt 2023 1974 L
1999 1950 mt 1999 1998 L
gr

c9
gs 557 503 1729 1729 rc
gr

gs 1201 921 1133 1359 rc
c8
1973 1967 mt 2021 1967 L
1997 1943 mt 1997 1991 L
1981 1951 mt 2013 1983 L
2013 1951 mt 1981 1983 L
gr

c8
gs 557 503 1729 1729 rc
gr

gs 1125 784 1206 1496 rc
c9
1973 1977 mt 2021 1977 L
1997 1953 mt 1997 2001 L
gr

c9
gs 557 503 1729 1729 rc
gr

gs 1125 784 1206 1496 rc
1970 1978 mt 2018 1978 L
1994 1954 mt 1994 2002 L
gr

gs 557 503 1729 1729 rc
gr

gs 1201 921 1133 1359 rc
c8
1970 1966 mt 2018 1966 L
1994 1942 mt 1994 1990 L
1978 1950 mt 2010 1982 L
2010 1950 mt 1978 1982 L
gr

c8
gs 557 503 1729 1729 rc
gr

gs 1125 784 1206 1496 rc
c9
1966 1979 mt 2014 1979 L
1990 1955 mt 1990 2003 L
gr

c9
gs 557 503 1729 1729 rc
gr

gs 1201 921 1133 1359 rc
c8
1966 1965 mt 2014 1965 L
1990 1941 mt 1990 1989 L
1974 1949 mt 2006 1981 L
2006 1949 mt 1974 1981 L
gr

c8
gs 557 503 1729 1729 rc
gr

gs 1125 784 1206 1496 rc
c9
1962 1968 mt 2010 1968 L
1986 1944 mt 1986 1992 L
gr

c9
gs 557 503 1729 1729 rc
gr

gs 1201 921 1133 1359 rc
c8
1962 1964 mt 2010 1964 L
1986 1940 mt 1986 1988 L
1970 1948 mt 2002 1980 L
2002 1948 mt 1970 1980 L
gr

c8
gs 557 503 1729 1729 rc
gr

gs 1125 784 1206 1496 rc
c9
1959 1966 mt 2007 1966 L
1983 1942 mt 1983 1990 L
gr

c9
gs 557 503 1729 1729 rc
gr

gs 1201 921 1133 1359 rc
c8
1959 1963 mt 2007 1963 L
1983 1939 mt 1983 1987 L
1967 1947 mt 1999 1979 L
1999 1947 mt 1967 1979 L
gr

c8
gs 557 503 1729 1729 rc
gr

gs 1125 784 1206 1496 rc
c9
1956 1970 mt 2004 1970 L
1980 1946 mt 1980 1994 L
gr

c9
gs 557 503 1729 1729 rc
gr

gs 1201 921 1133 1359 rc
c8
1955 1962 mt 2003 1962 L
1979 1938 mt 1979 1986 L
1963 1946 mt 1995 1978 L
1995 1946 mt 1963 1978 L
gr

c8
gs 557 503 1729 1729 rc
gr

gs 1125 784 1206 1496 rc
c9
1953 1972 mt 2001 1972 L
1977 1948 mt 1977 1996 L
gr

c9
gs 557 503 1729 1729 rc
gr

gs 1201 921 1133 1359 rc
c8
1951 1960 mt 1999 1960 L
1975 1936 mt 1975 1984 L
1959 1944 mt 1991 1976 L
1991 1944 mt 1959 1976 L
gr

c8
gs 557 503 1729 1729 rc
gr

gs 1125 784 1206 1496 rc
c9
1949 1971 mt 1997 1971 L
1973 1947 mt 1973 1995 L
gr

c9
gs 557 503 1729 1729 rc
gr

gs 1201 921 1133 1359 rc
c8
1948 1958 mt 1996 1958 L
1972 1934 mt 1972 1982 L
1956 1942 mt 1988 1974 L
1988 1942 mt 1956 1974 L
gr

c8
gs 557 503 1729 1729 rc
gr

gs 1125 784 1206 1496 rc
c9
1946 1972 mt 1994 1972 L
1970 1948 mt 1970 1996 L
gr

c9
gs 557 503 1729 1729 rc
gr

gs 1201 921 1133 1359 rc
c8
1944 1956 mt 1992 1956 L
1968 1932 mt 1968 1980 L
1952 1940 mt 1984 1972 L
1984 1940 mt 1952 1972 L
gr

c8
gs 557 503 1729 1729 rc
gr

gs 1125 784 1206 1496 rc
c9
1943 1980 mt 1991 1980 L
1967 1956 mt 1967 2004 L
gr

c9
gs 557 503 1729 1729 rc
gr

gs 1201 921 1133 1359 rc
c8
1940 1954 mt 1988 1954 L
1964 1930 mt 1964 1978 L
1948 1938 mt 1980 1970 L
1980 1938 mt 1948 1970 L
gr

c8
gs 557 503 1729 1729 rc
gr

gs 1125 784 1206 1496 rc
c9
1937 1968 mt 1985 1968 L
1961 1944 mt 1961 1992 L
gr

c9
gs 557 503 1729 1729 rc
gr

gs 1201 921 1133 1359 rc
c8
1936 1951 mt 1984 1951 L
1960 1927 mt 1960 1975 L
1944 1935 mt 1976 1967 L
1976 1935 mt 1944 1967 L
gr

c8
gs 557 503 1729 1729 rc
gr

gs 1125 784 1206 1496 rc
c9
1935 1959 mt 1983 1959 L
1959 1935 mt 1959 1983 L
gr

c9
gs 557 503 1729 1729 rc
gr

gs 1201 921 1133 1359 rc
c8
1932 1949 mt 1980 1949 L
1956 1925 mt 1956 1973 L
1940 1933 mt 1972 1965 L
1972 1933 mt 1940 1965 L
gr

c8
gs 557 503 1729 1729 rc
gr

gs 1125 784 1206 1496 rc
c9
1931 1957 mt 1979 1957 L
1955 1933 mt 1955 1981 L
gr

c9
gs 557 503 1729 1729 rc
gr

gs 1201 921 1133 1359 rc
c8
1928 1946 mt 1976 1946 L
1952 1922 mt 1952 1970 L
1936 1930 mt 1968 1962 L
1968 1930 mt 1936 1962 L
gr

c8
gs 557 503 1729 1729 rc
gr

gs 1125 784 1206 1496 rc
c9
1928 1962 mt 1976 1962 L
1952 1938 mt 1952 1986 L
gr

c9
gs 557 503 1729 1729 rc
gr

gs 1125 784 1206 1496 rc
1925 1948 mt 1973 1948 L
1949 1924 mt 1949 1972 L
gr

gs 557 503 1729 1729 rc
gr

gs 1201 921 1133 1359 rc
c8
1924 1942 mt 1972 1942 L
1948 1918 mt 1948 1966 L
1932 1926 mt 1964 1958 L
1964 1926 mt 1932 1958 L
gr

c8
gs 557 503 1729 1729 rc
gr

gs 1125 784 1206 1496 rc
c9
1921 1955 mt 1969 1955 L
1945 1931 mt 1945 1979 L
gr

c9
gs 557 503 1729 1729 rc
gr

gs 1201 921 1133 1359 rc
c8
1920 1939 mt 1968 1939 L
1944 1915 mt 1944 1963 L
1928 1923 mt 1960 1955 L
1960 1923 mt 1928 1955 L
gr

c8
gs 557 503 1729 1729 rc
gr

gs 1201 921 1133 1359 rc
1916 1935 mt 1964 1935 L
1940 1911 mt 1940 1959 L
1924 1919 mt 1956 1951 L
1956 1919 mt 1924 1951 L
gr

gs 557 503 1729 1729 rc
gr

gs 1125 784 1206 1496 rc
c9
1915 1941 mt 1963 1941 L
1939 1917 mt 1939 1965 L
gr

c9
gs 557 503 1729 1729 rc
gr

gs 1125 784 1206 1496 rc
1912 1939 mt 1960 1939 L
1936 1915 mt 1936 1963 L
gr

gs 557 503 1729 1729 rc
gr

gs 1201 921 1133 1359 rc
c8
1912 1930 mt 1960 1930 L
1936 1906 mt 1936 1954 L
1920 1914 mt 1952 1946 L
1952 1914 mt 1920 1946 L
gr

c8
gs 557 503 1729 1729 rc
gr

gs 1125 784 1206 1496 rc
c9
1909 1939 mt 1957 1939 L
1933 1915 mt 1933 1963 L
gr

c9
gs 557 503 1729 1729 rc
gr

gs 1201 921 1133 1359 rc
c8
1908 1926 mt 1956 1926 L
1932 1902 mt 1932 1950 L
1916 1910 mt 1948 1942 L
1948 1910 mt 1916 1942 L
gr

c8
gs 557 503 1729 1729 rc
gr

gs 1125 784 1206 1496 rc
c9
1906 1938 mt 1954 1938 L
1930 1914 mt 1930 1962 L
gr

c9
gs 557 503 1729 1729 rc
gr

gs 1201 921 1133 1359 rc
c8
1903 1921 mt 1951 1921 L
1927 1897 mt 1927 1945 L
1911 1905 mt 1943 1937 L
1943 1905 mt 1911 1937 L
gr

c8
gs 557 503 1729 1729 rc
gr

gs 1125 784 1206 1496 rc
c9
1901 1923 mt 1949 1923 L
1925 1899 mt 1925 1947 L
gr

c9
gs 557 503 1729 1729 rc
gr

gs 1201 921 1133 1359 rc
c8
1899 1915 mt 1947 1915 L
1923 1891 mt 1923 1939 L
1907 1899 mt 1939 1931 L
1939 1899 mt 1907 1931 L
gr

c8
gs 557 503 1729 1729 rc
gr

gs 1125 784 1206 1496 rc
c9
1898 1933 mt 1946 1933 L
1922 1909 mt 1922 1957 L
gr

c9
gs 557 503 1729 1729 rc
gr

gs 1125 784 1206 1496 rc
1895 1937 mt 1943 1937 L
1919 1913 mt 1919 1961 L
gr

gs 557 503 1729 1729 rc
gr

gs 1201 921 1133 1359 rc
c8
1894 1909 mt 1942 1909 L
1918 1885 mt 1918 1933 L
1902 1893 mt 1934 1925 L
1934 1893 mt 1902 1925 L
gr

c8
gs 557 503 1729 1729 rc
gr

gs 1201 921 1133 1359 rc
1890 1903 mt 1938 1903 L
1914 1879 mt 1914 1927 L
1898 1887 mt 1930 1919 L
1930 1887 mt 1898 1919 L
gr

gs 557 503 1729 1729 rc
gr

gs 1125 784 1206 1496 rc
c9
1888 1918 mt 1936 1918 L
1912 1894 mt 1912 1942 L
gr

c9
gs 557 503 1729 1729 rc
gr

gs 1201 921 1133 1359 rc
c8
1885 1896 mt 1933 1896 L
1909 1872 mt 1909 1920 L
1893 1880 mt 1925 1912 L
1925 1880 mt 1893 1912 L
gr

c8
gs 557 503 1729 1729 rc
gr

gs 1125 784 1206 1496 rc
c9
1884 1860 mt 1932 1860 L
1908 1836 mt 1908 1884 L
gr

c9
gs 557 503 1729 1729 rc
gr

gs 1125 784 1206 1496 rc
1882 1883 mt 1930 1883 L
1906 1859 mt 1906 1907 L
gr

gs 557 503 1729 1729 rc
gr

gs 1201 921 1133 1359 rc
c8
1880 1888 mt 1928 1888 L
1904 1864 mt 1904 1912 L
1888 1872 mt 1920 1904 L
1920 1872 mt 1888 1904 L
gr

c8
gs 557 503 1729 1729 rc
gr

gs 1125 784 1206 1496 rc
c9
1876 1882 mt 1924 1882 L
1900 1858 mt 1900 1906 L
gr

c9
gs 557 503 1729 1729 rc
gr

gs 1201 921 1133 1359 rc
c8
1875 1880 mt 1923 1880 L
1899 1856 mt 1899 1904 L
1883 1864 mt 1915 1896 L
1915 1864 mt 1883 1896 L
gr

c8
gs 557 503 1729 1729 rc
gr

gs 1125 784 1206 1496 rc
c9
1873 1886 mt 1921 1886 L
1897 1862 mt 1897 1910 L
gr

c9
gs 557 503 1729 1729 rc
gr

gs 1201 921 1133 1359 rc
c8
1870 1872 mt 1918 1872 L
1894 1848 mt 1894 1896 L
1878 1856 mt 1910 1888 L
1910 1856 mt 1878 1888 L
gr

c8
gs 557 503 1729 1729 rc
gr

gs 1125 784 1206 1496 rc
c9
1867 1847 mt 1915 1847 L
1891 1823 mt 1891 1871 L
gr

c9
gs 557 503 1729 1729 rc
gr

gs 1201 921 1133 1359 rc
c8
1865 1862 mt 1913 1862 L
1889 1838 mt 1889 1886 L
1873 1846 mt 1905 1878 L
1905 1846 mt 1873 1878 L
gr

c8
gs 557 503 1729 1729 rc
gr

gs 1125 784 1206 1496 rc
c9
1860 1851 mt 1908 1851 L
1884 1827 mt 1884 1875 L
gr

c9
gs 557 503 1729 1729 rc
gr

gs 1125 784 1206 1496 rc
1860 1836 mt 1908 1836 L
1884 1812 mt 1884 1860 L
gr

gs 557 503 1729 1729 rc
gr

gs 1201 921 1133 1359 rc
c8
1859 1853 mt 1907 1853 L
1883 1829 mt 1883 1877 L
1867 1837 mt 1899 1869 L
1899 1837 mt 1867 1869 L
gr

c8
gs 557 503 1729 1729 rc
gr

gs 1201 921 1133 1359 rc
1854 1842 mt 1902 1842 L
1878 1818 mt 1878 1866 L
1862 1826 mt 1894 1858 L
1894 1826 mt 1862 1858 L
gr

gs 557 503 1729 1729 rc
gr

gs 1125 784 1206 1496 rc
c9
1851 1811 mt 1899 1811 L
1875 1787 mt 1875 1835 L
gr

c9
gs 557 503 1729 1729 rc
gr

gs 1201 921 1133 1359 rc
c8
1848 1831 mt 1896 1831 L
1872 1807 mt 1872 1855 L
1856 1815 mt 1888 1847 L
1888 1815 mt 1856 1847 L
gr

c8
gs 557 503 1729 1729 rc
gr

gs 1201 921 1133 1359 rc
1842 1819 mt 1890 1819 L
1866 1795 mt 1866 1843 L
1850 1803 mt 1882 1835 L
1882 1803 mt 1850 1835 L
gr

gs 557 503 1729 1729 rc
gr

gs 1125 784 1206 1496 rc
c9
1846 1851 mt 1894 1851 L
1870 1827 mt 1870 1875 L
gr

c9
gs 557 503 1729 1729 rc
gr

gs 1125 784 1206 1496 rc
1843 1813 mt 1891 1813 L
1867 1789 mt 1867 1837 L
gr

gs 557 503 1729 1729 rc
gr

gs 1201 921 1133 1359 rc
c8
1836 1806 mt 1884 1806 L
1860 1782 mt 1860 1830 L
1844 1790 mt 1876 1822 L
1876 1790 mt 1844 1822 L
gr

c8
gs 557 503 1729 1729 rc
gr

gs 1125 784 1206 1496 rc
c9
1832 1791 mt 1880 1791 L
1856 1767 mt 1856 1815 L
gr

c9
gs 557 503 1729 1729 rc
gr

gs 1125 784 1206 1496 rc
1832 1797 mt 1880 1797 L
1856 1773 mt 1856 1821 L
gr

gs 557 503 1729 1729 rc
gr

gs 1201 921 1133 1359 rc
c8
1829 1792 mt 1877 1792 L
1853 1768 mt 1853 1816 L
1837 1776 mt 1869 1808 L
1869 1776 mt 1837 1808 L
gr

c8
gs 557 503 1729 1729 rc
gr

gs 1125 784 1206 1496 rc
c9
1827 1804 mt 1875 1804 L
1851 1780 mt 1851 1828 L
gr

c9
gs 557 503 1729 1729 rc
gr

gs 1201 921 1133 1359 rc
c8
1823 1778 mt 1871 1778 L
1847 1754 mt 1847 1802 L
1831 1762 mt 1863 1794 L
1863 1762 mt 1831 1794 L
gr

c8
gs 557 503 1729 1729 rc
gr

gs 1125 784 1206 1496 rc
c9
1823 1754 mt 1871 1754 L
1847 1730 mt 1847 1778 L
gr

c9
gs 557 503 1729 1729 rc
gr

gs 1125 784 1206 1496 rc
1819 1755 mt 1867 1755 L
1843 1731 mt 1843 1779 L
gr

gs 557 503 1729 1729 rc
gr

gs 1201 921 1133 1359 rc
c8
1816 1763 mt 1864 1763 L
1840 1739 mt 1840 1787 L
1824 1747 mt 1856 1779 L
1856 1747 mt 1824 1779 L
gr

c8
gs 557 503 1729 1729 rc
gr

gs 1201 921 1133 1359 rc
1809 1747 mt 1857 1747 L
1833 1723 mt 1833 1771 L
1817 1731 mt 1849 1763 L
1849 1731 mt 1817 1763 L
gr

gs 557 503 1729 1729 rc
gr

gs 1125 784 1206 1496 rc
c9
1805 1687 mt 1853 1687 L
1829 1663 mt 1829 1711 L
gr

c9
gs 557 503 1729 1729 rc
gr

gs 1201 921 1133 1359 rc
c8
1802 1730 mt 1850 1730 L
1826 1706 mt 1826 1754 L
1810 1714 mt 1842 1746 L
1842 1714 mt 1810 1746 L
gr

c8
gs 557 503 1729 1729 rc
gr

gs 1125 784 1206 1496 rc
c9
1799 1699 mt 1847 1699 L
1823 1675 mt 1823 1723 L
gr

c9
gs 557 503 1729 1729 rc
gr

gs 1201 921 1133 1359 rc
c8
1794 1712 mt 1842 1712 L
1818 1688 mt 1818 1736 L
1802 1696 mt 1834 1728 L
1834 1696 mt 1802 1728 L
gr

c8
gs 557 503 1729 1729 rc
gr

gs 1125 784 1206 1496 rc
c9
1793 1683 mt 1841 1683 L
1817 1659 mt 1817 1707 L
gr

c9
gs 557 503 1729 1729 rc
gr

gs 1125 784 1206 1496 rc
1787 1651 mt 1835 1651 L
1811 1627 mt 1811 1675 L
gr

gs 557 503 1729 1729 rc
gr

gs 1201 921 1133 1359 rc
c8
1786 1693 mt 1834 1693 L
1810 1669 mt 1810 1717 L
1794 1677 mt 1826 1709 L
1826 1677 mt 1794 1709 L
gr

c8
gs 557 503 1729 1729 rc
gr

gs 1125 784 1206 1496 rc
c9
1779 1654 mt 1827 1654 L
1803 1630 mt 1803 1678 L
gr

c9
gs 557 503 1729 1729 rc
gr

gs 1201 921 1133 1359 rc
c8
1778 1673 mt 1826 1673 L
1802 1649 mt 1802 1697 L
1786 1657 mt 1818 1689 L
1818 1657 mt 1786 1689 L
gr

c8
gs 557 503 1729 1729 rc
gr

gs 1201 921 1133 1359 rc
1769 1652 mt 1817 1652 L
1793 1628 mt 1793 1676 L
1777 1636 mt 1809 1668 L
1809 1636 mt 1777 1668 L
gr

gs 557 503 1729 1729 rc
gr

gs 1201 921 1133 1359 rc
1760 1631 mt 1808 1631 L
1784 1607 mt 1784 1655 L
1768 1615 mt 1800 1647 L
1800 1615 mt 1768 1647 L
gr

gs 557 503 1729 1729 rc
gr

gs 1125 784 1206 1496 rc
c9
1760 1577 mt 1808 1577 L
1784 1553 mt 1784 1601 L
gr

c9
gs 557 503 1729 1729 rc
gr

gs 1125 784 1206 1496 rc
1756 1527 mt 1804 1527 L
1780 1503 mt 1780 1551 L
gr

gs 557 503 1729 1729 rc
gr

gs 1201 921 1133 1359 rc
c8
1751 1608 mt 1799 1608 L
1775 1584 mt 1775 1632 L
1759 1592 mt 1791 1624 L
1791 1592 mt 1759 1624 L
gr

c8
gs 557 503 1729 1729 rc
gr

0 sg
%%IncludeResource: font Helvetica
/Helvetica /ISOLatin1Encoding 144 FMSR

1807 2406 mt  -15 rotate
(Days) s
15 rotate
gs 557 503 1729 1729 rc
gr

gs 1125 784 1206 1496 rc
c9
1746 1575 mt 1794 1575 L
1770 1551 mt 1770 1599 L
gr

c9
gs 557 503 1729 1729 rc
gr

gs 1201 921 1133 1359 rc
c8
1741 1585 mt 1789 1585 L
1765 1561 mt 1765 1609 L
1749 1569 mt 1781 1601 L
1781 1569 mt 1749 1601 L
gr

c8
gs 557 503 1729 1729 rc
gr

gs 1201 921 1133 1359 rc
1731 1561 mt 1779 1561 L
1755 1537 mt 1755 1585 L
1739 1545 mt 1771 1577 L
1771 1545 mt 1739 1577 L
gr

gs 557 503 1729 1729 rc
gr

gs 1125 784 1206 1496 rc
c9
1727 1535 mt 1775 1535 L
1751 1511 mt 1751 1559 L
gr

c9
gs 557 503 1729 1729 rc
gr

gs 1201 921 1133 1359 rc
c8
1721 1535 mt 1769 1535 L
1745 1511 mt 1745 1559 L
1729 1519 mt 1761 1551 L
1761 1519 mt 1729 1551 L
gr

c8
gs 557 503 1729 1729 rc
gr

gs 1125 784 1206 1496 rc
c9
1718 1430 mt 1766 1430 L
1742 1406 mt 1742 1454 L
gr

c9
gs 557 503 1729 1729 rc
gr

gs 1201 921 1133 1359 rc
c8
1710 1510 mt 1758 1510 L
1734 1486 mt 1734 1534 L
1718 1494 mt 1750 1526 L
1750 1494 mt 1718 1526 L
gr

c8
gs 557 503 1729 1729 rc
gr

gs 1125 784 1206 1496 rc
c9
1705 1439 mt 1753 1439 L
1729 1415 mt 1729 1463 L
gr

c9
gs 557 503 1729 1729 rc
gr

gs 1201 921 1133 1359 rc
c8
1698 1483 mt 1746 1483 L
1722 1459 mt 1722 1507 L
1706 1467 mt 1738 1499 L
1738 1467 mt 1706 1499 L
gr

c8
gs 557 503 1729 1729 rc
gr

gs 1201 921 1133 1359 rc
1687 1456 mt 1735 1456 L
1711 1432 mt 1711 1480 L
1695 1440 mt 1727 1472 L
1727 1440 mt 1695 1472 L
gr

gs 557 503 1729 1729 rc
gr

gs 1125 784 1206 1496 rc
c9
1679 1326 mt 1727 1326 L
1703 1302 mt 1703 1350 L
gr

c9
gs 557 503 1729 1729 rc
gr

gs 1125 784 1206 1496 rc
1679 1428 mt 1727 1428 L
1703 1404 mt 1703 1452 L
gr

gs 557 503 1729 1729 rc
gr

gs 1201 921 1133 1359 rc
c8
1674 1428 mt 1722 1428 L
1698 1404 mt 1698 1452 L
1682 1412 mt 1714 1444 L
1714 1412 mt 1682 1444 L
gr

c8
gs 557 503 1729 1729 rc
gr

gs 1201 921 1133 1359 rc
1661 1400 mt 1709 1400 L
1685 1376 mt 1685 1424 L
1669 1384 mt 1701 1416 L
1701 1384 mt 1669 1416 L
gr

gs 557 503 1729 1729 rc
gr

gs 1125 784 1206 1496 rc
c9
1655 1340 mt 1703 1340 L
1679 1316 mt 1679 1364 L
gr

c9
gs 557 503 1729 1729 rc
gr

gs 1201 921 1133 1359 rc
c8
1648 1371 mt 1696 1371 L
1672 1347 mt 1672 1395 L
1656 1355 mt 1688 1387 L
1688 1355 mt 1656 1387 L
gr

c8
gs 557 503 1729 1729 rc
gr

gs 1125 784 1206 1496 rc
c9
1643 1329 mt 1691 1329 L
1667 1305 mt 1667 1353 L
gr

c9
gs 557 503 1729 1729 rc
gr

gs 1201 921 1133 1359 rc
c8
1634 1342 mt 1682 1342 L
1658 1318 mt 1658 1366 L
1642 1326 mt 1674 1358 L
1674 1326 mt 1642 1358 L
gr

c8
gs 557 503 1729 1729 rc
gr

gs 1201 921 1133 1359 rc
1620 1313 mt 1668 1313 L
1644 1289 mt 1644 1337 L
1628 1297 mt 1660 1329 L
1660 1297 mt 1628 1329 L
gr

gs 557 503 1729 1729 rc
gr

gs 1125 784 1206 1496 rc
c9
1616 1276 mt 1664 1276 L
1640 1252 mt 1640 1300 L
gr

c9
gs 557 503 1729 1729 rc
gr

gs 1201 921 1133 1359 rc
c8
1605 1284 mt 1653 1284 L
1629 1260 mt 1629 1308 L
1613 1268 mt 1645 1300 L
1645 1268 mt 1613 1300 L
gr

c8
gs 557 503 1729 1729 rc
gr

gs 1125 784 1206 1496 rc
c9
1596 1180 mt 1644 1180 L
1620 1156 mt 1620 1204 L
gr

c9
gs 557 503 1729 1729 rc
gr

gs 1125 784 1206 1496 rc
1590 1250 mt 1638 1250 L
1614 1226 mt 1614 1274 L
gr

gs 557 503 1729 1729 rc
gr

gs 1201 921 1133 1359 rc
c8
1590 1256 mt 1638 1256 L
1614 1232 mt 1614 1280 L
1598 1240 mt 1630 1272 L
1630 1240 mt 1598 1272 L
gr

c8
gs 557 503 1729 1729 rc
gr

gs 1201 921 1133 1359 rc
1574 1228 mt 1622 1228 L
1598 1204 mt 1598 1252 L
1582 1212 mt 1614 1244 L
1614 1212 mt 1582 1244 L
gr

gs 557 503 1729 1729 rc
gr

gs 1125 784 1206 1496 rc
c9
1572 1226 mt 1620 1226 L
1596 1202 mt 1596 1250 L
gr

c9
gs 557 503 1729 1729 rc
gr

gs 1201 921 1133 1359 rc
c8
1558 1200 mt 1606 1200 L
1582 1176 mt 1582 1224 L
1566 1184 mt 1598 1216 L
1598 1184 mt 1566 1216 L
gr

c8
gs 557 503 1729 1729 rc
gr

gs 1201 921 1133 1359 rc
1542 1173 mt 1590 1173 L
1566 1149 mt 1566 1197 L
1550 1157 mt 1582 1189 L
1582 1157 mt 1550 1189 L
gr

gs 557 503 1729 1729 rc
gr

gs 1125 784 1206 1496 rc
c9
1531 1166 mt 1579 1166 L
1555 1142 mt 1555 1190 L
gr

c9
gs 557 503 1729 1729 rc
gr

gs 1201 921 1133 1359 rc
c8
1525 1147 mt 1573 1147 L
1549 1123 mt 1549 1171 L
1533 1131 mt 1565 1163 L
1565 1131 mt 1533 1163 L
gr

c8
gs 557 503 1729 1729 rc
gr

gs 1125 784 1206 1496 rc
c9
1527 1056 mt 1575 1056 L
1551 1032 mt 1551 1080 L
gr

c9
gs 557 503 1729 1729 rc
gr

gs 1201 921 1133 1359 rc
c8
1512 2042 mt 1560 2042 L
1536 2018 mt 1536 2066 L
1520 2026 mt 1552 2058 L
1552 2026 mt 1520 2058 L
gr

c8
gs 557 503 1729 1729 rc
gr

gs 1125 784 1206 1496 rc
c9
1511 2035 mt 1559 2035 L
1535 2011 mt 1535 2059 L
gr

c9
gs 557 503 1729 1729 rc
gr

gs 1125 784 1206 1496 rc
1512 2069 mt 1560 2069 L
1536 2045 mt 1536 2093 L
gr

gs 557 503 1729 1729 rc
gr

gs 1201 921 1133 1359 rc
c8
1514 2069 mt 1562 2069 L
1538 2045 mt 1538 2093 L
1522 2053 mt 1554 2085 L
1554 2053 mt 1522 2085 L
gr

c8
gs 557 503 1729 1729 rc
gr

gs 1125 784 1206 1496 rc
c9
1516 2068 mt 1564 2068 L
1540 2044 mt 1540 2092 L
gr

c9
gs 557 503 1729 1729 rc
gr

gs 1125 784 1206 1496 rc
1514 2054 mt 1562 2054 L
1538 2030 mt 1538 2078 L
gr

gs 557 503 1729 1729 rc
gr

gs 1201 921 1133 1359 rc
c8
1508 2017 mt 1556 2017 L
1532 1993 mt 1532 2041 L
1516 2001 mt 1548 2033 L
1548 2001 mt 1516 2033 L
gr

c8
gs 557 503 1729 1729 rc
gr

gs 1125 784 1206 1496 rc
c9
1514 2019 mt 1562 2019 L
1538 1995 mt 1538 2043 L
gr

c9
gs 557 503 1729 1729 rc
gr

gs 1201 921 1133 1359 rc
c8
1514 2062 mt 1562 2062 L
1538 2038 mt 1538 2086 L
1522 2046 mt 1554 2078 L
1554 2046 mt 1522 2078 L
gr

c8
gs 557 503 1729 1729 rc
gr

gs 1125 784 1206 1496 rc
c9
1513 2022 mt 1561 2022 L
1537 1998 mt 1537 2046 L
gr

c9
gs 557 503 1729 1729 rc
gr

gs 1201 921 1133 1359 rc
c8
1513 2075 mt 1561 2075 L
1537 2051 mt 1537 2099 L
1521 2059 mt 1553 2091 L
1553 2059 mt 1521 2091 L
gr

c8
gs 557 503 1729 1729 rc
gr

gs 1201 921 1133 1359 rc
1513 2056 mt 1561 2056 L
1537 2032 mt 1537 2080 L
1521 2040 mt 1553 2072 L
1553 2040 mt 1521 2072 L
gr

gs 557 503 1729 1729 rc
gr

gs 1201 921 1133 1359 rc
1513 2080 mt 1561 2080 L
1537 2056 mt 1537 2104 L
1521 2064 mt 1553 2096 L
1553 2064 mt 1521 2096 L
gr

gs 557 503 1729 1729 rc
gr

gs 1125 784 1206 1496 rc
c9
1513 2015 mt 1561 2015 L
1537 1991 mt 1537 2039 L
gr

c9
gs 557 503 1729 1729 rc
gr

gs 1201 921 1133 1359 rc
c8
1513 2049 mt 1561 2049 L
1537 2025 mt 1537 2073 L
1521 2033 mt 1553 2065 L
1553 2033 mt 1521 2065 L
gr

c8
gs 557 503 1729 1729 rc
gr

gs 1201 921 1133 1359 rc
1512 2085 mt 1560 2085 L
1536 2061 mt 1536 2109 L
1520 2069 mt 1552 2101 L
1552 2069 mt 1520 2101 L
gr

gs 557 503 1729 1729 rc
gr

gs 1125 784 1206 1496 rc
c9
1512 2031 mt 1560 2031 L
1536 2007 mt 1536 2055 L
gr

c9
gs 557 503 1729 1729 rc
gr

gs 1125 784 1206 1496 rc
1512 2100 mt 1560 2100 L
1536 2076 mt 1536 2124 L
gr

gs 557 503 1729 1729 rc
gr

gs 1201 921 1133 1359 rc
c8
1512 2090 mt 1560 2090 L
1536 2066 mt 1536 2114 L
1520 2074 mt 1552 2106 L
1552 2074 mt 1520 2106 L
gr

c8
gs 557 503 1729 1729 rc
gr

gs 1125 784 1206 1496 rc
c9
1511 2093 mt 1559 2093 L
1535 2069 mt 1535 2117 L
gr

c9
gs 557 503 1729 1729 rc
gr

gs 1201 921 1133 1359 rc
c8
1511 2034 mt 1559 2034 L
1535 2010 mt 1535 2058 L
1519 2018 mt 1551 2050 L
1551 2018 mt 1519 2050 L
gr

c8
gs 557 503 1729 1729 rc
gr

gs 1125 784 1206 1496 rc
c9
1511 2100 mt 1559 2100 L
1535 2076 mt 1535 2124 L
gr

c9
gs 557 503 1729 1729 rc
gr

gs 1201 921 1133 1359 rc
c8
1511 2095 mt 1559 2095 L
1535 2071 mt 1535 2119 L
1519 2079 mt 1551 2111 L
1551 2079 mt 1519 2111 L
gr

c8
gs 557 503 1729 1729 rc
gr

gs 1125 784 1206 1496 rc
c9
1510 2095 mt 1558 2095 L
1534 2071 mt 1534 2119 L
gr

c9
gs 557 503 1729 1729 rc
gr

gs 1201 921 1133 1359 rc
c8
1510 2100 mt 1558 2100 L
1534 2076 mt 1534 2124 L
1518 2084 mt 1550 2116 L
1550 2084 mt 1518 2116 L
gr

c8
gs 557 503 1729 1729 rc
gr

gs 1201 921 1133 1359 rc
1510 2025 mt 1558 2025 L
1534 2001 mt 1534 2049 L
1518 2009 mt 1550 2041 L
1550 2009 mt 1518 2041 L
gr

gs 557 503 1729 1729 rc
gr

gs 1125 784 1206 1496 rc
c9
1509 2082 mt 1557 2082 L
1533 2058 mt 1533 2106 L
gr

c9
gs 557 503 1729 1729 rc
gr

gs 1125 784 1206 1496 rc
1509 1998 mt 1557 1998 L
1533 1974 mt 1533 2022 L
gr

gs 557 503 1729 1729 rc
gr

gs 1201 921 1133 1359 rc
c8
1508 2104 mt 1556 2104 L
1532 2080 mt 1532 2128 L
1516 2088 mt 1548 2120 L
1548 2088 mt 1516 2120 L
gr

c8
gs 557 503 1729 1729 rc
gr

gs 1125 784 1206 1496 rc
c9
1508 2124 mt 1556 2124 L
1532 2100 mt 1532 2148 L
gr

c9
gs 557 503 1729 1729 rc
gr

gs 1125 784 1206 1496 rc
1508 2038 mt 1556 2038 L
1532 2014 mt 1532 2062 L
gr

gs 557 503 1729 1729 rc
gr

gs 1125 784 1206 1496 rc
1508 2113 mt 1556 2113 L
1532 2089 mt 1532 2137 L
gr

gs 557 503 1729 1729 rc
gr

gs 1201 921 1133 1359 rc
c8
1508 1122 mt 1556 1122 L
1532 1098 mt 1532 1146 L
1516 1106 mt 1548 1138 L
1548 1106 mt 1516 1138 L
gr

c8
gs 557 503 1729 1729 rc
gr

gs 1125 784 1206 1496 rc
c9
1508 2129 mt 1556 2129 L
1532 2105 mt 1532 2153 L
gr

c9
gs 557 503 1729 1729 rc
gr

gs 1125 784 1206 1496 rc
1507 2116 mt 1555 2116 L
1531 2092 mt 1531 2140 L
gr

gs 557 503 1729 1729 rc
gr

gs 1201 921 1133 1359 rc
c8
1507 2108 mt 1555 2108 L
1531 2084 mt 1531 2132 L
1515 2092 mt 1547 2124 L
1547 2092 mt 1515 2124 L
gr

c8
gs 557 503 1729 1729 rc
gr

gs 1201 921 1133 1359 rc
1506 2007 mt 1554 2007 L
1530 1983 mt 1530 2031 L
1514 1991 mt 1546 2023 L
1546 1991 mt 1514 2023 L
gr

gs 557 503 1729 1729 rc
gr

gs 1201 921 1133 1359 rc
1505 2112 mt 1553 2112 L
1529 2088 mt 1529 2136 L
1513 2096 mt 1545 2128 L
1545 2096 mt 1513 2128 L
gr

gs 557 503 1729 1729 rc
gr

gs 1125 784 1206 1496 rc
c9
1505 2069 mt 1553 2069 L
1529 2045 mt 1529 2093 L
gr

c9
gs 557 503 1729 1729 rc
gr

gs 1125 784 1206 1496 rc
1504 2005 mt 1552 2005 L
1528 1981 mt 1528 2029 L
gr

gs 557 503 1729 1729 rc
gr

gs 1201 921 1133 1359 rc
c8
1504 2115 mt 1552 2115 L
1528 2091 mt 1528 2139 L
1512 2099 mt 1544 2131 L
1544 2099 mt 1512 2131 L
gr

c8
gs 557 503 1729 1729 rc
gr

gs 1125 784 1206 1496 rc
c9
1504 2104 mt 1552 2104 L
1528 2080 mt 1528 2128 L
gr

c9
gs 557 503 1729 1729 rc
gr

gs 1201 921 1133 1359 rc
c8
1503 1997 mt 1551 1997 L
1527 1973 mt 1527 2021 L
1511 1981 mt 1543 2013 L
1543 1981 mt 1511 2013 L
gr

c8
gs 557 503 1729 1729 rc
gr

gs 1125 784 1206 1496 rc
c9
1503 2119 mt 1551 2119 L
1527 2095 mt 1527 2143 L
gr

c9
gs 557 503 1729 1729 rc
gr

gs 1201 921 1133 1359 rc
c8
1502 2119 mt 1550 2119 L
1526 2095 mt 1526 2143 L
1510 2103 mt 1542 2135 L
1542 2103 mt 1510 2135 L
gr

c8
gs 557 503 1729 1729 rc
gr

gs 1201 921 1133 1359 rc
1496 2128 mt 1544 2128 L
1520 2104 mt 1520 2152 L
1504 2112 mt 1536 2144 L
1536 2112 mt 1504 2144 L
gr

gs 557 503 1729 1729 rc
gr

gs 1125 784 1206 1496 rc
c9
1501 2141 mt 1549 2141 L
1525 2117 mt 1525 2165 L
gr

c9
gs 557 503 1729 1729 rc
gr

gs 1201 921 1133 1359 rc
c8
1501 1987 mt 1549 1987 L
1525 1963 mt 1525 2011 L
1509 1971 mt 1541 2003 L
1541 1971 mt 1509 2003 L
gr

c8
gs 557 503 1729 1729 rc
gr

gs 1125 784 1206 1496 rc
c9
1501 1979 mt 1549 1979 L
1525 1955 mt 1525 2003 L
gr

c9
gs 557 503 1729 1729 rc
gr

gs 1201 921 1133 1359 rc
c8
1500 2122 mt 1548 2122 L
1524 2098 mt 1524 2146 L
1508 2106 mt 1540 2138 L
1540 2106 mt 1508 2138 L
gr

c8
gs 557 503 1729 1729 rc
gr

gs 1125 784 1206 1496 rc
c9
1499 2128 mt 1547 2128 L
1523 2104 mt 1523 2152 L
gr

c9
gs 557 503 1729 1729 rc
gr

gs 1125 784 1206 1496 rc
1498 1963 mt 1546 1963 L
1522 1939 mt 1522 1987 L
gr

gs 557 503 1729 1729 rc
gr

gs 1201 921 1133 1359 rc
c8
1498 2125 mt 1546 2125 L
1522 2101 mt 1522 2149 L
1506 2109 mt 1538 2141 L
1538 2109 mt 1506 2141 L
gr

c8
gs 557 503 1729 1729 rc
gr

gs 1201 921 1133 1359 rc
1498 1976 mt 1546 1976 L
1522 1952 mt 1522 2000 L
1506 1960 mt 1538 1992 L
1538 1960 mt 1506 1992 L
gr

gs 557 503 1729 1729 rc
gr

gs 1125 784 1206 1496 rc
c9
1496 1056 mt 1544 1056 L
1520 1032 mt 1520 1080 L
gr

c9
gs 557 503 1729 1729 rc
gr

gs 1125 784 1206 1496 rc
1495 1935 mt 1543 1935 L
1519 1911 mt 1519 1959 L
gr

gs 557 503 1729 1729 rc
gr

gs 1125 784 1206 1496 rc
1495 2125 mt 1543 2125 L
1519 2101 mt 1519 2149 L
gr

gs 557 503 1729 1729 rc
gr

gs 1201 921 1133 1359 rc
c8
1494 1964 mt 1542 1964 L
1518 1940 mt 1518 1988 L
1502 1948 mt 1534 1980 L
1534 1948 mt 1502 1980 L
gr

c8
gs 557 503 1729 1729 rc
gr

gs 1201 921 1133 1359 rc
1494 2131 mt 1542 2131 L
1518 2107 mt 1518 2155 L
1502 2115 mt 1534 2147 L
1534 2115 mt 1502 2147 L
gr

gs 557 503 1729 1729 rc
gr

gs 1125 784 1206 1496 rc
c9
1494 2136 mt 1542 2136 L
1518 2112 mt 1518 2160 L
gr

c9
gs 557 503 1729 1729 rc
gr

gs 1125 784 1206 1496 rc
1494 1951 mt 1542 1951 L
1518 1927 mt 1518 1975 L
gr

gs 557 503 1729 1729 rc
gr

gs 1201 921 1133 1359 rc
c8
1492 2134 mt 1540 2134 L
1516 2110 mt 1516 2158 L
1500 2118 mt 1532 2150 L
1532 2118 mt 1500 2150 L
gr

c8
gs 557 503 1729 1729 rc
gr

gs 1125 784 1206 1496 rc
c9
1492 2139 mt 1540 2139 L
1516 2115 mt 1516 2163 L
gr

c9
gs 557 503 1729 1729 rc
gr

gs 1125 784 1206 1496 rc
1491 1936 mt 1539 1936 L
1515 1912 mt 1515 1960 L
gr

gs 557 503 1729 1729 rc
gr

gs 1201 921 1133 1359 rc
c8
1490 1098 mt 1538 1098 L
1514 1074 mt 1514 1122 L
1498 1082 mt 1530 1114 L
1530 1082 mt 1498 1114 L
gr

c8
gs 557 503 1729 1729 rc
gr

gs 1201 921 1133 1359 rc
1490 1952 mt 1538 1952 L
1514 1928 mt 1514 1976 L
1498 1936 mt 1530 1968 L
1530 1936 mt 1498 1968 L
gr

gs 557 503 1729 1729 rc
gr

gs 1201 921 1133 1359 rc
1489 2137 mt 1537 2137 L
1513 2113 mt 1513 2161 L
1497 2121 mt 1529 2153 L
1529 2121 mt 1497 2153 L
gr

gs 557 503 1729 1729 rc
gr

gs 1201 921 1133 1359 rc
1487 2139 mt 1535 2139 L
1511 2115 mt 1511 2163 L
1495 2123 mt 1527 2155 L
1527 2123 mt 1495 2155 L
gr

gs 557 503 1729 1729 rc
gr

gs 1125 784 1206 1496 rc
c9
1486 2139 mt 1534 2139 L
1510 2115 mt 1510 2163 L
gr

c9
gs 557 503 1729 1729 rc
gr

gs 1125 784 1206 1496 rc
1486 2144 mt 1534 2144 L
1510 2120 mt 1510 2168 L
gr

gs 557 503 1729 1729 rc
gr

gs 1201 921 1133 1359 rc
c8
1486 1939 mt 1534 1939 L
1510 1915 mt 1510 1963 L
1494 1923 mt 1526 1955 L
1526 1923 mt 1494 1955 L
gr

c8
gs 557 503 1729 1729 rc
gr

gs 1201 921 1133 1359 rc
1484 2141 mt 1532 2141 L
1508 2117 mt 1508 2165 L
1492 2125 mt 1524 2157 L
1524 2125 mt 1492 2157 L
gr

gs 557 503 1729 1729 rc
gr

gs 1125 784 1206 1496 rc
c9
1483 1911 mt 1531 1911 L
1507 1887 mt 1507 1935 L
gr

c9
gs 557 503 1729 1729 rc
gr

gs 1125 784 1206 1496 rc
1482 2148 mt 1530 2148 L
1506 2124 mt 1506 2172 L
gr

gs 557 503 1729 1729 rc
gr

gs 1201 921 1133 1359 rc
c8
1482 2144 mt 1530 2144 L
1506 2120 mt 1506 2168 L
1490 2128 mt 1522 2160 L
1522 2128 mt 1490 2160 L
gr

c8
gs 557 503 1729 1729 rc
gr

gs 1125 784 1206 1496 rc
c9
1482 2151 mt 1530 2151 L
1506 2127 mt 1506 2175 L
gr

c9
gs 557 503 1729 1729 rc
gr

gs 1125 784 1206 1496 rc
1482 1916 mt 1530 1916 L
1506 1892 mt 1506 1940 L
gr

gs 557 503 1729 1729 rc
gr

gs 1201 921 1133 1359 rc
c8
1481 1925 mt 1529 1925 L
1505 1901 mt 1505 1949 L
1489 1909 mt 1521 1941 L
1521 1909 mt 1489 1941 L
gr

c8
gs 557 503 1729 1729 rc
gr

gs 1201 921 1133 1359 rc
1479 2146 mt 1527 2146 L
1503 2122 mt 1503 2170 L
1487 2130 mt 1519 2162 L
1519 2130 mt 1487 2162 L
gr

gs 557 503 1729 1729 rc
gr

gs 1201 921 1133 1359 rc
1477 2148 mt 1525 2148 L
1501 2124 mt 1501 2172 L
1485 2132 mt 1517 2164 L
1517 2132 mt 1485 2164 L
gr

gs 557 503 1729 1729 rc
gr

gs 1125 784 1206 1496 rc
c9
1477 2152 mt 1525 2152 L
1501 2128 mt 1501 2176 L
gr

c9
gs 557 503 1729 1729 rc
gr

gs 1201 921 1133 1359 rc
c8
1475 1911 mt 1523 1911 L
1499 1887 mt 1499 1935 L
1483 1895 mt 1515 1927 L
1515 1895 mt 1483 1927 L
gr

c8
gs 557 503 1729 1729 rc
gr

gs 1125 784 1206 1496 rc
c9
1473 2148 mt 1521 2148 L
1497 2124 mt 1497 2172 L
gr

c9
gs 557 503 1729 1729 rc
gr

gs 1201 921 1133 1359 rc
c8
1474 2150 mt 1522 2150 L
1498 2126 mt 1498 2174 L
1482 2134 mt 1514 2166 L
1514 2134 mt 1482 2166 L
gr

c8
gs 557 503 1729 1729 rc
gr

gs 1201 921 1133 1359 rc
1473 1076 mt 1521 1076 L
1497 1052 mt 1497 1100 L
1481 1060 mt 1513 1092 L
1513 1060 mt 1481 1092 L
gr

gs 557 503 1729 1729 rc
gr

gs 1125 784 1206 1496 rc
c9
1473 1863 mt 1521 1863 L
1497 1839 mt 1497 1887 L
gr

c9
gs 557 503 1729 1729 rc
gr

gs 1125 784 1206 1496 rc
1472 2147 mt 1520 2147 L
1496 2123 mt 1496 2171 L
gr

gs 557 503 1729 1729 rc
gr

gs 1201 921 1133 1359 rc
c8
1471 2152 mt 1519 2152 L
1495 2128 mt 1495 2176 L
1479 2136 mt 1511 2168 L
1511 2136 mt 1479 2168 L
gr

c8
gs 557 503 1729 1729 rc
gr

gs 1201 921 1133 1359 rc
1470 1895 mt 1518 1895 L
1494 1871 mt 1494 1919 L
1478 1879 mt 1510 1911 L
1510 1879 mt 1478 1911 L
gr

gs 557 503 1729 1729 rc
gr

gs 1125 784 1206 1496 rc
c9
1469 2150 mt 1517 2150 L
1493 2126 mt 1493 2174 L
gr

c9
gs 557 503 1729 1729 rc
gr

gs 1201 921 1133 1359 rc
c8
1469 2154 mt 1517 2154 L
1493 2130 mt 1493 2178 L
1477 2138 mt 1509 2170 L
1509 2138 mt 1477 2170 L
gr

c8
gs 557 503 1729 1729 rc
gr

gs 1125 784 1206 1496 rc
c9
1468 1880 mt 1516 1880 L
1492 1856 mt 1492 1904 L
gr

c9
gs 557 503 1729 1729 rc
gr

gs 1125 784 1206 1496 rc
1466 1855 mt 1514 1855 L
1490 1831 mt 1490 1879 L
gr

gs 557 503 1729 1729 rc
gr

gs 1201 921 1133 1359 rc
c8
1466 2156 mt 1514 2156 L
1490 2132 mt 1490 2180 L
1474 2140 mt 1506 2172 L
1506 2140 mt 1474 2172 L
gr

c8
gs 557 503 1729 1729 rc
gr

gs 1125 784 1206 1496 rc
c9
1464 2152 mt 1512 2152 L
1488 2128 mt 1488 2176 L
gr

c9
gs 557 503 1729 1729 rc
gr

gs 1201 921 1133 1359 rc
c8
1463 1879 mt 1511 1879 L
1487 1855 mt 1487 1903 L
1471 1863 mt 1503 1895 L
1503 1863 mt 1471 1895 L
gr

c8
gs 557 503 1729 1729 rc
gr

gs 1201 921 1133 1359 rc
1463 2158 mt 1511 2158 L
1487 2134 mt 1487 2182 L
1471 2142 mt 1503 2174 L
1503 2142 mt 1471 2174 L
gr

gs 557 503 1729 1729 rc
gr

gs 1125 784 1206 1496 rc
c9
1461 2158 mt 1509 2158 L
1485 2134 mt 1485 2182 L
gr

c9
gs 557 503 1729 1729 rc
gr

gs 1125 784 1206 1496 rc
1461 2160 mt 1509 2160 L
1485 2136 mt 1485 2184 L
gr

gs 557 503 1729 1729 rc
gr

gs 1201 921 1133 1359 rc
c8
1460 2160 mt 1508 2160 L
1484 2136 mt 1484 2184 L
1468 2144 mt 1500 2176 L
1500 2144 mt 1468 2176 L
gr

c8
gs 557 503 1729 1729 rc
gr

gs 1125 784 1206 1496 rc
c9
1458 2161 mt 1506 2161 L
1482 2137 mt 1482 2185 L
gr

c9
gs 557 503 1729 1729 rc
gr

gs 1201 921 1133 1359 rc
c8
1457 2162 mt 1505 2162 L
1481 2138 mt 1481 2186 L
1465 2146 mt 1497 2178 L
1497 2146 mt 1465 2178 L
gr

c8
gs 557 503 1729 1729 rc
gr

gs 1201 921 1133 1359 rc
1457 1862 mt 1505 1862 L
1481 1838 mt 1481 1886 L
1465 1846 mt 1497 1878 L
1497 1846 mt 1465 1878 L
gr

gs 557 503 1729 1729 rc
gr

gs 1125 784 1206 1496 rc
c9
1456 1089 mt 1504 1089 L
1480 1065 mt 1480 1113 L
gr

c9
gs 557 503 1729 1729 rc
gr

gs 1201 921 1133 1359 rc
c8
1455 1056 mt 1503 1056 L
1479 1032 mt 1479 1080 L
1463 1040 mt 1495 1072 L
1495 1040 mt 1463 1072 L
gr

c8
gs 557 503 1729 1729 rc
gr

gs 1125 784 1206 1496 rc
c9
1455 2157 mt 1503 2157 L
1479 2133 mt 1479 2181 L
gr

c9
gs 557 503 1729 1729 rc
gr

gs 1201 921 1133 1359 rc
c8
1454 2163 mt 1502 2163 L
1478 2139 mt 1478 2187 L
1462 2147 mt 1494 2179 L
1494 2147 mt 1462 2179 L
gr

c8
gs 557 503 1729 1729 rc
gr

gs 1201 921 1133 1359 rc
1451 2165 mt 1499 2165 L
1475 2141 mt 1475 2189 L
1459 2149 mt 1491 2181 L
1491 2149 mt 1459 2181 L
gr

gs 557 503 1729 1729 rc
gr

gs 1201 921 1133 1359 rc
1449 1844 mt 1497 1844 L
1473 1820 mt 1473 1868 L
1457 1828 mt 1489 1860 L
1489 1828 mt 1457 1860 L
gr

gs 557 503 1729 1729 rc
gr

gs 1125 784 1206 1496 rc
c9
1449 2162 mt 1497 2162 L
1473 2138 mt 1473 2186 L
gr

c9
gs 557 503 1729 1729 rc
gr

gs 1201 921 1133 1359 rc
c8
1448 2167 mt 1496 2167 L
1472 2143 mt 1472 2191 L
1456 2151 mt 1488 2183 L
1488 2151 mt 1456 2183 L
gr

c8
gs 557 503 1729 1729 rc
gr

gs 1125 784 1206 1496 rc
c9
1448 2166 mt 1496 2166 L
1472 2142 mt 1472 2190 L
gr

c9
gs 557 503 1729 1729 rc
gr

gs 1125 784 1206 1496 rc
1446 2166 mt 1494 2166 L
1470 2142 mt 1470 2190 L
gr

gs 557 503 1729 1729 rc
gr

gs 1201 921 1133 1359 rc
c8
1446 2168 mt 1494 2168 L
1470 2144 mt 1470 2192 L
1454 2152 mt 1486 2184 L
1486 2152 mt 1454 2184 L
gr

c8
gs 557 503 1729 1729 rc
gr

gs 1125 784 1206 1496 rc
c9
1445 2173 mt 1493 2173 L
1469 2149 mt 1469 2197 L
gr

c9
gs 557 503 1729 1729 rc
gr

gs 1125 784 1206 1496 rc
1443 1820 mt 1491 1820 L
1467 1796 mt 1467 1844 L
gr

gs 557 503 1729 1729 rc
gr

gs 1201 921 1133 1359 rc
c8
1443 2170 mt 1491 2170 L
1467 2146 mt 1467 2194 L
1451 2154 mt 1483 2186 L
1483 2154 mt 1451 2186 L
gr

c8
gs 557 503 1729 1729 rc
gr

gs 1201 921 1133 1359 rc
1442 1825 mt 1490 1825 L
1466 1801 mt 1466 1849 L
1450 1809 mt 1482 1841 L
1482 1809 mt 1450 1841 L
gr

gs 557 503 1729 1729 rc
gr

gs 1201 921 1133 1359 rc
1439 2171 mt 1487 2171 L
1463 2147 mt 1463 2195 L
1447 2155 mt 1479 2187 L
1479 2155 mt 1447 2187 L
gr

gs 557 503 1729 1729 rc
gr

gs 1125 784 1206 1496 rc
c9
1439 2173 mt 1487 2173 L
1463 2149 mt 1463 2197 L
gr

c9
gs 557 503 1729 1729 rc
gr

gs 1125 784 1206 1496 rc
1438 1777 mt 1486 1777 L
1462 1753 mt 1462 1801 L
gr

gs 557 503 1729 1729 rc
gr

gs 1201 921 1133 1359 rc
c8
1437 1037 mt 1485 1037 L
1461 1013 mt 1461 1061 L
1445 1021 mt 1477 1053 L
1477 1021 mt 1445 1053 L
gr

c8
gs 557 503 1729 1729 rc
gr

gs 1125 784 1206 1496 rc
c9
1437 1801 mt 1485 1801 L
1461 1777 mt 1461 1825 L
gr

c9
gs 557 503 1729 1729 rc
gr

gs 1125 784 1206 1496 rc
1437 2175 mt 1485 2175 L
1461 2151 mt 1461 2199 L
gr

gs 557 503 1729 1729 rc
gr

gs 1201 921 1133 1359 rc
c8
1436 2173 mt 1484 2173 L
1460 2149 mt 1460 2197 L
1444 2157 mt 1476 2189 L
1476 2157 mt 1444 2189 L
gr

c8
gs 557 503 1729 1729 rc
gr

gs 1201 921 1133 1359 rc
1434 1805 mt 1482 1805 L
1458 1781 mt 1458 1829 L
1442 1789 mt 1474 1821 L
1474 1789 mt 1442 1821 L
gr

gs 557 503 1729 1729 rc
gr

gs 1201 921 1133 1359 rc
1433 2174 mt 1481 2174 L
1457 2150 mt 1457 2198 L
1441 2158 mt 1473 2190 L
1473 2158 mt 1441 2190 L
gr

gs 557 503 1729 1729 rc
gr

gs 1125 784 1206 1496 rc
c9
1433 2177 mt 1481 2177 L
1457 2153 mt 1457 2201 L
gr

c9
gs 557 503 1729 1729 rc
gr

gs 1125 784 1206 1496 rc
1433 1003 mt 1481 1003 L
1457  979 mt 1457 1027 L
gr

gs 557 503 1729 1729 rc
gr

gs 1201 921 1133 1359 rc
c8
1430 2176 mt 1478 2176 L
1454 2152 mt 1454 2200 L
1438 2160 mt 1470 2192 L
1470 2160 mt 1438 2192 L
gr

c8
gs 557 503 1729 1729 rc
gr

gs 1125 784 1206 1496 rc
c9
1428 2175 mt 1476 2175 L
1452 2151 mt 1452 2199 L
gr

c9
gs 557 503 1729 1729 rc
gr

gs 1125 784 1206 1496 rc
1428 2172 mt 1476 2172 L
1452 2148 mt 1452 2196 L
gr

gs 557 503 1729 1729 rc
gr

gs 1201 921 1133 1359 rc
c8
1427 2177 mt 1475 2177 L
1451 2153 mt 1451 2201 L
1435 2161 mt 1467 2193 L
1467 2161 mt 1435 2193 L
gr

c8
gs 557 503 1729 1729 rc
gr

0 sg
  90 2518 mt 
(Sensor Daily Incident) s
gs 557 503 1729 1729 rc
gr

gs 1201 921 1133 1359 rc
c8
1425 1785 mt 1473 1785 L
1449 1761 mt 1449 1809 L
1433 1769 mt 1465 1801 L
1465 1769 mt 1433 1801 L
gr

c8
gs 557 503 1729 1729 rc
gr

gs 1201 921 1133 1359 rc
1424 2179 mt 1472 2179 L
1448 2155 mt 1448 2203 L
1432 2163 mt 1464 2195 L
1464 2163 mt 1432 2195 L
gr

gs 557 503 1729 1729 rc
gr

gs 1125 784 1206 1496 rc
c9
1424 2179 mt 1472 2179 L
1448 2155 mt 1448 2203 L
gr

c9
gs 557 503 1729 1729 rc
gr

gs 1125 784 1206 1496 rc
1422 1753 mt 1470 1753 L
1446 1729 mt 1446 1777 L
gr

gs 557 503 1729 1729 rc
gr

gs 1125 784 1206 1496 rc
1420 2178 mt 1468 2178 L
1444 2154 mt 1444 2202 L
gr

gs 557 503 1729 1729 rc
gr

gs 1201 921 1133 1359 rc
c8
1421 2180 mt 1469 2180 L
1445 2156 mt 1445 2204 L
1429 2164 mt 1461 2196 L
1461 2164 mt 1429 2196 L
gr

c8
gs 557 503 1729 1729 rc
gr

gs 1201 921 1133 1359 rc
1420 1020 mt 1468 1020 L
1444  996 mt 1444 1044 L
1428 1004 mt 1460 1036 L
1460 1004 mt 1428 1036 L
gr

gs 557 503 1729 1729 rc
gr

gs 1125 784 1206 1496 rc
c9
1418 2183 mt 1466 2183 L
1442 2159 mt 1442 2207 L
gr

c9
gs 557 503 1729 1729 rc
gr

gs 1201 921 1133 1359 rc
c8
1418 2181 mt 1466 2181 L
1442 2157 mt 1442 2205 L
1426 2165 mt 1458 2197 L
1458 2165 mt 1426 2197 L
gr

c8
gs 557 503 1729 1729 rc
gr

gs 1201 921 1133 1359 rc
1416 1763 mt 1464 1763 L
1440 1739 mt 1440 1787 L
1424 1747 mt 1456 1779 L
1456 1747 mt 1424 1779 L
gr

gs 557 503 1729 1729 rc
gr

gs 1125 784 1206 1496 rc
c9
1415 2185 mt 1463 2185 L
1439 2161 mt 1439 2209 L
gr

c9
gs 557 503 1729 1729 rc
gr

gs 1201 921 1133 1359 rc
c8
1415 2183 mt 1463 2183 L
1439 2159 mt 1439 2207 L
1423 2167 mt 1455 2199 L
1455 2167 mt 1423 2199 L
gr

c8
gs 557 503 1729 1729 rc
gr

gs 1125 784 1206 1496 rc
c9
1411 2182 mt 1459 2182 L
1435 2158 mt 1435 2206 L
gr

c9
gs 557 503 1729 1729 rc
gr

gs 1201 921 1133 1359 rc
c8
1412 2184 mt 1460 2184 L
1436 2160 mt 1436 2208 L
1420 2168 mt 1452 2200 L
1452 2168 mt 1420 2200 L
gr

c8
gs 557 503 1729 1729 rc
gr

gs 1125 784 1206 1496 rc
c9
1409 2188 mt 1457 2188 L
1433 2164 mt 1433 2212 L
gr

c9
gs 557 503 1729 1729 rc
gr

gs 1201 921 1133 1359 rc
c8
1408 2185 mt 1456 2185 L
1432 2161 mt 1432 2209 L
1416 2169 mt 1448 2201 L
1448 2169 mt 1416 2201 L
gr

c8
gs 557 503 1729 1729 rc
gr

gs 1201 921 1133 1359 rc
1406 1740 mt 1454 1740 L
1430 1716 mt 1430 1764 L
1414 1724 mt 1446 1756 L
1446 1724 mt 1414 1756 L
gr

gs 557 503 1729 1729 rc
gr

gs 1125 784 1206 1496 rc
c9
1404 2186 mt 1452 2186 L
1428 2162 mt 1428 2210 L
gr

c9
gs 557 503 1729 1729 rc
gr

gs 1201 921 1133 1359 rc
c8
1405 2187 mt 1453 2187 L
1429 2163 mt 1429 2211 L
1413 2171 mt 1445 2203 L
1445 2171 mt 1413 2203 L
gr

c8
gs 557 503 1729 1729 rc
gr

gs 1125 784 1206 1496 rc
c9
1405  994 mt 1453  994 L
1429  970 mt 1429 1018 L
gr

c9
gs 557 503 1729 1729 rc
gr

gs 1125 784 1206 1496 rc
1403 1009 mt 1451 1009 L
1427  985 mt 1427 1033 L
gr

gs 557 503 1729 1729 rc
gr

gs 1201 921 1133 1359 rc
c8
1402 1006 mt 1450 1006 L
1426  982 mt 1426 1030 L
1410  990 mt 1442 1022 L
1442  990 mt 1410 1022 L
gr

c8
gs 557 503 1729 1729 rc
gr

gs 1201 921 1133 1359 rc
1402 2188 mt 1450 2188 L
1426 2164 mt 1426 2212 L
1410 2172 mt 1442 2204 L
1442 2172 mt 1410 2204 L
gr

gs 557 503 1729 1729 rc
gr

gs 1125 784 1206 1496 rc
c9
1401 2185 mt 1449 2185 L
1425 2161 mt 1425 2209 L
gr

c9
gs 557 503 1729 1729 rc
gr

gs 1125 784 1206 1496 rc
1399 2189 mt 1447 2189 L
1423 2165 mt 1423 2213 L
gr

gs 557 503 1729 1729 rc
gr

gs 1201 921 1133 1359 rc
c8
1396 1717 mt 1444 1717 L
1420 1693 mt 1420 1741 L
1404 1701 mt 1436 1733 L
1436 1701 mt 1404 1733 L
gr

c8
gs 557 503 1729 1729 rc
gr

gs 1125 784 1206 1496 rc
c9
1399 1753 mt 1447 1753 L
1423 1729 mt 1423 1777 L
gr

c9
gs 557 503 1729 1729 rc
gr

gs 1201 921 1133 1359 rc
c8
1399 2189 mt 1447 2189 L
1423 2165 mt 1423 2213 L
1407 2173 mt 1439 2205 L
1439 2173 mt 1407 2205 L
gr

c8
gs 557 503 1729 1729 rc
gr

gs 1125 784 1206 1496 rc
c9
1397 2192 mt 1445 2192 L
1421 2168 mt 1421 2216 L
gr

c9
gs 557 503 1729 1729 rc
gr

gs 1201 921 1133 1359 rc
c8
1396 2190 mt 1444 2190 L
1420 2166 mt 1420 2214 L
1404 2174 mt 1436 2206 L
1436 2174 mt 1404 2206 L
gr

c8
gs 557 503 1729 1729 rc
gr

gs 1125 784 1206 1496 rc
c9
1393 1706 mt 1441 1706 L
1417 1682 mt 1417 1730 L
gr

c9
gs 557 503 1729 1729 rc
gr

gs 1201 921 1133 1359 rc
c8
1393 2192 mt 1441 2192 L
1417 2168 mt 1417 2216 L
1401 2176 mt 1433 2208 L
1433 2176 mt 1401 2208 L
gr

c8
gs 557 503 1729 1729 rc
gr

gs 1125 784 1206 1496 rc
c9
1392 2186 mt 1440 2186 L
1416 2162 mt 1416 2210 L
gr

c9
gs 557 503 1729 1729 rc
gr

gs 1201 921 1133 1359 rc
c8
1389 2193 mt 1437 2193 L
1413 2169 mt 1413 2217 L
1397 2177 mt 1429 2209 L
1429 2177 mt 1397 2209 L
gr

c8
gs 557 503 1729 1729 rc
gr

gs 1125 784 1206 1496 rc
c9
1389 2194 mt 1437 2194 L
1413 2170 mt 1413 2218 L
gr

c9
gs 557 503 1729 1729 rc
gr

gs 1201 921 1133 1359 rc
c8
1386 2194 mt 1434 2194 L
1410 2170 mt 1410 2218 L
1394 2178 mt 1426 2210 L
1426 2178 mt 1394 2210 L
gr

c8
gs 557 503 1729 1729 rc
gr

gs 1201 921 1133 1359 rc
1386 1692 mt 1434 1692 L
1410 1668 mt 1410 1716 L
1394 1676 mt 1426 1708 L
1426 1676 mt 1394 1708 L
gr

gs 557 503 1729 1729 rc
gr

gs 1125 784 1206 1496 rc
c9
1386 2195 mt 1434 2195 L
1410 2171 mt 1410 2219 L
gr

c9
gs 557 503 1729 1729 rc
gr

gs 1201 921 1133 1359 rc
c8
1385  994 mt 1433  994 L
1409  970 mt 1409 1018 L
1393  978 mt 1425 1010 L
1425  978 mt 1393 1010 L
gr

c8
gs 557 503 1729 1729 rc
gr

gs 1125 784 1206 1496 rc
c9
1385 1680 mt 1433 1680 L
1409 1656 mt 1409 1704 L
gr

c9
gs 557 503 1729 1729 rc
gr

gs 1201 921 1133 1359 rc
c8
1383 2195 mt 1431 2195 L
1407 2171 mt 1407 2219 L
1391 2179 mt 1423 2211 L
1423 2179 mt 1391 2211 L
gr

c8
gs 557 503 1729 1729 rc
gr

gs 1125 784 1206 1496 rc
c9
1383 2196 mt 1431 2196 L
1407 2172 mt 1407 2220 L
gr

c9
gs 557 503 1729 1729 rc
gr

gs 1201 921 1133 1359 rc
c8
1380 2197 mt 1428 2197 L
1404 2173 mt 1404 2221 L
1388 2181 mt 1420 2213 L
1420 2181 mt 1388 2213 L
gr

c8
gs 557 503 1729 1729 rc
gr

gs 1125 784 1206 1496 rc
c9
1380 2198 mt 1428 2198 L
1404 2174 mt 1404 2222 L
gr

c9
gs 557 503 1729 1729 rc
gr

gs 1201 921 1133 1359 rc
c8
1377 2198 mt 1425 2198 L
1401 2174 mt 1401 2222 L
1385 2182 mt 1417 2214 L
1417 2182 mt 1385 2214 L
gr

c8
gs 557 503 1729 1729 rc
gr

gs 1125 784 1206 1496 rc
c9
1376 2198 mt 1424 2198 L
1400 2174 mt 1400 2222 L
gr

c9
gs 557 503 1729 1729 rc
gr

gs 1201 921 1133 1359 rc
c8
1376 1667 mt 1424 1667 L
1400 1643 mt 1400 1691 L
1384 1651 mt 1416 1683 L
1416 1651 mt 1384 1683 L
gr

c8
gs 557 503 1729 1729 rc
gr

gs 1201 921 1133 1359 rc
1373 2199 mt 1421 2199 L
1397 2175 mt 1397 2223 L
1381 2183 mt 1413 2215 L
1413 2183 mt 1381 2215 L
gr

gs 557 503 1729 1729 rc
gr

gs 1125 784 1206 1496 rc
c9
1374 2198 mt 1422 2198 L
1398 2174 mt 1398 2222 L
gr

c9
gs 557 503 1729 1729 rc
gr

gs 1125 784 1206 1496 rc
1372 1683 mt 1420 1683 L
1396 1659 mt 1396 1707 L
gr

gs 557 503 1729 1729 rc
gr

gs 1201 921 1133 1359 rc
c8
1370 2200 mt 1418 2200 L
1394 2176 mt 1394 2224 L
1378 2184 mt 1410 2216 L
1410 2184 mt 1378 2216 L
gr

c8
gs 557 503 1729 1729 rc
gr

gs 1125 784 1206 1496 rc
c9
1370 2201 mt 1418 2201 L
1394 2177 mt 1394 2225 L
gr

c9
gs 557 503 1729 1729 rc
gr

gs 1201 921 1133 1359 rc
c8
1368  984 mt 1416  984 L
1392  960 mt 1392 1008 L
1376  968 mt 1408 1000 L
1408  968 mt 1376 1000 L
gr

c8
gs 557 503 1729 1729 rc
gr

gs 1125 784 1206 1496 rc
c9
1367 2202 mt 1415 2202 L
1391 2178 mt 1391 2226 L
gr

c9
gs 557 503 1729 1729 rc
gr

gs 1201 921 1133 1359 rc
c8
1367 2201 mt 1415 2201 L
1391 2177 mt 1391 2225 L
1375 2185 mt 1407 2217 L
1407 2185 mt 1375 2217 L
gr

c8
gs 557 503 1729 1729 rc
gr

gs 1201 921 1133 1359 rc
1365 1641 mt 1413 1641 L
1389 1617 mt 1389 1665 L
1373 1625 mt 1405 1657 L
1405 1625 mt 1373 1657 L
gr

gs 557 503 1729 1729 rc
gr

gs 1125 784 1206 1496 rc
c9
1364 1607 mt 1412 1607 L
1388 1583 mt 1388 1631 L
gr

c9
gs 557 503 1729 1729 rc
gr

gs 1125 784 1206 1496 rc
1364 2204 mt 1412 2204 L
1388 2180 mt 1388 2228 L
gr

gs 557 503 1729 1729 rc
gr

gs 1201 921 1133 1359 rc
c8
1364 2203 mt 1412 2203 L
1388 2179 mt 1388 2227 L
1372 2187 mt 1404 2219 L
1404 2187 mt 1372 2219 L
gr

c8
gs 557 503 1729 1729 rc
gr

gs 1125 784 1206 1496 rc
c9
1361  890 mt 1409  890 L
1385  866 mt 1385  914 L
gr

c9
gs 557 503 1729 1729 rc
gr

gs 1125 784 1206 1496 rc
1361 2205 mt 1409 2205 L
1385 2181 mt 1385 2229 L
gr

gs 557 503 1729 1729 rc
gr

gs 1201 921 1133 1359 rc
c8
1361 2204 mt 1409 2204 L
1385 2180 mt 1385 2228 L
1369 2188 mt 1401 2220 L
1401 2188 mt 1369 2220 L
gr

c8
gs 557 503 1729 1729 rc
gr

gs 1201 921 1133 1359 rc
1357 2205 mt 1405 2205 L
1381 2181 mt 1381 2229 L
1365 2189 mt 1397 2221 L
1397 2189 mt 1365 2221 L
gr

gs 557 503 1729 1729 rc
gr

gs 1125 784 1206 1496 rc
c9
1357 2205 mt 1405 2205 L
1381 2181 mt 1381 2229 L
gr

c9
gs 557 503 1729 1729 rc
gr

gs 1125 784 1206 1496 rc
1356 1585 mt 1404 1585 L
1380 1561 mt 1380 1609 L
gr

gs 557 503 1729 1729 rc
gr

gs 1125 784 1206 1496 rc
1354 2207 mt 1402 2207 L
1378 2183 mt 1378 2231 L
gr

gs 557 503 1729 1729 rc
gr

gs 1201 921 1133 1359 rc
c8
1354 2206 mt 1402 2206 L
1378 2182 mt 1378 2230 L
1362 2190 mt 1394 2222 L
1394 2190 mt 1362 2222 L
gr

c8
gs 557 503 1729 1729 rc
gr

gs 1201 921 1133 1359 rc
1354 1613 mt 1402 1613 L
1378 1589 mt 1378 1637 L
1362 1597 mt 1394 1629 L
1394 1597 mt 1362 1629 L
gr

gs 557 503 1729 1729 rc
gr

gs 1201 921 1133 1359 rc
1352  977 mt 1400  977 L
1376  953 mt 1376 1001 L
1360  961 mt 1392  993 L
1392  961 mt 1360  993 L
gr

gs 557 503 1729 1729 rc
gr

gs 1201 921 1133 1359 rc
1351 2207 mt 1399 2207 L
1375 2183 mt 1375 2231 L
1359 2191 mt 1391 2223 L
1391 2191 mt 1359 2223 L
gr

gs 557 503 1729 1729 rc
gr

gs 1125 784 1206 1496 rc
c9
1351 2206 mt 1399 2206 L
1375 2182 mt 1375 2230 L
gr

c9
gs 557 503 1729 1729 rc
gr

gs 1201 921 1133 1359 rc
c8
1348 2208 mt 1396 2208 L
1372 2184 mt 1372 2232 L
1356 2192 mt 1388 2224 L
1388 2192 mt 1356 2224 L
gr

c8
gs 557 503 1729 1729 rc
gr

gs 1125 784 1206 1496 rc
c9
1348 2209 mt 1396 2209 L
1372 2185 mt 1372 2233 L
gr

c9
gs 557 503 1729 1729 rc
gr

gs 1201 921 1133 1359 rc
c8
1344 2210 mt 1392 2210 L
1368 2186 mt 1368 2234 L
1352 2194 mt 1384 2226 L
1384 2194 mt 1352 2226 L
gr

c8
gs 557 503 1729 1729 rc
gr

gs 1125 784 1206 1496 rc
c9
1344 2208 mt 1392 2208 L
1368 2184 mt 1368 2232 L
gr

c9
gs 557 503 1729 1729 rc
gr

gs 1201 921 1133 1359 rc
c8
1342 1585 mt 1390 1585 L
1366 1561 mt 1366 1609 L
1350 1569 mt 1382 1601 L
1382 1569 mt 1350 1601 L
gr

c8
gs 557 503 1729 1729 rc
gr

gs 1201 921 1133 1359 rc
1341 2211 mt 1389 2211 L
1365 2187 mt 1365 2235 L
1349 2195 mt 1381 2227 L
1381 2195 mt 1349 2227 L
gr

gs 557 503 1729 1729 rc
gr

gs 1125 784 1206 1496 rc
c9
1341 2211 mt 1389 2211 L
1365 2187 mt 1365 2235 L
gr

c9
gs 557 503 1729 1729 rc
gr

gs 1125 784 1206 1496 rc
1340  931 mt 1388  931 L
1364  907 mt 1364  955 L
gr

gs 557 503 1729 1729 rc
gr

gs 1201 921 1133 1359 rc
c8
1331 1557 mt 1379 1557 L
1355 1533 mt 1355 1581 L
1339 1541 mt 1371 1573 L
1371 1541 mt 1339 1573 L
gr

c8
gs 557 503 1729 1729 rc
gr

gs 1125 784 1206 1496 rc
c9
1340 1541 mt 1388 1541 L
1364 1517 mt 1364 1565 L
gr

c9
gs 557 503 1729 1729 rc
gr

gs 1125 784 1206 1496 rc
1339  919 mt 1387  919 L
1363  895 mt 1363  943 L
gr

gs 557 503 1729 1729 rc
gr

gs 1125 784 1206 1496 rc
1338 2212 mt 1386 2212 L
1362 2188 mt 1362 2236 L
gr

gs 557 503 1729 1729 rc
gr

gs 1201 921 1133 1359 rc
c8
1338 2212 mt 1386 2212 L
1362 2188 mt 1362 2236 L
1346 2196 mt 1378 2228 L
1378 2196 mt 1346 2228 L
gr

c8
gs 557 503 1729 1729 rc
gr

gs 1201 921 1133 1359 rc
1336  972 mt 1384  972 L
1360  948 mt 1360  996 L
1344  956 mt 1376  988 L
1376  956 mt 1344  988 L
gr

gs 557 503 1729 1729 rc
gr

gs 1201 921 1133 1359 rc
1335 2213 mt 1383 2213 L
1359 2189 mt 1359 2237 L
1343 2197 mt 1375 2229 L
1375 2197 mt 1343 2229 L
gr

gs 557 503 1729 1729 rc
gr

gs 1125 784 1206 1496 rc
c9
1335 2212 mt 1383 2212 L
1359 2188 mt 1359 2236 L
gr

c9
gs 557 503 1729 1729 rc
gr

gs 1201 921 1133 1359 rc
c8
1331 2214 mt 1379 2214 L
1355 2190 mt 1355 2238 L
1339 2198 mt 1371 2230 L
1371 2198 mt 1339 2230 L
gr

c8
gs 557 503 1729 1729 rc
gr

gs 1125 784 1206 1496 rc
c9
1332 2215 mt 1380 2215 L
1356 2191 mt 1356 2239 L
gr

c9
gs 557 503 1729 1729 rc
gr

gs 1201 921 1133 1359 rc
c8
1328 2215 mt 1376 2215 L
1352 2191 mt 1352 2239 L
1336 2199 mt 1368 2231 L
1368 2199 mt 1336 2231 L
gr

c8
gs 557 503 1729 1729 rc
gr

gs 1125 784 1206 1496 rc
c9
1328 2214 mt 1376 2214 L
1352 2190 mt 1352 2238 L
gr

c9
gs 557 503 1729 1729 rc
gr

gs 1201 921 1133 1359 rc
c8
1325 2217 mt 1373 2217 L
1349 2193 mt 1349 2241 L
1333 2201 mt 1365 2233 L
1365 2201 mt 1333 2233 L
gr

c8
gs 557 503 1729 1729 rc
gr

gs 1125 784 1206 1496 rc
c9
1325 2217 mt 1373 2217 L
1349 2193 mt 1349 2241 L
gr

c9
gs 557 503 1729 1729 rc
gr

gs 1201 921 1133 1359 rc
c8
1322 2218 mt 1370 2218 L
1346 2194 mt 1346 2242 L
1330 2202 mt 1362 2234 L
1362 2202 mt 1330 2234 L
gr

c8
gs 557 503 1729 1729 rc
gr

gs 1125 784 1206 1496 rc
c9
1321 2218 mt 1369 2218 L
1345 2194 mt 1345 2242 L
gr

c9
gs 557 503 1729 1729 rc
gr

gs 1201 921 1133 1359 rc
c8
1320  970 mt 1368  970 L
1344  946 mt 1344  994 L
1328  954 mt 1360  986 L
1360  954 mt 1328  986 L
gr

c8
gs 557 503 1729 1729 rc
gr

gs 1201 921 1133 1359 rc
1320 1527 mt 1368 1527 L
1344 1503 mt 1344 1551 L
1328 1511 mt 1360 1543 L
1360 1511 mt 1328 1543 L
gr

gs 557 503 1729 1729 rc
gr

gs 1201 921 1133 1359 rc
1318 2219 mt 1366 2219 L
1342 2195 mt 1342 2243 L
1326 2203 mt 1358 2235 L
1358 2203 mt 1326 2235 L
gr

gs 557 503 1729 1729 rc
gr

gs 1125 784 1206 1496 rc
c9
1318 2219 mt 1366 2219 L
1342 2195 mt 1342 2243 L
gr

c9
gs 557 503 1729 1729 rc
gr

gs 1125 784 1206 1496 rc
1316 1558 mt 1364 1558 L
1340 1534 mt 1340 1582 L
gr

gs 557 503 1729 1729 rc
gr

gs 1125 784 1206 1496 rc
1315 2220 mt 1363 2220 L
1339 2196 mt 1339 2244 L
gr

gs 557 503 1729 1729 rc
gr

gs 1201 921 1133 1359 rc
c8
1315 2220 mt 1363 2220 L
1339 2196 mt 1339 2244 L
1323 2204 mt 1355 2236 L
1355 2204 mt 1323 2236 L
gr

c8
gs 557 503 1729 1729 rc
gr

gs 1125 784 1206 1496 rc
c9
1312 2221 mt 1360 2221 L
1336 2197 mt 1336 2245 L
gr

c9
gs 557 503 1729 1729 rc
gr

gs 1201 921 1133 1359 rc
c8
1312 2221 mt 1360 2221 L
1336 2197 mt 1336 2245 L
1320 2205 mt 1352 2237 L
1352 2205 mt 1320 2237 L
gr

c8
gs 557 503 1729 1729 rc
gr

gs 1201 921 1133 1359 rc
1309 1497 mt 1357 1497 L
1333 1473 mt 1333 1521 L
1317 1481 mt 1349 1513 L
1349 1481 mt 1317 1513 L
gr

gs 557 503 1729 1729 rc
gr

gs 1201 921 1133 1359 rc
1309 2222 mt 1357 2222 L
1333 2198 mt 1333 2246 L
1317 2206 mt 1349 2238 L
1349 2206 mt 1317 2238 L
gr

gs 557 503 1729 1729 rc
gr

gs 1125 784 1206 1496 rc
c9
1308 2221 mt 1356 2221 L
1332 2197 mt 1332 2245 L
gr

c9
gs 557 503 1729 1729 rc
gr

gs 1125 784 1206 1496 rc
1306 1489 mt 1354 1489 L
1330 1465 mt 1330 1513 L
gr

gs 557 503 1729 1729 rc
gr

gs 1201 921 1133 1359 rc
c8
1306  970 mt 1354  970 L
1330  946 mt 1330  994 L
1314  954 mt 1346  986 L
1346  954 mt 1314  986 L
gr

c8
gs 557 503 1729 1729 rc
gr

gs 1201 921 1133 1359 rc
1305 2223 mt 1353 2223 L
1329 2199 mt 1329 2247 L
1313 2207 mt 1345 2239 L
1345 2207 mt 1313 2239 L
gr

gs 557 503 1729 1729 rc
gr

gs 1125 784 1206 1496 rc
c9
1306 2224 mt 1354 2224 L
1330 2200 mt 1330 2248 L
gr

c9
gs 557 503 1729 1729 rc
gr

gs 1125 784 1206 1496 rc
1302 2225 mt 1350 2225 L
1326 2201 mt 1326 2249 L
gr

gs 557 503 1729 1729 rc
gr

gs 1201 921 1133 1359 rc
c8
1302 2225 mt 1350 2225 L
1326 2201 mt 1326 2249 L
1310 2209 mt 1342 2241 L
1342 2209 mt 1310 2241 L
gr

c8
gs 557 503 1729 1729 rc
gr

gs 1125 784 1206 1496 rc
c9
1302 1502 mt 1350 1502 L
1326 1478 mt 1326 1526 L
gr

c9
gs 557 503 1729 1729 rc
gr

gs 1125 784 1206 1496 rc
1299 2226 mt 1347 2226 L
1323 2202 mt 1323 2250 L
gr

gs 557 503 1729 1729 rc
gr

gs 1201 921 1133 1359 rc
c8
1299 2226 mt 1347 2226 L
1323 2202 mt 1323 2250 L
1307 2210 mt 1339 2242 L
1339 2210 mt 1307 2242 L
gr

c8
gs 557 503 1729 1729 rc
gr

gs 1125 784 1206 1496 rc
c9
1298  861 mt 1346  861 L
1322  837 mt 1322  885 L
gr

c9
gs 557 503 1729 1729 rc
gr

gs 1201 921 1133 1359 rc
c8
1298 1467 mt 1346 1467 L
1322 1443 mt 1322 1491 L
1306 1451 mt 1338 1483 L
1338 1451 mt 1306 1483 L
gr

c8
gs 557 503 1729 1729 rc
gr

gs 1125 784 1206 1496 rc
c9
1296 2227 mt 1344 2227 L
1320 2203 mt 1320 2251 L
gr

c9
gs 557 503 1729 1729 rc
gr

gs 1201 921 1133 1359 rc
c8
1296 2227 mt 1344 2227 L
1320 2203 mt 1320 2251 L
1304 2211 mt 1336 2243 L
1336 2211 mt 1304 2243 L
gr

c8
gs 557 503 1729 1729 rc
gr

gs 1125 784 1206 1496 rc
c9
1293  976 mt 1341  976 L
1317  952 mt 1317 1000 L
gr

c9
gs 557 503 1729 1729 rc
gr

gs 1125 784 1206 1496 rc
1293 2228 mt 1341 2228 L
1317 2204 mt 1317 2252 L
gr

gs 557 503 1729 1729 rc
gr

gs 1201 921 1133 1359 rc
c8
1292  973 mt 1340  973 L
1316  949 mt 1316  997 L
1300  957 mt 1332  989 L
1332  957 mt 1300  989 L
gr

c8
gs 557 503 1729 1729 rc
gr

gs 1201 921 1133 1359 rc
1292 2228 mt 1340 2228 L
1316 2204 mt 1316 2252 L
1300 2212 mt 1332 2244 L
1332 2212 mt 1300 2244 L
gr

gs 557 503 1729 1729 rc
gr

gs 1201 921 1133 1359 rc
1288 1436 mt 1336 1436 L
1312 1412 mt 1312 1460 L
1296 1420 mt 1328 1452 L
1328 1420 mt 1296 1452 L
gr

gs 557 503 1729 1729 rc
gr

gs 1125 784 1206 1496 rc
c9
1292 1424 mt 1340 1424 L
1316 1400 mt 1316 1448 L
gr

c9
gs 557 503 1729 1729 rc
gr

gs 1125 784 1206 1496 rc
1289 2229 mt 1337 2229 L
1313 2205 mt 1313 2253 L
gr

gs 557 503 1729 1729 rc
gr

gs 1201 921 1133 1359 rc
c8
1289 2229 mt 1337 2229 L
1313 2205 mt 1313 2253 L
1297 2213 mt 1329 2245 L
1329 2213 mt 1297 2245 L
gr

c8
gs 557 503 1729 1729 rc
gr

gs 1125 784 1206 1496 rc
c9
1286 2230 mt 1334 2230 L
1310 2206 mt 1310 2254 L
gr

c9
gs 557 503 1729 1729 rc
gr

gs 1201 921 1133 1359 rc
c8
1286 2230 mt 1334 2230 L
1310 2206 mt 1310 2254 L
1294 2214 mt 1326 2246 L
1326 2214 mt 1294 2246 L
gr

c8
gs 557 503 1729 1729 rc
gr

gs 1201 921 1133 1359 rc
1280  979 mt 1328  979 L
1304  955 mt 1304 1003 L
1288  963 mt 1320  995 L
1320  963 mt 1288  995 L
gr

gs 557 503 1729 1729 rc
gr

gs 1201 921 1133 1359 rc
1278 1405 mt 1326 1405 L
1302 1381 mt 1302 1429 L
1286 1389 mt 1318 1421 L
1318 1389 mt 1286 1421 L
gr

gs 557 503 1729 1729 rc
gr

gs 1125 784 1206 1496 rc
c9
1277  866 mt 1325  866 L
1301  842 mt 1301  890 L
gr

c9
gs 557 503 1729 1729 rc
gr

gs 1201 921 1133 1359 rc
c8
1269  988 mt 1317  988 L
1293  964 mt 1293 1012 L
1277  972 mt 1309 1004 L
1309  972 mt 1277 1004 L
gr

c8
gs 557 503 1729 1729 rc
gr

gs 1201 921 1133 1359 rc
1268 1373 mt 1316 1373 L
1292 1349 mt 1292 1397 L
1276 1357 mt 1308 1389 L
1308 1357 mt 1276 1389 L
gr

gs 557 503 1729 1729 rc
gr

gs 1201 921 1133 1359 rc
1252 1311 mt 1300 1311 L
1276 1287 mt 1276 1335 L
1260 1295 mt 1292 1327 L
1292 1295 mt 1260 1327 L
gr

gs 557 503 1729 1729 rc
gr

gs 1125 784 1206 1496 rc
c9
1264 1318 mt 1312 1318 L
1288 1294 mt 1288 1342 L
gr

c9
gs 557 503 1729 1729 rc
gr

gs 1125 784 1206 1496 rc
1261 1399 mt 1309 1399 L
1285 1375 mt 1285 1423 L
gr

gs 557 503 1729 1729 rc
gr

gs 1201 921 1133 1359 rc
c8
1260 1342 mt 1308 1342 L
1284 1318 mt 1284 1366 L
1268 1326 mt 1300 1358 L
1300 1326 mt 1268 1358 L
gr

c8
gs 557 503 1729 1729 rc
gr

gs 1201 921 1133 1359 rc
1258  999 mt 1306  999 L
1282  975 mt 1282 1023 L
1266  983 mt 1298 1015 L
1298  983 mt 1266 1015 L
gr

gs 557 503 1729 1729 rc
gr

gs 1201 921 1133 1359 rc
1250 1012 mt 1298 1012 L
1274  988 mt 1274 1036 L
1258  996 mt 1290 1028 L
1290  996 mt 1258 1028 L
gr

gs 557 503 1729 1729 rc
gr

gs 1125 784 1206 1496 rc
c9
1245  833 mt 1293  833 L
1269  809 mt 1269  857 L
gr

c9
gs 557 503 1729 1729 rc
gr

gs 1201 921 1133 1359 rc
c8
1244 1280 mt 1292 1280 L
1268 1256 mt 1268 1304 L
1252 1264 mt 1284 1296 L
1284 1264 mt 1252 1296 L
gr

c8
gs 557 503 1729 1729 rc
gr

gs 1125 784 1206 1496 rc
c9
1244 1359 mt 1292 1359 L
1268 1335 mt 1268 1383 L
gr

c9
gs 557 503 1729 1729 rc
gr

gs 1201 921 1133 1359 rc
c8
1242 1028 mt 1290 1028 L
1266 1004 mt 1266 1052 L
1250 1012 mt 1282 1044 L
1282 1012 mt 1250 1044 L
gr

c8
gs 557 503 1729 1729 rc
gr

gs 1125 784 1206 1496 rc
c9
1241 1296 mt 1289 1296 L
1265 1272 mt 1265 1320 L
gr

c9
gs 557 503 1729 1729 rc
gr

gs 1125 784 1206 1496 rc
1239  913 mt 1287  913 L
1263  889 mt 1263  937 L
gr

gs 557 503 1729 1729 rc
gr

gs 1201 921 1133 1359 rc
c8
1238 1250 mt 1286 1250 L
1262 1226 mt 1262 1274 L
1246 1234 mt 1278 1266 L
1278 1234 mt 1246 1266 L
gr

c8
gs 557 503 1729 1729 rc
gr

gs 1201 921 1133 1359 rc
1236 1046 mt 1284 1046 L
1260 1022 mt 1260 1070 L
1244 1030 mt 1276 1062 L
1276 1030 mt 1244 1062 L
gr

gs 557 503 1729 1729 rc
gr

gs 1201 921 1133 1359 rc
1233 1220 mt 1281 1220 L
1257 1196 mt 1257 1244 L
1241 1204 mt 1273 1236 L
1273 1204 mt 1241 1236 L
gr

gs 557 503 1729 1729 rc
gr

gs 1201 921 1133 1359 rc
1231 1066 mt 1279 1066 L
1255 1042 mt 1255 1090 L
1239 1050 mt 1271 1082 L
1271 1050 mt 1239 1082 L
gr

gs 557 503 1729 1729 rc
gr

gs 1201 921 1133 1359 rc
1230 1191 mt 1278 1191 L
1254 1167 mt 1254 1215 L
1238 1175 mt 1270 1207 L
1270 1175 mt 1238 1207 L
gr

gs 557 503 1729 1729 rc
gr

gs 1201 921 1133 1359 rc
1228 1087 mt 1276 1087 L
1252 1063 mt 1252 1111 L
1236 1071 mt 1268 1103 L
1268 1071 mt 1236 1103 L
gr

gs 557 503 1729 1729 rc
gr

gs 1201 921 1133 1359 rc
1227 1163 mt 1275 1163 L
1251 1139 mt 1251 1187 L
1235 1147 mt 1267 1179 L
1267 1147 mt 1235 1179 L
gr

gs 557 503 1729 1729 rc
gr

gs 1201 921 1133 1359 rc
1226 1111 mt 1274 1111 L
1250 1087 mt 1250 1135 L
1234 1095 mt 1266 1127 L
1266 1095 mt 1234 1127 L
gr

gs 557 503 1729 1729 rc
gr

gs 1201 921 1133 1359 rc
1226 1136 mt 1274 1136 L
1250 1112 mt 1250 1160 L
1234 1120 mt 1266 1152 L
1266 1120 mt 1234 1152 L
gr

gs 557 503 1729 1729 rc
gr

gs 1125 784 1206 1496 rc
c9
1215 1276 mt 1263 1276 L
1239 1252 mt 1239 1300 L
gr

c9
gs 557 503 1729 1729 rc
gr

gs 1125 784 1206 1496 rc
1210  901 mt 1258  901 L
1234  877 mt 1234  925 L
gr

gs 557 503 1729 1729 rc
gr

gs 1125 784 1206 1496 rc
1208 1256 mt 1256 1256 L
1232 1232 mt 1232 1280 L
gr

gs 557 503 1729 1729 rc
gr

gs 1125 784 1206 1496 rc
1201 1162 mt 1249 1162 L
1225 1138 mt 1225 1186 L
gr

gs 557 503 1729 1729 rc
gr

gs 1125 784 1206 1496 rc
1195  909 mt 1243  909 L
1219  885 mt 1219  933 L
gr

gs 557 503 1729 1729 rc
gr

gs 1125 784 1206 1496 rc
1195  968 mt 1243  968 L
1219  944 mt 1219  992 L
gr

gs 557 503 1729 1729 rc
gr

gs 1125 784 1206 1496 rc
1190 1082 mt 1238 1082 L
1214 1058 mt 1214 1106 L
gr

gs 557 503 1729 1729 rc
gr

gs 1125 784 1206 1496 rc
1189  926 mt 1237  926 L
1213  902 mt 1213  950 L
gr

gs 557 503 1729 1729 rc
gr

gs 1125 784 1206 1496 rc
1188 1199 mt 1236 1199 L
1212 1175 mt 1212 1223 L
gr

gs 557 503 1729 1729 rc
gr

gs 1125 784 1206 1496 rc
1188  907 mt 1236  907 L
1212  883 mt 1212  931 L
gr

gs 557 503 1729 1729 rc
gr

gs 1125 784 1206 1496 rc
1188  972 mt 1236  972 L
1212  948 mt 1212  996 L
gr

gs 557 503 1729 1729 rc
gr

gs 1125 784 1206 1496 rc
1175  985 mt 1223  985 L
1199  961 mt 1199 1009 L
gr

gs 557 503 1729 1729 rc
gr

gs 1125 784 1206 1496 rc
1171 1161 mt 1219 1161 L
1195 1137 mt 1195 1185 L
gr

gs 557 503 1729 1729 rc
gr

gs 1125 784 1206 1496 rc
1163 1143 mt 1211 1143 L
1187 1119 mt 1187 1167 L
gr

gs 557 503 1729 1729 rc
gr

gs 1125 784 1206 1496 rc
1159  973 mt 1207  973 L
1183  949 mt 1183  997 L
gr

gs 557 503 1729 1729 rc
gr

gs 1125 784 1206 1496 rc
1150 1119 mt 1198 1119 L
1174 1095 mt 1174 1143 L
gr

gs 557 503 1729 1729 rc
gr

0 sg
%%IncludeResource: font Helvetica
/Helvetica /ISOLatin1Encoding 96 FMSR

 544 2266 mt 
( ) s
%%IncludeResource: font Helvetica
/Helvetica /ISOLatin1Encoding 144 FMSR

 137 2050 mt  -90 rotate
(Random Daily Incident) s
90 rotate
6 w
1 sg
0 437 2156 0 0 -437 362 462 4 MP
PP
-2156 0 0 437 2156 0 0 -437 362 462 5 MP stroke
4 w
DO
SO
6 w
0 sg
 362  462 mt 2518  462 L
 362   25 mt 2518   25 L
 362  462 mt  362   25 L
2518  462 mt 2518   25 L
 362  462 mt 2518  462 L
 362  462 mt  362   25 L
 362  462 mt 2518  462 L
 362   25 mt 2518   25 L
 362  462 mt  362   25 L
2518  462 mt 2518   25 L
%%IncludeResource: font Helvetica
/Helvetica /ISOLatin1Encoding 132 FMSR

 832  192 mt 
(Ground Truth) s
gs 362 25 2157 438 rc
12 w
gs 566 95 99 99 rc
c9
 591  144 mt  639  144 L
 615  120 mt  615  168 L
gr

c9
gr

12 w
c9
0 sg
 832  390 mt 
(Multidimensional Logistic Fit) s
gs 362 25 2157 438 rc
gs 566 293 99 99 rc
c8
 591  342 mt  639  342 L
 615  318 mt  615  366 L
 599  326 mt  631  358 L
 631  326 mt  599  358 L
gr

c8
6 w
gr

6 w
c8

end %%Color Dict

eplot
%%EndObject

epage
end

showpage

%%Trailer
%%EOF
