%!PS-Adobe-3.0 EPSF-3.0
%%Creator: MATLAB, The MathWorks, Inc. Version 8.3.0.532 (R2014a). Operating System: Darwin 13.3.0 Darwin Kernel Version 13.3.0: Tue Jun  3 21:27:35 PDT 2014; root:xnu-2422.110.17~1/RELEASE_X86_64 x86_64.
%%Title: /Users/huijuans/2015Fall/PLoSOne/MatLabFig/dominator_duration_random1_08272015.eps
%%CreationDate: 08/28/2015  17:00:25
%%DocumentNeededFonts: Helvetica
%%DocumentProcessColors: Cyan Magenta Yellow Black
%%LanguageLevel: 2
%%Pages: 1
%%BoundingBox:   198   288   414   504
%%EndComments

%%BeginProlog
% MathWorks dictionary
/MathWorks 160 dict begin
% definition operators
/bdef {bind def} bind def
/ldef {load def} bind def
/xdef {exch def} bdef
/xstore {exch store} bdef
% operator abbreviations
/c  /clip ldef
/cc /concat ldef
/cp /closepath ldef
/gr /grestore ldef
/gs /gsave ldef
/mt /moveto ldef
/np /newpath ldef
/cm /currentmatrix ldef
/sm /setmatrix ldef
/rm /rmoveto ldef
/rl /rlineto ldef
/s {show newpath} bdef
/sc {setcmykcolor} bdef
/sr /setrgbcolor ldef
/sg /setgray ldef
/w /setlinewidth ldef
/j /setlinejoin ldef
/cap /setlinecap ldef
/rc {rectclip} bdef
/rf {rectfill} bdef
% page state control
/pgsv () def
/bpage {/pgsv save def} bdef
/epage {pgsv restore} bdef
/bplot /gsave ldef
/eplot {stroke grestore} bdef
% orientation switch
/portraitMode 0 def /landscapeMode 1 def /rotateMode 2 def
% coordinate system mappings
/dpi2point 0 def
% font control
/FontSize 0 def
/FMS {/FontSize xstore findfont [FontSize 0 0 FontSize neg 0 0]
  makefont setfont} bdef
/reencode {exch dup where {pop load} {pop StandardEncoding} ifelse
  exch dup 3 1 roll findfont dup length dict begin
  { 1 index /FID ne {def}{pop pop} ifelse } forall
  /Encoding exch def currentdict end definefont pop} bdef
/isroman {findfont /CharStrings get /Agrave known} bdef
/FMSR {3 1 roll 1 index dup isroman {reencode} {pop pop} ifelse
  exch FMS} bdef
/csm {1 dpi2point div -1 dpi2point div scale neg translate
 dup landscapeMode eq {pop -90 rotate}
  {rotateMode eq {90 rotate} if} ifelse} bdef
% line types: solid, dotted, dashed, dotdash
/SO { [] 0 setdash } bdef
/DO { [.5 dpi2point mul 4 dpi2point mul] 0 setdash } bdef
/DA { [6 dpi2point mul] 0 setdash } bdef
/DD { [.5 dpi2point mul 4 dpi2point mul 6 dpi2point mul 4
  dpi2point mul] 0 setdash } bdef
% macros for lines and objects
/L {lineto stroke} bdef
/MP {3 1 roll moveto 1 sub {rlineto} repeat} bdef
/AP {{rlineto} repeat} bdef
/PDlw -1 def
/W {/PDlw currentlinewidth def setlinewidth} def
/PP {closepath eofill} bdef
/DP {closepath stroke} bdef
/MR {4 -2 roll moveto dup  0 exch rlineto exch 0 rlineto
  neg 0 exch rlineto closepath} bdef
/FR {MR stroke} bdef
/PR {MR fill} bdef
/L1i {{currentfile picstr readhexstring pop} image} bdef
/tMatrix matrix def
/MakeOval {newpath tMatrix currentmatrix pop translate scale
0 0 1 0 360 arc tMatrix setmatrix} bdef
/FO {MakeOval stroke} bdef
/PO {MakeOval fill} bdef
/PD {currentlinewidth 2 div 0 360 arc fill
   PDlw -1 eq not {PDlw w /PDlw -1 def} if} def
/FA {newpath tMatrix currentmatrix pop translate scale
  0 0 1 5 -2 roll arc tMatrix setmatrix stroke} bdef
/PA {newpath tMatrix currentmatrix pop	translate 0 0 moveto scale
  0 0 1 5 -2 roll arc closepath tMatrix setmatrix fill} bdef
/FAn {newpath tMatrix currentmatrix pop translate scale
  0 0 1 5 -2 roll arcn tMatrix setmatrix stroke} bdef
/PAn {newpath tMatrix currentmatrix pop translate 0 0 moveto scale
  0 0 1 5 -2 roll arcn closepath tMatrix setmatrix fill} bdef
/vradius 0 def /hradius 0 def /lry 0 def
/lrx 0 def /uly 0 def /ulx 0 def /rad 0 def
/MRR {/vradius xdef /hradius xdef /lry xdef /lrx xdef /uly xdef
  /ulx xdef newpath tMatrix currentmatrix pop ulx hradius add uly
  vradius add translate hradius vradius scale 0 0 1 180 270 arc 
  tMatrix setmatrix lrx hradius sub uly vradius add translate
  hradius vradius scale 0 0 1 270 360 arc tMatrix setmatrix
  lrx hradius sub lry vradius sub translate hradius vradius scale
  0 0 1 0 90 arc tMatrix setmatrix ulx hradius add lry vradius sub
  translate hradius vradius scale 0 0 1 90 180 arc tMatrix setmatrix
  closepath} bdef
/FRR {MRR stroke } bdef
/PRR {MRR fill } bdef
/MlrRR {/lry xdef /lrx xdef /uly xdef /ulx xdef /rad lry uly sub 2 div def
  newpath tMatrix currentmatrix pop ulx rad add uly rad add translate
  rad rad scale 0 0 1 90 270 arc tMatrix setmatrix lrx rad sub lry rad
  sub translate rad rad scale 0 0 1 270 90 arc tMatrix setmatrix
  closepath} bdef
/FlrRR {MlrRR stroke } bdef
/PlrRR {MlrRR fill } bdef
/MtbRR {/lry xdef /lrx xdef /uly xdef /ulx xdef /rad lrx ulx sub 2 div def
  newpath tMatrix currentmatrix pop ulx rad add uly rad add translate
  rad rad scale 0 0 1 180 360 arc tMatrix setmatrix lrx rad sub lry rad
  sub translate rad rad scale 0 0 1 0 180 arc tMatrix setmatrix
  closepath} bdef
/FtbRR {MtbRR stroke } bdef
/PtbRR {MtbRR fill } bdef
/stri 6 array def /dtri 6 array def
/smat 6 array def /dmat 6 array def
/tmat1 6 array def /tmat2 6 array def /dif 3 array def
/asub {/ind2 exch def /ind1 exch def dup dup
  ind1 get exch ind2 get sub exch } bdef
/tri_to_matrix {
  2 0 asub 3 1 asub 4 0 asub 5 1 asub
  dup 0 get exch 1 get 7 -1 roll astore } bdef
/compute_transform {
  dmat dtri tri_to_matrix tmat1 invertmatrix 
  smat stri tri_to_matrix tmat2 concatmatrix } bdef
/ds {stri astore pop} bdef
/dt {dtri astore pop} bdef
/db {2 copy /cols xdef /rows xdef mul dup 3 mul string
  currentfile 
  3 index 0 eq {/ASCIIHexDecode filter}
  {/ASCII85Decode filter 3 index 2 eq {/RunLengthDecode filter} if }
  ifelse exch readstring pop
  dup 0 3 index getinterval /rbmap xdef
  dup 2 index dup getinterval /gbmap xdef
  1 index dup 2 mul exch getinterval /bbmap xdef pop pop}bdef
/it {gs np dtri aload pop moveto lineto lineto cp c
  cols rows 8 compute_transform 
  rbmap gbmap bbmap true 3 colorimage gr}bdef
/il {newpath moveto lineto stroke}bdef
currentdict end def
%%EndProlog

%%BeginSetup
MathWorks begin

0 cap

end
%%EndSetup

%%Page: 1 1
%%BeginPageSetup
%%PageBoundingBox:   198   288   414   504
MathWorks begin
bpage
%%EndPageSetup

%%BeginObject: obj1
bplot

/dpi2point 12 def
portraitMode 2376 6048 csm

    0     0  2592  2592 rc
85 dict begin %Colortable dictionary
/c0 { 0.000000 0.000000 0.000000 sr} bdef
/c1 { 1.000000 1.000000 1.000000 sr} bdef
/c2 { 0.900000 0.000000 0.000000 sr} bdef
/c3 { 0.000000 0.820000 0.000000 sr} bdef
/c4 { 0.000000 0.000000 0.800000 sr} bdef
/c5 { 0.910000 0.820000 0.320000 sr} bdef
/c6 { 1.000000 0.260000 0.820000 sr} bdef
/c7 { 0.000000 0.820000 0.820000 sr} bdef
c0
1 j
1 sg
   0    0 2593 2593 rf
6 w
0 1814 1814 0 0 -1814 605 2160 4 MP
PP
-1814 0 0 1814 1814 0 0 -1814 605 2160 5 MP stroke
4 w
DO
SO
6 w
0 sg
 605 2160 mt 2419 2160 L
 605  346 mt 2419  346 L
 605 2160 mt  605  346 L
2419 2160 mt 2419  346 L
 605 2160 mt 2419 2160 L
 605 2160 mt  605  346 L
1024 2160 mt 1024 2141 L
1024  346 mt 1024  364 L
%%IncludeResource: font Helvetica
/Helvetica /ISOLatin1Encoding 144 FMSR

 984 2328 mt 
(2) s
1444 2160 mt 1444 2141 L
1444  346 mt 1444  364 L
1404 2328 mt 
(4) s
1864 2160 mt 1864 2141 L
1864  346 mt 1864  364 L
1824 2328 mt 
(6) s
2284 2160 mt 2284 2141 L
2284  346 mt 2284  364 L
2244 2328 mt 
(8) s
2094 2560 mt 
(x 10) s
%%IncludeResource: font Helvetica
/Helvetica /ISOLatin1Encoding 96 FMSR

2366 2471 mt 
(4) s
 605 2160 mt  623 2160 L
2419 2160 mt 2400 2160 L
%%IncludeResource: font Helvetica
/Helvetica /ISOLatin1Encoding 144 FMSR

 490 2213 mt 
(0) s
 605 1797 mt  623 1797 L
2419 1797 mt 2400 1797 L
 330 1850 mt 
(200) s
 605 1434 mt  623 1434 L
2419 1434 mt 2400 1434 L
 330 1487 mt 
(400) s
 605 1071 mt  623 1071 L
2419 1071 mt 2400 1071 L
 330 1124 mt 
(600) s
 605  708 mt  623  708 L
2419  708 mt 2400  708 L
 330  761 mt 
(800) s
 605  346 mt  623  346 L
2419  346 mt 2400  346 L
 250  399 mt 
(1000) s
 605 2160 mt 2419 2160 L
 605  346 mt 2419  346 L
 605 2160 mt  605  346 L
2419 2160 mt 2419  346 L
gs 605 346 1815 1815 rc
/c8 { 0.000000 0.000000 0.562500 sr} bdef
c8
0 1580 16 0 0 -1580 605 2160 4 MP
PP
0 sg
-16 0 0 1580 16 0 0 -1580 605 2160 5 MP stroke
c8
0 610 17 0 0 -610 621 2160 4 MP
PP
0 sg
-17 0 0 610 17 0 0 -610 621 2160 5 MP stroke
c8
0 517 17 0 0 -517 638 2160 4 MP
PP
0 sg
-17 0 0 517 17 0 0 -517 638 2160 5 MP stroke
c8
0 267 17 0 0 -267 655 2160 4 MP
PP
0 sg
-17 0 0 267 17 0 0 -267 655 2160 5 MP stroke
c8
0 251 17 0 0 -251 672 2160 4 MP
PP
0 sg
-17 0 0 251 17 0 0 -251 672 2160 5 MP stroke
c8
0 184 17 0 0 -184 689 2160 4 MP
PP
0 sg
-17 0 0 184 17 0 0 -184 689 2160 5 MP stroke
c8
0 127 17 0 0 -127 706 2160 4 MP
PP
0 sg
-17 0 0 127 17 0 0 -127 706 2160 5 MP stroke
c8
0 64 17 0 0 -64 723 2160 4 MP
PP
0 sg
-17 0 0 64 17 0 0 -64 723 2160 5 MP stroke
c8
0 109 16 0 0 -109 740 2160 4 MP
PP
0 sg
-16 0 0 109 16 0 0 -109 740 2160 5 MP stroke
c8
0 44 17 0 0 -44 756 2160 4 MP
PP
0 sg
-17 0 0 44 17 0 0 -44 756 2160 5 MP stroke
c8
0 59 17 0 0 -59 773 2160 4 MP
PP
0 sg
-17 0 0 59 17 0 0 -59 773 2160 5 MP stroke
c8
0 49 17 0 0 -49 790 2160 4 MP
PP
0 sg
-17 0 0 49 17 0 0 -49 790 2160 5 MP stroke
c8
0 30 17 0 0 -30 807 2160 4 MP
PP
0 sg
-17 0 0 30 17 0 0 -30 807 2160 5 MP stroke
c8
0 28 17 0 0 -28 824 2160 4 MP
PP
0 sg
-17 0 0 28 17 0 0 -28 824 2160 5 MP stroke
c8
0 40 17 0 0 -40 841 2160 4 MP
PP
0 sg
-17 0 0 40 17 0 0 -40 841 2160 5 MP stroke
c8
0 33 17 0 0 -33 858 2160 4 MP
PP
0 sg
-17 0 0 33 17 0 0 -33 858 2160 5 MP stroke
c8
0 28 16 0 0 -28 875 2160 4 MP
PP
0 sg
-16 0 0 28 16 0 0 -28 875 2160 5 MP stroke
c8
0 42 17 0 0 -42 891 2160 4 MP
PP
0 sg
-17 0 0 42 17 0 0 -42 891 2160 5 MP stroke
c8
0 11 17 0 0 -11 908 2160 4 MP
PP
0 sg
-17 0 0 11 17 0 0 -11 908 2160 5 MP stroke
c8
0 17 17 0 0 -17 925 2160 4 MP
PP
0 sg
-17 0 0 17 17 0 0 -17 925 2160 5 MP stroke
c8
0 15 17 0 0 -15 942 2160 4 MP
PP
0 sg
-17 0 0 15 17 0 0 -15 942 2160 5 MP stroke
c8
0 8 17 0 0 -8 959 2160 4 MP
PP
0 sg
-17 0 0 8 17 0 0 -8 959 2160 5 MP stroke
c8
0 13 17 0 0 -13 976 2160 4 MP
PP
0 sg
-17 0 0 13 17 0 0 -13 976 2160 5 MP stroke
c8
0 13 17 0 0 -13 993 2160 4 MP
PP
0 sg
-17 0 0 13 17 0 0 -13 993 2160 5 MP stroke
c8
0 19 17 0 0 -19 1010 2160 4 MP
PP
0 sg
-17 0 0 19 17 0 0 -19 1010 2160 5 MP stroke
c8
0 11 16 0 0 -11 1027 2160 4 MP
PP
0 sg
-16 0 0 11 16 0 0 -11 1027 2160 5 MP stroke
c8
0 17 17 0 0 -17 1043 2160 4 MP
PP
0 sg
-17 0 0 17 17 0 0 -17 1043 2160 5 MP stroke
c8
0 30 17 0 0 -30 1060 2160 4 MP
PP
0 sg
-17 0 0 30 17 0 0 -30 1060 2160 5 MP stroke
c8
0 44 17 0 0 -44 1077 2160 4 MP
PP
0 sg
-17 0 0 44 17 0 0 -44 1077 2160 5 MP stroke
c8
0 144 17 0 0 -144 1094 2160 4 MP
PP
0 sg
-17 0 0 144 17 0 0 -144 1094 2160 5 MP stroke
c8
0 37 17 0 0 -37 1111 2160 4 MP
PP
0 sg
-17 0 0 37 17 0 0 -37 1111 2160 5 MP stroke
c8
0 42 17 0 0 -42 1128 2160 4 MP
PP
0 sg
-17 0 0 42 17 0 0 -42 1128 2160 5 MP stroke
c8
0 20 17 0 0 -20 1145 2160 4 MP
PP
0 sg
-17 0 0 20 17 0 0 -20 1145 2160 5 MP stroke
c8
0 11 16 0 0 -11 1162 2160 4 MP
PP
0 sg
-16 0 0 11 16 0 0 -11 1162 2160 5 MP stroke
c8
0 4 17 0 0 -4 1178 2160 4 MP
PP
0 sg
-17 0 0 4 17 0 0 -4 1178 2160 5 MP stroke
c8
0 15 17 0 0 -15 1195 2160 4 MP
PP
0 sg
-17 0 0 15 17 0 0 -15 1195 2160 5 MP stroke
c8
0 15 17 0 0 -15 1212 2160 4 MP
PP
0 sg
-17 0 0 15 17 0 0 -15 1212 2160 5 MP stroke
c8
0 10 17 0 0 -10 1229 2160 4 MP
PP
0 sg
-17 0 0 10 17 0 0 -10 1229 2160 5 MP stroke
c8
0 8 17 0 0 -8 1246 2160 4 MP
PP
0 sg
-17 0 0 8 17 0 0 -8 1246 2160 5 MP stroke
c8
0 8 17 0 0 -8 1263 2160 4 MP
PP
0 sg
-17 0 0 8 17 0 0 -8 1263 2160 5 MP stroke
c8
0 4 17 0 0 -4 1280 2160 4 MP
PP
0 sg
-17 0 0 4 17 0 0 -4 1280 2160 5 MP stroke
c8
0 15 16 0 0 -15 1297 2160 4 MP
PP
0 sg
-16 0 0 15 16 0 0 -15 1297 2160 5 MP stroke
c8
0 10 17 0 0 -10 1313 2160 4 MP
PP
0 sg
-17 0 0 10 17 0 0 -10 1313 2160 5 MP stroke
c8
0 6 17 0 0 -6 1330 2160 4 MP
PP
0 sg
-17 0 0 6 17 0 0 -6 1330 2160 5 MP stroke
c8
0 15 17 0 0 -15 1347 2160 4 MP
PP
0 sg
-17 0 0 15 17 0 0 -15 1347 2160 5 MP stroke
c8
0 6 17 0 0 -6 1364 2160 4 MP
PP
0 sg
-17 0 0 6 17 0 0 -6 1364 2160 5 MP stroke
c8
0 2 17 0 0 -2 1381 2160 4 MP
PP
0 sg
-17 0 0 2 17 0 0 -2 1381 2160 5 MP stroke
c8
0 2 17 0 0 -2 1398 2160 4 MP
PP
0 sg
-17 0 0 2 17 0 0 -2 1398 2160 5 MP stroke
c8
0 8 17 0 0 -8 1415 2160 4 MP
PP
0 sg
-17 0 0 8 17 0 0 -8 1415 2160 5 MP stroke
c8
0 0 17 0 0 0 1432 2160 4 MP
PP
0 sg
-17 0 0 0 17 0 0 0 1432 2160 5 MP stroke
c8
0 2 16 0 0 -2 1449 2160 4 MP
PP
0 sg
-16 0 0 2 16 0 0 -2 1449 2160 5 MP stroke
c8
0 15 17 0 0 -15 1465 2160 4 MP
PP
0 sg
-17 0 0 15 17 0 0 -15 1465 2160 5 MP stroke
c8
0 0 17 0 0 0 1482 2160 4 MP
PP
0 sg
-17 0 0 0 17 0 0 0 1482 2160 5 MP stroke
c8
0 8 17 0 0 -8 1499 2160 4 MP
PP
0 sg
-17 0 0 8 17 0 0 -8 1499 2160 5 MP stroke
c8
0 2 17 0 0 -2 1516 2160 4 MP
PP
0 sg
-17 0 0 2 17 0 0 -2 1516 2160 5 MP stroke
c8
0 4 17 0 0 -4 1533 2160 4 MP
PP
0 sg
-17 0 0 4 17 0 0 -4 1533 2160 5 MP stroke
c8
0 4 17 0 0 -4 1550 2160 4 MP
PP
0 sg
-17 0 0 4 17 0 0 -4 1550 2160 5 MP stroke
c8
0 8 17 0 0 -8 1567 2160 4 MP
PP
0 sg
-17 0 0 8 17 0 0 -8 1567 2160 5 MP stroke
c8
0 10 16 0 0 -10 1584 2160 4 MP
PP
0 sg
-16 0 0 10 16 0 0 -10 1584 2160 5 MP stroke
c8
0 4 17 0 0 -4 1600 2160 4 MP
PP
0 sg
-17 0 0 4 17 0 0 -4 1600 2160 5 MP stroke
c8
0 4 17 0 0 -4 1617 2160 4 MP
PP
0 sg
-17 0 0 4 17 0 0 -4 1617 2160 5 MP stroke
c8
0 4 17 0 0 -4 1634 2160 4 MP
PP
0 sg
-17 0 0 4 17 0 0 -4 1634 2160 5 MP stroke
c8
0 2 17 0 0 -2 1651 2160 4 MP
PP
0 sg
-17 0 0 2 17 0 0 -2 1651 2160 5 MP stroke
c8
0 0 17 0 0 0 1668 2160 4 MP
PP
0 sg
-17 0 0 0 17 0 0 0 1668 2160 5 MP stroke
c8
0 8 17 0 0 -8 1685 2160 4 MP
PP
0 sg
-17 0 0 8 17 0 0 -8 1685 2160 5 MP stroke
c8
0 0 17 0 0 0 1702 2160 4 MP
PP
0 sg
-17 0 0 0 17 0 0 0 1702 2160 5 MP stroke
c8
0 0 16 0 0 0 1719 2160 4 MP
PP
0 sg
-16 0 0 0 16 0 0 0 1719 2160 5 MP stroke
c8
0 2 17 0 0 -2 1735 2160 4 MP
PP
0 sg
-17 0 0 2 17 0 0 -2 1735 2160 5 MP stroke
c8
0 0 17 0 0 0 1752 2160 4 MP
PP
0 sg
-17 0 0 0 17 0 0 0 1752 2160 5 MP stroke
c8
0 0 17 0 0 0 1769 2160 4 MP
PP
0 sg
-17 0 0 0 17 0 0 0 1769 2160 5 MP stroke
c8
0 0 17 0 0 0 1786 2160 4 MP
PP
0 sg
-17 0 0 0 17 0 0 0 1786 2160 5 MP stroke
c8
0 2 17 0 0 -2 1803 2160 4 MP
PP
0 sg
-17 0 0 2 17 0 0 -2 1803 2160 5 MP stroke
c8
0 2 17 0 0 -2 1820 2160 4 MP
PP
0 sg
-17 0 0 2 17 0 0 -2 1820 2160 5 MP stroke
c8
0 0 17 0 0 0 1837 2160 4 MP
PP
0 sg
-17 0 0 0 17 0 0 0 1837 2160 5 MP stroke
c8
0 0 17 0 0 0 1854 2160 4 MP
PP
0 sg
-17 0 0 0 17 0 0 0 1854 2160 5 MP stroke
c8
0 2 16 0 0 -2 1871 2160 4 MP
PP
0 sg
-16 0 0 2 16 0 0 -2 1871 2160 5 MP stroke
c8
0 2 17 0 0 -2 1887 2160 4 MP
PP
0 sg
-17 0 0 2 17 0 0 -2 1887 2160 5 MP stroke
c8
0 0 17 0 0 0 1904 2160 4 MP
PP
0 sg
-17 0 0 0 17 0 0 0 1904 2160 5 MP stroke
c8
0 0 17 0 0 0 1921 2160 4 MP
PP
0 sg
-17 0 0 0 17 0 0 0 1921 2160 5 MP stroke
c8
0 0 17 0 0 0 1938 2160 4 MP
PP
0 sg
-17 0 0 0 17 0 0 0 1938 2160 5 MP stroke
c8
0 0 17 0 0 0 1955 2160 4 MP
PP
0 sg
-17 0 0 0 17 0 0 0 1955 2160 5 MP stroke
c8
0 0 17 0 0 0 1972 2160 4 MP
PP
0 sg
-17 0 0 0 17 0 0 0 1972 2160 5 MP stroke
c8
0 6 17 0 0 -6 1989 2160 4 MP
PP
0 sg
-17 0 0 6 17 0 0 -6 1989 2160 5 MP stroke
c8
0 2 16 0 0 -2 2006 2160 4 MP
PP
0 sg
-16 0 0 2 16 0 0 -2 2006 2160 5 MP stroke
c8
0 0 17 0 0 0 2022 2160 4 MP
PP
0 sg
-17 0 0 0 17 0 0 0 2022 2160 5 MP stroke
c8
0 0 17 0 0 0 2039 2160 4 MP
PP
0 sg
-17 0 0 0 17 0 0 0 2039 2160 5 MP stroke
c8
0 0 17 0 0 0 2056 2160 4 MP
PP
0 sg
-17 0 0 0 17 0 0 0 2056 2160 5 MP stroke
c8
0 2 17 0 0 -2 2073 2160 4 MP
PP
0 sg
-17 0 0 2 17 0 0 -2 2073 2160 5 MP stroke
c8
0 0 17 0 0 0 2090 2160 4 MP
PP
0 sg
-17 0 0 0 17 0 0 0 2090 2160 5 MP stroke
c8
0 2 17 0 0 -2 2107 2160 4 MP
PP
0 sg
-17 0 0 2 17 0 0 -2 2107 2160 5 MP stroke
c8
0 0 17 0 0 0 2124 2160 4 MP
PP
0 sg
-17 0 0 0 17 0 0 0 2124 2160 5 MP stroke
c8
0 4 16 0 0 -4 2141 2160 4 MP
PP
0 sg
-16 0 0 4 16 0 0 -4 2141 2160 5 MP stroke
c8
0 4 17 0 0 -4 2157 2160 4 MP
PP
0 sg
-17 0 0 4 17 0 0 -4 2157 2160 5 MP stroke
c8
0 0 17 0 0 0 2174 2160 4 MP
PP
0 sg
-17 0 0 0 17 0 0 0 2174 2160 5 MP stroke
c8
0 2 17 0 0 -2 2191 2160 4 MP
PP
0 sg
-17 0 0 2 17 0 0 -2 2191 2160 5 MP stroke
c8
0 4 17 0 0 -4 2208 2160 4 MP
PP
0 sg
-17 0 0 4 17 0 0 -4 2208 2160 5 MP stroke
c8
0 0 17 0 0 0 2225 2160 4 MP
PP
0 sg
-17 0 0 0 17 0 0 0 2225 2160 5 MP stroke
c8
0 2 17 0 0 -2 2242 2160 4 MP
PP
0 sg
-17 0 0 2 17 0 0 -2 2242 2160 5 MP stroke
c8
0 0 17 0 0 0 2259 2160 4 MP
PP
0 sg
-17 0 0 0 17 0 0 0 2259 2160 5 MP stroke
c8
0 2 17 0 0 -2 2276 2160 4 MP
PP
0 sg
-17 0 0 2 17 0 0 -2 2276 2160 5 MP stroke
gr

 871 2488 mt 
(Duration\(second\)) s
 197 1602 mt  -90 rotate
(Frequency) s
90 rotate

end %%Color Dict

eplot
%%EndObject

epage
end

showpage

%%Trailer
%%EOF
