%!PS-Adobe-3.0 EPSF-3.0
%%Creator: MATLAB, The MathWorks, Inc. Version 8.3.0.532 (R2014a). Operating System: Darwin 13.3.0 Darwin Kernel Version 13.3.0: Tue Jun  3 21:27:35 PDT 2014; root:xnu-2422.110.17~1/RELEASE_X86_64 x86_64.
%%Title: /Users/huijuans/2015Fall/PLoSOne/MatLabFig/dominator_duration_sensor1_08272015.eps
%%CreationDate: 08/28/2015  17:03:02
%%DocumentNeededFonts: Helvetica
%%DocumentProcessColors: Cyan Magenta Yellow Black
%%LanguageLevel: 2
%%Pages: 1
%%BoundingBox:   198   288   414   504
%%EndComments

%%BeginProlog
% MathWorks dictionary
/MathWorks 160 dict begin
% definition operators
/bdef {bind def} bind def
/ldef {load def} bind def
/xdef {exch def} bdef
/xstore {exch store} bdef
% operator abbreviations
/c  /clip ldef
/cc /concat ldef
/cp /closepath ldef
/gr /grestore ldef
/gs /gsave ldef
/mt /moveto ldef
/np /newpath ldef
/cm /currentmatrix ldef
/sm /setmatrix ldef
/rm /rmoveto ldef
/rl /rlineto ldef
/s {show newpath} bdef
/sc {setcmykcolor} bdef
/sr /setrgbcolor ldef
/sg /setgray ldef
/w /setlinewidth ldef
/j /setlinejoin ldef
/cap /setlinecap ldef
/rc {rectclip} bdef
/rf {rectfill} bdef
% page state control
/pgsv () def
/bpage {/pgsv save def} bdef
/epage {pgsv restore} bdef
/bplot /gsave ldef
/eplot {stroke grestore} bdef
% orientation switch
/portraitMode 0 def /landscapeMode 1 def /rotateMode 2 def
% coordinate system mappings
/dpi2point 0 def
% font control
/FontSize 0 def
/FMS {/FontSize xstore findfont [FontSize 0 0 FontSize neg 0 0]
  makefont setfont} bdef
/reencode {exch dup where {pop load} {pop StandardEncoding} ifelse
  exch dup 3 1 roll findfont dup length dict begin
  { 1 index /FID ne {def}{pop pop} ifelse } forall
  /Encoding exch def currentdict end definefont pop} bdef
/isroman {findfont /CharStrings get /Agrave known} bdef
/FMSR {3 1 roll 1 index dup isroman {reencode} {pop pop} ifelse
  exch FMS} bdef
/csm {1 dpi2point div -1 dpi2point div scale neg translate
 dup landscapeMode eq {pop -90 rotate}
  {rotateMode eq {90 rotate} if} ifelse} bdef
% line types: solid, dotted, dashed, dotdash
/SO { [] 0 setdash } bdef
/DO { [.5 dpi2point mul 4 dpi2point mul] 0 setdash } bdef
/DA { [6 dpi2point mul] 0 setdash } bdef
/DD { [.5 dpi2point mul 4 dpi2point mul 6 dpi2point mul 4
  dpi2point mul] 0 setdash } bdef
% macros for lines and objects
/L {lineto stroke} bdef
/MP {3 1 roll moveto 1 sub {rlineto} repeat} bdef
/AP {{rlineto} repeat} bdef
/PDlw -1 def
/W {/PDlw currentlinewidth def setlinewidth} def
/PP {closepath eofill} bdef
/DP {closepath stroke} bdef
/MR {4 -2 roll moveto dup  0 exch rlineto exch 0 rlineto
  neg 0 exch rlineto closepath} bdef
/FR {MR stroke} bdef
/PR {MR fill} bdef
/L1i {{currentfile picstr readhexstring pop} image} bdef
/tMatrix matrix def
/MakeOval {newpath tMatrix currentmatrix pop translate scale
0 0 1 0 360 arc tMatrix setmatrix} bdef
/FO {MakeOval stroke} bdef
/PO {MakeOval fill} bdef
/PD {currentlinewidth 2 div 0 360 arc fill
   PDlw -1 eq not {PDlw w /PDlw -1 def} if} def
/FA {newpath tMatrix currentmatrix pop translate scale
  0 0 1 5 -2 roll arc tMatrix setmatrix stroke} bdef
/PA {newpath tMatrix currentmatrix pop	translate 0 0 moveto scale
  0 0 1 5 -2 roll arc closepath tMatrix setmatrix fill} bdef
/FAn {newpath tMatrix currentmatrix pop translate scale
  0 0 1 5 -2 roll arcn tMatrix setmatrix stroke} bdef
/PAn {newpath tMatrix currentmatrix pop translate 0 0 moveto scale
  0 0 1 5 -2 roll arcn closepath tMatrix setmatrix fill} bdef
/vradius 0 def /hradius 0 def /lry 0 def
/lrx 0 def /uly 0 def /ulx 0 def /rad 0 def
/MRR {/vradius xdef /hradius xdef /lry xdef /lrx xdef /uly xdef
  /ulx xdef newpath tMatrix currentmatrix pop ulx hradius add uly
  vradius add translate hradius vradius scale 0 0 1 180 270 arc 
  tMatrix setmatrix lrx hradius sub uly vradius add translate
  hradius vradius scale 0 0 1 270 360 arc tMatrix setmatrix
  lrx hradius sub lry vradius sub translate hradius vradius scale
  0 0 1 0 90 arc tMatrix setmatrix ulx hradius add lry vradius sub
  translate hradius vradius scale 0 0 1 90 180 arc tMatrix setmatrix
  closepath} bdef
/FRR {MRR stroke } bdef
/PRR {MRR fill } bdef
/MlrRR {/lry xdef /lrx xdef /uly xdef /ulx xdef /rad lry uly sub 2 div def
  newpath tMatrix currentmatrix pop ulx rad add uly rad add translate
  rad rad scale 0 0 1 90 270 arc tMatrix setmatrix lrx rad sub lry rad
  sub translate rad rad scale 0 0 1 270 90 arc tMatrix setmatrix
  closepath} bdef
/FlrRR {MlrRR stroke } bdef
/PlrRR {MlrRR fill } bdef
/MtbRR {/lry xdef /lrx xdef /uly xdef /ulx xdef /rad lrx ulx sub 2 div def
  newpath tMatrix currentmatrix pop ulx rad add uly rad add translate
  rad rad scale 0 0 1 180 360 arc tMatrix setmatrix lrx rad sub lry rad
  sub translate rad rad scale 0 0 1 0 180 arc tMatrix setmatrix
  closepath} bdef
/FtbRR {MtbRR stroke } bdef
/PtbRR {MtbRR fill } bdef
/stri 6 array def /dtri 6 array def
/smat 6 array def /dmat 6 array def
/tmat1 6 array def /tmat2 6 array def /dif 3 array def
/asub {/ind2 exch def /ind1 exch def dup dup
  ind1 get exch ind2 get sub exch } bdef
/tri_to_matrix {
  2 0 asub 3 1 asub 4 0 asub 5 1 asub
  dup 0 get exch 1 get 7 -1 roll astore } bdef
/compute_transform {
  dmat dtri tri_to_matrix tmat1 invertmatrix 
  smat stri tri_to_matrix tmat2 concatmatrix } bdef
/ds {stri astore pop} bdef
/dt {dtri astore pop} bdef
/db {2 copy /cols xdef /rows xdef mul dup 3 mul string
  currentfile 
  3 index 0 eq {/ASCIIHexDecode filter}
  {/ASCII85Decode filter 3 index 2 eq {/RunLengthDecode filter} if }
  ifelse exch readstring pop
  dup 0 3 index getinterval /rbmap xdef
  dup 2 index dup getinterval /gbmap xdef
  1 index dup 2 mul exch getinterval /bbmap xdef pop pop}bdef
/it {gs np dtri aload pop moveto lineto lineto cp c
  cols rows 8 compute_transform 
  rbmap gbmap bbmap true 3 colorimage gr}bdef
/il {newpath moveto lineto stroke}bdef
currentdict end def
%%EndProlog

%%BeginSetup
MathWorks begin

0 cap

end
%%EndSetup

%%Page: 1 1
%%BeginPageSetup
%%PageBoundingBox:   198   288   414   504
MathWorks begin
bpage
%%EndPageSetup

%%BeginObject: obj1
bplot

/dpi2point 12 def
portraitMode 2376 6048 csm

    0     0  2592  2592 rc
85 dict begin %Colortable dictionary
/c0 { 0.000000 0.000000 0.000000 sr} bdef
/c1 { 1.000000 1.000000 1.000000 sr} bdef
/c2 { 0.900000 0.000000 0.000000 sr} bdef
/c3 { 0.000000 0.820000 0.000000 sr} bdef
/c4 { 0.000000 0.000000 0.800000 sr} bdef
/c5 { 0.910000 0.820000 0.320000 sr} bdef
/c6 { 1.000000 0.260000 0.820000 sr} bdef
/c7 { 0.000000 0.820000 0.820000 sr} bdef
c0
1 j
1 sg
   0    0 2593 2593 rf
6 w
0 1814 1814 0 0 -1814 605 2160 4 MP
PP
-1814 0 0 1814 1814 0 0 -1814 605 2160 5 MP stroke
4 w
DO
SO
6 w
0 sg
 605 2160 mt 2419 2160 L
 605  346 mt 2419  346 L
 605 2160 mt  605  346 L
2419 2160 mt 2419  346 L
 605 2160 mt 2419 2160 L
 605 2160 mt  605  346 L
1024 2160 mt 1024 2141 L
1024  346 mt 1024  364 L
%%IncludeResource: font Helvetica
/Helvetica /ISOLatin1Encoding 144 FMSR

 984 2328 mt 
(2) s
1444 2160 mt 1444 2141 L
1444  346 mt 1444  364 L
1404 2328 mt 
(4) s
1864 2160 mt 1864 2141 L
1864  346 mt 1864  364 L
1824 2328 mt 
(6) s
2284 2160 mt 2284 2141 L
2284  346 mt 2284  364 L
2244 2328 mt 
(8) s
2094 2560 mt 
(x 10) s
%%IncludeResource: font Helvetica
/Helvetica /ISOLatin1Encoding 96 FMSR

2366 2471 mt 
(4) s
 605 2160 mt  623 2160 L
2419 2160 mt 2400 2160 L
%%IncludeResource: font Helvetica
/Helvetica /ISOLatin1Encoding 144 FMSR

 490 2213 mt 
(0) s
 605 1857 mt  623 1857 L
2419 1857 mt 2400 1857 L
 410 1910 mt 
(10) s
 605 1555 mt  623 1555 L
2419 1555 mt 2400 1555 L
 410 1608 mt 
(20) s
 605 1253 mt  623 1253 L
2419 1253 mt 2400 1253 L
 410 1306 mt 
(30) s
 605  950 mt  623  950 L
2419  950 mt 2400  950 L
 410 1003 mt 
(40) s
 605  648 mt  623  648 L
2419  648 mt 2400  648 L
 410  701 mt 
(50) s
 605  346 mt  623  346 L
2419  346 mt 2400  346 L
 410  399 mt 
(60) s
 605 2160 mt 2419 2160 L
 605  346 mt 2419  346 L
 605 2160 mt  605  346 L
2419 2160 mt 2419  346 L
gs 605 346 1815 1815 rc
/c8 { 0.000000 0.000000 0.562500 sr} bdef
c8
0 1542 12 0 0 -1542 605 2160 4 MP
PP
0 sg
-12 0 0 1542 12 0 0 -1542 605 2160 5 MP stroke
c8
0 1180 12 0 0 -1180 617 2160 4 MP
PP
0 sg
-12 0 0 1180 12 0 0 -1180 617 2160 5 MP stroke
c8
0 424 12 0 0 -424 629 2160 4 MP
PP
0 sg
-12 0 0 424 12 0 0 -424 629 2160 5 MP stroke
c8
0 696 12 0 0 -696 641 2160 4 MP
PP
0 sg
-12 0 0 696 12 0 0 -696 641 2160 5 MP stroke
c8
0 303 12 0 0 -303 653 2160 4 MP
PP
0 sg
-12 0 0 303 12 0 0 -303 653 2160 5 MP stroke
c8
0 273 12 0 0 -273 665 2160 4 MP
PP
0 sg
-12 0 0 273 12 0 0 -273 665 2160 5 MP stroke
c8
0 273 12 0 0 -273 677 2160 4 MP
PP
0 sg
-12 0 0 273 12 0 0 -273 677 2160 5 MP stroke
c8
0 182 12 0 0 -182 689 2160 4 MP
PP
0 sg
-12 0 0 182 12 0 0 -182 689 2160 5 MP stroke
c8
0 242 12 0 0 -242 701 2160 4 MP
PP
0 sg
-12 0 0 242 12 0 0 -242 701 2160 5 MP stroke
c8
0 152 12 0 0 -152 713 2160 4 MP
PP
0 sg
-12 0 0 152 12 0 0 -152 713 2160 5 MP stroke
c8
0 152 13 0 0 -152 725 2160 4 MP
PP
0 sg
-13 0 0 152 13 0 0 -152 725 2160 5 MP stroke
c8
0 363 12 0 0 -363 738 2160 4 MP
PP
0 sg
-12 0 0 363 12 0 0 -363 738 2160 5 MP stroke
c8
0 0 12 0 0 0 750 2160 4 MP
PP
0 sg
-12 0 0 0 12 0 0 0 750 2160 5 MP stroke
c8
0 212 12 0 0 -212 762 2160 4 MP
PP
0 sg
-12 0 0 212 12 0 0 -212 762 2160 5 MP stroke
c8
0 152 12 0 0 -152 774 2160 4 MP
PP
0 sg
-12 0 0 152 12 0 0 -152 774 2160 5 MP stroke
c8
0 91 12 0 0 -91 786 2160 4 MP
PP
0 sg
-12 0 0 91 12 0 0 -91 786 2160 5 MP stroke
c8
0 91 12 0 0 -91 798 2160 4 MP
PP
0 sg
-12 0 0 91 12 0 0 -91 798 2160 5 MP stroke
c8
0 152 12 0 0 -152 810 2160 4 MP
PP
0 sg
-12 0 0 152 12 0 0 -152 810 2160 5 MP stroke
c8
0 152 12 0 0 -152 822 2160 4 MP
PP
0 sg
-12 0 0 152 12 0 0 -152 822 2160 5 MP stroke
c8
0 31 12 0 0 -31 834 2160 4 MP
PP
0 sg
-12 0 0 31 12 0 0 -31 834 2160 5 MP stroke
c8
0 91 12 0 0 -91 846 2160 4 MP
PP
0 sg
-12 0 0 91 12 0 0 -91 846 2160 5 MP stroke
c8
0 212 13 0 0 -212 858 2160 4 MP
PP
0 sg
-13 0 0 212 13 0 0 -212 858 2160 5 MP stroke
c8
0 91 12 0 0 -91 871 2160 4 MP
PP
0 sg
-12 0 0 91 12 0 0 -91 871 2160 5 MP stroke
c8
0 121 12 0 0 -121 883 2160 4 MP
PP
0 sg
-12 0 0 121 12 0 0 -121 883 2160 5 MP stroke
c8
0 121 12 0 0 -121 895 2160 4 MP
PP
0 sg
-12 0 0 121 12 0 0 -121 895 2160 5 MP stroke
c8
0 31 12 0 0 -31 907 2160 4 MP
PP
0 sg
-12 0 0 31 12 0 0 -31 907 2160 5 MP stroke
c8
0 212 12 0 0 -212 919 2160 4 MP
PP
0 sg
-12 0 0 212 12 0 0 -212 919 2160 5 MP stroke
c8
0 61 12 0 0 -61 931 2160 4 MP
PP
0 sg
-12 0 0 61 12 0 0 -61 931 2160 5 MP stroke
c8
0 121 12 0 0 -121 943 2160 4 MP
PP
0 sg
-12 0 0 121 12 0 0 -121 943 2160 5 MP stroke
c8
0 152 12 0 0 -152 955 2160 4 MP
PP
0 sg
-12 0 0 152 12 0 0 -152 955 2160 5 MP stroke
c8
0 61 12 0 0 -61 967 2160 4 MP
PP
0 sg
-12 0 0 61 12 0 0 -61 967 2160 5 MP stroke
c8
0 31 12 0 0 -31 979 2160 4 MP
PP
0 sg
-12 0 0 31 12 0 0 -31 979 2160 5 MP stroke
c8
0 152 13 0 0 -152 991 2160 4 MP
PP
0 sg
-13 0 0 152 13 0 0 -152 991 2160 5 MP stroke
c8
0 0 12 0 0 0 1004 2160 4 MP
PP
0 sg
-12 0 0 0 12 0 0 0 1004 2160 5 MP stroke
c8
0 182 12 0 0 -182 1016 2160 4 MP
PP
0 sg
-12 0 0 182 12 0 0 -182 1016 2160 5 MP stroke
c8
0 121 12 0 0 -121 1028 2160 4 MP
PP
0 sg
-12 0 0 121 12 0 0 -121 1028 2160 5 MP stroke
c8
0 424 12 0 0 -424 1040 2160 4 MP
PP
0 sg
-12 0 0 424 12 0 0 -424 1040 2160 5 MP stroke
c8
0 212 12 0 0 -212 1052 2160 4 MP
PP
0 sg
-12 0 0 212 12 0 0 -212 1052 2160 5 MP stroke
c8
0 938 12 0 0 -938 1064 2160 4 MP
PP
0 sg
-12 0 0 938 12 0 0 -938 1064 2160 5 MP stroke
c8
0 1089 12 0 0 -1089 1076 2160 4 MP
PP
0 sg
-12 0 0 1089 12 0 0 -1089 1076 2160 5 MP stroke
c8
0 1301 12 0 0 -1301 1088 2160 4 MP
PP
0 sg
-12 0 0 1301 12 0 0 -1301 1088 2160 5 MP stroke
c8
0 666 12 0 0 -666 1100 2160 4 MP
PP
0 sg
-12 0 0 666 12 0 0 -666 1100 2160 5 MP stroke
c8
0 726 13 0 0 -726 1112 2160 4 MP
PP
0 sg
-13 0 0 726 13 0 0 -726 1112 2160 5 MP stroke
c8
0 968 12 0 0 -968 1125 2160 4 MP
PP
0 sg
-12 0 0 968 12 0 0 -968 1125 2160 5 MP stroke
c8
0 242 12 0 0 -242 1137 2160 4 MP
PP
0 sg
-12 0 0 242 12 0 0 -242 1137 2160 5 MP stroke
c8
0 424 12 0 0 -424 1149 2160 4 MP
PP
0 sg
-12 0 0 424 12 0 0 -424 1149 2160 5 MP stroke
c8
0 424 12 0 0 -424 1161 2160 4 MP
PP
0 sg
-12 0 0 424 12 0 0 -424 1161 2160 5 MP stroke
c8
0 424 12 0 0 -424 1173 2160 4 MP
PP
0 sg
-12 0 0 424 12 0 0 -424 1173 2160 5 MP stroke
c8
0 91 12 0 0 -91 1185 2160 4 MP
PP
0 sg
-12 0 0 91 12 0 0 -91 1185 2160 5 MP stroke
c8
0 303 12 0 0 -303 1197 2160 4 MP
PP
0 sg
-12 0 0 303 12 0 0 -303 1197 2160 5 MP stroke
c8
0 31 12 0 0 -31 1209 2160 4 MP
PP
0 sg
-12 0 0 31 12 0 0 -31 1209 2160 5 MP stroke
c8
0 121 12 0 0 -121 1221 2160 4 MP
PP
0 sg
-12 0 0 121 12 0 0 -121 1221 2160 5 MP stroke
c8
0 182 12 0 0 -182 1233 2160 4 MP
PP
0 sg
-12 0 0 182 12 0 0 -182 1233 2160 5 MP stroke
c8
0 152 13 0 0 -152 1245 2160 4 MP
PP
0 sg
-13 0 0 152 13 0 0 -152 1245 2160 5 MP stroke
c8
0 152 12 0 0 -152 1258 2160 4 MP
PP
0 sg
-12 0 0 152 12 0 0 -152 1258 2160 5 MP stroke
c8
0 121 12 0 0 -121 1270 2160 4 MP
PP
0 sg
-12 0 0 121 12 0 0 -121 1270 2160 5 MP stroke
c8
0 182 12 0 0 -182 1282 2160 4 MP
PP
0 sg
-12 0 0 182 12 0 0 -182 1282 2160 5 MP stroke
c8
0 91 12 0 0 -91 1294 2160 4 MP
PP
0 sg
-12 0 0 91 12 0 0 -91 1294 2160 5 MP stroke
c8
0 91 12 0 0 -91 1306 2160 4 MP
PP
0 sg
-12 0 0 91 12 0 0 -91 1306 2160 5 MP stroke
c8
0 121 12 0 0 -121 1318 2160 4 MP
PP
0 sg
-12 0 0 121 12 0 0 -121 1318 2160 5 MP stroke
c8
0 61 12 0 0 -61 1330 2160 4 MP
PP
0 sg
-12 0 0 61 12 0 0 -61 1330 2160 5 MP stroke
c8
0 121 12 0 0 -121 1342 2160 4 MP
PP
0 sg
-12 0 0 121 12 0 0 -121 1342 2160 5 MP stroke
c8
0 152 12 0 0 -152 1354 2160 4 MP
PP
0 sg
-12 0 0 152 12 0 0 -152 1354 2160 5 MP stroke
c8
0 31 12 0 0 -31 1366 2160 4 MP
PP
0 sg
-12 0 0 31 12 0 0 -31 1366 2160 5 MP stroke
c8
0 121 13 0 0 -121 1378 2160 4 MP
PP
0 sg
-13 0 0 121 13 0 0 -121 1378 2160 5 MP stroke
c8
0 31 12 0 0 -31 1391 2160 4 MP
PP
0 sg
-12 0 0 31 12 0 0 -31 1391 2160 5 MP stroke
c8
0 91 12 0 0 -91 1403 2160 4 MP
PP
0 sg
-12 0 0 91 12 0 0 -91 1403 2160 5 MP stroke
c8
0 0 12 0 0 0 1415 2160 4 MP
PP
0 sg
-12 0 0 0 12 0 0 0 1415 2160 5 MP stroke
c8
0 0 12 0 0 0 1427 2160 4 MP
PP
0 sg
-12 0 0 0 12 0 0 0 1427 2160 5 MP stroke
c8
0 31 12 0 0 -31 1439 2160 4 MP
PP
0 sg
-12 0 0 31 12 0 0 -31 1439 2160 5 MP stroke
c8
0 0 12 0 0 0 1451 2160 4 MP
PP
0 sg
-12 0 0 0 12 0 0 0 1451 2160 5 MP stroke
c8
0 91 12 0 0 -91 1463 2160 4 MP
PP
0 sg
-12 0 0 91 12 0 0 -91 1463 2160 5 MP stroke
c8
0 0 12 0 0 0 1475 2160 4 MP
PP
0 sg
-12 0 0 0 12 0 0 0 1475 2160 5 MP stroke
c8
0 0 12 0 0 0 1487 2160 4 MP
PP
0 sg
-12 0 0 0 12 0 0 0 1487 2160 5 MP stroke
c8
0 31 12 0 0 -31 1499 2160 4 MP
PP
0 sg
-12 0 0 31 12 0 0 -31 1499 2160 5 MP stroke
c8
0 31 13 0 0 -31 1511 2160 4 MP
PP
0 sg
-13 0 0 31 13 0 0 -31 1511 2160 5 MP stroke
c8
0 0 12 0 0 0 1524 2160 4 MP
PP
0 sg
-12 0 0 0 12 0 0 0 1524 2160 5 MP stroke
c8
0 0 12 0 0 0 1536 2160 4 MP
PP
0 sg
-12 0 0 0 12 0 0 0 1536 2160 5 MP stroke
c8
0 31 12 0 0 -31 1548 2160 4 MP
PP
0 sg
-12 0 0 31 12 0 0 -31 1548 2160 5 MP stroke
c8
0 121 12 0 0 -121 1560 2160 4 MP
PP
0 sg
-12 0 0 121 12 0 0 -121 1560 2160 5 MP stroke
c8
0 31 12 0 0 -31 1572 2160 4 MP
PP
0 sg
-12 0 0 31 12 0 0 -31 1572 2160 5 MP stroke
c8
0 31 12 0 0 -31 1584 2160 4 MP
PP
0 sg
-12 0 0 31 12 0 0 -31 1584 2160 5 MP stroke
c8
0 0 12 0 0 0 1596 2160 4 MP
PP
0 sg
-12 0 0 0 12 0 0 0 1596 2160 5 MP stroke
c8
0 0 12 0 0 0 1608 2160 4 MP
PP
0 sg
-12 0 0 0 12 0 0 0 1608 2160 5 MP stroke
c8
0 61 12 0 0 -61 1620 2160 4 MP
PP
0 sg
-12 0 0 61 12 0 0 -61 1620 2160 5 MP stroke
c8
0 0 13 0 0 0 1632 2160 4 MP
PP
0 sg
-13 0 0 0 13 0 0 0 1632 2160 5 MP stroke
c8
0 0 12 0 0 0 1645 2160 4 MP
PP
0 sg
-12 0 0 0 12 0 0 0 1645 2160 5 MP stroke
c8
0 0 12 0 0 0 1657 2160 4 MP
PP
0 sg
-12 0 0 0 12 0 0 0 1657 2160 5 MP stroke
c8
0 31 12 0 0 -31 1669 2160 4 MP
PP
0 sg
-12 0 0 31 12 0 0 -31 1669 2160 5 MP stroke
c8
0 0 12 0 0 0 1681 2160 4 MP
PP
0 sg
-12 0 0 0 12 0 0 0 1681 2160 5 MP stroke
c8
0 31 12 0 0 -31 1693 2160 4 MP
PP
0 sg
-12 0 0 31 12 0 0 -31 1693 2160 5 MP stroke
c8
0 0 12 0 0 0 1705 2160 4 MP
PP
0 sg
-12 0 0 0 12 0 0 0 1705 2160 5 MP stroke
c8
0 61 12 0 0 -61 1717 2160 4 MP
PP
0 sg
-12 0 0 61 12 0 0 -61 1717 2160 5 MP stroke
c8
0 0 12 0 0 0 1729 2160 4 MP
PP
0 sg
-12 0 0 0 12 0 0 0 1729 2160 5 MP stroke
c8
0 31 12 0 0 -31 1741 2160 4 MP
PP
0 sg
-12 0 0 31 12 0 0 -31 1741 2160 5 MP stroke
c8
0 0 12 0 0 0 1753 2160 4 MP
PP
0 sg
-12 0 0 0 12 0 0 0 1753 2160 5 MP stroke
c8
0 0 13 0 0 0 1765 2160 4 MP
PP
0 sg
-13 0 0 0 13 0 0 0 1765 2160 5 MP stroke
c8
0 0 12 0 0 0 1778 2160 4 MP
PP
0 sg
-12 0 0 0 12 0 0 0 1778 2160 5 MP stroke
c8
0 61 12 0 0 -61 1790 2160 4 MP
PP
0 sg
-12 0 0 61 12 0 0 -61 1790 2160 5 MP stroke
c8
0 31 12 0 0 -31 1802 2160 4 MP
PP
0 sg
-12 0 0 31 12 0 0 -31 1802 2160 5 MP stroke
gr

 995 2488 mt 
(Duration \(sec\)) s
 232 1602 mt  -90 rotate
(Frequency) s
90 rotate

end %%Color Dict

eplot
%%EndObject

epage
end

showpage

%%Trailer
%%EOF
