%!PS-Adobe-3.0 EPSF-3.0
%%Creator: MATLAB, The MathWorks, Inc. Version 8.3.0.532 (R2014a). Operating System: Darwin 13.3.0 Darwin Kernel Version 13.3.0: Tue Jun  3 21:27:35 PDT 2014; root:xnu-2422.110.17~1/RELEASE_X86_64 x86_64.
%%Title: /Users/huijuans/2015Fall/GodBlessPLoSOne/MatLabFig/dominator_meettype_sensor1_08272015.eps
%%CreationDate: 08/31/2015  18:01:37
%%DocumentNeededFonts: Helvetica
%%DocumentProcessColors: Cyan Magenta Yellow Black
%%LanguageLevel: 2
%%Pages: 1
%%BoundingBox:   198   288   414   504
%%EndComments

%%BeginProlog
% MathWorks dictionary
/MathWorks 160 dict begin
% definition operators
/bdef {bind def} bind def
/ldef {load def} bind def
/xdef {exch def} bdef
/xstore {exch store} bdef
% operator abbreviations
/c  /clip ldef
/cc /concat ldef
/cp /closepath ldef
/gr /grestore ldef
/gs /gsave ldef
/mt /moveto ldef
/np /newpath ldef
/cm /currentmatrix ldef
/sm /setmatrix ldef
/rm /rmoveto ldef
/rl /rlineto ldef
/s {show newpath} bdef
/sc {setcmykcolor} bdef
/sr /setrgbcolor ldef
/sg /setgray ldef
/w /setlinewidth ldef
/j /setlinejoin ldef
/cap /setlinecap ldef
/rc {rectclip} bdef
/rf {rectfill} bdef
% page state control
/pgsv () def
/bpage {/pgsv save def} bdef
/epage {pgsv restore} bdef
/bplot /gsave ldef
/eplot {stroke grestore} bdef
% orientation switch
/portraitMode 0 def /landscapeMode 1 def /rotateMode 2 def
% coordinate system mappings
/dpi2point 0 def
% font control
/FontSize 0 def
/FMS {/FontSize xstore findfont [FontSize 0 0 FontSize neg 0 0]
  makefont setfont} bdef
/reencode {exch dup where {pop load} {pop StandardEncoding} ifelse
  exch dup 3 1 roll findfont dup length dict begin
  { 1 index /FID ne {def}{pop pop} ifelse } forall
  /Encoding exch def currentdict end definefont pop} bdef
/isroman {findfont /CharStrings get /Agrave known} bdef
/FMSR {3 1 roll 1 index dup isroman {reencode} {pop pop} ifelse
  exch FMS} bdef
/csm {1 dpi2point div -1 dpi2point div scale neg translate
 dup landscapeMode eq {pop -90 rotate}
  {rotateMode eq {90 rotate} if} ifelse} bdef
% line types: solid, dotted, dashed, dotdash
/SO { [] 0 setdash } bdef
/DO { [.5 dpi2point mul 4 dpi2point mul] 0 setdash } bdef
/DA { [6 dpi2point mul] 0 setdash } bdef
/DD { [.5 dpi2point mul 4 dpi2point mul 6 dpi2point mul 4
  dpi2point mul] 0 setdash } bdef
% macros for lines and objects
/L {lineto stroke} bdef
/MP {3 1 roll moveto 1 sub {rlineto} repeat} bdef
/AP {{rlineto} repeat} bdef
/PDlw -1 def
/W {/PDlw currentlinewidth def setlinewidth} def
/PP {closepath eofill} bdef
/DP {closepath stroke} bdef
/MR {4 -2 roll moveto dup  0 exch rlineto exch 0 rlineto
  neg 0 exch rlineto closepath} bdef
/FR {MR stroke} bdef
/PR {MR fill} bdef
/L1i {{currentfile picstr readhexstring pop} image} bdef
/tMatrix matrix def
/MakeOval {newpath tMatrix currentmatrix pop translate scale
0 0 1 0 360 arc tMatrix setmatrix} bdef
/FO {MakeOval stroke} bdef
/PO {MakeOval fill} bdef
/PD {currentlinewidth 2 div 0 360 arc fill
   PDlw -1 eq not {PDlw w /PDlw -1 def} if} def
/FA {newpath tMatrix currentmatrix pop translate scale
  0 0 1 5 -2 roll arc tMatrix setmatrix stroke} bdef
/PA {newpath tMatrix currentmatrix pop	translate 0 0 moveto scale
  0 0 1 5 -2 roll arc closepath tMatrix setmatrix fill} bdef
/FAn {newpath tMatrix currentmatrix pop translate scale
  0 0 1 5 -2 roll arcn tMatrix setmatrix stroke} bdef
/PAn {newpath tMatrix currentmatrix pop translate 0 0 moveto scale
  0 0 1 5 -2 roll arcn closepath tMatrix setmatrix fill} bdef
/vradius 0 def /hradius 0 def /lry 0 def
/lrx 0 def /uly 0 def /ulx 0 def /rad 0 def
/MRR {/vradius xdef /hradius xdef /lry xdef /lrx xdef /uly xdef
  /ulx xdef newpath tMatrix currentmatrix pop ulx hradius add uly
  vradius add translate hradius vradius scale 0 0 1 180 270 arc 
  tMatrix setmatrix lrx hradius sub uly vradius add translate
  hradius vradius scale 0 0 1 270 360 arc tMatrix setmatrix
  lrx hradius sub lry vradius sub translate hradius vradius scale
  0 0 1 0 90 arc tMatrix setmatrix ulx hradius add lry vradius sub
  translate hradius vradius scale 0 0 1 90 180 arc tMatrix setmatrix
  closepath} bdef
/FRR {MRR stroke } bdef
/PRR {MRR fill } bdef
/MlrRR {/lry xdef /lrx xdef /uly xdef /ulx xdef /rad lry uly sub 2 div def
  newpath tMatrix currentmatrix pop ulx rad add uly rad add translate
  rad rad scale 0 0 1 90 270 arc tMatrix setmatrix lrx rad sub lry rad
  sub translate rad rad scale 0 0 1 270 90 arc tMatrix setmatrix
  closepath} bdef
/FlrRR {MlrRR stroke } bdef
/PlrRR {MlrRR fill } bdef
/MtbRR {/lry xdef /lrx xdef /uly xdef /ulx xdef /rad lrx ulx sub 2 div def
  newpath tMatrix currentmatrix pop ulx rad add uly rad add translate
  rad rad scale 0 0 1 180 360 arc tMatrix setmatrix lrx rad sub lry rad
  sub translate rad rad scale 0 0 1 0 180 arc tMatrix setmatrix
  closepath} bdef
/FtbRR {MtbRR stroke } bdef
/PtbRR {MtbRR fill } bdef
/stri 6 array def /dtri 6 array def
/smat 6 array def /dmat 6 array def
/tmat1 6 array def /tmat2 6 array def /dif 3 array def
/asub {/ind2 exch def /ind1 exch def dup dup
  ind1 get exch ind2 get sub exch } bdef
/tri_to_matrix {
  2 0 asub 3 1 asub 4 0 asub 5 1 asub
  dup 0 get exch 1 get 7 -1 roll astore } bdef
/compute_transform {
  dmat dtri tri_to_matrix tmat1 invertmatrix 
  smat stri tri_to_matrix tmat2 concatmatrix } bdef
/ds {stri astore pop} bdef
/dt {dtri astore pop} bdef
/db {2 copy /cols xdef /rows xdef mul dup 3 mul string
  currentfile 
  3 index 0 eq {/ASCIIHexDecode filter}
  {/ASCII85Decode filter 3 index 2 eq {/RunLengthDecode filter} if }
  ifelse exch readstring pop
  dup 0 3 index getinterval /rbmap xdef
  dup 2 index dup getinterval /gbmap xdef
  1 index dup 2 mul exch getinterval /bbmap xdef pop pop}bdef
/it {gs np dtri aload pop moveto lineto lineto cp c
  cols rows 8 compute_transform 
  rbmap gbmap bbmap true 3 colorimage gr}bdef
/il {newpath moveto lineto stroke}bdef
currentdict end def
%%EndProlog

%%BeginSetup
MathWorks begin

0 cap

end
%%EndSetup

%%Page: 1 1
%%BeginPageSetup
%%PageBoundingBox:   198   288   414   504
MathWorks begin
bpage
%%EndPageSetup

%%BeginObject: obj1
bplot

/dpi2point 12 def
portraitMode 2376 6048 csm

    0     0  2592  2592 rc
85 dict begin %Colortable dictionary
/c0 { 0.000000 0.000000 0.000000 sr} bdef
/c1 { 1.000000 1.000000 1.000000 sr} bdef
/c2 { 0.900000 0.000000 0.000000 sr} bdef
/c3 { 0.000000 0.820000 0.000000 sr} bdef
/c4 { 0.000000 0.000000 0.800000 sr} bdef
/c5 { 0.910000 0.820000 0.320000 sr} bdef
/c6 { 1.000000 0.260000 0.820000 sr} bdef
/c7 { 0.000000 0.820000 0.820000 sr} bdef
c0
1 j
1 sg
   0    0 2593 2593 rf
6 w
0 1814 1814 0 0 -1814 605 2160 4 MP
PP
-1814 0 0 1814 1814 0 0 -1814 605 2160 5 MP stroke
4 w
DO
SO
6 w
0 sg
 605 2160 mt 2419 2160 L
 605  346 mt 2419  346 L
 605 2160 mt  605  346 L
2419 2160 mt 2419  346 L
 605 2160 mt 2419 2160 L
 605 2160 mt  605  346 L
 605 2160 mt  605 2141 L
 605  346 mt  605  364 L
%%IncludeResource: font Helvetica
/Helvetica /ISOLatin1Encoding 144 FMSR

 565 2328 mt 
(1) s
1058 2160 mt 1058 2141 L
1058  346 mt 1058  364 L
1018 2328 mt 
(2) s
1512 2160 mt 1512 2141 L
1512  346 mt 1512  364 L
1472 2328 mt 
(3) s
1965 2160 mt 1965 2141 L
1965  346 mt 1965  364 L
1925 2328 mt 
(4) s
2419 2160 mt 2419 2141 L
2419  346 mt 2419  364 L
2379 2328 mt 
(5) s
 605 2160 mt  623 2160 L
2419 2160 mt 2400 2160 L
 490 2213 mt 
(0) s
 605 1857 mt  623 1857 L
2419 1857 mt 2400 1857 L
 410 1910 mt 
(50) s
 605 1555 mt  623 1555 L
2419 1555 mt 2400 1555 L
 330 1608 mt 
(100) s
 605 1253 mt  623 1253 L
2419 1253 mt 2400 1253 L
 330 1306 mt 
(150) s
 605  950 mt  623  950 L
2419  950 mt 2400  950 L
 330 1003 mt 
(200) s
 605  648 mt  623  648 L
2419  648 mt 2400  648 L
 330  701 mt 
(250) s
 605  346 mt  623  346 L
2419  346 mt 2400  346 L
 330  399 mt 
(300) s
 605 2160 mt 2419 2160 L
 605  346 mt 2419  346 L
 605 2160 mt  605  346 L
2419 2160 mt 2419  346 L
gs 605 346 1815 1815 rc
/c8 { 0.000000 0.000000 0.562500 sr} bdef
c8
0 188 18 0 0 -188 605 2160 4 MP
PP
0 sg
-18 0 0 188 18 0 0 -188 605 2160 5 MP stroke
c8
0 0 18 0 0 0 623 2160 4 MP
PP
0 sg
-18 0 0 0 18 0 0 0 623 2160 5 MP stroke
c8
0 0 18 0 0 0 641 2160 4 MP
PP
0 sg
-18 0 0 0 18 0 0 0 641 2160 5 MP stroke
c8
0 0 18 0 0 0 659 2160 4 MP
PP
0 sg
-18 0 0 0 18 0 0 0 659 2160 5 MP stroke
c8
0 0 18 0 0 0 677 2160 4 MP
PP
0 sg
-18 0 0 0 18 0 0 0 677 2160 5 MP stroke
c8
0 0 18 0 0 0 695 2160 4 MP
PP
0 sg
-18 0 0 0 18 0 0 0 695 2160 5 MP stroke
c8
0 0 18 0 0 0 713 2160 4 MP
PP
0 sg
-18 0 0 0 18 0 0 0 713 2160 5 MP stroke
c8
0 0 19 0 0 0 731 2160 4 MP
PP
0 sg
-19 0 0 0 19 0 0 0 731 2160 5 MP stroke
c8
0 0 18 0 0 0 750 2160 4 MP
PP
0 sg
-18 0 0 0 18 0 0 0 750 2160 5 MP stroke
c8
0 0 18 0 0 0 768 2160 4 MP
PP
0 sg
-18 0 0 0 18 0 0 0 768 2160 5 MP stroke
c8
0 0 18 0 0 0 786 2160 4 MP
PP
0 sg
-18 0 0 0 18 0 0 0 786 2160 5 MP stroke
c8
0 0 18 0 0 0 804 2160 4 MP
PP
0 sg
-18 0 0 0 18 0 0 0 804 2160 5 MP stroke
c8
0 0 18 0 0 0 822 2160 4 MP
PP
0 sg
-18 0 0 0 18 0 0 0 822 2160 5 MP stroke
c8
0 0 18 0 0 0 840 2160 4 MP
PP
0 sg
-18 0 0 0 18 0 0 0 840 2160 5 MP stroke
c8
0 0 19 0 0 0 858 2160 4 MP
PP
0 sg
-19 0 0 0 19 0 0 0 858 2160 5 MP stroke
c8
0 0 18 0 0 0 877 2160 4 MP
PP
0 sg
-18 0 0 0 18 0 0 0 877 2160 5 MP stroke
c8
0 0 18 0 0 0 895 2160 4 MP
PP
0 sg
-18 0 0 0 18 0 0 0 895 2160 5 MP stroke
c8
0 0 18 0 0 0 913 2160 4 MP
PP
0 sg
-18 0 0 0 18 0 0 0 913 2160 5 MP stroke
c8
0 0 18 0 0 0 931 2160 4 MP
PP
0 sg
-18 0 0 0 18 0 0 0 931 2160 5 MP stroke
c8
0 0 18 0 0 0 949 2160 4 MP
PP
0 sg
-18 0 0 0 18 0 0 0 949 2160 5 MP stroke
c8
0 0 18 0 0 0 967 2160 4 MP
PP
0 sg
-18 0 0 0 18 0 0 0 967 2160 5 MP stroke
c8
0 0 19 0 0 0 985 2160 4 MP
PP
0 sg
-19 0 0 0 19 0 0 0 985 2160 5 MP stroke
c8
0 0 18 0 0 0 1004 2160 4 MP
PP
0 sg
-18 0 0 0 18 0 0 0 1004 2160 5 MP stroke
c8
0 0 18 0 0 0 1022 2160 4 MP
PP
0 sg
-18 0 0 0 18 0 0 0 1022 2160 5 MP stroke
c8
0 829 18 0 0 -829 1040 2160 4 MP
PP
0 sg
-18 0 0 829 18 0 0 -829 1040 2160 5 MP stroke
c8
0 0 18 0 0 0 1058 2160 4 MP
PP
0 sg
-18 0 0 0 18 0 0 0 1058 2160 5 MP stroke
c8
0 0 18 0 0 0 1076 2160 4 MP
PP
0 sg
-18 0 0 0 18 0 0 0 1076 2160 5 MP stroke
c8
0 0 18 0 0 0 1094 2160 4 MP
PP
0 sg
-18 0 0 0 18 0 0 0 1094 2160 5 MP stroke
c8
0 0 19 0 0 0 1112 2160 4 MP
PP
0 sg
-19 0 0 0 19 0 0 0 1112 2160 5 MP stroke
c8
0 0 18 0 0 0 1131 2160 4 MP
PP
0 sg
-18 0 0 0 18 0 0 0 1131 2160 5 MP stroke
c8
0 0 18 0 0 0 1149 2160 4 MP
PP
0 sg
-18 0 0 0 18 0 0 0 1149 2160 5 MP stroke
c8
0 0 18 0 0 0 1167 2160 4 MP
PP
0 sg
-18 0 0 0 18 0 0 0 1167 2160 5 MP stroke
c8
0 0 18 0 0 0 1185 2160 4 MP
PP
0 sg
-18 0 0 0 18 0 0 0 1185 2160 5 MP stroke
c8
0 0 18 0 0 0 1203 2160 4 MP
PP
0 sg
-18 0 0 0 18 0 0 0 1203 2160 5 MP stroke
c8
0 0 18 0 0 0 1221 2160 4 MP
PP
0 sg
-18 0 0 0 18 0 0 0 1221 2160 5 MP stroke
c8
0 0 19 0 0 0 1239 2160 4 MP
PP
0 sg
-19 0 0 0 19 0 0 0 1239 2160 5 MP stroke
c8
0 0 18 0 0 0 1258 2160 4 MP
PP
0 sg
-18 0 0 0 18 0 0 0 1258 2160 5 MP stroke
c8
0 0 18 0 0 0 1276 2160 4 MP
PP
0 sg
-18 0 0 0 18 0 0 0 1276 2160 5 MP stroke
c8
0 0 18 0 0 0 1294 2160 4 MP
PP
0 sg
-18 0 0 0 18 0 0 0 1294 2160 5 MP stroke
c8
0 0 18 0 0 0 1312 2160 4 MP
PP
0 sg
-18 0 0 0 18 0 0 0 1312 2160 5 MP stroke
c8
0 0 18 0 0 0 1330 2160 4 MP
PP
0 sg
-18 0 0 0 18 0 0 0 1330 2160 5 MP stroke
c8
0 0 18 0 0 0 1348 2160 4 MP
PP
0 sg
-18 0 0 0 18 0 0 0 1348 2160 5 MP stroke
c8
0 0 19 0 0 0 1366 2160 4 MP
PP
0 sg
-19 0 0 0 19 0 0 0 1366 2160 5 MP stroke
c8
0 0 18 0 0 0 1385 2160 4 MP
PP
0 sg
-18 0 0 0 18 0 0 0 1385 2160 5 MP stroke
c8
0 0 18 0 0 0 1403 2160 4 MP
PP
0 sg
-18 0 0 0 18 0 0 0 1403 2160 5 MP stroke
c8
0 0 18 0 0 0 1421 2160 4 MP
PP
0 sg
-18 0 0 0 18 0 0 0 1421 2160 5 MP stroke
c8
0 0 18 0 0 0 1439 2160 4 MP
PP
0 sg
-18 0 0 0 18 0 0 0 1439 2160 5 MP stroke
c8
0 0 18 0 0 0 1457 2160 4 MP
PP
0 sg
-18 0 0 0 18 0 0 0 1457 2160 5 MP stroke
c8
0 0 18 0 0 0 1475 2160 4 MP
PP
0 sg
-18 0 0 0 18 0 0 0 1475 2160 5 MP stroke
c8
0 351 19 0 0 -351 1493 2160 4 MP
PP
0 sg
-19 0 0 351 19 0 0 -351 1493 2160 5 MP stroke
c8
0 0 18 0 0 0 1512 2160 4 MP
PP
0 sg
-18 0 0 0 18 0 0 0 1512 2160 5 MP stroke
c8
0 0 18 0 0 0 1530 2160 4 MP
PP
0 sg
-18 0 0 0 18 0 0 0 1530 2160 5 MP stroke
c8
0 0 18 0 0 0 1548 2160 4 MP
PP
0 sg
-18 0 0 0 18 0 0 0 1548 2160 5 MP stroke
c8
0 0 18 0 0 0 1566 2160 4 MP
PP
0 sg
-18 0 0 0 18 0 0 0 1566 2160 5 MP stroke
c8
0 0 18 0 0 0 1584 2160 4 MP
PP
0 sg
-18 0 0 0 18 0 0 0 1584 2160 5 MP stroke
c8
0 0 18 0 0 0 1602 2160 4 MP
PP
0 sg
-18 0 0 0 18 0 0 0 1602 2160 5 MP stroke
c8
0 0 18 0 0 0 1620 2160 4 MP
PP
0 sg
-18 0 0 0 18 0 0 0 1620 2160 5 MP stroke
c8
0 0 19 0 0 0 1638 2160 4 MP
PP
0 sg
-19 0 0 0 19 0 0 0 1638 2160 5 MP stroke
c8
0 0 18 0 0 0 1657 2160 4 MP
PP
0 sg
-18 0 0 0 18 0 0 0 1657 2160 5 MP stroke
c8
0 0 18 0 0 0 1675 2160 4 MP
PP
0 sg
-18 0 0 0 18 0 0 0 1675 2160 5 MP stroke
c8
0 0 18 0 0 0 1693 2160 4 MP
PP
0 sg
-18 0 0 0 18 0 0 0 1693 2160 5 MP stroke
c8
0 0 18 0 0 0 1711 2160 4 MP
PP
0 sg
-18 0 0 0 18 0 0 0 1711 2160 5 MP stroke
c8
0 0 18 0 0 0 1729 2160 4 MP
PP
0 sg
-18 0 0 0 18 0 0 0 1729 2160 5 MP stroke
c8
0 0 18 0 0 0 1747 2160 4 MP
PP
0 sg
-18 0 0 0 18 0 0 0 1747 2160 5 MP stroke
c8
0 0 19 0 0 0 1765 2160 4 MP
PP
0 sg
-19 0 0 0 19 0 0 0 1765 2160 5 MP stroke
c8
0 0 18 0 0 0 1784 2160 4 MP
PP
0 sg
-18 0 0 0 18 0 0 0 1784 2160 5 MP stroke
c8
0 0 18 0 0 0 1802 2160 4 MP
PP
0 sg
-18 0 0 0 18 0 0 0 1802 2160 5 MP stroke
c8
0 0 18 0 0 0 1820 2160 4 MP
PP
0 sg
-18 0 0 0 18 0 0 0 1820 2160 5 MP stroke
c8
0 0 18 0 0 0 1838 2160 4 MP
PP
0 sg
-18 0 0 0 18 0 0 0 1838 2160 5 MP stroke
c8
0 0 18 0 0 0 1856 2160 4 MP
PP
0 sg
-18 0 0 0 18 0 0 0 1856 2160 5 MP stroke
c8
0 0 18 0 0 0 1874 2160 4 MP
PP
0 sg
-18 0 0 0 18 0 0 0 1874 2160 5 MP stroke
c8
0 0 19 0 0 0 1892 2160 4 MP
PP
0 sg
-19 0 0 0 19 0 0 0 1892 2160 5 MP stroke
c8
0 0 18 0 0 0 1911 2160 4 MP
PP
0 sg
-18 0 0 0 18 0 0 0 1911 2160 5 MP stroke
c8
0 0 18 0 0 0 1929 2160 4 MP
PP
0 sg
-18 0 0 0 18 0 0 0 1929 2160 5 MP stroke
c8
0 708 18 0 0 -708 1947 2160 4 MP
PP
0 sg
-18 0 0 708 18 0 0 -708 1947 2160 5 MP stroke
c8
0 0 18 0 0 0 1965 2160 4 MP
PP
0 sg
-18 0 0 0 18 0 0 0 1965 2160 5 MP stroke
c8
0 0 18 0 0 0 1983 2160 4 MP
PP
0 sg
-18 0 0 0 18 0 0 0 1983 2160 5 MP stroke
c8
0 0 18 0 0 0 2001 2160 4 MP
PP
0 sg
-18 0 0 0 18 0 0 0 2001 2160 5 MP stroke
c8
0 0 19 0 0 0 2019 2160 4 MP
PP
0 sg
-19 0 0 0 19 0 0 0 2019 2160 5 MP stroke
c8
0 0 18 0 0 0 2038 2160 4 MP
PP
0 sg
-18 0 0 0 18 0 0 0 2038 2160 5 MP stroke
c8
0 0 18 0 0 0 2056 2160 4 MP
PP
0 sg
-18 0 0 0 18 0 0 0 2056 2160 5 MP stroke
c8
0 0 18 0 0 0 2074 2160 4 MP
PP
0 sg
-18 0 0 0 18 0 0 0 2074 2160 5 MP stroke
c8
0 0 18 0 0 0 2092 2160 4 MP
PP
0 sg
-18 0 0 0 18 0 0 0 2092 2160 5 MP stroke
c8
0 0 18 0 0 0 2110 2160 4 MP
PP
0 sg
-18 0 0 0 18 0 0 0 2110 2160 5 MP stroke
c8
0 0 18 0 0 0 2128 2160 4 MP
PP
0 sg
-18 0 0 0 18 0 0 0 2128 2160 5 MP stroke
c8
0 0 19 0 0 0 2146 2160 4 MP
PP
0 sg
-19 0 0 0 19 0 0 0 2146 2160 5 MP stroke
c8
0 0 18 0 0 0 2165 2160 4 MP
PP
0 sg
-18 0 0 0 18 0 0 0 2165 2160 5 MP stroke
c8
0 0 18 0 0 0 2183 2160 4 MP
PP
0 sg
-18 0 0 0 18 0 0 0 2183 2160 5 MP stroke
c8
0 0 18 0 0 0 2201 2160 4 MP
PP
0 sg
-18 0 0 0 18 0 0 0 2201 2160 5 MP stroke
c8
0 0 18 0 0 0 2219 2160 4 MP
PP
0 sg
-18 0 0 0 18 0 0 0 2219 2160 5 MP stroke
c8
0 0 18 0 0 0 2237 2160 4 MP
PP
0 sg
-18 0 0 0 18 0 0 0 2237 2160 5 MP stroke
c8
0 0 18 0 0 0 2255 2160 4 MP
PP
0 sg
-18 0 0 0 18 0 0 0 2255 2160 5 MP stroke
c8
0 0 19 0 0 0 2273 2160 4 MP
PP
0 sg
-19 0 0 0 19 0 0 0 2273 2160 5 MP stroke
c8
0 0 18 0 0 0 2292 2160 4 MP
PP
0 sg
-18 0 0 0 18 0 0 0 2292 2160 5 MP stroke
c8
0 0 18 0 0 0 2310 2160 4 MP
PP
0 sg
-18 0 0 0 18 0 0 0 2310 2160 5 MP stroke
c8
0 0 18 0 0 0 2328 2160 4 MP
PP
0 sg
-18 0 0 0 18 0 0 0 2328 2160 5 MP stroke
c8
0 0 18 0 0 0 2346 2160 4 MP
PP
0 sg
-18 0 0 0 18 0 0 0 2346 2160 5 MP stroke
c8
0 0 18 0 0 0 2364 2160 4 MP
PP
0 sg
-18 0 0 0 18 0 0 0 2364 2160 5 MP stroke
c8
0 0 18 0 0 0 2382 2160 4 MP
PP
0 sg
-18 0 0 0 18 0 0 0 2382 2160 5 MP stroke
c8
0 1760 19 0 0 -1760 2400 2160 4 MP
PP
0 sg
-19 0 0 1760 19 0 0 -1760 2400 2160 5 MP stroke
gr

1183 2489 mt 
(Meet Type) s
 243 1591 mt  -90 rotate
(Frequency) s
90 rotate

end %%Color Dict

eplot
%%EndObject

epage
end

showpage

%%Trailer
%%EOF
