%!PS-Adobe-3.0 EPSF-3.0
%Produced by poppler pdftops version: 0.24.5 (http://poppler.freedesktop.org)
%%LanguageLevel: 2
%%DocumentSuppliedResources: (atend)
%%BoundingBox: 0 0 450 450
%%HiResBoundingBox: 0 0 450 450
%%DocumentSuppliedResources: (atend)
%%EndComments
%%BeginProlog
%%BeginResource: procset xpdf 3.00 0
%%Copyright: Copyright 1996-2011 Glyph & Cog, LLC
/xpdf 75 dict def xpdf begin
% PDF special state
/pdfDictSize 15 def
/pdfSetup {
  /setpagedevice where {
    pop 2 dict begin
      /Policies 1 dict dup begin /PageSize 6 def end def
      { /Duplex true def } if
    currentdict end setpagedevice
  } {
    pop
  } ifelse
} def
/pdfSetupPaper {
  2 array astore
  /setpagedevice where {
    pop 2 dict begin
      /PageSize exch def
      /ImagingBBox null def
    currentdict end setpagedevice
  } {
    pop
  } ifelse
} def
/pdfStartPage {
  pdfDictSize dict begin
  /pdfFillCS [] def
  /pdfFillXform {} def
  /pdfStrokeCS [] def
  /pdfStrokeXform {} def
  /pdfFill [0] def
  /pdfStroke [0] def
  /pdfFillOP false def
  /pdfStrokeOP false def
  /pdfLastFill false def
  /pdfLastStroke false def
  /pdfTextMat [1 0 0 1 0 0] def
  /pdfFontSize 0 def
  /pdfCharSpacing 0 def
  /pdfTextRender 0 def
  /pdfPatternCS false def
  /pdfTextRise 0 def
  /pdfWordSpacing 0 def
  /pdfHorizScaling 1 def
  /pdfTextClipPath [] def
} def
/pdfEndPage { end } def
% PDF color state
/cs { /pdfFillXform exch def dup /pdfFillCS exch def
      setcolorspace } def
/CS { /pdfStrokeXform exch def dup /pdfStrokeCS exch def
      setcolorspace } def
/sc { pdfLastFill not { pdfFillCS setcolorspace } if
      dup /pdfFill exch def aload pop pdfFillXform setcolor
     /pdfLastFill true def /pdfLastStroke false def } def
/SC { pdfLastStroke not { pdfStrokeCS setcolorspace } if
      dup /pdfStroke exch def aload pop pdfStrokeXform setcolor
     /pdfLastStroke true def /pdfLastFill false def } def
/op { /pdfFillOP exch def
      pdfLastFill { pdfFillOP setoverprint } if } def
/OP { /pdfStrokeOP exch def
      pdfLastStroke { pdfStrokeOP setoverprint } if } def
/fCol {
  pdfLastFill not {
    pdfFillCS setcolorspace
    pdfFill aload pop pdfFillXform setcolor
    pdfFillOP setoverprint
    /pdfLastFill true def /pdfLastStroke false def
  } if
} def
/sCol {
  pdfLastStroke not {
    pdfStrokeCS setcolorspace
    pdfStroke aload pop pdfStrokeXform setcolor
    pdfStrokeOP setoverprint
    /pdfLastStroke true def /pdfLastFill false def
  } if
} def
% build a font
/pdfMakeFont {
  4 3 roll findfont
  4 2 roll matrix scale makefont
  dup length dict begin
    { 1 index /FID ne { def } { pop pop } ifelse } forall
    /Encoding exch def
    currentdict
  end
  definefont pop
} def
/pdfMakeFont16 {
  exch findfont
  dup length dict begin
    { 1 index /FID ne { def } { pop pop } ifelse } forall
    /WMode exch def
    currentdict
  end
  definefont pop
} def
% graphics state operators
/q { gsave pdfDictSize dict begin } def
/Q {
  end grestore
  /pdfLastFill where {
    pop
    pdfLastFill {
      pdfFillOP setoverprint
    } {
      pdfStrokeOP setoverprint
    } ifelse
  } if
} def
/cm { concat } def
/d { setdash } def
/i { setflat } def
/j { setlinejoin } def
/J { setlinecap } def
/M { setmiterlimit } def
/w { setlinewidth } def
% path segment operators
/m { moveto } def
/l { lineto } def
/c { curveto } def
/re { 4 2 roll moveto 1 index 0 rlineto 0 exch rlineto
      neg 0 rlineto closepath } def
/h { closepath } def
% path painting operators
/S { sCol stroke } def
/Sf { fCol stroke } def
/f { fCol fill } def
/f* { fCol eofill } def
% clipping operators
/W { clip newpath } def
/W* { eoclip newpath } def
/Ws { strokepath clip newpath } def
% text state operators
/Tc { /pdfCharSpacing exch def } def
/Tf { dup /pdfFontSize exch def
      dup pdfHorizScaling mul exch matrix scale
      pdfTextMat matrix concatmatrix dup 4 0 put dup 5 0 put
      exch findfont exch makefont setfont } def
/Tr { /pdfTextRender exch def } def
/Tp { /pdfPatternCS exch def } def
/Ts { /pdfTextRise exch def } def
/Tw { /pdfWordSpacing exch def } def
/Tz { /pdfHorizScaling exch def } def
% text positioning operators
/Td { pdfTextMat transform moveto } def
/Tm { /pdfTextMat exch def } def
% text string operators
/xyshow where {
  pop
  /xyshow2 {
    dup length array
    0 2 2 index length 1 sub {
      2 index 1 index 2 copy get 3 1 roll 1 add get
      pdfTextMat dtransform
      4 2 roll 2 copy 6 5 roll put 1 add 3 1 roll dup 4 2 roll put
    } for
    exch pop
    xyshow
  } def
}{
  /xyshow2 {
    currentfont /FontType get 0 eq {
      0 2 3 index length 1 sub {
        currentpoint 4 index 3 index 2 getinterval show moveto
        2 copy get 2 index 3 2 roll 1 add get
        pdfTextMat dtransform rmoveto
      } for
    } {
      0 1 3 index length 1 sub {
        currentpoint 4 index 3 index 1 getinterval show moveto
        2 copy 2 mul get 2 index 3 2 roll 2 mul 1 add get
        pdfTextMat dtransform rmoveto
      } for
    } ifelse
    pop pop
  } def
} ifelse
/cshow where {
  pop
  /xycp {
    0 3 2 roll
    {
      pop pop currentpoint 3 2 roll
      1 string dup 0 4 3 roll put false charpath moveto
      2 copy get 2 index 2 index 1 add get
      pdfTextMat dtransform rmoveto
      2 add
    } exch cshow
    pop pop
  } def
}{
  /xycp {
    currentfont /FontType get 0 eq {
      0 2 3 index length 1 sub {
        currentpoint 4 index 3 index 2 getinterval false charpath moveto
        2 copy get 2 index 3 2 roll 1 add get
        pdfTextMat dtransform rmoveto
      } for
    } {
      0 1 3 index length 1 sub {
        currentpoint 4 index 3 index 1 getinterval false charpath moveto
        2 copy 2 mul get 2 index 3 2 roll 2 mul 1 add get
        pdfTextMat dtransform rmoveto
      } for
    } ifelse
    pop pop
  } def
} ifelse
/Tj {
  fCol
  0 pdfTextRise pdfTextMat dtransform rmoveto
  currentpoint 4 2 roll
  pdfTextRender 1 and 0 eq {
    2 copy xyshow2
  } if
  pdfTextRender 3 and dup 1 eq exch 2 eq or {
    3 index 3 index moveto
    2 copy
    currentfont /FontType get 3 eq { fCol } { sCol } ifelse
    xycp currentpoint stroke moveto
  } if
  pdfTextRender 4 and 0 ne {
    4 2 roll moveto xycp
    /pdfTextClipPath [ pdfTextClipPath aload pop
      {/moveto cvx}
      {/lineto cvx}
      {/curveto cvx}
      {/closepath cvx}
    pathforall ] def
    currentpoint newpath moveto
  } {
    pop pop pop pop
  } ifelse
  0 pdfTextRise neg pdfTextMat dtransform rmoveto
} def
/TJm { 0.001 mul pdfFontSize mul pdfHorizScaling mul neg 0
       pdfTextMat dtransform rmoveto } def
/TJmV { 0.001 mul pdfFontSize mul neg 0 exch
        pdfTextMat dtransform rmoveto } def
/Tclip { pdfTextClipPath cvx exec clip newpath
         /pdfTextClipPath [] def } def
/Tclip* { pdfTextClipPath cvx exec eoclip newpath
         /pdfTextClipPath [] def } def
% Level 2/3 image operators
/pdfImBuf 100 string def
/pdfImStr {
  2 copy exch length lt {
    2 copy get exch 1 add exch
  } {
    ()
  } ifelse
} def
/skipEOD {
  { currentfile pdfImBuf readline
    not { pop exit } if
    (%-EOD-) eq { exit } if } loop
} def
/pdfIm { image skipEOD } def
/pdfImM { fCol imagemask skipEOD } def
/pr { 2 index 2 index 3 2 roll putinterval 4 add } def
/pdfImClip {
  gsave
  0 2 4 index length 1 sub {
    dup 4 index exch 2 copy
    get 5 index div put
    1 add 3 index exch 2 copy
    get 3 index div put
  } for
  pop pop rectclip
} def
/pdfImClipEnd { grestore } def
% shading operators
/colordelta {
  false 0 1 3 index length 1 sub {
    dup 4 index exch get 3 index 3 2 roll get sub abs 0.004 gt {
      pop true
    } if
  } for
  exch pop exch pop
} def
/funcCol { func n array astore } def
/funcSH {
  dup 0 eq {
    true
  } {
    dup 6 eq {
      false
    } {
      4 index 4 index funcCol dup
      6 index 4 index funcCol dup
      3 1 roll colordelta 3 1 roll
      5 index 5 index funcCol dup
      3 1 roll colordelta 3 1 roll
      6 index 8 index funcCol dup
      3 1 roll colordelta 3 1 roll
      colordelta or or or
    } ifelse
  } ifelse
  {
    1 add
    4 index 3 index add 0.5 mul exch 4 index 3 index add 0.5 mul exch
    6 index 6 index 4 index 4 index 4 index funcSH
    2 index 6 index 6 index 4 index 4 index funcSH
    6 index 2 index 4 index 6 index 4 index funcSH
    5 3 roll 3 2 roll funcSH pop pop
  } {
    pop 3 index 2 index add 0.5 mul 3 index  2 index add 0.5 mul
    funcCol sc
    dup 4 index exch mat transform m
    3 index 3 index mat transform l
    1 index 3 index mat transform l
    mat transform l pop pop h f*
  } ifelse
} def
/axialCol {
  dup 0 lt {
    pop t0
  } {
    dup 1 gt {
      pop t1
    } {
      dt mul t0 add
    } ifelse
  } ifelse
  func n array astore
} def
/axialSH {
  dup 0 eq {
    true
  } {
    dup 8 eq {
      false
    } {
      2 index axialCol 2 index axialCol colordelta
    } ifelse
  } ifelse
  {
    1 add 3 1 roll 2 copy add 0.5 mul
    dup 4 3 roll exch 4 index axialSH
    exch 3 2 roll axialSH
  } {
    pop 2 copy add 0.5 mul
    axialCol sc
    exch dup dx mul x0 add exch dy mul y0 add
    3 2 roll dup dx mul x0 add exch dy mul y0 add
    dx abs dy abs ge {
      2 copy yMin sub dy mul dx div add yMin m
      yMax sub dy mul dx div add yMax l
      2 copy yMax sub dy mul dx div add yMax l
      yMin sub dy mul dx div add yMin l
      h f*
    } {
      exch 2 copy xMin sub dx mul dy div add xMin exch m
      xMax sub dx mul dy div add xMax exch l
      exch 2 copy xMax sub dx mul dy div add xMax exch l
      xMin sub dx mul dy div add xMin exch l
      h f*
    } ifelse
  } ifelse
} def
/radialCol {
  dup t0 lt {
    pop t0
  } {
    dup t1 gt {
      pop t1
    } if
  } ifelse
  func n array astore
} def
/radialSH {
  dup 0 eq {
    true
  } {
    dup 8 eq {
      false
    } {
      2 index dt mul t0 add radialCol
      2 index dt mul t0 add radialCol colordelta
    } ifelse
  } ifelse
  {
    1 add 3 1 roll 2 copy add 0.5 mul
    dup 4 3 roll exch 4 index radialSH
    exch 3 2 roll radialSH
  } {
    pop 2 copy add 0.5 mul dt mul t0 add
    radialCol sc
    encl {
      exch dup dx mul x0 add exch dup dy mul y0 add exch dr mul r0 add
      0 360 arc h
      dup dx mul x0 add exch dup dy mul y0 add exch dr mul r0 add
      360 0 arcn h f
    } {
      2 copy
      dup dx mul x0 add exch dup dy mul y0 add exch dr mul r0 add
      a1 a2 arcn
      dup dx mul x0 add exch dup dy mul y0 add exch dr mul r0 add
      a2 a1 arcn h
      dup dx mul x0 add exch dup dy mul y0 add exch dr mul r0 add
      a1 a2 arc
      dup dx mul x0 add exch dup dy mul y0 add exch dr mul r0 add
      a2 a1 arc h f
    } ifelse
  } ifelse
} def
end
%%EndResource
%%EndProlog
%%BeginSetup
xpdf begin
%%EndSetup
pdfStartPage
[] 0 d
1 i
0 j
0 J
10 M
1 w
/DeviceGray {} cs
[0] sc
/DeviceGray {} CS
[0] SC
false op
false OP
{} settransfer
0 0 450 450 re
W
q
[1 0 0 -1 0 450] cm
[0.75 0 0 0.75 0 0] cm
[0.24 0 0 0.24 0 0] cm
q
[4.166667 0 0 4.166667 0 0] cm
0 0 600 600 re
W
/DeviceGray {} cs
[1] sc
/DeviceGray {} CS
[0] SC
0 0 600 600 re
f
Q
q
[4.166667 0 0 4.166667 0 0] cm
0 0 600 600 re
W
/DeviceGray {} cs
[1] sc
/DeviceGray {} CS
[0] SC
80 100 440 420 re
f
Q
q
[4.166667 0 0 4.166667 333.333341 1826] cm
-80 -438.23999 600 600 re
W
/DeviceGray {} CS
[0] SC
0 0 m
440 0 l
f
Q
q
[4.166667 0 0 4.166667 333.333341 1826] cm
-80 -438.23999 600 600 re
W
/DeviceGray {} CS
[0.9333] SC
/DeviceGray {} cs
[0] sc
0 J
0 j
1 w
4 M
0 0 m
440 0 l
S
Q
q
[4.166667 0 0 4.166667 333.333341 1485.333412] cm
-80 -356.480011 600 600 re
W
/DeviceGray {} CS
[0] SC
0 0 m
440 0 l
f
Q
q
[4.166667 0 0 4.166667 333.333341 1485.333412] cm
-80 -356.480011 600 600 re
W
/DeviceGray {} CS
[0.9333] SC
/DeviceGray {} cs
[0] sc
0 J
0 j
1 w
4 M
0 0 m
440 0 l
S
Q
q
[4.166667 0 0 4.166667 333.333341 1144.625054] cm
-80 -274.710007 600 600 re
W
/DeviceGray {} CS
[0] SC
0 0 m
440 0 l
f
Q
q
[4.166667 0 0 4.166667 333.333341 1144.625054] cm
-80 -274.710007 600 600 re
W
/DeviceGray {} CS
[0.9333] SC
/DeviceGray {} cs
[0] sc
0 J
0 j
1 w
4 M
0 0 m
440 0 l
S
Q
q
[4.166667 0 0 4.166667 333.333341 803.958339] cm
-80 -192.949997 600 600 re
W
/DeviceGray {} CS
[0] SC
0 0 m
440 0 l
f
Q
q
[4.166667 0 0 4.166667 333.333341 803.958339] cm
-80 -192.949997 600 600 re
W
/DeviceGray {} CS
[0.9333] SC
/DeviceGray {} cs
[0] sc
0 J
0 j
1 w
4 M
0 0 m
440 0 l
S
Q
q
[4.166667 0 0 4.166667 333.333341 463.291675] cm
-80 -111.19 600 600 re
W
/DeviceGray {} CS
[0] SC
0 0 m
440 0 l
f
Q
q
[4.166667 0 0 4.166667 333.333341 463.291675] cm
-80 -111.19 600 600 re
W
/DeviceGray {} CS
[0.9333] SC
/DeviceGray {} cs
[0] sc
0 J
0 j
1 w
4 M
0 0 m
440 0 l
S
Q
q
[4.166667 0 0 4.166667 333.333341 416.666676] cm
0.000001 0.000003 440.000007 420.000005 re
W
/DeviceRGB {} cs
[0.1216 0.4667 0.7059] sc
/DeviceGray {} CS
[0] SC
0 418.359985 8.15 1.640015 re
f
Q
q
[4.166667 0 0 4.166667 333.333341 416.666676] cm
0.000001 0.000003 440.000007 420.000005 re
W
/DeviceRGB {} cs
[0.1216 0.4667 0.7059] sc
/DeviceGray {} CS
[0] SC
97.779999 418.359985 8.150002 1.640015 re
f
Q
q
[4.166667 0 0 4.166667 333.333341 416.666676] cm
0.000001 0.000003 440.000007 420.000005 re
W
/DeviceRGB {} cs
[0.1216 0.4667 0.7059] sc
/DeviceGray {} CS
[0] SC
138.520004 418.359985 8.149994 1.640015 re
f
Q
q
[4.166667 0 0 4.166667 333.333341 416.666676] cm
0.000001 0.000003 440.000007 420.000005 re
W
/DeviceRGB {} cs
[0.1216 0.4667 0.7059] sc
/DeviceGray {} CS
[0] SC
154.809998 418.359985 8.150009 1.640015 re
f
Q
q
[4.166667 0 0 4.166667 333.333341 416.666676] cm
0.000001 0.000003 440.000007 420.000005 re
W
/DeviceRGB {} cs
[0.1216 0.4667 0.7059] sc
/DeviceGray {} CS
[0] SC
171.110001 413.459991 8.149994 6.540009 re
f
Q
q
[4.166667 0 0 4.166667 333.333341 416.666676] cm
0.000001 0.000003 440.000007 420.000005 re
W
/DeviceRGB {} cs
[0.1216 0.4667 0.7059] sc
/DeviceGray {} CS
[0] SC
179.259995 415.089996 8.150009 4.910004 re
f
Q
q
[4.166667 0 0 4.166667 333.333341 416.666676] cm
0.000001 0.000003 440.000007 420.000005 re
W
/DeviceRGB {} cs
[0.1216 0.4667 0.7059] sc
/DeviceGray {} CS
[0] SC
187.410004 402.01001 8.149994 17.98999 re
f
Q
q
[4.166667 0 0 4.166667 333.333341 416.666676] cm
0.000001 0.000003 440.000007 420.000005 re
W
/DeviceRGB {} cs
[0.1216 0.4667 0.7059] sc
/DeviceGray {} CS
[0] SC
195.559998 406.920013 8.139999 13.079987 re
f
Q
q
[4.166667 0 0 4.166667 333.333341 416.666676] cm
0.000001 0.000003 440.000007 420.000005 re
W
/DeviceRGB {} cs
[0.1216 0.4667 0.7059] sc
/DeviceGray {} CS
[0] SC
203.699997 375.850006 8.150009 44.149994 re
f
Q
q
[4.166667 0 0 4.166667 333.333341 416.666676] cm
0.000001 0.000003 440.000007 420.000005 re
W
/DeviceRGB {} cs
[0.1216 0.4667 0.7059] sc
/DeviceGray {} CS
[0] SC
211.850006 385.660004 8.149994 34.339996 re
f
Q
q
[4.166667 0 0 4.166667 333.333341 416.666676] cm
0.000001 0.000003 440.000007 420.000005 re
W
/DeviceRGB {} cs
[0.1216 0.4667 0.7059] sc
/DeviceGray {} CS
[0] SC
220 372.579987 8.149994 47.420013 re
f
Q
q
[4.166667 0 0 4.166667 333.333341 416.666676] cm
0.000001 0.000003 440.000007 420.000005 re
W
/DeviceRGB {} cs
[0.1216 0.4667 0.7059] sc
/DeviceGray {} CS
[0] SC
228.149994 330.059998 8.150009 89.940002 re
f
Q
q
[4.166667 0 0 4.166667 333.333341 416.666676] cm
0.000001 0.000003 440.000007 420.000005 re
W
/DeviceRGB {} cs
[0.1216 0.4667 0.7059] sc
/DeviceGray {} CS
[0] SC
236.300003 326.790009 8.139999 93.209991 re
f
Q
q
[4.166667 0 0 4.166667 333.333341 416.666676] cm
0.000001 0.000003 440.000007 420.000005 re
W
/DeviceRGB {} cs
[0.1216 0.4667 0.7059] sc
/DeviceGray {} CS
[0] SC
244.440002 281 8.149994 139 re
f
Q
q
[4.166667 0 0 4.166667 333.333341 416.666676] cm
0.000001 0.000003 440.000007 420.000005 re
W
/DeviceRGB {} cs
[0.1216 0.4667 0.7059] sc
/DeviceGray {} CS
[0] SC
252.589996 21 8.149994 399 re
f
Q
q
[4.166667 0 0 4.166667 333.333341 416.666676] cm
0.000001 0.000003 440.000007 420.000005 re
W
/DeviceRGB {} cs
[0.1216 0.4667 0.7059] sc
/DeviceGray {} CS
[0] SC
260.73999 305.529999 8.150024 114.470001 re
f
Q
q
[4.166667 0 0 4.166667 333.333341 416.666676] cm
0.000001 0.000003 440.000007 420.000005 re
W
/DeviceRGB {} cs
[0.1216 0.4667 0.7059] sc
/DeviceGray {} CS
[0] SC
268.890015 295.720001 8.149994 124.279999 re
f
Q
q
[4.166667 0 0 4.166667 333.333341 416.666676] cm
0.000001 0.000003 440.000007 420.000005 re
W
/DeviceRGB {} cs
[0.1216 0.4667 0.7059] sc
/DeviceGray {} CS
[0] SC
277.040009 298.98999 8.149994 121.01001 re
f
Q
q
[4.166667 0 0 4.166667 333.333341 416.666676] cm
0.000001 0.000003 440.000007 420.000005 re
W
/DeviceRGB {} cs
[0.1216 0.4667 0.7059] sc
/DeviceGray {} CS
[0] SC
285.190002 354.589996 8.139984 65.410004 re
f
Q
q
[4.166667 0 0 4.166667 333.333341 416.666676] cm
0.000001 0.000003 440.000007 420.000005 re
W
/DeviceRGB {} cs
[0.1216 0.4667 0.7059] sc
/DeviceGray {} CS
[0] SC
293.329987 326.790009 8.150024 93.209991 re
f
Q
q
[4.166667 0 0 4.166667 333.333341 416.666676] cm
0.000001 0.000003 440.000007 420.000005 re
W
/DeviceRGB {} cs
[0.1216 0.4667 0.7059] sc
/DeviceGray {} CS
[0] SC
301.480011 348.049988 8.149994 71.950012 re
f
Q
q
[4.166667 0 0 4.166667 333.333341 416.666676] cm
0.000001 0.000003 440.000007 420.000005 re
W
/DeviceRGB {} cs
[0.1216 0.4667 0.7059] sc
/DeviceGray {} CS
[0] SC
309.630005 372.579987 8.149994 47.420013 re
f
Q
q
[4.166667 0 0 4.166667 333.333341 416.666676] cm
0.000001 0.000003 440.000007 420.000005 re
W
/DeviceRGB {} cs
[0.1216 0.4667 0.7059] sc
/DeviceGray {} CS
[0] SC
317.779999 393.839996 8.149994 26.160004 re
f
Q
q
[4.166667 0 0 4.166667 333.333341 416.666676] cm
0.000001 0.000003 440.000007 420.000005 re
W
/DeviceRGB {} cs
[0.1216 0.4667 0.7059] sc
/DeviceGray {} CS
[0] SC
325.929993 403.649994 8.140015 16.350006 re
f
Q
q
[4.166667 0 0 4.166667 333.333341 416.666676] cm
0.000001 0.000003 440.000007 420.000005 re
W
/DeviceRGB {} cs
[0.1216 0.4667 0.7059] sc
/DeviceGray {} CS
[0] SC
334.070007 400.380005 8.149994 19.619995 re
f
Q
q
[4.166667 0 0 4.166667 333.333341 416.666676] cm
0.000001 0.000003 440.000007 420.000005 re
W
/DeviceRGB {} cs
[0.1216 0.4667 0.7059] sc
/DeviceGray {} CS
[0] SC
342.220001 405.279999 8.149994 14.720001 re
f
Q
q
[4.166667 0 0 4.166667 333.333341 416.666676] cm
0.000001 0.000003 440.000007 420.000005 re
W
/DeviceRGB {} cs
[0.1216 0.4667 0.7059] sc
/DeviceGray {} CS
[0] SC
350.369995 415.089996 8.149994 4.910004 re
f
Q
q
[4.166667 0 0 4.166667 333.333341 416.666676] cm
0.000001 0.000003 440.000007 420.000005 re
W
/DeviceRGB {} cs
[0.1216 0.4667 0.7059] sc
/DeviceGray {} CS
[0] SC
358.519989 413.459991 8.150024 6.540009 re
f
Q
q
[4.166667 0 0 4.166667 333.333341 416.666676] cm
0.000001 0.000003 440.000007 420.000005 re
W
/DeviceRGB {} cs
[0.1216 0.4667 0.7059] sc
/DeviceGray {} CS
[0] SC
366.670013 415.089996 8.139984 4.910004 re
f
Q
q
[4.166667 0 0 4.166667 333.333341 416.666676] cm
0.000001 0.000003 440.000007 420.000005 re
W
/DeviceRGB {} cs
[0.1216 0.4667 0.7059] sc
/DeviceGray {} CS
[0] SC
382.959991 416.730011 8.149994 3.269989 re
f
Q
q
[4.166667 0 0 4.166667 333.333341 416.666676] cm
0.000001 0.000003 440.000007 420.000005 re
W
/DeviceRGB {} cs
[0.1216 0.4667 0.7059] sc
/DeviceGray {} CS
[0] SC
399.26001 416.730011 8.149994 3.269989 re
f
Q
q
[4.166667 0 0 4.166667 333.333341 416.666676] cm
0.000001 0.000003 440.000007 420.000005 re
W
/DeviceRGB {} cs
[0.1216 0.4667 0.7059] sc
/DeviceGray {} CS
[0] SC
431.850006 418.359985 8.149994 1.640015 re
f
Q
q
[4.166667 0 0 4.166667 333.333341 416.666676] cm
-80 -100 600 600 re
W
/DeviceGray {} CS
[0.2667] SC
/DeviceGray {} cs
[0] sc
0 J
0 j
2 w
4 M
-2 421 m
442 421 l
-2 -1 m
442 -1 l
S
Q
q
[4.166667 0 0 4.166667 333.333341 416.666676] cm
-80 -100 600 600 re
W
/DeviceGray {} CS
[0.2667] SC
/DeviceGray {} cs
[0] sc
0 J
0 j
2 w
4 M
-1 0 m
-1 420 l
441 0 m
441 420 l
S
Q
q
[1.909722 0 0 1.909722 370.666675 416.666676] cm
-194.094539 -218.181813 1309.090897 1309.090881 re
W
/DeviceGray {} CS
[0] SC
-51.25 959.953125 m
-51.25 956.71875 l
-28.71875 956.71875 l
-28.71875 959.953125 l
-51.25 959.953125 l
h
-9.484375 975.265625 m
-13.28125 975.265625 l
-13.28125 950.84375 l
-13.28125 947.796875 -13.09375 945.078125 -13.09375 945.078125 c
-13.59375 945.5625 -14.203125 946.101563 -14.203125 946.101563 c
-14.8125 946.640625 -19.78125 950.671875 -19.78125 950.671875 c
-21.84375 948 l
-12.765625 941 l
-9.484375 941 l
-9.484375 975.265625 l
h
14.25 954.328125 m
19.65625 954.328125 22.765625 957.015625 22.765625 957.015625 c
25.875 959.703125 25.875 964.359375 25.875 964.359375 c
25.875 969.6875 22.484375 972.710938 22.484375 972.710938 c
19.09375 975.734375 13.140625 975.734375 13.140625 975.734375 c
7.359375 975.734375 4.3125 973.875 4.3125 973.875 c
4.3125 970.125 l
5.953125 971.1875 8.390625 971.78125 8.390625 971.78125 c
10.828125 972.375 13.1875 972.375 13.1875 972.375 c
17.3125 972.375 19.601563 970.429688 19.601563 970.429688 c
21.890625 968.484375 21.890625 964.8125 21.890625 964.8125 c
21.890625 957.640625 13.09375 957.640625 13.09375 957.640625 c
10.875 957.640625 7.140625 958.3125 7.140625 958.3125 c
5.125 957.03125 l
6.421875 941 l
23.453125 941 l
23.453125 944.578125 l
9.75 944.578125 l
8.875 954.875 l
11.578125 954.328125 14.25 954.328125 14.25 954.328125 c
h
53.6875 958.078125 m
53.6875 966.96875 50.882813 971.351562 50.882813 971.351562 c
48.078125 975.734375 42.3125 975.734375 42.3125 975.734375 c
36.78125 975.734375 33.898438 971.242188 33.898438 971.242188 c
31.015625 966.75 31.015625 958.078125 31.015625 958.078125 c
31.015625 949.125 33.804687 944.789063 33.804687 944.789063 c
36.59375 940.453125 42.3125 940.453125 42.3125 940.453125 c
47.890625 940.453125 50.789063 944.976563 50.789063 944.976563 c
53.6875 949.5 53.6875 958.078125 53.6875 958.078125 c
h
34.953125 958.078125 m
34.953125 965.5625 36.710938 968.96875 36.710938 968.96875 c
38.46875 972.375 42.3125 972.375 42.3125 972.375 c
46.203125 972.375 47.953125 968.921875 47.953125 968.921875 c
49.703125 965.46875 49.703125 958.078125 49.703125 958.078125 c
49.703125 950.703125 47.953125 947.265625 47.953125 947.265625 c
46.203125 943.828125 42.3125 943.828125 42.3125 943.828125 c
38.46875 943.828125 36.710938 947.21875 36.710938 947.21875 c
34.953125 950.609375 34.953125 958.078125 34.953125 958.078125 c
h
f
Q
q
[1.909722 0 0 1.909722 710.166693 416.666676] cm
-371.869088 -218.181813 1309.090881 1309.090881 re
W
/DeviceGray {} CS
[0] SC
-51.25 959.953125 m
-51.25 956.71875 l
-28.71875 956.71875 l
-28.71875 959.953125 l
-51.25 959.953125 l
h
-9.484375 975.265625 m
-13.28125 975.265625 l
-13.28125 950.84375 l
-13.28125 947.796875 -13.09375 945.078125 -13.09375 945.078125 c
-13.59375 945.5625 -14.203125 946.101563 -14.203125 946.101563 c
-14.8125 946.640625 -19.78125 950.671875 -19.78125 950.671875 c
-21.84375 948 l
-12.765625 941 l
-9.484375 941 l
-9.484375 975.265625 l
h
26.25 958.078125 m
26.25 966.96875 23.445312 971.351562 23.445312 971.351562 c
20.640625 975.734375 14.875 975.734375 14.875 975.734375 c
9.34375 975.734375 6.460937 971.242188 6.460937 971.242188 c
3.578125 966.75 3.578125 958.078125 3.578125 958.078125 c
3.578125 949.125 6.367187 944.789063 6.367187 944.789063 c
9.15625 940.453125 14.875 940.453125 14.875 940.453125 c
20.453125 940.453125 23.351563 944.976563 23.351563 944.976563 c
26.25 949.5 26.25 958.078125 26.25 958.078125 c
h
7.515625 958.078125 m
7.515625 965.5625 9.273438 968.96875 9.273438 968.96875 c
11.03125 972.375 14.875 972.375 14.875 972.375 c
18.765625 972.375 20.515625 968.921875 20.515625 968.921875 c
22.265625 965.46875 22.265625 958.078125 22.265625 958.078125 c
22.265625 950.703125 20.515625 947.265625 20.515625 947.265625 c
18.765625 943.828125 14.875 943.828125 14.875 943.828125 c
11.03125 943.828125 9.273438 947.21875 9.273438 947.21875 c
7.515625 950.609375 7.515625 958.078125 7.515625 958.078125 c
h
53.6875 958.078125 m
53.6875 966.96875 50.882813 971.351562 50.882813 971.351562 c
48.078125 975.734375 42.3125 975.734375 42.3125 975.734375 c
36.78125 975.734375 33.898438 971.242188 33.898438 971.242188 c
31.015625 966.75 31.015625 958.078125 31.015625 958.078125 c
31.015625 949.125 33.804687 944.789063 33.804687 944.789063 c
36.59375 940.453125 42.3125 940.453125 42.3125 940.453125 c
47.890625 940.453125 50.789063 944.976563 50.789063 944.976563 c
53.6875 949.5 53.6875 958.078125 53.6875 958.078125 c
h
34.953125 958.078125 m
34.953125 965.5625 36.710938 968.96875 36.710938 968.96875 c
38.46875 972.375 42.3125 972.375 42.3125 972.375 c
46.203125 972.375 47.953125 968.921875 47.953125 968.921875 c
49.703125 965.46875 49.703125 958.078125 49.703125 958.078125 c
49.703125 950.703125 47.953125 947.265625 47.953125 947.265625 c
46.203125 943.828125 42.3125 943.828125 42.3125 943.828125 c
38.46875 943.828125 36.710938 947.21875 36.710938 947.21875 c
34.953125 950.609375 34.953125 958.078125 34.953125 958.078125 c
h
f
Q
q
[1.909722 0 0 1.909722 1049.708326 416.666676] cm
-549.665427 -218.181813 1309.090881 1309.090881 re
W
/DeviceGray {} CS
[0] SC
-37.53125 959.953125 m
-37.53125 956.71875 l
-15 956.71875 l
-15 959.953125 l
-37.53125 959.953125 l
h
0.53125 954.328125 m
5.9375 954.328125 9.046875 957.015625 9.046875 957.015625 c
12.15625 959.703125 12.15625 964.359375 12.15625 964.359375 c
12.15625 969.6875 8.765625 972.710938 8.765625 972.710938 c
5.375 975.734375 -0.578125 975.734375 -0.578125 975.734375 c
-6.359375 975.734375 -9.40625 973.875 -9.40625 973.875 c
-9.40625 970.125 l
-7.765625 971.1875 -5.328125 971.78125 -5.328125 971.78125 c
-2.890625 972.375 -0.53125 972.375 -0.53125 972.375 c
3.59375 972.375 5.882812 970.429688 5.882812 970.429688 c
8.171875 968.484375 8.171875 964.8125 8.171875 964.8125 c
8.171875 957.640625 -0.625 957.640625 -0.625 957.640625 c
-2.84375 957.640625 -6.578125 958.3125 -6.578125 958.3125 c
-8.59375 957.03125 l
-7.296875 941 l
9.734375 941 l
9.734375 944.578125 l
-3.96875 944.578125 l
-4.84375 954.875 l
-2.140625 954.328125 0.53125 954.328125 0.53125 954.328125 c
h
39.96875 958.078125 m
39.96875 966.96875 37.164063 971.351562 37.164063 971.351562 c
34.359375 975.734375 28.59375 975.734375 28.59375 975.734375 c
23.0625 975.734375 20.179688 971.242188 20.179688 971.242188 c
17.296875 966.75 17.296875 958.078125 17.296875 958.078125 c
17.296875 949.125 20.085937 944.789063 20.085937 944.789063 c
22.875 940.453125 28.59375 940.453125 28.59375 940.453125 c
34.171875 940.453125 37.070313 944.976563 37.070313 944.976563 c
39.96875 949.5 39.96875 958.078125 39.96875 958.078125 c
h
21.234375 958.078125 m
21.234375 965.5625 22.992187 968.96875 22.992187 968.96875 c
24.75 972.375 28.59375 972.375 28.59375 972.375 c
32.484375 972.375 34.234375 968.921875 34.234375 968.921875 c
35.984375 965.46875 35.984375 958.078125 35.984375 958.078125 c
35.984375 950.703125 34.234375 947.265625 34.234375 947.265625 c
32.484375 943.828125 28.59375 943.828125 28.59375 943.828125 c
24.75 943.828125 22.992187 947.21875 22.992187 947.21875 c
21.234375 950.609375 21.234375 958.078125 21.234375 958.078125 c
h
f
Q
q
[1.909722 0 0 1.909722 1389.20838 416.666676] cm
-727.439992 -218.181813 1309.090881 1309.090881 re
W
/DeviceGray {} CS
[0] SC
12.53125 958.078125 m
12.53125 966.96875 9.726563 971.351562 9.726563 971.351562 c
6.921875 975.734375 1.15625 975.734375 1.15625 975.734375 c
-4.375 975.734375 -7.257812 971.242188 -7.257812 971.242188 c
-10.140625 966.75 -10.140625 958.078125 -10.140625 958.078125 c
-10.140625 949.125 -7.351563 944.789063 -7.351563 944.789063 c
-4.5625 940.453125 1.15625 940.453125 1.15625 940.453125 c
6.734375 940.453125 9.632813 944.976563 9.632813 944.976563 c
12.53125 949.5 12.53125 958.078125 12.53125 958.078125 c
h
-6.203125 958.078125 m
-6.203125 965.5625 -4.445313 968.96875 -4.445313 968.96875 c
-2.6875 972.375 1.15625 972.375 1.15625 972.375 c
5.046875 972.375 6.796875 968.921875 6.796875 968.921875 c
8.546875 965.46875 8.546875 958.078125 8.546875 958.078125 c
8.546875 950.703125 6.796875 947.265625 6.796875 947.265625 c
5.046875 943.828125 1.15625 943.828125 1.15625 943.828125 c
-2.6875 943.828125 -4.445313 947.21875 -4.445313 947.21875 c
-6.203125 950.609375 -6.203125 958.078125 -6.203125 958.078125 c
h
f
Q
q
[1.909722 0 0 1.909722 1728.708433 416.666676] cm
-905.214558 -218.181813 1309.090881 1309.090881 re
W
/DeviceGray {} CS
[0] SC
-13.1875 954.328125 m
-7.78125 954.328125 -4.671875 957.015625 -4.671875 957.015625 c
-1.5625 959.703125 -1.5625 964.359375 -1.5625 964.359375 c
-1.5625 969.6875 -4.953125 972.710938 -4.953125 972.710938 c
-8.34375 975.734375 -14.296875 975.734375 -14.296875 975.734375 c
-20.078125 975.734375 -23.125 973.875 -23.125 973.875 c
-23.125 970.125 l
-21.484375 971.1875 -19.046875 971.78125 -19.046875 971.78125 c
-16.609375 972.375 -14.25 972.375 -14.25 972.375 c
-10.125 972.375 -7.835937 970.429688 -7.835937 970.429688 c
-5.546875 968.484375 -5.546875 964.8125 -5.546875 964.8125 c
-5.546875 957.640625 -14.34375 957.640625 -14.34375 957.640625 c
-16.5625 957.640625 -20.296875 958.3125 -20.296875 958.3125 c
-22.3125 957.03125 l
-21.015625 941 l
-3.984375 941 l
-3.984375 944.578125 l
-17.6875 944.578125 l
-18.5625 954.875 l
-15.859375 954.328125 -13.1875 954.328125 -13.1875 954.328125 c
h
26.25 958.078125 m
26.25 966.96875 23.445312 971.351562 23.445312 971.351562 c
20.640625 975.734375 14.875 975.734375 14.875 975.734375 c
9.34375 975.734375 6.460937 971.242188 6.460937 971.242188 c
3.578125 966.75 3.578125 958.078125 3.578125 958.078125 c
3.578125 949.125 6.367187 944.789063 6.367187 944.789063 c
9.15625 940.453125 14.875 940.453125 14.875 940.453125 c
20.453125 940.453125 23.351563 944.976563 23.351563 944.976563 c
26.25 949.5 26.25 958.078125 26.25 958.078125 c
h
7.515625 958.078125 m
7.515625 965.5625 9.273438 968.96875 9.273438 968.96875 c
11.03125 972.375 14.875 972.375 14.875 972.375 c
18.765625 972.375 20.515625 968.921875 20.515625 968.921875 c
22.265625 965.46875 22.265625 958.078125 22.265625 958.078125 c
22.265625 950.703125 20.515625 947.265625 20.515625 947.265625 c
18.765625 943.828125 14.875 943.828125 14.875 943.828125 c
11.03125 943.828125 9.273438 947.21875 9.273438 947.21875 c
7.515625 950.609375 7.515625 958.078125 7.515625 958.078125 c
h
f
Q
q
[1.909722 0 0 1.909722 2068.208359 416.666676] cm
-1082.989057 -218.181813 1309.090881 1309.090881 re
W
/DeviceGray {} CS
[0] SC
-23.203125 975.265625 m
-27 975.265625 l
-27 950.84375 l
-27 947.796875 -26.8125 945.078125 -26.8125 945.078125 c
-27.3125 945.5625 -27.921875 946.101563 -27.921875 946.101563 c
-28.53125 946.640625 -33.5 950.671875 -33.5 950.671875 c
-35.5625 948 l
-26.484375 941 l
-23.203125 941 l
-23.203125 975.265625 l
h
12.53125 958.078125 m
12.53125 966.96875 9.726563 971.351562 9.726563 971.351562 c
6.921875 975.734375 1.15625 975.734375 1.15625 975.734375 c
-4.375 975.734375 -7.257812 971.242188 -7.257812 971.242188 c
-10.140625 966.75 -10.140625 958.078125 -10.140625 958.078125 c
-10.140625 949.125 -7.351563 944.789063 -7.351563 944.789063 c
-4.5625 940.453125 1.15625 940.453125 1.15625 940.453125 c
6.734375 940.453125 9.632813 944.976563 9.632813 944.976563 c
12.53125 949.5 12.53125 958.078125 12.53125 958.078125 c
h
-6.203125 958.078125 m
-6.203125 965.5625 -4.445313 968.96875 -4.445313 968.96875 c
-2.6875 972.375 1.15625 972.375 1.15625 972.375 c
5.046875 972.375 6.796875 968.921875 6.796875 968.921875 c
8.546875 965.46875 8.546875 958.078125 8.546875 958.078125 c
8.546875 950.703125 6.796875 947.265625 6.796875 947.265625 c
5.046875 943.828125 1.15625 943.828125 1.15625 943.828125 c
-2.6875 943.828125 -4.445313 947.21875 -4.445313 947.21875 c
-6.203125 950.609375 -6.203125 958.078125 -6.203125 958.078125 c
h
39.96875 958.078125 m
39.96875 966.96875 37.164063 971.351562 37.164063 971.351562 c
34.359375 975.734375 28.59375 975.734375 28.59375 975.734375 c
23.0625 975.734375 20.179688 971.242188 20.179688 971.242188 c
17.296875 966.75 17.296875 958.078125 17.296875 958.078125 c
17.296875 949.125 20.085937 944.789063 20.085937 944.789063 c
22.875 940.453125 28.59375 940.453125 28.59375 940.453125 c
34.171875 940.453125 37.070313 944.976563 37.070313 944.976563 c
39.96875 949.5 39.96875 958.078125 39.96875 958.078125 c
h
21.234375 958.078125 m
21.234375 965.5625 22.992187 968.96875 22.992187 968.96875 c
24.75 972.375 28.59375 972.375 28.59375 972.375 c
32.484375 972.375 34.234375 968.921875 34.234375 968.921875 c
35.984375 965.46875 35.984375 958.078125 35.984375 958.078125 c
35.984375 950.703125 34.234375 947.265625 34.234375 947.265625 c
32.484375 943.828125 28.59375 943.828125 28.59375 943.828125 c
24.75 943.828125 22.992187 947.21875 22.992187 947.21875 c
21.234375 950.609375 21.234375 958.078125 21.234375 958.078125 c
h
f
Q
q
[4.166667 0 0 4.166667 333.333341 2166.666715] cm
-80 -520 600 600 re
W
/DeviceGray {} CS
[0] SC
-2 0 m
-12 0 l
f
Q
q
[4.166667 0 0 4.166667 333.333341 2166.666715] cm
-80 -520 600 600 re
W
/DeviceGray {} CS
[1] SC
/DeviceGray {} cs
[0] sc
0 J
0 j
1 w
4 M
-2 0 m
-12 0 l
S
Q
q
[4.166667 0 0 4.166667 333.333341 1826] cm
-80 -438.23999 600 600 re
W
/DeviceGray {} CS
[0] SC
-2 0 m
-12 0 l
f
Q
q
[4.166667 0 0 4.166667 333.333341 1826] cm
-80 -438.23999 600 600 re
W
/DeviceGray {} CS
[1] SC
/DeviceGray {} cs
[0] sc
0 J
0 j
1 w
4 M
-2 0 m
-12 0 l
S
Q
q
[4.166667 0 0 4.166667 333.333341 1485.333412] cm
-80 -356.480011 600 600 re
W
/DeviceGray {} CS
[0] SC
-2 0 m
-12 0 l
f
Q
q
[4.166667 0 0 4.166667 333.333341 1485.333412] cm
-80 -356.480011 600 600 re
W
/DeviceGray {} CS
[1] SC
/DeviceGray {} cs
[0] sc
0 J
0 j
1 w
4 M
-2 0 m
-12 0 l
S
Q
q
[4.166667 0 0 4.166667 333.333341 1144.625054] cm
-80 -274.710007 600 600 re
W
/DeviceGray {} CS
[0] SC
-2 0 m
-12 0 l
f
Q
q
[4.166667 0 0 4.166667 333.333341 1144.625054] cm
-80 -274.710007 600 600 re
W
/DeviceGray {} CS
[1] SC
/DeviceGray {} cs
[0] sc
0 J
0 j
1 w
4 M
-2 0 m
-12 0 l
S
Q
q
[4.166667 0 0 4.166667 333.333341 803.958339] cm
-80 -192.949997 600 600 re
W
/DeviceGray {} CS
[0] SC
-2 0 m
-12 0 l
f
Q
q
[4.166667 0 0 4.166667 333.333341 803.958339] cm
-80 -192.949997 600 600 re
W
/DeviceGray {} CS
[1] SC
/DeviceGray {} cs
[0] sc
0 J
0 j
1 w
4 M
-2 0 m
-12 0 l
S
Q
q
[4.166667 0 0 4.166667 333.333341 463.291675] cm
-80 -111.19 600 600 re
W
/DeviceGray {} CS
[0] SC
-2 0 m
-12 0 l
f
Q
q
[4.166667 0 0 4.166667 333.333341 463.291675] cm
-80 -111.19 600 600 re
W
/DeviceGray {} CS
[1] SC
/DeviceGray {} cs
[0] sc
0 J
0 j
1 w
4 M
-2 0 m
-12 0 l
S
Q
q
[2.389902 -3.413134 3.413134 2.389902 308.458632 2118.882845] cm
374.103027 -352.323792 m
718.248901 139.16745 l
226.75766 483.313293 l
-117.388206 -8.17792 l
374.103027 -352.323792 l
h
W
/DeviceGray {} CS
[0] SC
-14.003582 3.122396 m
-14.003582 7.197266 -15.289063 9.206055 -15.289063 9.206055 c
-16.574545 11.214844 -19.217123 11.214844 -19.217123 11.214844 c
-21.752279 11.214844 -23.073568 9.155925 -23.073568 9.155925 c
-24.394857 7.097005 -24.394857 3.122396 -24.394857 3.122396 c
-24.394857 -0.98112 -23.116537 -2.968425 -23.116537 -2.968425 c
-21.838217 -4.955729 -19.217123 -4.955729 -19.217123 -4.955729 c
-16.660482 -4.955729 -15.332032 -2.882487 -15.332032 -2.882487 c
-14.003582 -0.809245 -14.003582 3.122396 -14.003582 3.122396 c
h
-22.59017 3.122396 m
-22.59017 6.552734 -21.784506 8.113933 -21.784506 8.113933 c
-20.978842 9.67513 -19.217123 9.67513 -19.217123 9.67513 c
-17.43392 9.67513 -16.631838 8.092448 -16.631838 8.092448 c
-15.829754 6.509766 -15.829754 3.122396 -15.829754 3.122396 c
-15.829754 -0.257813 -16.631838 -1.833334 -16.631838 -1.833334 c
-17.43392 -3.408854 -19.217123 -3.408854 -19.217123 -3.408854 c
-20.978842 -3.408854 -21.784506 -1.854818 -21.784506 -1.854818 c
-22.59017 -0.300781 -22.59017 3.122396 -22.59017 3.122396 c
h
f
Q
q
[2.389902 -3.413134 3.413134 2.389902 308.458632 1778.21613] cm
307.12915 -305.428162 m
651.275024 186.063065 l
159.783783 530.208923 l
-184.362091 38.717693 l
307.12915 -305.428162 l
h
W
/DeviceGray {} CS
[0] SC
-44.844402 3.122396 m
-44.844402 7.197266 -46.129883 9.206055 -46.129883 9.206055 c
-47.415367 11.214844 -50.057945 11.214844 -50.057945 11.214844 c
-52.593102 11.214844 -53.914391 9.155925 -53.914391 9.155925 c
-55.23568 7.097005 -55.23568 3.122396 -55.23568 3.122396 c
-55.23568 -0.98112 -53.957359 -2.968425 -53.957359 -2.968425 c
-52.679039 -4.955729 -50.057945 -4.955729 -50.057945 -4.955729 c
-47.501305 -4.955729 -46.172852 -2.882487 -46.172852 -2.882487 c
-44.844402 -0.809245 -44.844402 3.122396 -44.844402 3.122396 c
h
-53.430992 3.122396 m
-53.430992 6.552734 -52.625328 8.113933 -52.625328 8.113933 c
-51.819664 9.67513 -50.057945 9.67513 -50.057945 9.67513 c
-48.274742 9.67513 -47.472656 8.092448 -47.472656 8.092448 c
-46.670574 6.509766 -46.670574 3.122396 -46.670574 3.122396 c
-46.670574 -0.257813 -47.472656 -1.833334 -47.472656 -1.833334 c
-48.274742 -3.408854 -50.057945 -3.408854 -50.057945 -3.408854 c
-51.819664 -3.408854 -52.625328 -1.854818 -52.625328 -1.854818 c
-53.430992 -0.300781 -53.430992 3.122396 -53.430992 3.122396 c
h
-42.119469 9.861328 m
-42.119469 9.138021 -41.790039 8.769206 -41.790039 8.769206 c
-41.460613 8.400391 -40.851891 8.400391 -40.851891 8.400391 c
-40.228844 8.400391 -39.87793 8.769206 -39.87793 8.769206 c
-39.52702 9.138021 -39.52702 9.861328 -39.52702 9.861328 c
-39.52702 10.555989 -39.881512 10.935547 -39.881512 10.935547 c
-40.236004 11.315104 -40.851891 11.315104 -40.851891 11.315104 c
-41.39616 11.315104 -41.757813 10.974935 -41.757813 10.974935 c
-42.119469 10.634766 -42.119469 9.861328 -42.119469 9.861328 c
h
-26.410809 3.122396 m
-26.410809 7.197266 -27.696291 9.206055 -27.696291 9.206055 c
-28.981771 11.214844 -31.62435 11.214844 -31.62435 11.214844 c
-34.159508 11.214844 -35.480797 9.155925 -35.480797 9.155925 c
-36.802086 7.097005 -36.802086 3.122396 -36.802086 3.122396 c
-36.802086 -0.98112 -35.523766 -2.968425 -35.523766 -2.968425 c
-34.245445 -4.955729 -31.62435 -4.955729 -31.62435 -4.955729 c
-29.067709 -4.955729 -27.73926 -2.882487 -27.73926 -2.882487 c
-26.410809 -0.809245 -26.410809 3.122396 -26.410809 3.122396 c
h
-34.997398 3.122396 m
-34.997398 6.552734 -34.191734 8.113933 -34.191734 8.113933 c
-33.38607 9.67513 -31.62435 9.67513 -31.62435 9.67513 c
-29.841146 9.67513 -29.039064 8.092448 -29.039064 8.092448 c
-28.23698 6.509766 -28.23698 3.122396 -28.23698 3.122396 c
-28.23698 -0.257813 -29.039064 -1.833334 -29.039064 -1.833334 c
-29.841146 -3.408854 -31.62435 -3.408854 -31.62435 -3.408854 c
-33.38607 -3.408854 -34.191734 -1.854818 -34.191734 -1.854818 c
-34.997398 -0.300781 -34.997398 3.122396 -34.997398 3.122396 c
h
-19.328127 1.403646 m
-16.850262 1.403646 -15.425131 2.635417 -15.425131 2.635417 c
-14.000001 3.867187 -14.000001 6.001302 -14.000001 6.001302 c
-14.000001 8.443359 -15.554037 9.829102 -15.554037 9.829102 c
-17.108074 11.214844 -19.83659 11.214844 -19.83659 11.214844 c
-22.48633 11.214844 -23.882814 10.36263 -23.882814 10.36263 c
-23.882814 8.64388 l
-23.130861 9.130859 -22.013674 9.402995 -22.013674 9.402995 c
-20.896486 9.67513 -19.815105 9.67513 -19.815105 9.67513 c
-17.92448 9.67513 -16.875326 8.783528 -16.875326 8.783528 c
-15.826173 7.891927 -15.826173 6.208984 -15.826173 6.208984 c
-15.826173 2.921875 -19.858074 2.921875 -19.858074 2.921875 c
-20.875002 2.921875 -22.58659 3.229818 -22.58659 3.229818 c
-23.510418 2.642578 l
-22.916018 -4.705079 l
-15.110027 -4.705079 l
-15.110027 -3.065104 l
-21.390627 -3.065104 l
-21.791668 1.654297 l
-20.552736 1.403646 -19.328127 1.403646 -19.328127 1.403646 c
h
f
Q
q
[2.389902 -3.413134 3.413134 2.389902 308.458632 1437.549542] cm
240.155289 -258.532562 m
584.301147 232.958664 l
92.809929 577.104492 l
-251.335953 85.613289 l
240.155289 -258.532562 l
h
W
/DeviceGray {} CS
[0] SC
-28.634441 3.122396 m
-28.634441 7.197266 -29.919924 9.206055 -29.919924 9.206055 c
-31.205404 11.214844 -33.847984 11.214844 -33.847984 11.214844 c
-36.383141 11.214844 -37.70443 9.155925 -37.70443 9.155925 c
-39.025719 7.097005 -39.025719 3.122396 -39.025719 3.122396 c
-39.025719 -0.98112 -37.747398 -2.968425 -37.747398 -2.968425 c
-36.469078 -4.955729 -33.847984 -4.955729 -33.847984 -4.955729 c
-31.291342 -4.955729 -29.962893 -2.882487 -29.962893 -2.882487 c
-28.634441 -0.809245 -28.634441 3.122396 -28.634441 3.122396 c
h
-37.221031 3.122396 m
-37.221031 6.552734 -36.415367 8.113933 -36.415367 8.113933 c
-35.609703 9.67513 -33.847984 9.67513 -33.847984 9.67513 c
-32.064781 9.67513 -31.262697 8.092448 -31.262697 8.092448 c
-30.460613 6.509766 -30.460613 3.122396 -30.460613 3.122396 c
-30.460613 -0.257813 -31.262697 -1.833334 -31.262697 -1.833334 c
-32.064781 -3.408854 -33.847984 -3.408854 -33.847984 -3.408854 c
-35.609703 -3.408854 -36.415367 -1.854818 -36.415367 -1.854818 c
-37.221031 -0.300781 -37.221031 3.122396 -37.221031 3.122396 c
h
-25.909506 9.861328 m
-25.909506 9.138021 -25.58008 8.769206 -25.58008 8.769206 c
-25.250652 8.400391 -24.641928 8.400391 -24.641928 8.400391 c
-24.018881 8.400391 -23.667971 8.769206 -23.667971 8.769206 c
-23.317059 9.138021 -23.317059 9.861328 -23.317059 9.861328 c
-23.317059 10.555989 -23.671551 10.935547 -23.671551 10.935547 c
-24.026043 11.315104 -24.641928 11.315104 -24.641928 11.315104 c
-25.186199 11.315104 -25.547853 10.974935 -25.547853 10.974935 c
-25.909506 10.634766 -25.909506 9.861328 -25.909506 9.861328 c
h
-14.003582 11 m
-15.743816 11 l
-15.743816 -0.19336 l
-15.743816 -1.589844 -15.657879 -2.835938 -15.657879 -2.835938 c
-15.887046 -2.613933 -16.166342 -2.366862 -16.166342 -2.366862 c
-16.445639 -2.119792 -18.722982 -0.272136 -18.722982 -0.272136 c
-19.668295 -1.496745 l
-15.507488 -4.705079 l
-14.003582 -4.705079 l
-14.003582 11 l
h
f
Q
q
[2.389902 -3.413134 3.413134 2.389902 308.458632 1096.841183] cm
173.173218 -211.63121 m
517.319092 279.860016 l
25.827862 624.005859 l
-318.318024 132.514633 l
173.173218 -211.63121 l
h
W
/DeviceGray {} CS
[0] SC
-44.844402 3.122396 m
-44.844402 7.197266 -46.129883 9.206055 -46.129883 9.206055 c
-47.415367 11.214844 -50.057945 11.214844 -50.057945 11.214844 c
-52.593102 11.214844 -53.914391 9.155925 -53.914391 9.155925 c
-55.23568 7.097005 -55.23568 3.122396 -55.23568 3.122396 c
-55.23568 -0.98112 -53.957359 -2.968425 -53.957359 -2.968425 c
-52.679039 -4.955729 -50.057945 -4.955729 -50.057945 -4.955729 c
-47.501305 -4.955729 -46.172852 -2.882487 -46.172852 -2.882487 c
-44.844402 -0.809245 -44.844402 3.122396 -44.844402 3.122396 c
h
-53.430992 3.122396 m
-53.430992 6.552734 -52.625328 8.113933 -52.625328 8.113933 c
-51.819664 9.67513 -50.057945 9.67513 -50.057945 9.67513 c
-48.274742 9.67513 -47.472656 8.092448 -47.472656 8.092448 c
-46.670574 6.509766 -46.670574 3.122396 -46.670574 3.122396 c
-46.670574 -0.257813 -47.472656 -1.833334 -47.472656 -1.833334 c
-48.274742 -3.408854 -50.057945 -3.408854 -50.057945 -3.408854 c
-51.819664 -3.408854 -52.625328 -1.854818 -52.625328 -1.854818 c
-53.430992 -0.300781 -53.430992 3.122396 -53.430992 3.122396 c
h
-42.119469 9.861328 m
-42.119469 9.138021 -41.790039 8.769206 -41.790039 8.769206 c
-41.460613 8.400391 -40.851891 8.400391 -40.851891 8.400391 c
-40.228844 8.400391 -39.87793 8.769206 -39.87793 8.769206 c
-39.52702 9.138021 -39.52702 9.861328 -39.52702 9.861328 c
-39.52702 10.555989 -39.881512 10.935547 -39.881512 10.935547 c
-40.236004 11.315104 -40.851891 11.315104 -40.851891 11.315104 c
-41.39616 11.315104 -41.757813 10.974935 -41.757813 10.974935 c
-42.119469 10.634766 -42.119469 9.861328 -42.119469 9.861328 c
h
-30.213543 11 m
-31.953777 11 l
-31.953777 -0.19336 l
-31.953777 -1.589844 -31.86784 -2.835938 -31.86784 -2.835938 c
-32.097008 -2.613933 -32.376305 -2.366862 -32.376305 -2.366862 c
-32.655601 -2.119792 -34.932945 -0.272136 -34.932945 -0.272136 c
-35.878258 -1.496745 l
-31.717449 -4.705079 l
-30.213543 -4.705079 l
-30.213543 11 l
h
-19.328127 1.403646 m
-16.850262 1.403646 -15.425131 2.635417 -15.425131 2.635417 c
-14.000001 3.867187 -14.000001 6.001302 -14.000001 6.001302 c
-14.000001 8.443359 -15.554037 9.829102 -15.554037 9.829102 c
-17.108074 11.214844 -19.83659 11.214844 -19.83659 11.214844 c
-22.48633 11.214844 -23.882814 10.36263 -23.882814 10.36263 c
-23.882814 8.64388 l
-23.130861 9.130859 -22.013674 9.402995 -22.013674 9.402995 c
-20.896486 9.67513 -19.815105 9.67513 -19.815105 9.67513 c
-17.92448 9.67513 -16.875326 8.783528 -16.875326 8.783528 c
-15.826173 7.891927 -15.826173 6.208984 -15.826173 6.208984 c
-15.826173 2.921875 -19.858074 2.921875 -19.858074 2.921875 c
-20.875002 2.921875 -22.58659 3.229818 -22.58659 3.229818 c
-23.510418 2.642578 l
-22.916018 -4.705079 l
-15.110027 -4.705079 l
-15.110027 -3.065104 l
-21.390627 -3.065104 l
-21.791668 1.654297 l
-20.552736 1.403646 -19.328127 1.403646 -19.328127 1.403646 c
h
f
Q
q
[2.389902 -3.413134 3.413134 2.389902 308.458632 756.174468] cm
106.199341 -164.735596 m
450.345215 326.755646 l
-41.146019 670.901489 l
-385.291901 179.410248 l
106.199341 -164.735596 l
h
W
/DeviceGray {} CS
[0] SC
-32.351238 3.122396 m
-32.351238 7.197266 -33.636719 9.206055 -33.636719 9.206055 c
-34.922203 11.214844 -37.564781 11.214844 -37.564781 11.214844 c
-40.099937 11.214844 -41.421226 9.155925 -41.421226 9.155925 c
-42.742516 7.097005 -42.742516 3.122396 -42.742516 3.122396 c
-42.742516 -0.98112 -41.464195 -2.968425 -41.464195 -2.968425 c
-40.185875 -4.955729 -37.564781 -4.955729 -37.564781 -4.955729 c
-35.008141 -4.955729 -33.679687 -2.882487 -33.679687 -2.882487 c
-32.351238 -0.809245 -32.351238 3.122396 -32.351238 3.122396 c
h
-40.937828 3.122396 m
-40.937828 6.552734 -40.132164 8.113933 -40.132164 8.113933 c
-39.3265 9.67513 -37.564781 9.67513 -37.564781 9.67513 c
-35.781578 9.67513 -34.979492 8.092448 -34.979492 8.092448 c
-34.17741 6.509766 -34.17741 3.122396 -34.17741 3.122396 c
-34.17741 -0.257813 -34.979492 -1.833334 -34.979492 -1.833334 c
-35.781578 -3.408854 -37.564781 -3.408854 -37.564781 -3.408854 c
-39.3265 -3.408854 -40.132164 -1.854818 -40.132164 -1.854818 c
-40.937828 -0.300781 -40.937828 3.122396 -40.937828 3.122396 c
h
-29.626303 9.861328 m
-29.626303 9.138021 -29.296877 8.769206 -29.296877 8.769206 c
-28.967449 8.400391 -28.358725 8.400391 -28.358725 8.400391 c
-27.735678 8.400391 -27.384768 8.769206 -27.384768 8.769206 c
-27.033855 9.138021 -27.033855 9.861328 -27.033855 9.861328 c
-27.033855 10.555989 -27.388348 10.935547 -27.388348 10.935547 c
-27.74284 11.315104 -28.358725 11.315104 -28.358725 11.315104 c
-28.902996 11.315104 -29.26465 10.974935 -29.26465 10.974935 c
-29.626303 10.634766 -29.626303 9.861328 -29.626303 9.861328 c
h
-14.000001 11 m
-24.326824 11 l
-24.326824 9.460286 l
-20.187502 5.306641 l
-18.296877 3.394531 -17.695314 2.578125 -17.695314 2.578125 c
-17.093752 1.761719 -16.792971 0.988281 -16.792971 0.988281 c
-16.492189 0.214844 -16.492189 -0.680339 -16.492189 -0.680339 c
-16.492189 -1.933594 -17.254885 -2.671224 -17.254885 -2.671224 c
-18.01758 -3.408854 -19.371096 -3.408854 -19.371096 -3.408854 c
-20.352215 -3.408854 -21.225912 -3.086589 -21.225912 -3.086589 c
-22.099611 -2.764323 -23.17383 -1.91211 -23.17383 -1.91211 c
-24.119143 -3.129558 l
-21.949221 -4.934245 -19.39258 -4.934245 -19.39258 -4.934245 c
-17.179689 -4.934245 -15.922853 -3.799154 -15.922853 -3.799154 c
-14.666017 -2.664063 -14.666017 -0.751953 -14.666017 -0.751953 c
-14.666017 0.73763 -15.503907 2.198568 -15.503907 2.198568 c
-16.341799 3.659505 -18.640627 5.89388 -18.640627 5.89388 c
-22.078127 9.259766 l
-22.078127 9.345703 l
-14.000001 9.345703 l
-14.000001 11 l
h
f
Q
q
[2.389902 -3.413134 3.413134 2.389902 308.458632 415.507805] cm
39.225472 -117.839989 m
383.371338 373.651245 l
-108.119888 717.797119 l
-452.265778 226.305862 l
39.225472 -117.839989 l
h
W
/DeviceGray {} CS
[0] SC
-44.844402 3.122396 m
-44.844402 7.197266 -46.129883 9.206055 -46.129883 9.206055 c
-47.415367 11.214844 -50.057945 11.214844 -50.057945 11.214844 c
-52.593102 11.214844 -53.914391 9.155925 -53.914391 9.155925 c
-55.23568 7.097005 -55.23568 3.122396 -55.23568 3.122396 c
-55.23568 -0.98112 -53.957359 -2.968425 -53.957359 -2.968425 c
-52.679039 -4.955729 -50.057945 -4.955729 -50.057945 -4.955729 c
-47.501305 -4.955729 -46.172852 -2.882487 -46.172852 -2.882487 c
-44.844402 -0.809245 -44.844402 3.122396 -44.844402 3.122396 c
h
-53.430992 3.122396 m
-53.430992 6.552734 -52.625328 8.113933 -52.625328 8.113933 c
-51.819664 9.67513 -50.057945 9.67513 -50.057945 9.67513 c
-48.274742 9.67513 -47.472656 8.092448 -47.472656 8.092448 c
-46.670574 6.509766 -46.670574 3.122396 -46.670574 3.122396 c
-46.670574 -0.257813 -47.472656 -1.833334 -47.472656 -1.833334 c
-48.274742 -3.408854 -50.057945 -3.408854 -50.057945 -3.408854 c
-51.819664 -3.408854 -52.625328 -1.854818 -52.625328 -1.854818 c
-53.430992 -0.300781 -53.430992 3.122396 -53.430992 3.122396 c
h
-42.119469 9.861328 m
-42.119469 9.138021 -41.790039 8.769206 -41.790039 8.769206 c
-41.460613 8.400391 -40.851891 8.400391 -40.851891 8.400391 c
-40.228844 8.400391 -39.87793 8.769206 -39.87793 8.769206 c
-39.52702 9.138021 -39.52702 9.861328 -39.52702 9.861328 c
-39.52702 10.555989 -39.881512 10.935547 -39.881512 10.935547 c
-40.236004 11.315104 -40.851891 11.315104 -40.851891 11.315104 c
-41.39616 11.315104 -41.757813 10.974935 -41.757813 10.974935 c
-42.119469 10.634766 -42.119469 9.861328 -42.119469 9.861328 c
h
-26.493166 11 m
-36.819988 11 l
-36.819988 9.460286 l
-32.680664 5.306641 l
-30.790041 3.394531 -30.188478 2.578125 -30.188478 2.578125 c
-29.586916 1.761719 -29.286135 0.988281 -29.286135 0.988281 c
-28.985353 0.214844 -28.985353 -0.680339 -28.985353 -0.680339 c
-28.985353 -1.933594 -29.748049 -2.671224 -29.748049 -2.671224 c
-30.510744 -3.408854 -31.86426 -3.408854 -31.86426 -3.408854 c
-32.845379 -3.408854 -33.719078 -3.086589 -33.719078 -3.086589 c
-34.592773 -2.764323 -35.666992 -1.91211 -35.666992 -1.91211 c
-36.612305 -3.129558 l
-34.442383 -4.934245 -31.885744 -4.934245 -31.885744 -4.934245 c
-29.672853 -4.934245 -28.416018 -3.799154 -28.416018 -3.799154 c
-27.159182 -2.664063 -27.159182 -0.751953 -27.159182 -0.751953 c
-27.159182 0.73763 -27.997072 2.198568 -27.997072 2.198568 c
-28.834963 3.659505 -31.133791 5.89388 -31.133791 5.89388 c
-34.571289 9.259766 l
-34.571289 9.345703 l
-26.493166 9.345703 l
-26.493166 11 l
h
-19.328127 1.403646 m
-16.850262 1.403646 -15.425131 2.635417 -15.425131 2.635417 c
-14.000001 3.867187 -14.000001 6.001302 -14.000001 6.001302 c
-14.000001 8.443359 -15.554037 9.829102 -15.554037 9.829102 c
-17.108074 11.214844 -19.83659 11.214844 -19.83659 11.214844 c
-22.48633 11.214844 -23.882814 10.36263 -23.882814 10.36263 c
-23.882814 8.64388 l
-23.130861 9.130859 -22.013674 9.402995 -22.013674 9.402995 c
-20.896486 9.67513 -19.815105 9.67513 -19.815105 9.67513 c
-17.92448 9.67513 -16.875326 8.783528 -16.875326 8.783528 c
-15.826173 7.891927 -15.826173 6.208984 -15.826173 6.208984 c
-15.826173 2.921875 -19.858074 2.921875 -19.858074 2.921875 c
-20.875002 2.921875 -22.58659 3.229818 -22.58659 3.229818 c
-23.510418 2.642578 l
-22.916018 -4.705079 l
-15.110027 -4.705079 l
-15.110027 -3.065104 l
-21.390627 -3.065104 l
-21.791668 1.654297 l
-20.552736 1.403646 -19.328127 1.403646 -19.328127 1.403646 c
h
f
Q
q
[2.430556 0 0 2.430556 0 -91.666669] cm
0.000015 37.714297 m
1028.571464 37.714297 l
1028.571464 1066.285751 l
-0.000022 1066.285751 l
0.000015 37.714297 l
h
W
/DeviceGray {} CS
[0] SC
334.59375 1052.5625 m
334.59375 1018.296875 l
338.578125 1018.296875 l
338.578125 1048.953125 l
353.6875 1048.953125 l
353.6875 1052.5625 l
334.59375 1052.5625 l
h
369.765625 1053.03125 m
364.0625 1053.03125 360.773437 1049.5625 360.773437 1049.5625 c
357.484375 1046.09375 357.484375 1039.921875 357.484375 1039.921875 c
357.484375 1033.71875 360.539063 1030.0625 360.539063 1030.0625 c
363.59375 1026.40625 368.75 1026.40625 368.75 1026.40625 c
373.578125 1026.40625 376.390625 1029.578125 376.390625 1029.578125 c
379.203125 1032.75 379.203125 1037.953125 379.203125 1037.953125 c
379.203125 1040.421875 l
361.515625 1040.421875 l
361.625 1044.9375 363.796875 1047.28125 363.796875 1047.28125 c
365.96875 1049.625 369.90625 1049.625 369.90625 1049.625 c
374.046875 1049.625 378.109375 1047.890625 378.109375 1047.890625 c
378.109375 1051.359375 l
376.046875 1052.25 374.203125 1052.640625 374.203125 1052.640625 c
372.359375 1053.03125 369.765625 1053.03125 369.765625 1053.03125 c
h
368.703125 1029.65625 m
365.609375 1029.65625 363.773437 1031.671875 363.773437 1031.671875 c
361.9375 1033.6875 361.609375 1037.25 361.609375 1037.25 c
375.03125 1037.25 l
375.03125 1033.578125 373.390625 1031.617188 373.390625 1031.617188 c
371.75 1029.65625 368.703125 1029.65625 368.703125 1029.65625 c
h
401.640625 1052.5625 m
400.875 1048.90625 l
400.6875 1048.90625 l
398.765625 1051.3125 396.851563 1052.171875 396.851563 1052.171875 c
394.9375 1053.03125 392.078125 1053.03125 392.078125 1053.03125 c
388.265625 1053.03125 386.09375 1051.0625 386.09375 1051.0625 c
383.921875 1049.09375 383.921875 1045.453125 383.921875 1045.453125 c
383.921875 1037.671875 396.375 1037.296875 396.375 1037.296875 c
400.734375 1037.15625 l
400.734375 1035.5625 l
400.734375 1032.546875 399.429688 1031.101563 399.429688 1031.101563 c
398.125 1029.65625 395.265625 1029.65625 395.265625 1029.65625 c
392.0625 1029.65625 388 1031.625 388 1031.625 c
386.8125 1028.65625 l
388.703125 1027.625 390.96875 1027.039063 390.96875 1027.039063 c
393.234375 1026.453125 395.5 1026.453125 395.5 1026.453125 c
400.09375 1026.453125 402.3125 1028.492188 402.3125 1028.492188 c
404.53125 1030.53125 404.53125 1035.03125 404.53125 1035.03125 c
404.53125 1052.5625 l
401.640625 1052.5625 l
h
392.859375 1049.8125 m
396.484375 1049.8125 398.5625 1047.820312 398.5625 1047.820312 c
400.640625 1045.828125 400.640625 1042.25 400.640625 1042.25 c
400.640625 1039.921875 l
396.75 1040.09375 l
392.109375 1040.25 390.054688 1041.53125 390.054688 1041.53125 c
388 1042.8125 388 1045.5 388 1045.5 c
388 1047.609375 389.28125 1048.710938 389.28125 1048.710938 c
390.5625 1049.8125 392.859375 1049.8125 392.859375 1049.8125 c
h
430.015625 1049.109375 m
429.8125 1049.109375 l
427.109375 1053.03125 421.75 1053.03125 421.75 1053.03125 c
416.703125 1053.03125 413.90625 1049.585938 413.90625 1049.585938 c
411.109375 1046.140625 411.109375 1039.78125 411.109375 1039.78125 c
411.109375 1033.4375 413.921875 1029.921875 413.921875 1029.921875 c
416.734375 1026.40625 421.75 1026.40625 421.75 1026.40625 c
426.96875 1026.40625 429.765625 1030.203125 429.765625 1030.203125 c
430.0625 1030.203125 l
429.90625 1028.34375 l
429.8125 1026.546875 l
429.8125 1016.09375 l
433.703125 1016.09375 l
433.703125 1052.5625 l
430.53125 1052.5625 l
430.015625 1049.109375 l
h
422.234375 1049.765625 m
426.21875 1049.765625 428.015625 1047.601563 428.015625 1047.601563 c
429.8125 1045.4375 429.8125 1040.609375 429.8125 1040.609375 c
429.8125 1039.78125 l
429.8125 1034.328125 427.992187 1031.992188 427.992187 1031.992188 c
426.171875 1029.65625 422.1875 1029.65625 422.1875 1029.65625 c
418.765625 1029.65625 416.953125 1032.320312 416.953125 1032.320312 c
415.140625 1034.984375 415.140625 1039.828125 415.140625 1039.828125 c
415.140625 1044.75 416.945312 1047.257813 416.945312 1047.257813 c
418.75 1049.765625 422.234375 1049.765625 422.234375 1049.765625 c
h
462.71875 1049.8125 m
463.75 1049.8125 464.710937 1049.664062 464.710937 1049.664062 c
465.671875 1049.515625 466.234375 1049.34375 466.234375 1049.34375 c
466.234375 1052.328125 l
465.609375 1052.640625 464.375 1052.835938 464.375 1052.835938 c
463.140625 1053.03125 462.15625 1053.03125 462.15625 1053.03125 c
454.703125 1053.03125 454.703125 1045.171875 454.703125 1045.171875 c
454.703125 1029.890625 l
451.03125 1029.890625 l
451.03125 1028.015625 l
454.703125 1026.40625 l
456.34375 1020.921875 l
458.59375 1020.921875 l
458.59375 1026.875 l
466.046875 1026.875 l
466.046875 1029.890625 l
458.59375 1029.890625 l
458.59375 1045.015625 l
458.59375 1047.328125 459.695312 1048.570312 459.695312 1048.570312 c
460.796875 1049.8125 462.71875 1049.8125 462.71875 1049.8125 c
h
475.25 1052.5625 m
471.359375 1052.5625 l
471.359375 1026.875 l
475.25 1026.875 l
475.25 1052.5625 l
h
471.03125 1019.90625 m
471.03125 1018.578125 471.6875 1017.953125 471.6875 1017.953125 c
472.34375 1017.328125 473.328125 1017.328125 473.328125 1017.328125 c
474.265625 1017.328125 474.945312 1017.960938 474.945312 1017.960938 c
475.625 1018.59375 475.625 1019.90625 475.625 1019.90625 c
475.625 1021.21875 474.945312 1021.867187 474.945312 1021.867187 c
474.265625 1022.515625 473.328125 1022.515625 473.328125 1022.515625 c
472.34375 1022.515625 471.6875 1021.867187 471.6875 1021.867187 c
471.03125 1021.21875 471.03125 1019.90625 471.03125 1019.90625 c
h
516.25 1052.5625 m
516.25 1035.84375 l
516.25 1032.78125 514.9375 1031.242188 514.9375 1031.242188 c
513.625 1029.703125 510.859375 1029.703125 510.859375 1029.703125 c
507.21875 1029.703125 505.484375 1031.789063 505.484375 1031.789063 c
503.75 1033.875 503.75 1038.21875 503.75 1038.21875 c
503.75 1052.5625 l
499.859375 1052.5625 l
499.859375 1035.84375 l
499.859375 1032.78125 498.546875 1031.242188 498.546875 1031.242188 c
497.234375 1029.703125 494.453125 1029.703125 494.453125 1029.703125 c
490.796875 1029.703125 489.09375 1031.898437 489.09375 1031.898437 c
487.390625 1034.09375 487.390625 1039.078125 487.390625 1039.078125 c
487.390625 1052.5625 l
483.5 1052.5625 l
483.5 1026.875 l
486.671875 1026.875 l
487.296875 1030.390625 l
487.484375 1030.390625 l
488.59375 1028.515625 490.59375 1027.460938 490.59375 1027.460938 c
492.59375 1026.40625 495.078125 1026.40625 495.078125 1026.40625 c
501.109375 1026.40625 502.953125 1030.765625 502.953125 1030.765625 c
503.140625 1030.765625 l
504.296875 1028.75 506.476562 1027.578125 506.476562 1027.578125 c
508.65625 1026.40625 511.4375 1026.40625 511.4375 1026.40625 c
515.796875 1026.40625 517.96875 1028.640625 517.96875 1028.640625 c
520.140625 1030.875 520.140625 1035.796875 520.140625 1035.796875 c
520.140625 1052.5625 l
516.25 1052.5625 l
h
539.015625 1053.03125 m
533.3125 1053.03125 530.023438 1049.5625 530.023438 1049.5625 c
526.734375 1046.09375 526.734375 1039.921875 526.734375 1039.921875 c
526.734375 1033.71875 529.789063 1030.0625 529.789063 1030.0625 c
532.84375 1026.40625 538 1026.40625 538 1026.40625 c
542.828125 1026.40625 545.640625 1029.578125 545.640625 1029.578125 c
548.453125 1032.75 548.453125 1037.953125 548.453125 1037.953125 c
548.453125 1040.421875 l
530.765625 1040.421875 l
530.875 1044.9375 533.046875 1047.28125 533.046875 1047.28125 c
535.21875 1049.625 539.15625 1049.625 539.15625 1049.625 c
543.296875 1049.625 547.359375 1047.890625 547.359375 1047.890625 c
547.359375 1051.359375 l
545.296875 1052.25 543.453125 1052.640625 543.453125 1052.640625 c
541.609375 1053.03125 539.015625 1053.03125 539.015625 1053.03125 c
h
537.953125 1029.65625 m
534.859375 1029.65625 533.023438 1031.671875 533.023438 1031.671875 c
531.1875 1033.6875 530.859375 1037.25 530.859375 1037.25 c
544.28125 1037.25 l
544.28125 1033.578125 542.640625 1031.617188 542.640625 1031.617188 c
541 1029.65625 537.953125 1029.65625 537.953125 1029.65625 c
h
565.34375 1039.40625 m
565.34375 1033.203125 567.164063 1027.789063 567.164063 1027.789063 c
568.984375 1022.375 572.40625 1018.296875 572.40625 1018.296875 c
576.203125 1018.296875 l
572.828125 1022.8125 571.125 1028.226563 571.125 1028.226563 c
569.421875 1033.640625 569.421875 1039.359375 569.421875 1039.359375 c
569.421875 1044.984375 571.15625 1050.359375 571.15625 1050.359375 c
572.890625 1055.734375 576.15625 1060.15625 576.15625 1060.15625 c
572.40625 1060.15625 l
568.953125 1056.171875 567.148438 1050.851563 567.148438 1050.851563 c
565.34375 1045.53125 565.34375 1039.40625 565.34375 1039.40625 c
h
609.6875 1035.09375 m
609.6875 1043.578125 605.085938 1048.070312 605.085938 1048.070312 c
600.484375 1052.5625 591.828125 1052.5625 591.828125 1052.5625 c
582.34375 1052.5625 l
582.34375 1018.296875 l
592.84375 1018.296875 l
600.828125 1018.296875 605.257813 1022.726563 605.257813 1022.726563 c
609.6875 1027.15625 609.6875 1035.09375 609.6875 1035.09375 c
h
605.46875 1035.234375 m
605.46875 1028.53125 602.109375 1025.132812 602.109375 1025.132812 c
598.75 1021.734375 592.109375 1021.734375 592.109375 1021.734375 c
586.328125 1021.734375 l
586.328125 1049.109375 l
591.171875 1049.109375 l
598.296875 1049.109375 601.882813 1045.609375 601.882813 1045.609375 c
605.46875 1042.109375 605.46875 1035.234375 605.46875 1035.234375 c
h
632.546875 1052.5625 m
631.78125 1048.90625 l
631.59375 1048.90625 l
629.671875 1051.3125 627.757813 1052.171875 627.757813 1052.171875 c
625.84375 1053.03125 622.984375 1053.03125 622.984375 1053.03125 c
619.171875 1053.03125 617 1051.0625 617 1051.0625 c
614.828125 1049.09375 614.828125 1045.453125 614.828125 1045.453125 c
614.828125 1037.671875 627.28125 1037.296875 627.28125 1037.296875 c
631.640625 1037.15625 l
631.640625 1035.5625 l
631.640625 1032.546875 630.335938 1031.101563 630.335938 1031.101563 c
629.03125 1029.65625 626.171875 1029.65625 626.171875 1029.65625 c
622.96875 1029.65625 618.90625 1031.625 618.90625 1031.625 c
617.71875 1028.65625 l
619.609375 1027.625 621.875 1027.039063 621.875 1027.039063 c
624.140625 1026.453125 626.40625 1026.453125 626.40625 1026.453125 c
631 1026.453125 633.21875 1028.492188 633.21875 1028.492188 c
635.4375 1030.53125 635.4375 1035.03125 635.4375 1035.03125 c
635.4375 1052.5625 l
632.546875 1052.5625 l
h
623.765625 1049.8125 m
627.390625 1049.8125 629.46875 1047.820312 629.46875 1047.820312 c
631.546875 1045.828125 631.546875 1042.25 631.546875 1042.25 c
631.546875 1039.921875 l
627.65625 1040.09375 l
623.015625 1040.25 620.960938 1041.53125 620.960938 1041.53125 c
618.90625 1042.8125 618.90625 1045.5 618.90625 1045.5 c
618.90625 1047.609375 620.1875 1048.710938 620.1875 1048.710938 c
621.46875 1049.8125 623.765625 1049.8125 623.765625 1049.8125 c
h
639.359375 1026.875 m
643.53125 1026.875 l
649.15625 1041.515625 l
651.015625 1046.53125 651.453125 1048.765625 651.453125 1048.765625 c
651.640625 1048.765625 l
651.953125 1047.5625 652.921875 1044.671875 652.921875 1044.671875 c
653.890625 1041.78125 659.28125 1026.875 659.28125 1026.875 c
663.453125 1026.875 l
652.421875 1056.125 l
650.78125 1060.46875 648.585938 1062.28125 648.585938 1062.28125 c
646.390625 1064.09375 643.203125 1064.09375 643.203125 1064.09375 c
641.421875 1064.09375 639.6875 1063.703125 639.6875 1063.703125 c
639.6875 1060.578125 l
640.984375 1060.859375 642.578125 1060.859375 642.578125 1060.859375 c
646.578125 1060.859375 648.296875 1056.359375 648.296875 1056.359375 c
649.71875 1052.703125 l
639.359375 1026.875 l
h
684.203125 1045.546875 m
684.203125 1049.140625 681.53125 1051.085938 681.53125 1051.085938 c
678.859375 1053.03125 674.03125 1053.03125 674.03125 1053.03125 c
668.921875 1053.03125 666.0625 1051.40625 666.0625 1051.40625 c
666.0625 1047.796875 l
667.90625 1048.734375 670.03125 1049.273437 670.03125 1049.273437 c
672.15625 1049.8125 674.125 1049.8125 674.125 1049.8125 c
677.171875 1049.8125 678.8125 1048.84375 678.8125 1048.84375 c
680.453125 1047.875 680.453125 1045.875 680.453125 1045.875 c
680.453125 1044.375 679.148438 1043.3125 679.148438 1043.3125 c
677.84375 1042.25 674.078125 1040.796875 674.078125 1040.796875 c
670.484375 1039.453125 668.976563 1038.460938 668.976563 1038.460938 c
667.46875 1037.46875 666.726563 1036.203125 666.726563 1036.203125 c
665.984375 1034.9375 665.984375 1033.171875 665.984375 1033.171875 c
665.984375 1030.03125 668.539063 1028.21875 668.539063 1028.21875 c
671.09375 1026.40625 675.546875 1026.40625 675.546875 1026.40625 c
679.703125 1026.40625 683.65625 1028.09375 683.65625 1028.09375 c
682.28125 1031.25 l
678.40625 1029.65625 675.265625 1029.65625 675.265625 1029.65625 c
672.5 1029.65625 671.09375 1030.523437 671.09375 1030.523437 c
669.6875 1031.390625 669.6875 1032.921875 669.6875 1032.921875 c
669.6875 1033.953125 670.21875 1034.679688 670.21875 1034.679688 c
670.75 1035.40625 671.921875 1036.0625 671.921875 1036.0625 c
673.09375 1036.71875 676.421875 1037.953125 676.421875 1037.953125 c
680.984375 1039.625 682.59375 1041.3125 682.59375 1041.3125 c
684.203125 1043 684.203125 1045.546875 684.203125 1045.546875 c
h
698.6875 1039.40625 m
698.6875 1045.578125 696.875 1050.898437 696.875 1050.898437 c
695.0625 1056.21875 691.640625 1060.15625 691.640625 1060.15625 c
687.890625 1060.15625 l
691.140625 1055.75 692.875 1050.367188 692.875 1050.367188 c
694.609375 1044.984375 694.609375 1039.359375 694.609375 1039.359375 c
694.609375 1033.640625 692.914063 1028.226563 692.914063 1028.226563 c
691.21875 1022.8125 687.84375 1018.296875 687.84375 1018.296875 c
691.640625 1018.296875 l
695.078125 1022.390625 696.882813 1027.820312 696.882813 1027.820312 c
698.6875 1033.25 698.6875 1039.40625 698.6875 1039.40625 c
h
f
Q
q
[0 -2.430556 2.430556 0 -1166.666693 1350.00003] cm
-473.142873 480.000016 1028.571464 1028.571464 re
W
/DeviceGray {} CS
[0] SC
-84.0625 531.421875 m
-88.046875 531.421875 l
-88.046875 497.15625 l
-68.953125 497.15625 l
-68.953125 500.6875 l
-84.0625 500.6875 l
-84.0625 513.234375 l
-69.859375 513.234375 l
-69.859375 516.765625 l
-84.0625 516.765625 l
-84.0625 531.421875 l
h
-52.15625 505.265625 m
-50.4375 505.265625 -49.078125 505.546875 -49.078125 505.546875 c
-49.625 509.15625 l
-51.21875 508.796875 -52.4375 508.796875 -52.4375 508.796875 c
-55.546875 508.796875 -57.765625 511.328125 -57.765625 511.328125 c
-59.984375 513.859375 -59.984375 517.640625 -59.984375 517.640625 c
-59.984375 531.421875 l
-63.875 531.421875 l
-63.875 505.734375 l
-60.65625 505.734375 l
-60.21875 510.484375 l
-60.03125 510.484375 l
-58.59375 507.984375 -56.578125 506.625 -56.578125 506.625 c
-54.5625 505.265625 -52.15625 505.265625 -52.15625 505.265625 c
h
-33.421875 531.890625 m
-39.125 531.890625 -42.414062 528.421875 -42.414062 528.421875 c
-45.703125 524.953125 -45.703125 518.78125 -45.703125 518.78125 c
-45.703125 512.578125 -42.648438 508.921875 -42.648438 508.921875 c
-39.59375 505.265625 -34.4375 505.265625 -34.4375 505.265625 c
-29.609375 505.265625 -26.796875 508.4375 -26.796875 508.4375 c
-23.984375 511.609375 -23.984375 516.8125 -23.984375 516.8125 c
-23.984375 519.28125 l
-41.671875 519.28125 l
-41.5625 523.796875 -39.390625 526.140625 -39.390625 526.140625 c
-37.21875 528.484375 -33.28125 528.484375 -33.28125 528.484375 c
-29.140625 528.484375 -25.078125 526.75 -25.078125 526.75 c
-25.078125 530.21875 l
-27.140625 531.109375 -28.984375 531.5 -28.984375 531.5 c
-30.828125 531.890625 -33.421875 531.890625 -33.421875 531.890625 c
h
-34.484375 508.515625 m
-37.578125 508.515625 -39.414062 510.53125 -39.414062 510.53125 c
-41.25 512.546875 -41.578125 516.109375 -41.578125 516.109375 c
-28.15625 516.109375 l
-28.15625 512.4375 -29.796875 510.476562 -29.796875 510.476562 c
-31.4375 508.515625 -34.484375 508.515625 -34.484375 508.515625 c
h
-7.640625 528.625 m
-3.75 528.625 -1.96875 526.539063 -1.96875 526.539063 c
-0.1875 524.453125 -0.0625 519.515625 -0.0625 519.515625 c
-0.0625 518.640625 l
-0.0625 513.25 -1.890625 510.882813 -1.890625 510.882813 c
-3.71875 508.515625 -7.6875 508.515625 -7.6875 508.515625 c
-11.109375 508.515625 -12.921875 511.179688 -12.921875 511.179688 c
-14.734375 513.84375 -14.734375 518.6875 -14.734375 518.6875 c
-14.734375 523.546875 -12.945313 526.085938 -12.945313 526.085938 c
-11.15625 528.625 -7.640625 528.625 -7.640625 528.625 c
h
-8.21875 531.890625 m
-13.1875 531.890625 -15.976563 528.398438 -15.976563 528.398438 c
-18.765625 524.90625 -18.765625 518.640625 -18.765625 518.640625 c
-18.765625 512.34375 -15.953125 508.804688 -15.953125 508.804688 c
-13.140625 505.265625 -8.125 505.265625 -8.125 505.265625 c
-2.859375 505.265625 -0.015625 509.25 -0.015625 509.25 c
0.1875 509.25 l
0.75 505.734375 l
3.828125 505.734375 l
3.828125 542.953125 l
-0.0625 542.953125 l
-0.0625 531.96875 l
-0.0625 529.609375 0.1875 527.96875 0.1875 527.96875 c
-0.109375 527.96875 l
-2.8125 531.890625 -8.21875 531.890625 -8.21875 531.890625 c
h
15.703125 505.734375 m
15.703125 522.390625 l
15.703125 525.53125 17.132813 527.078125 17.132813 527.078125 c
18.5625 528.625 21.609375 528.625 21.609375 528.625 c
25.640625 528.625 27.507813 526.421875 27.507813 526.421875 c
29.375 524.21875 29.375 519.234375 29.375 519.234375 c
29.375 505.734375 l
33.265625 505.734375 l
33.265625 531.421875 l
30.046875 531.421875 l
29.484375 527.96875 l
29.28125 527.96875 l
28.078125 529.875 25.960937 530.882813 25.960937 530.882813 c
23.84375 531.890625 21.125 531.890625 21.125 531.890625 c
16.4375 531.890625 14.101563 529.664063 14.101563 529.664063 c
11.765625 527.4375 11.765625 522.53125 11.765625 522.53125 c
11.765625 505.734375 l
15.703125 505.734375 l
h
52.375 531.890625 m
46.671875 531.890625 43.382813 528.421875 43.382813 528.421875 c
40.09375 524.953125 40.09375 518.78125 40.09375 518.78125 c
40.09375 512.578125 43.148438 508.921875 43.148438 508.921875 c
46.203125 505.265625 51.359375 505.265625 51.359375 505.265625 c
56.1875 505.265625 59 508.4375 59 508.4375 c
61.8125 511.609375 61.8125 516.8125 61.8125 516.8125 c
61.8125 519.28125 l
44.125 519.28125 l
44.234375 523.796875 46.40625 526.140625 46.40625 526.140625 c
48.578125 528.484375 52.515625 528.484375 52.515625 528.484375 c
56.65625 528.484375 60.71875 526.75 60.71875 526.75 c
60.71875 530.21875 l
58.65625 531.109375 56.8125 531.5 56.8125 531.5 c
54.96875 531.890625 52.375 531.890625 52.375 531.890625 c
h
51.3125 508.515625 m
48.21875 508.515625 46.382813 510.53125 46.382813 510.53125 c
44.546875 512.546875 44.21875 516.109375 44.21875 516.109375 c
57.640625 516.109375 l
57.640625 512.4375 56 510.476562 56 510.476562 c
54.359375 508.515625 51.3125 508.515625 51.3125 508.515625 c
h
86.015625 531.421875 m
86.015625 514.796875 l
86.015625 511.65625 84.585937 510.109375 84.585937 510.109375 c
83.15625 508.5625 80.109375 508.5625 80.109375 508.5625 c
76.078125 508.5625 74.203125 510.742188 74.203125 510.742188 c
72.328125 512.921875 72.328125 517.9375 72.328125 517.9375 c
72.328125 531.421875 l
68.4375 531.421875 l
68.4375 505.734375 l
71.609375 505.734375 l
72.234375 509.25 l
72.421875 509.25 l
73.625 507.34375 75.78125 506.304688 75.78125 506.304688 c
77.9375 505.265625 80.578125 505.265625 80.578125 505.265625 c
85.21875 505.265625 87.5625 507.5 87.5625 507.5 c
89.90625 509.734375 89.90625 514.65625 89.90625 514.65625 c
89.90625 531.421875 l
86.015625 531.421875 l
h
108.171875 531.890625 m
102.59375 531.890625 99.539063 528.453125 99.539063 528.453125 c
96.484375 525.015625 96.484375 518.734375 96.484375 518.734375 c
96.484375 512.296875 99.585937 508.78125 99.585937 508.78125 c
102.6875 505.265625 108.4375 505.265625 108.4375 505.265625 c
110.28125 505.265625 112.132812 505.664063 112.132812 505.664063 c
113.984375 506.0625 115.046875 506.59375 115.046875 506.59375 c
113.84375 509.90625 l
112.5625 509.390625 111.039063 509.046875 111.039063 509.046875 c
109.515625 508.703125 108.34375 508.703125 108.34375 508.703125 c
100.515625 508.703125 100.515625 518.6875 100.515625 518.6875 c
100.515625 523.421875 102.421875 525.953125 102.421875 525.953125 c
104.328125 528.484375 108.078125 528.484375 108.078125 528.484375 c
111.296875 528.484375 114.671875 527.109375 114.671875 527.109375 c
114.671875 530.546875 l
112.09375 531.890625 108.171875 531.890625 108.171875 531.890625 c
h
116.671875 505.734375 m
120.84375 505.734375 l
126.46875 520.375 l
128.328125 525.390625 128.765625 527.625 128.765625 527.625 c
128.953125 527.625 l
129.265625 526.421875 130.234375 523.53125 130.234375 523.53125 c
131.203125 520.640625 136.59375 505.734375 136.59375 505.734375 c
140.765625 505.734375 l
129.734375 534.984375 l
128.09375 539.328125 125.898437 541.140625 125.898437 541.140625 c
123.703125 542.953125 120.515625 542.953125 120.515625 542.953125 c
118.734375 542.953125 117 542.5625 117 542.5625 c
117 539.4375 l
118.296875 539.71875 119.890625 539.71875 119.890625 539.71875 c
123.890625 539.71875 125.609375 535.21875 125.609375 535.21875 c
127.03125 531.5625 l
116.671875 505.734375 l
h
f
Q
Q
showpage
%%PageTrailer
pdfEndPage
%%Trailer
end
%%DocumentSuppliedResources:
%%EOF
