%!PS-Adobe-3.0 EPSF-3.0
%Produced by poppler pdftops version: 0.24.5 (http://poppler.freedesktop.org)
%%LanguageLevel: 2
%%DocumentSuppliedResources: (atend)
%%BoundingBox: 0 0 450 450
%%HiResBoundingBox: 0 0 450 450
%%DocumentSuppliedResources: (atend)
%%EndComments
%%BeginProlog
%%BeginResource: procset xpdf 3.00 0
%%Copyright: Copyright 1996-2011 Glyph & Cog, LLC
/xpdf 75 dict def xpdf begin
% PDF special state
/pdfDictSize 15 def
/pdfSetup {
  /setpagedevice where {
    pop 2 dict begin
      /Policies 1 dict dup begin /PageSize 6 def end def
      { /Duplex true def } if
    currentdict end setpagedevice
  } {
    pop
  } ifelse
} def
/pdfSetupPaper {
  2 array astore
  /setpagedevice where {
    pop 2 dict begin
      /PageSize exch def
      /ImagingBBox null def
    currentdict end setpagedevice
  } {
    pop
  } ifelse
} def
/pdfStartPage {
  pdfDictSize dict begin
  /pdfFillCS [] def
  /pdfFillXform {} def
  /pdfStrokeCS [] def
  /pdfStrokeXform {} def
  /pdfFill [0] def
  /pdfStroke [0] def
  /pdfFillOP false def
  /pdfStrokeOP false def
  /pdfLastFill false def
  /pdfLastStroke false def
  /pdfTextMat [1 0 0 1 0 0] def
  /pdfFontSize 0 def
  /pdfCharSpacing 0 def
  /pdfTextRender 0 def
  /pdfPatternCS false def
  /pdfTextRise 0 def
  /pdfWordSpacing 0 def
  /pdfHorizScaling 1 def
  /pdfTextClipPath [] def
} def
/pdfEndPage { end } def
% PDF color state
/cs { /pdfFillXform exch def dup /pdfFillCS exch def
      setcolorspace } def
/CS { /pdfStrokeXform exch def dup /pdfStrokeCS exch def
      setcolorspace } def
/sc { pdfLastFill not { pdfFillCS setcolorspace } if
      dup /pdfFill exch def aload pop pdfFillXform setcolor
     /pdfLastFill true def /pdfLastStroke false def } def
/SC { pdfLastStroke not { pdfStrokeCS setcolorspace } if
      dup /pdfStroke exch def aload pop pdfStrokeXform setcolor
     /pdfLastStroke true def /pdfLastFill false def } def
/op { /pdfFillOP exch def
      pdfLastFill { pdfFillOP setoverprint } if } def
/OP { /pdfStrokeOP exch def
      pdfLastStroke { pdfStrokeOP setoverprint } if } def
/fCol {
  pdfLastFill not {
    pdfFillCS setcolorspace
    pdfFill aload pop pdfFillXform setcolor
    pdfFillOP setoverprint
    /pdfLastFill true def /pdfLastStroke false def
  } if
} def
/sCol {
  pdfLastStroke not {
    pdfStrokeCS setcolorspace
    pdfStroke aload pop pdfStrokeXform setcolor
    pdfStrokeOP setoverprint
    /pdfLastStroke true def /pdfLastFill false def
  } if
} def
% build a font
/pdfMakeFont {
  4 3 roll findfont
  4 2 roll matrix scale makefont
  dup length dict begin
    { 1 index /FID ne { def } { pop pop } ifelse } forall
    /Encoding exch def
    currentdict
  end
  definefont pop
} def
/pdfMakeFont16 {
  exch findfont
  dup length dict begin
    { 1 index /FID ne { def } { pop pop } ifelse } forall
    /WMode exch def
    currentdict
  end
  definefont pop
} def
% graphics state operators
/q { gsave pdfDictSize dict begin } def
/Q {
  end grestore
  /pdfLastFill where {
    pop
    pdfLastFill {
      pdfFillOP setoverprint
    } {
      pdfStrokeOP setoverprint
    } ifelse
  } if
} def
/cm { concat } def
/d { setdash } def
/i { setflat } def
/j { setlinejoin } def
/J { setlinecap } def
/M { setmiterlimit } def
/w { setlinewidth } def
% path segment operators
/m { moveto } def
/l { lineto } def
/c { curveto } def
/re { 4 2 roll moveto 1 index 0 rlineto 0 exch rlineto
      neg 0 rlineto closepath } def
/h { closepath } def
% path painting operators
/S { sCol stroke } def
/Sf { fCol stroke } def
/f { fCol fill } def
/f* { fCol eofill } def
% clipping operators
/W { clip newpath } def
/W* { eoclip newpath } def
/Ws { strokepath clip newpath } def
% text state operators
/Tc { /pdfCharSpacing exch def } def
/Tf { dup /pdfFontSize exch def
      dup pdfHorizScaling mul exch matrix scale
      pdfTextMat matrix concatmatrix dup 4 0 put dup 5 0 put
      exch findfont exch makefont setfont } def
/Tr { /pdfTextRender exch def } def
/Tp { /pdfPatternCS exch def } def
/Ts { /pdfTextRise exch def } def
/Tw { /pdfWordSpacing exch def } def
/Tz { /pdfHorizScaling exch def } def
% text positioning operators
/Td { pdfTextMat transform moveto } def
/Tm { /pdfTextMat exch def } def
% text string operators
/xyshow where {
  pop
  /xyshow2 {
    dup length array
    0 2 2 index length 1 sub {
      2 index 1 index 2 copy get 3 1 roll 1 add get
      pdfTextMat dtransform
      4 2 roll 2 copy 6 5 roll put 1 add 3 1 roll dup 4 2 roll put
    } for
    exch pop
    xyshow
  } def
}{
  /xyshow2 {
    currentfont /FontType get 0 eq {
      0 2 3 index length 1 sub {
        currentpoint 4 index 3 index 2 getinterval show moveto
        2 copy get 2 index 3 2 roll 1 add get
        pdfTextMat dtransform rmoveto
      } for
    } {
      0 1 3 index length 1 sub {
        currentpoint 4 index 3 index 1 getinterval show moveto
        2 copy 2 mul get 2 index 3 2 roll 2 mul 1 add get
        pdfTextMat dtransform rmoveto
      } for
    } ifelse
    pop pop
  } def
} ifelse
/cshow where {
  pop
  /xycp {
    0 3 2 roll
    {
      pop pop currentpoint 3 2 roll
      1 string dup 0 4 3 roll put false charpath moveto
      2 copy get 2 index 2 index 1 add get
      pdfTextMat dtransform rmoveto
      2 add
    } exch cshow
    pop pop
  } def
}{
  /xycp {
    currentfont /FontType get 0 eq {
      0 2 3 index length 1 sub {
        currentpoint 4 index 3 index 2 getinterval false charpath moveto
        2 copy get 2 index 3 2 roll 1 add get
        pdfTextMat dtransform rmoveto
      } for
    } {
      0 1 3 index length 1 sub {
        currentpoint 4 index 3 index 1 getinterval false charpath moveto
        2 copy 2 mul get 2 index 3 2 roll 2 mul 1 add get
        pdfTextMat dtransform rmoveto
      } for
    } ifelse
    pop pop
  } def
} ifelse
/Tj {
  fCol
  0 pdfTextRise pdfTextMat dtransform rmoveto
  currentpoint 4 2 roll
  pdfTextRender 1 and 0 eq {
    2 copy xyshow2
  } if
  pdfTextRender 3 and dup 1 eq exch 2 eq or {
    3 index 3 index moveto
    2 copy
    currentfont /FontType get 3 eq { fCol } { sCol } ifelse
    xycp currentpoint stroke moveto
  } if
  pdfTextRender 4 and 0 ne {
    4 2 roll moveto xycp
    /pdfTextClipPath [ pdfTextClipPath aload pop
      {/moveto cvx}
      {/lineto cvx}
      {/curveto cvx}
      {/closepath cvx}
    pathforall ] def
    currentpoint newpath moveto
  } {
    pop pop pop pop
  } ifelse
  0 pdfTextRise neg pdfTextMat dtransform rmoveto
} def
/TJm { 0.001 mul pdfFontSize mul pdfHorizScaling mul neg 0
       pdfTextMat dtransform rmoveto } def
/TJmV { 0.001 mul pdfFontSize mul neg 0 exch
        pdfTextMat dtransform rmoveto } def
/Tclip { pdfTextClipPath cvx exec clip newpath
         /pdfTextClipPath [] def } def
/Tclip* { pdfTextClipPath cvx exec eoclip newpath
         /pdfTextClipPath [] def } def
% Level 2/3 image operators
/pdfImBuf 100 string def
/pdfImStr {
  2 copy exch length lt {
    2 copy get exch 1 add exch
  } {
    ()
  } ifelse
} def
/skipEOD {
  { currentfile pdfImBuf readline
    not { pop exit } if
    (%-EOD-) eq { exit } if } loop
} def
/pdfIm { image skipEOD } def
/pdfImM { fCol imagemask skipEOD } def
/pr { 2 index 2 index 3 2 roll putinterval 4 add } def
/pdfImClip {
  gsave
  0 2 4 index length 1 sub {
    dup 4 index exch 2 copy
    get 5 index div put
    1 add 3 index exch 2 copy
    get 3 index div put
  } for
  pop pop rectclip
} def
/pdfImClipEnd { grestore } def
% shading operators
/colordelta {
  false 0 1 3 index length 1 sub {
    dup 4 index exch get 3 index 3 2 roll get sub abs 0.004 gt {
      pop true
    } if
  } for
  exch pop exch pop
} def
/funcCol { func n array astore } def
/funcSH {
  dup 0 eq {
    true
  } {
    dup 6 eq {
      false
    } {
      4 index 4 index funcCol dup
      6 index 4 index funcCol dup
      3 1 roll colordelta 3 1 roll
      5 index 5 index funcCol dup
      3 1 roll colordelta 3 1 roll
      6 index 8 index funcCol dup
      3 1 roll colordelta 3 1 roll
      colordelta or or or
    } ifelse
  } ifelse
  {
    1 add
    4 index 3 index add 0.5 mul exch 4 index 3 index add 0.5 mul exch
    6 index 6 index 4 index 4 index 4 index funcSH
    2 index 6 index 6 index 4 index 4 index funcSH
    6 index 2 index 4 index 6 index 4 index funcSH
    5 3 roll 3 2 roll funcSH pop pop
  } {
    pop 3 index 2 index add 0.5 mul 3 index  2 index add 0.5 mul
    funcCol sc
    dup 4 index exch mat transform m
    3 index 3 index mat transform l
    1 index 3 index mat transform l
    mat transform l pop pop h f*
  } ifelse
} def
/axialCol {
  dup 0 lt {
    pop t0
  } {
    dup 1 gt {
      pop t1
    } {
      dt mul t0 add
    } ifelse
  } ifelse
  func n array astore
} def
/axialSH {
  dup 0 eq {
    true
  } {
    dup 8 eq {
      false
    } {
      2 index axialCol 2 index axialCol colordelta
    } ifelse
  } ifelse
  {
    1 add 3 1 roll 2 copy add 0.5 mul
    dup 4 3 roll exch 4 index axialSH
    exch 3 2 roll axialSH
  } {
    pop 2 copy add 0.5 mul
    axialCol sc
    exch dup dx mul x0 add exch dy mul y0 add
    3 2 roll dup dx mul x0 add exch dy mul y0 add
    dx abs dy abs ge {
      2 copy yMin sub dy mul dx div add yMin m
      yMax sub dy mul dx div add yMax l
      2 copy yMax sub dy mul dx div add yMax l
      yMin sub dy mul dx div add yMin l
      h f*
    } {
      exch 2 copy xMin sub dx mul dy div add xMin exch m
      xMax sub dx mul dy div add xMax exch l
      exch 2 copy xMax sub dx mul dy div add xMax exch l
      xMin sub dx mul dy div add xMin exch l
      h f*
    } ifelse
  } ifelse
} def
/radialCol {
  dup t0 lt {
    pop t0
  } {
    dup t1 gt {
      pop t1
    } if
  } ifelse
  func n array astore
} def
/radialSH {
  dup 0 eq {
    true
  } {
    dup 8 eq {
      false
    } {
      2 index dt mul t0 add radialCol
      2 index dt mul t0 add radialCol colordelta
    } ifelse
  } ifelse
  {
    1 add 3 1 roll 2 copy add 0.5 mul
    dup 4 3 roll exch 4 index radialSH
    exch 3 2 roll radialSH
  } {
    pop 2 copy add 0.5 mul dt mul t0 add
    radialCol sc
    encl {
      exch dup dx mul x0 add exch dup dy mul y0 add exch dr mul r0 add
      0 360 arc h
      dup dx mul x0 add exch dup dy mul y0 add exch dr mul r0 add
      360 0 arcn h f
    } {
      2 copy
      dup dx mul x0 add exch dup dy mul y0 add exch dr mul r0 add
      a1 a2 arcn
      dup dx mul x0 add exch dup dy mul y0 add exch dr mul r0 add
      a2 a1 arcn h
      dup dx mul x0 add exch dup dy mul y0 add exch dr mul r0 add
      a1 a2 arc
      dup dx mul x0 add exch dup dy mul y0 add exch dr mul r0 add
      a2 a1 arc h f
    } ifelse
  } ifelse
} def
end
%%EndResource
%%EndProlog
%%BeginSetup
xpdf begin
%%EndSetup
pdfStartPage
[] 0 d
1 i
0 j
0 J
10 M
1 w
/DeviceGray {} cs
[0] sc
/DeviceGray {} CS
[0] SC
false op
false OP
{} settransfer
0 0 450 450 re
W
q
[1 0 0 -1 0 450] cm
[0.75 0 0 0.75 0 0] cm
[0.24 0 0 0.24 0 0] cm
q
[4.166667 0 0 4.166667 0 0] cm
0 0 600 600 re
W
/DeviceGray {} cs
[1] sc
/DeviceGray {} CS
[0] SC
0 0 600 600 re
f
Q
q
[4.166667 0 0 4.166667 0 0] cm
0 0 600 600 re
W
/DeviceGray {} cs
[1] sc
/DeviceGray {} CS
[0] SC
80 100 440 420 re
f
Q
q
[4.166667 0 0 4.166667 633.791683 416.666676] cm
-152.110001 -100 600 600 re
W
/DeviceGray {} CS
[0] SC
0 0 m
0 420 l
f
Q
q
[4.166667 0 0 4.166667 633.791683 416.666676] cm
-152.110001 -100 600 600 re
W
/DeviceGray {} CS
[0.9333] SC
/DeviceGray {} cs
[0] sc
0 J
0 j
1 w
4 M
0 0 m
0 420 l
S
Q
q
[4.166667 0 0 4.166667 940.375031 416.666676] cm
-225.690002 -100 600 600 re
W
/DeviceGray {} CS
[0] SC
0 0 m
0 420 l
f
Q
q
[4.166667 0 0 4.166667 940.375031 416.666676] cm
-225.690002 -100 600 600 re
W
/DeviceGray {} CS
[0.9333] SC
/DeviceGray {} cs
[0] sc
0 J
0 j
1 w
4 M
0 0 m
0 420 l
S
Q
q
[4.166667 0 0 4.166667 1246.916672 416.666676] cm
-299.259995 -100 600 600 re
W
/DeviceGray {} CS
[0] SC
0 0 m
0 420 l
f
Q
q
[4.166667 0 0 4.166667 1246.916672 416.666676] cm
-299.259995 -100 600 600 re
W
/DeviceGray {} CS
[0.9333] SC
/DeviceGray {} cs
[0] sc
0 J
0 j
1 w
4 M
0 0 m
0 420 l
S
Q
q
[4.166667 0 0 4.166667 1553.500019 416.666676] cm
-372.839996 -100 600 600 re
W
/DeviceGray {} CS
[0] SC
0 0 m
0 420 l
f
Q
q
[4.166667 0 0 4.166667 1553.500019 416.666676] cm
-372.839996 -100 600 600 re
W
/DeviceGray {} CS
[0.9333] SC
/DeviceGray {} cs
[0] sc
0 J
0 j
1 w
4 M
0 0 m
0 420 l
S
Q
q
[4.166667 0 0 4.166667 1860.083431 416.666676] cm
-446.420013 -100 600 600 re
W
/DeviceGray {} CS
[0] SC
0 0 m
0 420 l
f
Q
q
[4.166667 0 0 4.166667 1860.083431 416.666676] cm
-446.420013 -100 600 600 re
W
/DeviceGray {} CS
[0.9333] SC
/DeviceGray {} cs
[0] sc
0 J
0 j
1 w
4 M
0 0 m
0 420 l
S
Q
q
[4.166667 0 0 4.166667 333.333341 2079.20842] cm
-80 -499.01001 600 600 re
W
/DeviceGray {} CS
[0] SC
0 0 m
440 0 l
f
Q
q
[4.166667 0 0 4.166667 333.333341 2079.20842] cm
-80 -499.01001 600 600 re
W
/DeviceGray {} CS
[0.9333] SC
/DeviceGray {} cs
[0] sc
0 J
0 j
1 w
4 M
0 0 m
440 0 l
S
Q
q
[4.166667 0 0 4.166667 333.333341 1680.708351] cm
-80 -403.369995 600 600 re
W
/DeviceGray {} CS
[0] SC
0 0 m
440 0 l
f
Q
q
[4.166667 0 0 4.166667 333.333341 1680.708351] cm
-80 -403.369995 600 600 re
W
/DeviceGray {} CS
[0.9333] SC
/DeviceGray {} cs
[0] sc
0 J
0 j
1 w
4 M
0 0 m
440 0 l
S
Q
q
[4.166667 0 0 4.166667 333.333341 1282.1667] cm
-80 -307.720001 600 600 re
W
/DeviceGray {} CS
[0] SC
0 0 m
440 0 l
f
Q
q
[4.166667 0 0 4.166667 333.333341 1282.1667] cm
-80 -307.720001 600 600 re
W
/DeviceGray {} CS
[0.9333] SC
/DeviceGray {} cs
[0] sc
0 J
0 j
1 w
4 M
0 0 m
440 0 l
S
Q
q
[4.166667 0 0 4.166667 333.333341 883.666694] cm
-80 -212.080002 600 600 re
W
/DeviceGray {} CS
[0] SC
0 0 m
440 0 l
f
Q
q
[4.166667 0 0 4.166667 333.333341 883.666694] cm
-80 -212.080002 600 600 re
W
/DeviceGray {} CS
[0.9333] SC
/DeviceGray {} cs
[0] sc
0 J
0 j
1 w
4 M
0 0 m
440 0 l
S
Q
q
[4.166667 0 0 4.166667 333.333341 485.125012] cm
-80 -116.43 600 600 re
W
/DeviceGray {} CS
[0] SC
0 0 m
440 0 l
f
Q
q
[4.166667 0 0 4.166667 333.333341 485.125012] cm
-80 -116.43 600 600 re
W
/DeviceGray {} CS
[0.9333] SC
/DeviceGray {} cs
[0] sc
0 J
0 j
1 w
4 M
0 0 m
440 0 l
S
Q
q
[4.166667 0 0 4.166667 333.333341 416.666676] cm
0.000001 0.000003 440.000007 420.000005 re
W
/DeviceRGB {} CS
[0.1216 0.4667 0.7059] SC
/DeviceGray {} cs
[0] sc
0 J
0 j
3 w
2 M
0 399 m
76.519997 398.26001 l
77.989998 398.200012 l
97.120003 396.76001 l
98.599998 396.579987 l
111.839996 394.070007 l
113.309998 393.660004 l
122.139999 390.459991 l
123.610001 389.76001 l
130.970001 385.359985 l
132.440002 384.26001 l
138.330002 378.920013 l
139.800003 377.309998 l
145.690002 369.559998 l
147.160004 367.23999 l
153.039993 356.109985 l
154.520004 352.809998 l
160.399994 337.079987 l
161.869995 332.459991 l
167.759995 310.76001 l
169.229996 304.470001 l
175.119995 275.540009 l
176.589996 267.329987 l
183.949997 220.559998 l
185.419998 210.149994 l
206.020004 59 l
207.490005 50.860001 l
211.910004 31.719999 l
213.380005 27.35 l
216.320007 21.959999 l
217.789993 21 l
219.259995 21.219999 l
220.740005 22.620001 l
223.679993 28.860001 l
225.149994 33.630001 l
229.570007 53.799999 l
231.039993 62.23 l
236.919998 102.089996 l
238.389999 113.110001 l
256.049988 243.919998 l
257.529999 253.139999 l
264.880005 293.450012 l
266.350006 300.339996 l
273.709991 329.410004 l
275.179993 334.220001 l
281.070007 350.619995 l
282.540009 354.070007 l
288.429993 365.700012 l
289.899994 368.130005 l
295.790009 376.23999 l
297.26001 377.920013 l
303.140015 383.519989 l
304.619995 384.679993 l
311.970001 389.299988 l
313.440002 390.029999 l
322.269989 393.390015 l
323.75 393.820007 l
335.519989 396.23999 l
336.98999 396.450012 l
353.179993 397.940002 l
354.649994 398.019989 l
387.019989 398.839996 l
388.48999 398.850006 l
440 399 l
S
Q
q
[4.166667 0 0 4.166667 333.333341 416.666676] cm
0.000001 0.000003 440.000007 420.000005 re
W
/DeviceRGB {} CS
[1 0.498 0.0549] SC
/DeviceGray {} cs
[0] sc
[9 3 3 3] 0 d
0 J
0 j
3 w
2 M
0 398.98999 m
73.580002 398.279999 l
75.050003 398.220001 l
95.650002 396.690002 l
97.120003 396.5 l
110.370003 394 l
111.839996 393.600006 l
120.669998 390.459991 l
122.139999 389.779999 l
129.5 385.519989 l
130.970001 384.459991 l
138.330002 377.799988 l
139.800003 376.160004 l
145.690002 368.25 l
147.160004 365.890015 l
153.039993 354.660004 l
154.520004 351.339996 l
160.399994 335.640015 l
161.869995 331.049988 l
167.759995 309.640015 l
169.229996 303.459991 l
175.119995 275.220001 l
176.589996 267.26001 l
183.949997 222.119995 l
185.419998 212.130005 l
206.020004 67.93 l
207.490005 60.099998 l
211.910004 41.470001 l
213.380005 37.110001 l
216.320007 31.459999 l
217.789993 30.25 l
219.259995 30.129999 l
220.740005 31.1 l
223.679993 36.279999 l
225.149994 40.43 l
229.570007 58.48 l
231.039993 66.150002 l
236.919998 102.980003 l
238.389999 113.300003 l
257.529999 248.279999 l
259 257.040009 l
266.350006 295.459991 l
267.829987 302.059998 l
273.709991 325.049988 l
275.179993 330 l
281.070007 346.980011 l
282.540009 350.579987 l
288.429993 362.790009 l
289.899994 365.350006 l
295.790009 373.980011 l
297.26001 375.779999 l
304.619995 383.049988 l
306.089996 384.209991 l
313.440002 388.880005 l
314.920013 389.630005 l
323.75 393.070007 l
325.220001 393.51001 l
336.98999 396.029999 l
338.459991 396.25 l
354.649994 397.829987 l
356.119995 397.920013 l
385.549988 398.779999 l
387.019989 398.790009 l
440 399 l
S
Q
q
[4.166667 0 0 4.166667 333.333341 416.666676] cm
-80 -100 600 600 re
W
/DeviceGray {} CS
[0.2667] SC
/DeviceGray {} cs
[0] sc
0 J
0 j
1 w
4 M
-1 420.5 m
441 420.5 l
-1 -0.5 m
441 -0.5 l
S
Q
q
[4.166667 0 0 4.166667 333.333341 416.666676] cm
-80 -100 600 600 re
W
/DeviceGray {} CS
[0.2667] SC
/DeviceGray {} cs
[0] sc
0 J
0 j
1 w
4 M
-0.5 0 m
-0.5 420 l
440.5 0 m
440.5 420 l
S
Q
q
[1.909722 0 0 1.909722 633.791683 416.666676] cm
-331.876358 -218.181813 1309.090914 1309.090881 re
W
/DeviceGray {} CS
[0] SC
-13.1875 949.96875 m
-7.78125 949.96875 -4.671875 952.65625 -4.671875 952.65625 c
-1.5625 955.34375 -1.5625 960 -1.5625 960 c
-1.5625 965.328125 -4.953125 968.351562 -4.953125 968.351562 c
-8.34375 971.375 -14.296875 971.375 -14.296875 971.375 c
-20.078125 971.375 -23.125 969.515625 -23.125 969.515625 c
-23.125 965.765625 l
-21.484375 966.828125 -19.046875 967.421875 -19.046875 967.421875 c
-16.609375 968.015625 -14.25 968.015625 -14.25 968.015625 c
-10.125 968.015625 -7.835937 966.070313 -7.835937 966.070313 c
-5.546875 964.125 -5.546875 960.453125 -5.546875 960.453125 c
-5.546875 953.28125 -14.34375 953.28125 -14.34375 953.28125 c
-16.5625 953.28125 -20.296875 953.953125 -20.296875 953.953125 c
-22.3125 952.671875 l
-21.015625 936.640625 l
-3.984375 936.640625 l
-3.984375 940.21875 l
-17.6875 940.21875 l
-18.5625 950.515625 l
-15.859375 949.96875 -13.1875 949.96875 -13.1875 949.96875 c
h
26.25 953.71875 m
26.25 962.609375 23.445312 966.992188 23.445312 966.992188 c
20.640625 971.375 14.875 971.375 14.875 971.375 c
9.34375 971.375 6.460937 966.882813 6.460937 966.882813 c
3.578125 962.390625 3.578125 953.71875 3.578125 953.71875 c
3.578125 944.765625 6.367187 940.429688 6.367187 940.429688 c
9.15625 936.09375 14.875 936.09375 14.875 936.09375 c
20.453125 936.09375 23.351563 940.617188 23.351563 940.617188 c
26.25 945.140625 26.25 953.71875 26.25 953.71875 c
h
7.515625 953.71875 m
7.515625 961.203125 9.273438 964.609375 9.273438 964.609375 c
11.03125 968.015625 14.875 968.015625 14.875 968.015625 c
18.765625 968.015625 20.515625 964.5625 20.515625 964.5625 c
22.265625 961.109375 22.265625 953.71875 22.265625 953.71875 c
22.265625 946.34375 20.515625 942.90625 20.515625 942.90625 c
18.765625 939.46875 14.875 939.46875 14.875 939.46875 c
11.03125 939.46875 9.273438 942.859375 9.273438 942.859375 c
7.515625 946.25 7.515625 953.71875 7.515625 953.71875 c
h
f
Q
q
[1.909722 0 0 1.909722 940.375031 416.666676] cm
-492.41454 -218.181813 1309.090881 1309.090881 re
W
/DeviceGray {} CS
[0] SC
-23.203125 970.90625 m
-27 970.90625 l
-27 946.484375 l
-27 943.4375 -26.8125 940.71875 -26.8125 940.71875 c
-27.3125 941.203125 -27.921875 941.742188 -27.921875 941.742188 c
-28.53125 942.28125 -33.5 946.3125 -33.5 946.3125 c
-35.5625 943.640625 l
-26.484375 936.640625 l
-23.203125 936.640625 l
-23.203125 970.90625 l
h
12.53125 953.71875 m
12.53125 962.609375 9.726563 966.992188 9.726563 966.992188 c
6.921875 971.375 1.15625 971.375 1.15625 971.375 c
-4.375 971.375 -7.257812 966.882813 -7.257812 966.882813 c
-10.140625 962.390625 -10.140625 953.71875 -10.140625 953.71875 c
-10.140625 944.765625 -7.351563 940.429688 -7.351563 940.429688 c
-4.5625 936.09375 1.15625 936.09375 1.15625 936.09375 c
6.734375 936.09375 9.632813 940.617188 9.632813 940.617188 c
12.53125 945.140625 12.53125 953.71875 12.53125 953.71875 c
h
-6.203125 953.71875 m
-6.203125 961.203125 -4.445313 964.609375 -4.445313 964.609375 c
-2.6875 968.015625 1.15625 968.015625 1.15625 968.015625 c
5.046875 968.015625 6.796875 964.5625 6.796875 964.5625 c
8.546875 961.109375 8.546875 953.71875 8.546875 953.71875 c
8.546875 946.34375 6.796875 942.90625 6.796875 942.90625 c
5.046875 939.46875 1.15625 939.46875 1.15625 939.46875 c
-2.6875 939.46875 -4.445313 942.859375 -4.445313 942.859375 c
-6.203125 946.25 -6.203125 953.71875 -6.203125 953.71875 c
h
39.96875 953.71875 m
39.96875 962.609375 37.164063 966.992188 37.164063 966.992188 c
34.359375 971.375 28.59375 971.375 28.59375 971.375 c
23.0625 971.375 20.179688 966.882813 20.179688 966.882813 c
17.296875 962.390625 17.296875 953.71875 17.296875 953.71875 c
17.296875 944.765625 20.085937 940.429688 20.085937 940.429688 c
22.875 936.09375 28.59375 936.09375 28.59375 936.09375 c
34.171875 936.09375 37.070313 940.617188 37.070313 940.617188 c
39.96875 945.140625 39.96875 953.71875 39.96875 953.71875 c
h
21.234375 953.71875 m
21.234375 961.203125 22.992187 964.609375 22.992187 964.609375 c
24.75 968.015625 28.59375 968.015625 28.59375 968.015625 c
32.484375 968.015625 34.234375 964.5625 34.234375 964.5625 c
35.984375 961.109375 35.984375 953.71875 35.984375 953.71875 c
35.984375 946.34375 34.234375 942.90625 34.234375 942.90625 c
32.484375 939.46875 28.59375 939.46875 28.59375 939.46875 c
24.75 939.46875 22.992187 942.859375 22.992187 942.859375 c
21.234375 946.25 21.234375 953.71875 21.234375 953.71875 c
h
f
Q
q
[1.909722 0 0 1.909722 1246.916672 416.666676] cm
-652.930916 -218.181813 1309.090881 1309.090881 re
W
/DeviceGray {} CS
[0] SC
-23.203125 970.90625 m
-27 970.90625 l
-27 946.484375 l
-27 943.4375 -26.8125 940.71875 -26.8125 940.71875 c
-27.3125 941.203125 -27.921875 941.742188 -27.921875 941.742188 c
-28.53125 942.28125 -33.5 946.3125 -33.5 946.3125 c
-35.5625 943.640625 l
-26.484375 936.640625 l
-23.203125 936.640625 l
-23.203125 970.90625 l
h
0.53125 949.96875 m
5.9375 949.96875 9.046875 952.65625 9.046875 952.65625 c
12.15625 955.34375 12.15625 960 12.15625 960 c
12.15625 965.328125 8.765625 968.351562 8.765625 968.351562 c
5.375 971.375 -0.578125 971.375 -0.578125 971.375 c
-6.359375 971.375 -9.40625 969.515625 -9.40625 969.515625 c
-9.40625 965.765625 l
-7.765625 966.828125 -5.328125 967.421875 -5.328125 967.421875 c
-2.890625 968.015625 -0.53125 968.015625 -0.53125 968.015625 c
3.59375 968.015625 5.882812 966.070313 5.882812 966.070313 c
8.171875 964.125 8.171875 960.453125 8.171875 960.453125 c
8.171875 953.28125 -0.625 953.28125 -0.625 953.28125 c
-2.84375 953.28125 -6.578125 953.953125 -6.578125 953.953125 c
-8.59375 952.671875 l
-7.296875 936.640625 l
9.734375 936.640625 l
9.734375 940.21875 l
-3.96875 940.21875 l
-4.84375 950.515625 l
-2.140625 949.96875 0.53125 949.96875 0.53125 949.96875 c
h
39.96875 953.71875 m
39.96875 962.609375 37.164063 966.992188 37.164063 966.992188 c
34.359375 971.375 28.59375 971.375 28.59375 971.375 c
23.0625 971.375 20.179688 966.882813 20.179688 966.882813 c
17.296875 962.390625 17.296875 953.71875 17.296875 953.71875 c
17.296875 944.765625 20.085937 940.429688 20.085937 940.429688 c
22.875 936.09375 28.59375 936.09375 28.59375 936.09375 c
34.171875 936.09375 37.070313 940.617188 37.070313 940.617188 c
39.96875 945.140625 39.96875 953.71875 39.96875 953.71875 c
h
21.234375 953.71875 m
21.234375 961.203125 22.992187 964.609375 22.992187 964.609375 c
24.75 968.015625 28.59375 968.015625 28.59375 968.015625 c
32.484375 968.015625 34.234375 964.5625 34.234375 964.5625 c
35.984375 961.109375 35.984375 953.71875 35.984375 953.71875 c
35.984375 946.34375 34.234375 942.90625 34.234375 942.90625 c
32.484375 939.46875 28.59375 939.46875 28.59375 939.46875 c
24.75 939.46875 22.992187 942.859375 22.992187 942.859375 c
21.234375 946.25 21.234375 953.71875 21.234375 953.71875 c
h
f
Q
q
[1.909722 0 0 1.909722 1553.500019 416.666676] cm
-813.469132 -218.181813 1309.090914 1309.090881 re
W
/DeviceGray {} CS
[0] SC
-15.09375 970.90625 m
-37.625 970.90625 l
-37.625 967.546875 l
-28.59375 958.484375 l
-24.46875 954.3125 -23.15625 952.53125 -23.15625 952.53125 c
-21.84375 950.75 -21.1875 949.0625 -21.1875 949.0625 c
-20.53125 947.375 -20.53125 945.421875 -20.53125 945.421875 c
-20.53125 942.6875 -22.195312 941.078125 -22.195312 941.078125 c
-23.859375 939.46875 -26.8125 939.46875 -26.8125 939.46875 c
-28.953125 939.46875 -30.859375 940.171875 -30.859375 940.171875 c
-32.765625 940.875 -35.109375 942.734375 -35.109375 942.734375 c
-37.171875 940.078125 l
-32.4375 936.140625 -26.859375 936.140625 -26.859375 936.140625 c
-22.03125 936.140625 -19.289062 938.617188 -19.289062 938.617188 c
-16.546875 941.09375 -16.546875 945.265625 -16.546875 945.265625 c
-16.546875 948.515625 -18.375 951.703125 -18.375 951.703125 c
-20.203125 954.890625 -25.21875 959.765625 -25.21875 959.765625 c
-32.71875 967.109375 l
-32.71875 967.296875 l
-15.09375 967.296875 l
-15.09375 970.90625 l
h
12.53125 953.71875 m
12.53125 962.609375 9.726563 966.992188 9.726563 966.992188 c
6.921875 971.375 1.15625 971.375 1.15625 971.375 c
-4.375 971.375 -7.257812 966.882813 -7.257812 966.882813 c
-10.140625 962.390625 -10.140625 953.71875 -10.140625 953.71875 c
-10.140625 944.765625 -7.351563 940.429688 -7.351563 940.429688 c
-4.5625 936.09375 1.15625 936.09375 1.15625 936.09375 c
6.734375 936.09375 9.632813 940.617188 9.632813 940.617188 c
12.53125 945.140625 12.53125 953.71875 12.53125 953.71875 c
h
-6.203125 953.71875 m
-6.203125 961.203125 -4.445313 964.609375 -4.445313 964.609375 c
-2.6875 968.015625 1.15625 968.015625 1.15625 968.015625 c
5.046875 968.015625 6.796875 964.5625 6.796875 964.5625 c
8.546875 961.109375 8.546875 953.71875 8.546875 953.71875 c
8.546875 946.34375 6.796875 942.90625 6.796875 942.90625 c
5.046875 939.46875 1.15625 939.46875 1.15625 939.46875 c
-2.6875 939.46875 -4.445313 942.859375 -4.445313 942.859375 c
-6.203125 946.25 -6.203125 953.71875 -6.203125 953.71875 c
h
39.96875 953.71875 m
39.96875 962.609375 37.164063 966.992188 37.164063 966.992188 c
34.359375 971.375 28.59375 971.375 28.59375 971.375 c
23.0625 971.375 20.179688 966.882813 20.179688 966.882813 c
17.296875 962.390625 17.296875 953.71875 17.296875 953.71875 c
17.296875 944.765625 20.085937 940.429688 20.085937 940.429688 c
22.875 936.09375 28.59375 936.09375 28.59375 936.09375 c
34.171875 936.09375 37.070313 940.617188 37.070313 940.617188 c
39.96875 945.140625 39.96875 953.71875 39.96875 953.71875 c
h
21.234375 953.71875 m
21.234375 961.203125 22.992187 964.609375 22.992187 964.609375 c
24.75 968.015625 28.59375 968.015625 28.59375 968.015625 c
32.484375 968.015625 34.234375 964.5625 34.234375 964.5625 c
35.984375 961.109375 35.984375 953.71875 35.984375 953.71875 c
35.984375 946.34375 34.234375 942.90625 34.234375 942.90625 c
32.484375 939.46875 28.59375 939.46875 28.59375 939.46875 c
24.75 939.46875 22.992187 942.859375 22.992187 942.859375 c
21.234375 946.25 21.234375 953.71875 21.234375 953.71875 c
h
f
Q
q
[1.909722 0 0 1.909722 1860.083431 416.666676] cm
-974.007348 -218.181813 1309.090914 1309.090881 re
W
/DeviceGray {} CS
[0] SC
-15.09375 970.90625 m
-37.625 970.90625 l
-37.625 967.546875 l
-28.59375 958.484375 l
-24.46875 954.3125 -23.15625 952.53125 -23.15625 952.53125 c
-21.84375 950.75 -21.1875 949.0625 -21.1875 949.0625 c
-20.53125 947.375 -20.53125 945.421875 -20.53125 945.421875 c
-20.53125 942.6875 -22.195312 941.078125 -22.195312 941.078125 c
-23.859375 939.46875 -26.8125 939.46875 -26.8125 939.46875 c
-28.953125 939.46875 -30.859375 940.171875 -30.859375 940.171875 c
-32.765625 940.875 -35.109375 942.734375 -35.109375 942.734375 c
-37.171875 940.078125 l
-32.4375 936.140625 -26.859375 936.140625 -26.859375 936.140625 c
-22.03125 936.140625 -19.289062 938.617188 -19.289062 938.617188 c
-16.546875 941.09375 -16.546875 945.265625 -16.546875 945.265625 c
-16.546875 948.515625 -18.375 951.703125 -18.375 951.703125 c
-20.203125 954.890625 -25.21875 959.765625 -25.21875 959.765625 c
-32.71875 967.109375 l
-32.71875 967.296875 l
-15.09375 967.296875 l
-15.09375 970.90625 l
h
0.53125 949.96875 m
5.9375 949.96875 9.046875 952.65625 9.046875 952.65625 c
12.15625 955.34375 12.15625 960 12.15625 960 c
12.15625 965.328125 8.765625 968.351562 8.765625 968.351562 c
5.375 971.375 -0.578125 971.375 -0.578125 971.375 c
-6.359375 971.375 -9.40625 969.515625 -9.40625 969.515625 c
-9.40625 965.765625 l
-7.765625 966.828125 -5.328125 967.421875 -5.328125 967.421875 c
-2.890625 968.015625 -0.53125 968.015625 -0.53125 968.015625 c
3.59375 968.015625 5.882812 966.070313 5.882812 966.070313 c
8.171875 964.125 8.171875 960.453125 8.171875 960.453125 c
8.171875 953.28125 -0.625 953.28125 -0.625 953.28125 c
-2.84375 953.28125 -6.578125 953.953125 -6.578125 953.953125 c
-8.59375 952.671875 l
-7.296875 936.640625 l
9.734375 936.640625 l
9.734375 940.21875 l
-3.96875 940.21875 l
-4.84375 950.515625 l
-2.140625 949.96875 0.53125 949.96875 0.53125 949.96875 c
h
39.96875 953.71875 m
39.96875 962.609375 37.164063 966.992188 37.164063 966.992188 c
34.359375 971.375 28.59375 971.375 28.59375 971.375 c
23.0625 971.375 20.179688 966.882813 20.179688 966.882813 c
17.296875 962.390625 17.296875 953.71875 17.296875 953.71875 c
17.296875 944.765625 20.085937 940.429688 20.085937 940.429688 c
22.875 936.09375 28.59375 936.09375 28.59375 936.09375 c
34.171875 936.09375 37.070313 940.617188 37.070313 940.617188 c
39.96875 945.140625 39.96875 953.71875 39.96875 953.71875 c
h
21.234375 953.71875 m
21.234375 961.203125 22.992187 964.609375 22.992187 964.609375 c
24.75 968.015625 28.59375 968.015625 28.59375 968.015625 c
32.484375 968.015625 34.234375 964.5625 34.234375 964.5625 c
35.984375 961.109375 35.984375 953.71875 35.984375 953.71875 c
35.984375 946.34375 34.234375 942.90625 34.234375 942.90625 c
32.484375 939.46875 28.59375 939.46875 28.59375 939.46875 c
24.75 939.46875 22.992187 942.859375 22.992187 942.859375 c
21.234375 946.25 21.234375 953.71875 21.234375 953.71875 c
h
f
Q
q
[1.909722 0 0 1.909722 2166.666715 416.666676] cm
-1134.54543 -218.181813 1309.090847 1309.090881 re
W
/DeviceGray {} CS
[0] SC
-16.390625 944.703125 m
-16.390625 947.984375 -18.226562 950.070313 -18.226562 950.070313 c
-20.0625 952.15625 -23.4375 952.859375 -23.4375 952.859375 c
-23.4375 953.046875 l
-19.3125 953.5625 -17.320312 955.671875 -17.320312 955.671875 c
-15.328125 957.78125 -15.328125 961.203125 -15.328125 961.203125 c
-15.328125 966.09375 -18.726562 968.734375 -18.726562 968.734375 c
-22.125 971.375 -28.390625 971.375 -28.390625 971.375 c
-31.109375 971.375 -33.367187 970.960938 -33.367187 970.960938 c
-35.625 970.546875 -37.765625 969.515625 -37.765625 969.515625 c
-37.765625 965.8125 l
-35.53125 966.921875 -33.015625 967.492188 -33.015625 967.492188 c
-30.5 968.0625 -28.25 968.0625 -28.25 968.0625 c
-19.359375 968.0625 -19.359375 961.109375 -19.359375 961.109375 c
-19.359375 954.875 -29.15625 954.875 -29.15625 954.875 c
-32.53125 954.875 l
-32.53125 951.515625 l
-29.109375 951.515625 l
-25.109375 951.515625 -22.765625 949.75 -22.765625 949.75 c
-20.421875 947.984375 -20.421875 944.84375 -20.421875 944.84375 c
-20.421875 942.328125 -22.140625 940.898438 -22.140625 940.898438 c
-23.859375 939.46875 -26.8125 939.46875 -26.8125 939.46875 c
-29.0625 939.46875 -31.054688 940.078125 -31.054688 940.078125 c
-33.046875 940.6875 -35.609375 942.328125 -35.609375 942.328125 c
-37.578125 939.703125 l
-35.46875 938.046875 -32.710938 937.09375 -32.710938 937.09375 c
-29.953125 936.140625 -26.90625 936.140625 -26.90625 936.140625 c
-21.921875 936.140625 -19.15625 938.429688 -19.15625 938.429688 c
-16.390625 940.71875 -16.390625 944.703125 -16.390625 944.703125 c
h
12.53125 953.71875 m
12.53125 962.609375 9.726563 966.992188 9.726563 966.992188 c
6.921875 971.375 1.15625 971.375 1.15625 971.375 c
-4.375 971.375 -7.257812 966.882813 -7.257812 966.882813 c
-10.140625 962.390625 -10.140625 953.71875 -10.140625 953.71875 c
-10.140625 944.765625 -7.351563 940.429688 -7.351563 940.429688 c
-4.5625 936.09375 1.15625 936.09375 1.15625 936.09375 c
6.734375 936.09375 9.632813 940.617188 9.632813 940.617188 c
12.53125 945.140625 12.53125 953.71875 12.53125 953.71875 c
h
-6.203125 953.71875 m
-6.203125 961.203125 -4.445313 964.609375 -4.445313 964.609375 c
-2.6875 968.015625 1.15625 968.015625 1.15625 968.015625 c
5.046875 968.015625 6.796875 964.5625 6.796875 964.5625 c
8.546875 961.109375 8.546875 953.71875 8.546875 953.71875 c
8.546875 946.34375 6.796875 942.90625 6.796875 942.90625 c
5.046875 939.46875 1.15625 939.46875 1.15625 939.46875 c
-2.6875 939.46875 -4.445313 942.859375 -4.445313 942.859375 c
-6.203125 946.25 -6.203125 953.71875 -6.203125 953.71875 c
h
39.96875 953.71875 m
39.96875 962.609375 37.164063 966.992188 37.164063 966.992188 c
34.359375 971.375 28.59375 971.375 28.59375 971.375 c
23.0625 971.375 20.179688 966.882813 20.179688 966.882813 c
17.296875 962.390625 17.296875 953.71875 17.296875 953.71875 c
17.296875 944.765625 20.085937 940.429688 20.085937 940.429688 c
22.875 936.09375 28.59375 936.09375 28.59375 936.09375 c
34.171875 936.09375 37.070313 940.617188 37.070313 940.617188 c
39.96875 945.140625 39.96875 953.71875 39.96875 953.71875 c
h
21.234375 953.71875 m
21.234375 961.203125 22.992187 964.609375 22.992187 964.609375 c
24.75 968.015625 28.59375 968.015625 28.59375 968.015625 c
32.484375 968.015625 34.234375 964.5625 34.234375 964.5625 c
35.984375 961.109375 35.984375 953.71875 35.984375 953.71875 c
35.984375 946.34375 34.234375 942.90625 34.234375 942.90625 c
32.484375 939.46875 28.59375 939.46875 28.59375 939.46875 c
24.75 939.46875 22.992187 942.859375 22.992187 942.859375 c
21.234375 946.25 21.234375 953.71875 21.234375 953.71875 c
h
f
Q
q
[3.191852 -2.678282 2.678282 3.191852 330.408896 2071.173575] cm
258.772034 -431.758484 m
718.398682 -46.085934 l
332.726105 413.540741 l
-126.900536 27.868176 l
258.772034 -431.758484 l
h
W
/DeviceGray {} CS
[0] SC
-3.003581 3.122396 m
-3.003581 7.197266 -4.289063 9.206055 -4.289063 9.206055 c
-5.574544 11.214844 -8.217123 11.214844 -8.217123 11.214844 c
-10.752279 11.214844 -12.073568 9.155925 -12.073568 9.155925 c
-13.394857 7.097005 -13.394857 3.122396 -13.394857 3.122396 c
-13.394857 -0.98112 -12.116537 -2.968425 -12.116537 -2.968425 c
-10.838217 -4.955729 -8.217123 -4.955729 -8.217123 -4.955729 c
-5.660482 -4.955729 -4.332031 -2.882487 -4.332031 -2.882487 c
-3.003581 -0.809245 -3.003581 3.122396 -3.003581 3.122396 c
h
-11.59017 3.122396 m
-11.59017 6.552734 -10.784506 8.113933 -10.784506 8.113933 c
-9.978842 9.67513 -8.217123 9.67513 -8.217123 9.67513 c
-6.433919 9.67513 -5.631836 8.092448 -5.631836 8.092448 c
-4.829753 6.509766 -4.829753 3.122396 -4.829753 3.122396 c
-4.829753 -0.257813 -5.631836 -1.833334 -5.631836 -1.833334 c
-6.433919 -3.408854 -8.217123 -3.408854 -8.217123 -3.408854 c
-9.978842 -3.408854 -10.784506 -1.854818 -10.784506 -1.854818 c
-11.59017 -0.300781 -11.59017 3.122396 -11.59017 3.122396 c
h
f
Q
q
[3.191852 -2.678282 2.678282 3.191852 330.408896 1672.673505] cm
197.295822 -358.493988 m
656.922485 27.178568 l
271.249878 486.805237 l
-188.376755 101.132675 l
197.295822 -358.493988 l
h
W
/DeviceGray {} CS
[0] SC
-46.423504 3.122396 m
-46.423504 7.197266 -47.708984 9.206055 -47.708984 9.206055 c
-48.994469 11.214844 -51.637047 11.214844 -51.637047 11.214844 c
-54.172203 11.214844 -55.493492 9.155925 -55.493492 9.155925 c
-56.814781 7.097005 -56.814781 3.122396 -56.814781 3.122396 c
-56.814781 -0.98112 -55.536461 -2.968425 -55.536461 -2.968425 c
-54.258141 -4.955729 -51.637047 -4.955729 -51.637047 -4.955729 c
-49.080406 -4.955729 -47.751953 -2.882487 -47.751953 -2.882487 c
-46.423504 -0.809245 -46.423504 3.122396 -46.423504 3.122396 c
h
-55.010094 3.122396 m
-55.010094 6.552734 -54.20443 8.113933 -54.20443 8.113933 c
-53.398766 9.67513 -51.637047 9.67513 -51.637047 9.67513 c
-49.853844 9.67513 -49.051758 8.092448 -49.051758 8.092448 c
-48.249676 6.509766 -48.249676 3.122396 -48.249676 3.122396 c
-48.249676 -0.257813 -49.051758 -1.833334 -49.051758 -1.833334 c
-49.853844 -3.408854 -51.637047 -3.408854 -51.637047 -3.408854 c
-53.398766 -3.408854 -54.20443 -1.854818 -54.20443 -1.854818 c
-55.010094 -0.300781 -55.010094 3.122396 -55.010094 3.122396 c
h
-43.69857 9.861328 m
-43.69857 9.138021 -43.369141 8.769206 -43.369141 8.769206 c
-43.039715 8.400391 -42.430992 8.400391 -42.430992 8.400391 c
-41.807945 8.400391 -41.457031 8.769206 -41.457031 8.769206 c
-41.106121 9.138021 -41.106121 9.861328 -41.106121 9.861328 c
-41.106121 10.555989 -41.460613 10.935547 -41.460613 10.935547 c
-41.815105 11.315104 -42.430992 11.315104 -42.430992 11.315104 c
-42.975262 11.315104 -43.336914 10.974935 -43.336914 10.974935 c
-43.69857 10.634766 -43.69857 9.861328 -43.69857 9.861328 c
h
-27.98991 3.122396 m
-27.98991 7.197266 -29.275393 9.206055 -29.275393 9.206055 c
-30.560873 11.214844 -33.203453 11.214844 -33.203453 11.214844 c
-35.738609 11.214844 -37.059898 9.155925 -37.059898 9.155925 c
-38.381187 7.097005 -38.381187 3.122396 -38.381187 3.122396 c
-38.381187 -0.98112 -37.102867 -2.968425 -37.102867 -2.968425 c
-35.824547 -4.955729 -33.203453 -4.955729 -33.203453 -4.955729 c
-30.646811 -4.955729 -29.318361 -2.882487 -29.318361 -2.882487 c
-27.98991 -0.809245 -27.98991 3.122396 -27.98991 3.122396 c
h
-36.5765 3.122396 m
-36.5765 6.552734 -35.770836 8.113933 -35.770836 8.113933 c
-34.965172 9.67513 -33.203453 9.67513 -33.203453 9.67513 c
-31.420248 9.67513 -30.618166 8.092448 -30.618166 8.092448 c
-29.816082 6.509766 -29.816082 3.122396 -29.816082 3.122396 c
-29.816082 -0.257813 -30.618166 -1.833334 -30.618166 -1.833334 c
-31.420248 -3.408854 -33.203453 -3.408854 -33.203453 -3.408854 c
-34.965172 -3.408854 -35.770836 -1.854818 -35.770836 -1.854818 c
-36.5765 -0.300781 -36.5765 3.122396 -36.5765 3.122396 c
h
-15.410809 3.122396 m
-15.410809 7.197266 -16.696291 9.206055 -16.696291 9.206055 c
-17.981771 11.214844 -20.62435 11.214844 -20.62435 11.214844 c
-23.159506 11.214844 -24.480795 9.155925 -24.480795 9.155925 c
-25.802084 7.097005 -25.802084 3.122396 -25.802084 3.122396 c
-25.802084 -0.98112 -24.523764 -2.968425 -24.523764 -2.968425 c
-23.245443 -4.955729 -20.62435 -4.955729 -20.62435 -4.955729 c
-18.067709 -4.955729 -16.73926 -2.882487 -16.73926 -2.882487 c
-15.410809 -0.809245 -15.410809 3.122396 -15.410809 3.122396 c
h
-23.997396 3.122396 m
-23.997396 6.552734 -23.191732 8.113933 -23.191732 8.113933 c
-22.386068 9.67513 -20.62435 9.67513 -20.62435 9.67513 c
-18.841146 9.67513 -18.039064 8.092448 -18.039064 8.092448 c
-17.23698 6.509766 -17.23698 3.122396 -17.23698 3.122396 c
-17.23698 -0.257813 -18.039064 -1.833334 -18.039064 -1.833334 c
-18.841146 -3.408854 -20.62435 -3.408854 -20.62435 -3.408854 c
-22.386068 -3.408854 -23.191732 -1.854818 -23.191732 -1.854818 c
-23.997396 -0.300781 -23.997396 3.122396 -23.997396 3.122396 c
h
-8.328126 1.403646 m
-5.850262 1.403646 -4.425131 2.635417 -4.425131 2.635417 c
-3.000001 3.867187 -3.000001 6.001302 -3.000001 6.001302 c
-3.000001 8.443359 -4.554038 9.829102 -4.554038 9.829102 c
-6.108074 11.214844 -8.83659 11.214844 -8.83659 11.214844 c
-11.486329 11.214844 -12.882813 10.36263 -12.882813 10.36263 c
-12.882813 8.64388 l
-12.13086 9.130859 -11.013673 9.402995 -11.013673 9.402995 c
-9.896485 9.67513 -8.815105 9.67513 -8.815105 9.67513 c
-6.92448 9.67513 -5.875327 8.783528 -5.875327 8.783528 c
-4.826173 7.891927 -4.826173 6.208984 -4.826173 6.208984 c
-4.826173 2.921875 -8.858074 2.921875 -8.858074 2.921875 c
-9.875001 2.921875 -11.58659 3.229818 -11.58659 3.229818 c
-12.510418 2.642578 l
-11.916017 -4.705079 l
-4.110027 -4.705079 l
-4.110027 -3.065104 l
-10.390626 -3.065104 l
-10.791668 1.654297 l
-9.552735 1.403646 -8.328126 1.403646 -8.328126 1.403646 c
h
f
Q
q
[3.191852 -2.678282 2.678282 3.191852 330.408896 1274.131855] cm
135.813187 -285.221832 m
595.43988 100.450714 l
209.767242 560.077393 l
-249.85939 174.404816 l
135.813187 -285.221832 l
h
W
/DeviceGray {} CS
[0] SC
-30.213543 3.122396 m
-30.213543 7.197266 -31.499025 9.206055 -31.499025 9.206055 c
-32.784508 11.214844 -35.427086 11.214844 -35.427086 11.214844 c
-37.962242 11.214844 -39.283531 9.155925 -39.283531 9.155925 c
-40.60482 7.097005 -40.60482 3.122396 -40.60482 3.122396 c
-40.60482 -0.98112 -39.3265 -2.968425 -39.3265 -2.968425 c
-38.04818 -4.955729 -35.427086 -4.955729 -35.427086 -4.955729 c
-32.870445 -4.955729 -31.541994 -2.882487 -31.541994 -2.882487 c
-30.213543 -0.809245 -30.213543 3.122396 -30.213543 3.122396 c
h
-38.800133 3.122396 m
-38.800133 6.552734 -37.994469 8.113933 -37.994469 8.113933 c
-37.188805 9.67513 -35.427086 9.67513 -35.427086 9.67513 c
-33.643883 9.67513 -32.841797 8.092448 -32.841797 8.092448 c
-32.039715 6.509766 -32.039715 3.122396 -32.039715 3.122396 c
-32.039715 -0.257813 -32.841797 -1.833334 -32.841797 -1.833334 c
-33.643883 -3.408854 -35.427086 -3.408854 -35.427086 -3.408854 c
-37.188805 -3.408854 -37.994469 -1.854818 -37.994469 -1.854818 c
-38.800133 -0.300781 -38.800133 3.122396 -38.800133 3.122396 c
h
-27.488607 9.861328 m
-27.488607 9.138021 -27.159182 8.769206 -27.159182 8.769206 c
-26.829754 8.400391 -26.221029 8.400391 -26.221029 8.400391 c
-25.597982 8.400391 -25.247072 8.769206 -25.247072 8.769206 c
-24.89616 9.138021 -24.89616 9.861328 -24.89616 9.861328 c
-24.89616 10.555989 -25.250652 10.935547 -25.250652 10.935547 c
-25.605144 11.315104 -26.221029 11.315104 -26.221029 11.315104 c
-26.765301 11.315104 -27.126955 10.974935 -27.126955 10.974935 c
-27.488607 10.634766 -27.488607 9.861328 -27.488607 9.861328 c
h
-11.779949 3.122396 m
-11.779949 7.197266 -13.065431 9.206055 -13.065431 9.206055 c
-14.350912 11.214844 -16.99349 11.214844 -16.99349 11.214844 c
-19.528646 11.214844 -20.849936 9.155925 -20.849936 9.155925 c
-22.171225 7.097005 -22.171225 3.122396 -22.171225 3.122396 c
-22.171225 -0.98112 -20.892904 -2.968425 -20.892904 -2.968425 c
-19.614584 -4.955729 -16.99349 -4.955729 -16.99349 -4.955729 c
-14.43685 -4.955729 -13.108399 -2.882487 -13.108399 -2.882487 c
-11.779949 -0.809245 -11.779949 3.122396 -11.779949 3.122396 c
h
-20.366537 3.122396 m
-20.366537 6.552734 -19.560873 8.113933 -19.560873 8.113933 c
-18.755209 9.67513 -16.99349 9.67513 -16.99349 9.67513 c
-15.210287 9.67513 -14.408204 8.092448 -14.408204 8.092448 c
-13.606121 6.509766 -13.606121 3.122396 -13.606121 3.122396 c
-13.606121 -0.257813 -14.408204 -1.833334 -14.408204 -1.833334 c
-15.210287 -3.408854 -16.99349 -3.408854 -16.99349 -3.408854 c
-18.755209 -3.408854 -19.560873 -1.854818 -19.560873 -1.854818 c
-20.366537 -0.300781 -20.366537 3.122396 -20.366537 3.122396 c
h
-3.000001 11 m
-4.740235 11 l
-4.740235 -0.19336 l
-4.740235 -1.589844 -4.654298 -2.835938 -4.654298 -2.835938 c
-4.883465 -2.613933 -5.162762 -2.366862 -5.162762 -2.366862 c
-5.442059 -2.119792 -7.719402 -0.272136 -7.719402 -0.272136 c
-8.664715 -1.496745 l
-4.503907 -4.705079 l
-3.000001 -4.705079 l
-3.000001 11 l
h
f
Q
q
[3.191852 -2.678282 2.678282 3.191852 330.408896 875.631849] cm
74.336983 -211.957336 m
533.963684 173.71521 l
148.291031 633.341858 l
-311.335602 247.669312 l
74.336983 -211.957336 l
h
W
/DeviceGray {} CS
[0] SC
-46.423504 3.122396 m
-46.423504 7.197266 -47.708984 9.206055 -47.708984 9.206055 c
-48.994469 11.214844 -51.637047 11.214844 -51.637047 11.214844 c
-54.172203 11.214844 -55.493492 9.155925 -55.493492 9.155925 c
-56.814781 7.097005 -56.814781 3.122396 -56.814781 3.122396 c
-56.814781 -0.98112 -55.536461 -2.968425 -55.536461 -2.968425 c
-54.258141 -4.955729 -51.637047 -4.955729 -51.637047 -4.955729 c
-49.080406 -4.955729 -47.751953 -2.882487 -47.751953 -2.882487 c
-46.423504 -0.809245 -46.423504 3.122396 -46.423504 3.122396 c
h
-55.010094 3.122396 m
-55.010094 6.552734 -54.20443 8.113933 -54.20443 8.113933 c
-53.398766 9.67513 -51.637047 9.67513 -51.637047 9.67513 c
-49.853844 9.67513 -49.051758 8.092448 -49.051758 8.092448 c
-48.249676 6.509766 -48.249676 3.122396 -48.249676 3.122396 c
-48.249676 -0.257813 -49.051758 -1.833334 -49.051758 -1.833334 c
-49.853844 -3.408854 -51.637047 -3.408854 -51.637047 -3.408854 c
-53.398766 -3.408854 -54.20443 -1.854818 -54.20443 -1.854818 c
-55.010094 -0.300781 -55.010094 3.122396 -55.010094 3.122396 c
h
-43.69857 9.861328 m
-43.69857 9.138021 -43.369141 8.769206 -43.369141 8.769206 c
-43.039715 8.400391 -42.430992 8.400391 -42.430992 8.400391 c
-41.807945 8.400391 -41.457031 8.769206 -41.457031 8.769206 c
-41.106121 9.138021 -41.106121 9.861328 -41.106121 9.861328 c
-41.106121 10.555989 -41.460613 10.935547 -41.460613 10.935547 c
-41.815105 11.315104 -42.430992 11.315104 -42.430992 11.315104 c
-42.975262 11.315104 -43.336914 10.974935 -43.336914 10.974935 c
-43.69857 10.634766 -43.69857 9.861328 -43.69857 9.861328 c
h
-27.98991 3.122396 m
-27.98991 7.197266 -29.275393 9.206055 -29.275393 9.206055 c
-30.560873 11.214844 -33.203453 11.214844 -33.203453 11.214844 c
-35.738609 11.214844 -37.059898 9.155925 -37.059898 9.155925 c
-38.381187 7.097005 -38.381187 3.122396 -38.381187 3.122396 c
-38.381187 -0.98112 -37.102867 -2.968425 -37.102867 -2.968425 c
-35.824547 -4.955729 -33.203453 -4.955729 -33.203453 -4.955729 c
-30.646811 -4.955729 -29.318361 -2.882487 -29.318361 -2.882487 c
-27.98991 -0.809245 -27.98991 3.122396 -27.98991 3.122396 c
h
-36.5765 3.122396 m
-36.5765 6.552734 -35.770836 8.113933 -35.770836 8.113933 c
-34.965172 9.67513 -33.203453 9.67513 -33.203453 9.67513 c
-31.420248 9.67513 -30.618166 8.092448 -30.618166 8.092448 c
-29.816082 6.509766 -29.816082 3.122396 -29.816082 3.122396 c
-29.816082 -0.257813 -30.618166 -1.833334 -30.618166 -1.833334 c
-31.420248 -3.408854 -33.203453 -3.408854 -33.203453 -3.408854 c
-34.965172 -3.408854 -35.770836 -1.854818 -35.770836 -1.854818 c
-36.5765 -0.300781 -36.5765 3.122396 -36.5765 3.122396 c
h
-19.209963 11 m
-20.950197 11 l
-20.950197 -0.19336 l
-20.950197 -1.589844 -20.86426 -2.835938 -20.86426 -2.835938 c
-21.093426 -2.613933 -21.372723 -2.366862 -21.372723 -2.366862 c
-21.652019 -2.119792 -23.929363 -0.272136 -23.929363 -0.272136 c
-24.874676 -1.496745 l
-20.713869 -4.705079 l
-19.209963 -4.705079 l
-19.209963 11 l
h
-8.328126 1.403646 m
-5.850262 1.403646 -4.425131 2.635417 -4.425131 2.635417 c
-3.000001 3.867187 -3.000001 6.001302 -3.000001 6.001302 c
-3.000001 8.443359 -4.554038 9.829102 -4.554038 9.829102 c
-6.108074 11.214844 -8.83659 11.214844 -8.83659 11.214844 c
-11.486329 11.214844 -12.882813 10.36263 -12.882813 10.36263 c
-12.882813 8.64388 l
-12.13086 9.130859 -11.013673 9.402995 -11.013673 9.402995 c
-9.896485 9.67513 -8.815105 9.67513 -8.815105 9.67513 c
-6.92448 9.67513 -5.875327 8.783528 -5.875327 8.783528 c
-4.826173 7.891927 -4.826173 6.208984 -4.826173 6.208984 c
-4.826173 2.921875 -8.858074 2.921875 -8.858074 2.921875 c
-9.875001 2.921875 -11.58659 3.229818 -11.58659 3.229818 c
-12.510418 2.642578 l
-11.916017 -4.705079 l
-4.110027 -4.705079 l
-4.110027 -3.065104 l
-10.390626 -3.065104 l
-10.791668 1.654297 l
-9.552735 1.403646 -8.328126 1.403646 -8.328126 1.403646 c
h
f
Q
q
[3.191852 -2.678282 2.678282 3.191852 330.408896 477.090167] cm
12.854347 -138.685181 m
472.481049 246.987366 l
86.808395 706.614014 l
-372.818237 320.941467 l
12.854347 -138.685181 l
h
W
/DeviceGray {} CS
[0] SC
-33.93034 3.122396 m
-33.93034 7.197266 -35.21582 9.206055 -35.21582 9.206055 c
-36.501305 11.214844 -39.143883 11.214844 -39.143883 11.214844 c
-41.679039 11.214844 -43.000328 9.155925 -43.000328 9.155925 c
-44.321617 7.097005 -44.321617 3.122396 -44.321617 3.122396 c
-44.321617 -0.98112 -43.043297 -2.968425 -43.043297 -2.968425 c
-41.764977 -4.955729 -39.143883 -4.955729 -39.143883 -4.955729 c
-36.587242 -4.955729 -35.258789 -2.882487 -35.258789 -2.882487 c
-33.93034 -0.809245 -33.93034 3.122396 -33.93034 3.122396 c
h
-42.51693 3.122396 m
-42.51693 6.552734 -41.711266 8.113933 -41.711266 8.113933 c
-40.905601 9.67513 -39.143883 9.67513 -39.143883 9.67513 c
-37.36068 9.67513 -36.558594 8.092448 -36.558594 8.092448 c
-35.756512 6.509766 -35.756512 3.122396 -35.756512 3.122396 c
-35.756512 -0.257813 -36.558594 -1.833334 -36.558594 -1.833334 c
-37.36068 -3.408854 -39.143883 -3.408854 -39.143883 -3.408854 c
-40.905601 -3.408854 -41.711266 -1.854818 -41.711266 -1.854818 c
-42.51693 -0.300781 -42.51693 3.122396 -42.51693 3.122396 c
h
-31.205404 9.861328 m
-31.205404 9.138021 -30.875978 8.769206 -30.875978 8.769206 c
-30.546551 8.400391 -29.937826 8.400391 -29.937826 8.400391 c
-29.314779 8.400391 -28.963869 8.769206 -28.963869 8.769206 c
-28.612957 9.138021 -28.612957 9.861328 -28.612957 9.861328 c
-28.612957 10.555989 -28.967449 10.935547 -28.967449 10.935547 c
-29.321941 11.315104 -29.937826 11.315104 -29.937826 11.315104 c
-30.482098 11.315104 -30.843752 10.974935 -30.843752 10.974935 c
-31.205404 10.634766 -31.205404 9.861328 -31.205404 9.861328 c
h
-15.496746 3.122396 m
-15.496746 7.197266 -16.782228 9.206055 -16.782228 9.206055 c
-18.067709 11.214844 -20.710287 11.214844 -20.710287 11.214844 c
-23.245443 11.214844 -24.566732 9.155925 -24.566732 9.155925 c
-25.888021 7.097005 -25.888021 3.122396 -25.888021 3.122396 c
-25.888021 -0.98112 -24.609701 -2.968425 -24.609701 -2.968425 c
-23.331381 -4.955729 -20.710287 -4.955729 -20.710287 -4.955729 c
-18.153646 -4.955729 -16.825197 -2.882487 -16.825197 -2.882487 c
-15.496746 -0.809245 -15.496746 3.122396 -15.496746 3.122396 c
h
-24.083334 3.122396 m
-24.083334 6.552734 -23.27767 8.113933 -23.27767 8.113933 c
-22.472006 9.67513 -20.710287 9.67513 -20.710287 9.67513 c
-18.927084 9.67513 -18.125002 8.092448 -18.125002 8.092448 c
-17.322918 6.509766 -17.322918 3.122396 -17.322918 3.122396 c
-17.322918 -0.257813 -18.125002 -1.833334 -18.125002 -1.833334 c
-18.927084 -3.408854 -20.710287 -3.408854 -20.710287 -3.408854 c
-22.472006 -3.408854 -23.27767 -1.854818 -23.27767 -1.854818 c
-24.083334 -0.300781 -24.083334 3.122396 -24.083334 3.122396 c
h
-3.000001 11 m
-13.326824 11 l
-13.326824 9.460286 l
-9.187501 5.306641 l
-7.296876 3.394531 -6.695313 2.578125 -6.695313 2.578125 c
-6.093751 1.761719 -5.79297 0.988281 -5.79297 0.988281 c
-5.492188 0.214844 -5.492188 -0.680339 -5.492188 -0.680339 c
-5.492188 -1.933594 -6.254884 -2.671224 -6.254884 -2.671224 c
-7.017579 -3.408854 -8.371095 -3.408854 -8.371095 -3.408854 c
-9.352215 -3.408854 -10.225913 -3.086589 -10.225913 -3.086589 c
-11.09961 -2.764323 -12.173829 -1.91211 -12.173829 -1.91211 c
-13.119142 -3.129558 l
-10.94922 -4.934245 -8.392579 -4.934245 -8.392579 -4.934245 c
-6.179688 -4.934245 -4.922853 -3.799154 -4.922853 -3.799154 c
-3.666017 -2.664063 -3.666017 -0.751953 -3.666017 -0.751953 c
-3.666017 0.73763 -4.503907 2.198568 -4.503907 2.198568 c
-5.341798 3.659505 -7.640626 5.89388 -7.640626 5.89388 c
-11.078126 9.259766 l
-11.078126 9.345703 l
-3.000001 9.345703 l
-3.000001 11 l
h
f
Q
q
[2.430556 0 0 2.430556 0 -91.666669] cm
0.000032 37.714303 m
1028.571568 37.714241 l
1028.571359 1066.285751 l
-0.000012 1066.285751 l
0.000032 37.714303 l
h
W
/DeviceGray {} CS
[0] SC
503.421875 1035.09375 m
503.421875 1043.578125 498.820312 1048.070312 498.820312 1048.070312 c
494.21875 1052.5625 485.5625 1052.5625 485.5625 1052.5625 c
476.078125 1052.5625 l
476.078125 1018.296875 l
486.578125 1018.296875 l
494.5625 1018.296875 498.992187 1022.726563 498.992187 1022.726563 c
503.421875 1027.15625 503.421875 1035.09375 503.421875 1035.09375 c
h
499.203125 1035.234375 m
499.203125 1028.53125 495.84375 1025.132812 495.84375 1025.132812 c
492.484375 1021.734375 485.84375 1021.734375 485.84375 1021.734375 c
480.0625 1021.734375 l
480.0625 1049.109375 l
484.90625 1049.109375 l
492.03125 1049.109375 495.617188 1045.609375 495.617188 1045.609375 c
499.203125 1042.109375 499.203125 1035.234375 499.203125 1035.234375 c
h
526.28125 1052.5625 m
525.515625 1048.90625 l
525.328125 1048.90625 l
523.40625 1051.3125 521.492188 1052.171875 521.492188 1052.171875 c
519.578125 1053.03125 516.71875 1053.03125 516.71875 1053.03125 c
512.90625 1053.03125 510.734375 1051.0625 510.734375 1051.0625 c
508.5625 1049.09375 508.5625 1045.453125 508.5625 1045.453125 c
508.5625 1037.671875 521.015625 1037.296875 521.015625 1037.296875 c
525.375 1037.15625 l
525.375 1035.5625 l
525.375 1032.546875 524.070313 1031.101563 524.070313 1031.101563 c
522.765625 1029.65625 519.90625 1029.65625 519.90625 1029.65625 c
516.703125 1029.65625 512.640625 1031.625 512.640625 1031.625 c
511.453125 1028.65625 l
513.34375 1027.625 515.609375 1027.039063 515.609375 1027.039063 c
517.875 1026.453125 520.140625 1026.453125 520.140625 1026.453125 c
524.734375 1026.453125 526.953125 1028.492188 526.953125 1028.492188 c
529.171875 1030.53125 529.171875 1035.03125 529.171875 1035.03125 c
529.171875 1052.5625 l
526.28125 1052.5625 l
h
517.5 1049.8125 m
521.125 1049.8125 523.203125 1047.820312 523.203125 1047.820312 c
525.28125 1045.828125 525.28125 1042.25 525.28125 1042.25 c
525.28125 1039.921875 l
521.390625 1040.09375 l
516.75 1040.25 514.695313 1041.53125 514.695313 1041.53125 c
512.640625 1042.8125 512.640625 1045.5 512.640625 1045.5 c
512.640625 1047.609375 513.921875 1048.710938 513.921875 1048.710938 c
515.203125 1049.8125 517.5 1049.8125 517.5 1049.8125 c
h
533.09375 1026.875 m
537.265625 1026.875 l
542.890625 1041.515625 l
544.75 1046.53125 545.1875 1048.765625 545.1875 1048.765625 c
545.375 1048.765625 l
545.6875 1047.5625 546.65625 1044.671875 546.65625 1044.671875 c
547.625 1041.78125 553.015625 1026.875 553.015625 1026.875 c
557.1875 1026.875 l
546.15625 1056.125 l
544.515625 1060.46875 542.320313 1062.28125 542.320313 1062.28125 c
540.125 1064.09375 536.9375 1064.09375 536.9375 1064.09375 c
535.15625 1064.09375 533.421875 1063.703125 533.421875 1063.703125 c
533.421875 1060.578125 l
534.71875 1060.859375 536.3125 1060.859375 536.3125 1060.859375 c
540.3125 1060.859375 542.03125 1056.359375 542.03125 1056.359375 c
543.453125 1052.703125 l
533.09375 1026.875 l
h
f
Q
q
[0 -2.430556 2.430556 0 -1166.666693 1350.00003] cm
555.42859 480.000069 m
555.428643 1508.571585 l
-473.142873 1508.571375 l
-473.142873 480.000016 l
555.42859 480.000069 l
h
W
/DeviceGray {} CS
[0] SC
-110.703125 513.953125 m
-110.703125 522.4375 -115.304688 526.929688 -115.304688 526.929688 c
-119.90625 531.421875 -128.5625 531.421875 -128.5625 531.421875 c
-138.046875 531.421875 l
-138.046875 497.15625 l
-127.546875 497.15625 l
-119.5625 497.15625 -115.132812 501.585937 -115.132812 501.585937 c
-110.703125 506.015625 -110.703125 513.953125 -110.703125 513.953125 c
h
-114.921875 514.09375 m
-114.921875 507.390625 -118.28125 503.992187 -118.28125 503.992187 c
-121.640625 500.59375 -128.28125 500.59375 -128.28125 500.59375 c
-134.0625 500.59375 l
-134.0625 527.96875 l
-129.21875 527.96875 l
-122.09375 527.96875 -118.507813 524.46875 -118.507813 524.46875 c
-114.921875 520.96875 -114.921875 514.09375 -114.921875 514.09375 c
h
-87.84375 531.421875 m
-88.609375 527.765625 l
-88.796875 527.765625 l
-90.71875 530.171875 -92.632812 531.03125 -92.632812 531.03125 c
-94.546875 531.890625 -97.40625 531.890625 -97.40625 531.890625 c
-101.21875 531.890625 -103.390625 529.921875 -103.390625 529.921875 c
-105.5625 527.953125 -105.5625 524.3125 -105.5625 524.3125 c
-105.5625 516.53125 -93.109375 516.15625 -93.109375 516.15625 c
-88.75 516.015625 l
-88.75 514.421875 l
-88.75 511.40625 -90.054688 509.960937 -90.054688 509.960937 c
-91.359375 508.515625 -94.21875 508.515625 -94.21875 508.515625 c
-97.421875 508.515625 -101.484375 510.484375 -101.484375 510.484375 c
-102.671875 507.515625 l
-100.78125 506.484375 -98.515625 505.898437 -98.515625 505.898437 c
-96.25 505.3125 -93.984375 505.3125 -93.984375 505.3125 c
-89.390625 505.3125 -87.171875 507.351563 -87.171875 507.351563 c
-84.953125 509.390625 -84.953125 513.890625 -84.953125 513.890625 c
-84.953125 531.421875 l
-87.84375 531.421875 l
h
-96.625 528.671875 m
-93 528.671875 -90.921875 526.679688 -90.921875 526.679688 c
-88.84375 524.6875 -88.84375 521.109375 -88.84375 521.109375 c
-88.84375 518.78125 l
-92.734375 518.953125 l
-97.375 519.109375 -99.429688 520.390625 -99.429688 520.390625 c
-101.484375 521.671875 -101.484375 524.359375 -101.484375 524.359375 c
-101.484375 526.46875 -100.203125 527.570313 -100.203125 527.570313 c
-98.921875 528.671875 -96.625 528.671875 -96.625 528.671875 c
h
-73.0625 531.421875 m
-76.953125 531.421875 l
-76.953125 505.734375 l
-73.0625 505.734375 l
-73.0625 531.421875 l
h
-77.28125 498.765625 m
-77.28125 497.4375 -76.625 496.8125 -76.625 496.8125 c
-75.96875 496.1875 -74.984375 496.1875 -74.984375 496.1875 c
-74.046875 496.1875 -73.367188 496.820312 -73.367188 496.820312 c
-72.6875 497.453125 -72.6875 498.765625 -72.6875 498.765625 c
-72.6875 500.078125 -73.367188 500.726562 -73.367188 500.726562 c
-74.046875 501.375 -74.984375 501.375 -74.984375 501.375 c
-75.96875 501.375 -76.625 500.726562 -76.625 500.726562 c
-77.28125 500.078125 -77.28125 498.765625 -77.28125 498.765625 c
h
-60.921875 531.421875 m
-64.8125 531.421875 l
-64.8125 494.953125 l
-60.921875 494.953125 l
-60.921875 531.421875 l
h
-56.75 505.734375 m
-52.578125 505.734375 l
-46.953125 520.375 l
-45.09375 525.390625 -44.65625 527.625 -44.65625 527.625 c
-44.46875 527.625 l
-44.15625 526.421875 -43.1875 523.53125 -43.1875 523.53125 c
-42.21875 520.640625 -36.828125 505.734375 -36.828125 505.734375 c
-32.65625 505.734375 l
-43.6875 534.984375 l
-45.328125 539.328125 -47.523438 541.140625 -47.523438 541.140625 c
-49.71875 542.953125 -52.90625 542.953125 -52.90625 542.953125 c
-54.6875 542.953125 -56.421875 542.5625 -56.421875 542.5625 c
-56.421875 539.4375 l
-55.125 539.71875 -53.53125 539.71875 -53.53125 539.71875 c
-49.53125 539.71875 -47.8125 535.21875 -47.8125 535.21875 c
-46.390625 531.5625 l
-56.75 505.734375 l
h
-15.421875 531.421875 m
-15.421875 497.15625 l
-11.4375 497.15625 l
-11.4375 531.421875 l
-15.421875 531.421875 l
h
14.953125 531.421875 m
14.953125 514.796875 l
14.953125 511.65625 13.523438 510.109375 13.523438 510.109375 c
12.09375 508.5625 9.046875 508.5625 9.046875 508.5625 c
5.015625 508.5625 3.140625 510.742188 3.140625 510.742188 c
1.265625 512.921875 1.265625 517.9375 1.265625 517.9375 c
1.265625 531.421875 l
-2.625 531.421875 l
-2.625 505.734375 l
0.546875 505.734375 l
1.171875 509.25 l
1.359375 509.25 l
2.5625 507.34375 4.71875 506.304688 4.71875 506.304688 c
6.875 505.265625 9.515625 505.265625 9.515625 505.265625 c
14.15625 505.265625 16.5 507.5 16.5 507.5 c
18.84375 509.734375 18.84375 514.65625 18.84375 514.65625 c
18.84375 531.421875 l
14.953125 531.421875 l
h
37.078125 531.890625 m
31.5 531.890625 28.445312 528.453125 28.445312 528.453125 c
25.390625 525.015625 25.390625 518.734375 25.390625 518.734375 c
25.390625 512.296875 28.492187 508.78125 28.492187 508.78125 c
31.59375 505.265625 37.34375 505.265625 37.34375 505.265625 c
39.1875 505.265625 41.039063 505.664063 41.039063 505.664063 c
42.890625 506.0625 43.953125 506.59375 43.953125 506.59375 c
42.75 509.90625 l
41.46875 509.390625 39.945313 509.046875 39.945313 509.046875 c
38.421875 508.703125 37.25 508.703125 37.25 508.703125 c
29.421875 508.703125 29.421875 518.6875 29.421875 518.6875 c
29.421875 523.421875 31.328125 525.953125 31.328125 525.953125 c
33.234375 528.484375 36.984375 528.484375 36.984375 528.484375 c
40.203125 528.484375 43.578125 527.109375 43.578125 527.109375 c
43.578125 530.546875 l
41 531.890625 37.078125 531.890625 37.078125 531.890625 c
h
53.5625 531.421875 m
49.671875 531.421875 l
49.671875 505.734375 l
53.5625 505.734375 l
53.5625 531.421875 l
h
49.34375 498.765625 m
49.34375 497.4375 50 496.8125 50 496.8125 c
50.65625 496.1875 51.640625 496.1875 51.640625 496.1875 c
52.578125 496.1875 53.257813 496.820312 53.257813 496.820312 c
53.9375 497.453125 53.9375 498.765625 53.9375 498.765625 c
53.9375 500.078125 53.257813 500.726562 53.257813 500.726562 c
52.578125 501.375 51.640625 501.375 51.640625 501.375 c
50.65625 501.375 50 500.726562 50 500.726562 c
49.34375 500.078125 49.34375 498.765625 49.34375 498.765625 c
h
79.296875 527.96875 m
79.09375 527.96875 l
76.390625 531.890625 71.03125 531.890625 71.03125 531.890625 c
65.984375 531.890625 63.1875 528.445313 63.1875 528.445313 c
60.390625 525 60.390625 518.640625 60.390625 518.640625 c
60.390625 512.296875 63.203125 508.78125 63.203125 508.78125 c
66.015625 505.265625 71.03125 505.265625 71.03125 505.265625 c
76.25 505.265625 79.046875 509.0625 79.046875 509.0625 c
79.34375 509.0625 l
79.1875 507.203125 l
79.09375 505.40625 l
79.09375 494.953125 l
82.984375 494.953125 l
82.984375 531.421875 l
79.8125 531.421875 l
79.296875 527.96875 l
h
71.515625 528.625 m
75.5 528.625 77.296875 526.460938 77.296875 526.460938 c
79.09375 524.296875 79.09375 519.46875 79.09375 519.46875 c
79.09375 518.640625 l
79.09375 513.1875 77.273437 510.851563 77.273437 510.851563 c
75.453125 508.515625 71.46875 508.515625 71.46875 508.515625 c
68.046875 508.515625 66.234375 511.179688 66.234375 511.179688 c
64.421875 513.84375 64.421875 518.6875 64.421875 518.6875 c
64.421875 523.609375 66.226563 526.117188 66.226563 526.117188 c
68.03125 528.625 71.515625 528.625 71.515625 528.625 c
h
102.078125 531.890625 m
96.375 531.890625 93.085937 528.421875 93.085937 528.421875 c
89.796875 524.953125 89.796875 518.78125 89.796875 518.78125 c
89.796875 512.578125 92.851563 508.921875 92.851563 508.921875 c
95.90625 505.265625 101.0625 505.265625 101.0625 505.265625 c
105.890625 505.265625 108.703125 508.4375 108.703125 508.4375 c
111.515625 511.609375 111.515625 516.8125 111.515625 516.8125 c
111.515625 519.28125 l
93.828125 519.28125 l
93.9375 523.796875 96.109375 526.140625 96.109375 526.140625 c
98.28125 528.484375 102.21875 528.484375 102.21875 528.484375 c
106.359375 528.484375 110.421875 526.75 110.421875 526.75 c
110.421875 530.21875 l
108.359375 531.109375 106.515625 531.5 106.515625 531.5 c
104.671875 531.890625 102.078125 531.890625 102.078125 531.890625 c
h
101.015625 508.515625 m
97.921875 508.515625 96.085937 510.53125 96.085937 510.53125 c
94.25 512.546875 93.921875 516.109375 93.921875 516.109375 c
107.34375 516.109375 l
107.34375 512.4375 105.703125 510.476562 105.703125 510.476562 c
104.0625 508.515625 101.015625 508.515625 101.015625 508.515625 c
h
135.734375 531.421875 m
135.734375 514.796875 l
135.734375 511.65625 134.304688 510.109375 134.304688 510.109375 c
132.875 508.5625 129.828125 508.5625 129.828125 508.5625 c
125.796875 508.5625 123.921875 510.742188 123.921875 510.742188 c
122.046875 512.921875 122.046875 517.9375 122.046875 517.9375 c
122.046875 531.421875 l
118.15625 531.421875 l
118.15625 505.734375 l
121.328125 505.734375 l
121.953125 509.25 l
122.140625 509.25 l
123.34375 507.34375 125.5 506.304688 125.5 506.304688 c
127.65625 505.265625 130.296875 505.265625 130.296875 505.265625 c
134.9375 505.265625 137.28125 507.5 137.28125 507.5 c
139.625 509.734375 139.625 514.65625 139.625 514.65625 c
139.625 531.421875 l
135.734375 531.421875 l
h
157.875 531.890625 m
152.296875 531.890625 149.242188 528.453125 149.242188 528.453125 c
146.1875 525.015625 146.1875 518.734375 146.1875 518.734375 c
146.1875 512.296875 149.289062 508.78125 149.289062 508.78125 c
152.390625 505.265625 158.140625 505.265625 158.140625 505.265625 c
159.984375 505.265625 161.835938 505.664063 161.835938 505.664063 c
163.6875 506.0625 164.75 506.59375 164.75 506.59375 c
163.546875 509.90625 l
162.265625 509.390625 160.742188 509.046875 160.742188 509.046875 c
159.21875 508.703125 158.046875 508.703125 158.046875 508.703125 c
150.21875 508.703125 150.21875 518.6875 150.21875 518.6875 c
150.21875 523.421875 152.125 525.953125 152.125 525.953125 c
154.03125 528.484375 157.78125 528.484375 157.78125 528.484375 c
161 528.484375 164.375 527.109375 164.375 527.109375 c
164.375 530.546875 l
161.796875 531.890625 157.875 531.890625 157.875 531.890625 c
h
181.328125 531.890625 m
175.625 531.890625 172.335938 528.421875 172.335938 528.421875 c
169.046875 524.953125 169.046875 518.78125 169.046875 518.78125 c
169.046875 512.578125 172.101562 508.921875 172.101562 508.921875 c
175.15625 505.265625 180.3125 505.265625 180.3125 505.265625 c
185.140625 505.265625 187.953125 508.4375 187.953125 508.4375 c
190.765625 511.609375 190.765625 516.8125 190.765625 516.8125 c
190.765625 519.28125 l
173.078125 519.28125 l
173.1875 523.796875 175.359375 526.140625 175.359375 526.140625 c
177.53125 528.484375 181.46875 528.484375 181.46875 528.484375 c
185.609375 528.484375 189.671875 526.75 189.671875 526.75 c
189.671875 530.21875 l
187.609375 531.109375 185.765625 531.5 185.765625 531.5 c
183.921875 531.890625 181.328125 531.890625 181.328125 531.890625 c
h
180.265625 508.515625 m
177.171875 508.515625 175.335938 510.53125 175.335938 510.53125 c
173.5 512.546875 173.171875 516.109375 173.171875 516.109375 c
186.59375 516.109375 l
186.59375 512.4375 184.953125 510.476562 184.953125 510.476562 c
183.3125 508.515625 180.265625 508.515625 180.265625 508.515625 c
h
f
Q
q
[4.166667 0 0 4.166667 1312.500029 416.666676] cm
-0.000007 0.000003 205.000015 76.000003 re
W
/DeviceGray {} cs
[1] sc
/DeviceGray {} CS
[0] SC
0.5 0.5 204 75 re
f
Q
q
[4.166667 0 0 4.166667 1312.500029 416.666676] cm
-0.000007 0.000003 205.000015 76.000003 re
W
/DeviceGray {} CS
[0.2667] SC
/DeviceGray {} cs
[0] sc
0 J
0 j
1 w
4 M
0.5 0.5 204 75 re
S
Q
q
[4.166667 0 0 4.166667 1316.666696 507.500008] cm
-1.000007 -21.799997 205.000015 76.000003 re
W
/DeviceRGB {} CS
[0.1216 0.4667 0.7059] SC
/DeviceGray {} cs
[0] sc
0 J
0 j
3 w
4 M
5 0 m
35 0 l
S
Q
q
[1.909722 0 0 1.909722 1316.666696 507.500008] cm
-2.181833 -47.56363 447.272766 165.818191 re
W
/DeviceGray {} CS
[0] SC
95.96875 4.46875 m
95.96875 18.71875 l
91.984375 18.71875 l
91.984375 -15.546875 l
101.375 -15.546875 l
107.6875 -15.546875 110.695312 -13.132813 110.695312 -13.132813 c
113.703125 -10.71875 113.703125 -5.875 113.703125 -5.875 c
113.703125 0.921875 106.8125 3.3125 106.8125 3.3125 c
116.125 18.71875 l
111.40625 18.71875 l
103.109375 4.46875 l
95.96875 4.46875 l
h
95.96875 1.046875 m
101.421875 1.046875 l
105.640625 1.046875 107.609375 -0.632813 107.609375 -0.632813 c
109.578125 -2.3125 109.578125 -5.65625 109.578125 -5.65625 c
109.578125 -9.0625 107.578125 -10.5625 107.578125 -10.5625 c
105.578125 -12.0625 101.140625 -12.0625 101.140625 -12.0625 c
95.96875 -12.0625 l
95.96875 1.046875 l
h
136.859375 18.71875 m
136.09375 15.0625 l
135.90625 15.0625 l
133.984375 17.46875 132.070313 18.328125 132.070313 18.328125 c
130.15625 19.1875 127.296875 19.1875 127.296875 19.1875 c
123.484375 19.1875 121.3125 17.21875 121.3125 17.21875 c
119.140625 15.25 119.140625 11.609375 119.140625 11.609375 c
119.140625 3.828125 131.59375 3.453125 131.59375 3.453125 c
135.953125 3.3125 l
135.953125 1.71875 l
135.953125 -1.296875 134.648438 -2.742188 134.648438 -2.742188 c
133.34375 -4.1875 130.484375 -4.1875 130.484375 -4.1875 c
127.28125 -4.1875 123.21875 -2.21875 123.21875 -2.21875 c
122.03125 -5.1875 l
123.921875 -6.21875 126.1875 -6.804687 126.1875 -6.804687 c
128.453125 -7.390625 130.71875 -7.390625 130.71875 -7.390625 c
135.3125 -7.390625 137.53125 -5.351563 137.53125 -5.351563 c
139.75 -3.3125 139.75 1.1875 139.75 1.1875 c
139.75 18.71875 l
136.859375 18.71875 l
h
128.078125 15.96875 m
131.703125 15.96875 133.78125 13.976563 133.78125 13.976563 c
135.859375 11.984375 135.859375 8.40625 135.859375 8.40625 c
135.859375 6.078125 l
131.96875 6.25 l
127.328125 6.40625 125.273437 7.6875 125.273437 7.6875 c
123.21875 8.96875 123.21875 11.65625 123.21875 11.65625 c
123.21875 13.765625 124.5 14.867188 124.5 14.867188 c
125.78125 15.96875 128.078125 15.96875 128.078125 15.96875 c
h
165.328125 18.71875 m
165.328125 2.09375 l
165.328125 -1.046875 163.898438 -2.59375 163.898438 -2.59375 c
162.46875 -4.140625 159.421875 -4.140625 159.421875 -4.140625 c
155.390625 -4.140625 153.515625 -1.960938 153.515625 -1.960938 c
151.640625 0.21875 151.640625 5.234375 151.640625 5.234375 c
151.640625 18.71875 l
147.75 18.71875 l
147.75 -6.96875 l
150.921875 -6.96875 l
151.546875 -3.453125 l
151.734375 -3.453125 l
152.9375 -5.359375 155.09375 -6.398437 155.09375 -6.398437 c
157.25 -7.4375 159.890625 -7.4375 159.890625 -7.4375 c
164.53125 -7.4375 166.875 -5.203125 166.875 -5.203125 c
169.21875 -2.96875 169.21875 1.953125 169.21875 1.953125 c
169.21875 18.71875 l
165.328125 18.71875 l
h
194.703125 15.265625 m
194.5 15.265625 l
191.796875 19.1875 186.4375 19.1875 186.4375 19.1875 c
181.390625 19.1875 178.59375 15.742188 178.59375 15.742188 c
175.796875 12.296875 175.796875 5.9375 175.796875 5.9375 c
175.796875 -0.40625 178.609375 -3.921875 178.609375 -3.921875 c
181.421875 -7.4375 186.4375 -7.4375 186.4375 -7.4375 c
191.65625 -7.4375 194.453125 -3.640625 194.453125 -3.640625 c
194.75 -3.640625 l
194.59375 -5.5 l
194.5 -7.296875 l
194.5 -17.75 l
198.390625 -17.75 l
198.390625 18.71875 l
195.21875 18.71875 l
194.703125 15.265625 l
h
186.921875 15.921875 m
190.90625 15.921875 192.703125 13.757813 192.703125 13.757813 c
194.5 11.59375 194.5 6.765625 194.5 6.765625 c
194.5 5.9375 l
194.5 0.484375 192.679687 -1.851563 192.679687 -1.851563 c
190.859375 -4.1875 186.875 -4.1875 186.875 -4.1875 c
183.453125 -4.1875 181.640625 -1.523438 181.640625 -1.523438 c
179.828125 1.140625 179.828125 5.984375 179.828125 5.984375 c
179.828125 10.90625 181.632813 13.414063 181.632813 13.414063 c
183.4375 15.921875 186.921875 15.921875 186.921875 15.921875 c
h
228.796875 5.84375 m
228.796875 12.125 225.632813 15.65625 225.632813 15.65625 c
222.46875 19.1875 216.890625 19.1875 216.890625 19.1875 c
213.453125 19.1875 210.78125 17.570312 210.78125 17.570312 c
208.109375 15.953125 206.65625 12.929688 206.65625 12.929688 c
205.203125 9.90625 205.203125 5.84375 205.203125 5.84375 c
205.203125 -0.4375 208.34375 -3.9375 208.34375 -3.9375 c
211.484375 -7.4375 217.0625 -7.4375 217.0625 -7.4375 c
222.453125 -7.4375 225.625 -3.851562 225.625 -3.851562 c
228.796875 -0.265625 228.796875 5.84375 228.796875 5.84375 c
h
209.234375 5.84375 m
209.234375 10.765625 211.203125 13.34375 211.203125 13.34375 c
213.171875 15.921875 216.984375 15.921875 216.984375 15.921875 c
220.8125 15.921875 222.789062 13.359375 222.789062 13.359375 c
224.765625 10.796875 224.765625 5.84375 224.765625 5.84375 c
224.765625 0.953125 222.789062 -1.59375 222.789062 -1.59375 c
220.8125 -4.140625 216.9375 -4.140625 216.9375 -4.140625 c
213.125 -4.140625 211.179687 -1.632813 211.179687 -1.632813 c
209.234375 0.875 209.234375 5.84375 209.234375 5.84375 c
h
268.375 18.71875 m
268.375 2 l
268.375 -1.0625 267.0625 -2.601563 267.0625 -2.601563 c
265.75 -4.140625 262.984375 -4.140625 262.984375 -4.140625 c
259.34375 -4.140625 257.609375 -2.054688 257.609375 -2.054688 c
255.875 0.03125 255.875 4.375 255.875 4.375 c
255.875 18.71875 l
251.984375 18.71875 l
251.984375 2 l
251.984375 -1.0625 250.671875 -2.601563 250.671875 -2.601563 c
249.359375 -4.140625 246.578125 -4.140625 246.578125 -4.140625 c
242.921875 -4.140625 241.21875 -1.945313 241.21875 -1.945313 c
239.515625 0.25 239.515625 5.234375 239.515625 5.234375 c
239.515625 18.71875 l
235.625 18.71875 l
235.625 -6.96875 l
238.796875 -6.96875 l
239.421875 -3.453125 l
239.609375 -3.453125 l
240.71875 -5.328125 242.71875 -6.382812 242.71875 -6.382812 c
244.71875 -7.4375 247.203125 -7.4375 247.203125 -7.4375 c
253.234375 -7.4375 255.078125 -3.078125 255.078125 -3.078125 c
255.265625 -3.078125 l
256.421875 -5.09375 258.601563 -6.265625 258.601563 -6.265625 c
260.78125 -7.4375 263.5625 -7.4375 263.5625 -7.4375 c
267.921875 -7.4375 270.09375 -5.203125 270.09375 -5.203125 c
272.265625 -2.96875 272.265625 1.953125 272.265625 1.953125 c
272.265625 18.71875 l
268.375 18.71875 l
h
308.390625 0.765625 m
320.046875 0.765625 l
320.046875 17.421875 l
317.328125 18.296875 314.515625 18.742187 314.515625 18.742187 c
311.703125 19.1875 308 19.1875 308 19.1875 c
300.21875 19.1875 295.882813 14.554688 295.882813 14.554688 c
291.546875 9.921875 291.546875 1.578125 291.546875 1.578125 c
291.546875 -3.765625 293.6875 -7.78125 293.6875 -7.78125 c
295.828125 -11.796875 299.859375 -13.921875 299.859375 -13.921875 c
303.890625 -16.046875 309.3125 -16.046875 309.3125 -16.046875 c
314.796875 -16.046875 319.53125 -14.03125 319.53125 -14.03125 c
317.984375 -10.515625 l
313.34375 -12.484375 309.046875 -12.484375 309.046875 -12.484375 c
302.796875 -12.484375 299.28125 -8.757813 299.28125 -8.757813 c
295.765625 -5.03125 295.765625 1.578125 295.765625 1.578125 c
295.765625 8.515625 299.148438 12.101563 299.148438 12.101563 c
302.53125 15.6875 309.09375 15.6875 309.09375 15.6875 c
312.65625 15.6875 316.0625 14.875 316.0625 14.875 c
316.0625 4.328125 l
308.390625 4.328125 l
308.390625 0.765625 l
h
339.40625 -7.4375 m
341.125 -7.4375 342.484375 -7.15625 342.484375 -7.15625 c
341.9375 -3.546875 l
340.34375 -3.90625 339.125 -3.90625 339.125 -3.90625 c
336.015625 -3.90625 333.796875 -1.375 333.796875 -1.375 c
331.578125 1.15625 331.578125 4.9375 331.578125 4.9375 c
331.578125 18.71875 l
327.6875 18.71875 l
327.6875 -6.96875 l
330.90625 -6.96875 l
331.34375 -2.21875 l
331.53125 -2.21875 l
332.96875 -4.71875 334.984375 -6.078125 334.984375 -6.078125 c
337 -7.4375 339.40625 -7.4375 339.40625 -7.4375 c
h
369.453125 5.84375 m
369.453125 12.125 366.289063 15.65625 366.289063 15.65625 c
363.125 19.1875 357.546875 19.1875 357.546875 19.1875 c
354.109375 19.1875 351.4375 17.570312 351.4375 17.570312 c
348.765625 15.953125 347.3125 12.929688 347.3125 12.929688 c
345.859375 9.90625 345.859375 5.84375 345.859375 5.84375 c
345.859375 -0.4375 349 -3.9375 349 -3.9375 c
352.140625 -7.4375 357.71875 -7.4375 357.71875 -7.4375 c
363.109375 -7.4375 366.28125 -3.851562 366.28125 -3.851562 c
369.453125 -0.265625 369.453125 5.84375 369.453125 5.84375 c
h
349.890625 5.84375 m
349.890625 10.765625 351.859375 13.34375 351.859375 13.34375 c
353.828125 15.921875 357.640625 15.921875 357.640625 15.921875 c
361.46875 15.921875 363.445312 13.359375 363.445312 13.359375 c
365.421875 10.796875 365.421875 5.84375 365.421875 5.84375 c
365.421875 0.953125 363.445312 -1.59375 363.445312 -1.59375 c
361.46875 -4.140625 357.59375 -4.140625 357.59375 -4.140625 c
353.78125 -4.140625 351.835937 -1.632813 351.835937 -1.632813 c
349.890625 0.875 349.890625 5.84375 349.890625 5.84375 c
h
379.921875 -6.96875 m
379.921875 9.6875 l
379.921875 12.828125 381.351563 14.375 381.351563 14.375 c
382.78125 15.921875 385.828125 15.921875 385.828125 15.921875 c
389.859375 15.921875 391.726562 13.71875 391.726562 13.71875 c
393.59375 11.515625 393.59375 6.53125 393.59375 6.53125 c
393.59375 -6.96875 l
397.484375 -6.96875 l
397.484375 18.71875 l
394.265625 18.71875 l
393.703125 15.265625 l
393.5 15.265625 l
392.296875 17.171875 390.179688 18.179688 390.179688 18.179688 c
388.0625 19.1875 385.34375 19.1875 385.34375 19.1875 c
380.65625 19.1875 378.320312 16.960937 378.320312 16.960937 c
375.984375 14.734375 375.984375 9.828125 375.984375 9.828125 c
375.984375 -6.96875 l
379.921875 -6.96875 l
h
417.6875 19.1875 m
415.1875 19.1875 413.109375 18.257813 413.109375 18.257813 c
411.03125 17.328125 409.625 15.40625 409.625 15.40625 c
409.34375 15.40625 l
409.625 17.65625 409.625 19.6875 409.625 19.6875 c
409.625 30.25 l
405.734375 30.25 l
405.734375 -6.96875 l
408.90625 -6.96875 l
409.4375 -3.453125 l
409.625 -3.453125 l
411.125 -5.5625 413.117188 -6.5 413.117188 -6.5 c
415.109375 -7.4375 417.6875 -7.4375 417.6875 -7.4375 c
422.796875 -7.4375 425.578125 -3.945313 425.578125 -3.945313 c
428.359375 -0.453125 428.359375 5.84375 428.359375 5.84375 c
428.359375 12.171875 425.53125 15.679688 425.53125 15.679688 c
422.703125 19.1875 417.6875 19.1875 417.6875 19.1875 c
h
417.125 -4.140625 m
413.1875 -4.140625 411.429688 -1.960938 411.429688 -1.960938 c
409.671875 0.21875 409.625 4.984375 409.625 4.984375 c
409.625 5.84375 l
409.625 11.265625 411.429688 13.59375 411.429688 13.59375 c
413.234375 15.921875 417.21875 15.921875 417.21875 15.921875 c
420.546875 15.921875 422.4375 13.226563 422.4375 13.226563 c
424.328125 10.53125 424.328125 5.796875 424.328125 5.796875 c
424.328125 1 422.4375 -1.570313 422.4375 -1.570313 c
420.546875 -4.140625 417.125 -4.140625 417.125 -4.140625 c
h
f
Q
q
[4.166667 0 0 4.166667 1316.666696 639.166687] cm
-1.000007 -53.4 205.000022 76.000006 re
W
/DeviceRGB {} CS
[1 0.498 0.0549] SC
/DeviceGray {} cs
[0] sc
[9 3 3 3] 0 d
0 J
0 j
3 w
4 M
5 0 m
35 0 l
S
Q
q
[1.909722 0 0 1.909722 1316.666696 639.166687] cm
-2.181833 -116.509083 447.272766 165.818187 re
W
/DeviceGray {} CS
[0] SC
111.3125 9.59375 m
111.3125 14.125 108.03125 16.65625 108.03125 16.65625 c
104.75 19.1875 99.125 19.1875 99.125 19.1875 c
93.03125 19.1875 89.75 17.609375 89.75 17.609375 c
89.75 13.765625 l
91.859375 14.65625 94.34375 15.171875 94.34375 15.171875 c
96.828125 15.6875 99.265625 15.6875 99.265625 15.6875 c
103.25 15.6875 105.265625 14.179688 105.265625 14.179688 c
107.28125 12.671875 107.28125 9.96875 107.28125 9.96875 c
107.28125 8.1875 106.570312 7.054687 106.570312 7.054687 c
105.859375 5.921875 104.179687 4.960937 104.179687 4.960937 c
102.5 4 99.078125 2.78125 99.078125 2.78125 c
94.296875 1.0625 92.25 -1.28125 92.25 -1.28125 c
90.203125 -3.625 90.203125 -7.390625 90.203125 -7.390625 c
90.203125 -11.359375 93.179687 -13.703125 93.179687 -13.703125 c
96.15625 -16.046875 101.046875 -16.046875 101.046875 -16.046875 c
106.15625 -16.046875 110.453125 -14.171875 110.453125 -14.171875 c
109.203125 -10.703125 l
104.96875 -12.484375 100.953125 -12.484375 100.953125 -12.484375 c
97.796875 -12.484375 96.015625 -11.125 96.015625 -11.125 c
94.234375 -9.765625 94.234375 -7.34375 94.234375 -7.34375 c
94.234375 -5.5625 94.890625 -4.429688 94.890625 -4.429688 c
95.546875 -3.296875 97.101563 -2.34375 97.101563 -2.34375 c
98.65625 -1.390625 101.875 -0.25 101.875 -0.25 c
107.265625 1.671875 109.289063 3.875 109.289063 3.875 c
111.3125 6.078125 111.3125 9.59375 111.3125 9.59375 c
h
128.59375 19.1875 m
122.890625 19.1875 119.601563 15.71875 119.601563 15.71875 c
116.3125 12.25 116.3125 6.078125 116.3125 6.078125 c
116.3125 -0.125 119.367188 -3.78125 119.367188 -3.78125 c
122.421875 -7.4375 127.578125 -7.4375 127.578125 -7.4375 c
132.40625 -7.4375 135.21875 -4.265625 135.21875 -4.265625 c
138.03125 -1.09375 138.03125 4.109375 138.03125 4.109375 c
138.03125 6.578125 l
120.34375 6.578125 l
120.453125 11.09375 122.625 13.4375 122.625 13.4375 c
124.796875 15.78125 128.734375 15.78125 128.734375 15.78125 c
132.875 15.78125 136.9375 14.046875 136.9375 14.046875 c
136.9375 17.515625 l
134.875 18.40625 133.03125 18.796875 133.03125 18.796875 c
131.1875 19.1875 128.59375 19.1875 128.59375 19.1875 c
h
127.53125 -4.1875 m
124.4375 -4.1875 122.601563 -2.171875 122.601563 -2.171875 c
120.765625 -0.15625 120.4375 3.40625 120.4375 3.40625 c
133.859375 3.40625 l
133.859375 -0.265625 132.21875 -2.226563 132.21875 -2.226563 c
130.578125 -4.1875 127.53125 -4.1875 127.53125 -4.1875 c
h
162.234375 18.71875 m
162.234375 2.09375 l
162.234375 -1.046875 160.804688 -2.59375 160.804688 -2.59375 c
159.375 -4.140625 156.328125 -4.140625 156.328125 -4.140625 c
152.296875 -4.140625 150.421875 -1.960938 150.421875 -1.960938 c
148.546875 0.21875 148.546875 5.234375 148.546875 5.234375 c
148.546875 18.71875 l
144.65625 18.71875 l
144.65625 -6.96875 l
147.828125 -6.96875 l
148.453125 -3.453125 l
148.640625 -3.453125 l
149.84375 -5.359375 152 -6.398437 152 -6.398437 c
154.15625 -7.4375 156.796875 -7.4375 156.796875 -7.4375 c
161.4375 -7.4375 163.78125 -5.203125 163.78125 -5.203125 c
166.125 -2.96875 166.125 1.953125 166.125 1.953125 c
166.125 18.71875 l
162.234375 18.71875 l
h
190.703125 11.703125 m
190.703125 15.296875 188.03125 17.242187 188.03125 17.242187 c
185.359375 19.1875 180.53125 19.1875 180.53125 19.1875 c
175.421875 19.1875 172.5625 17.5625 172.5625 17.5625 c
172.5625 13.953125 l
174.40625 14.890625 176.53125 15.429688 176.53125 15.429688 c
178.65625 15.96875 180.625 15.96875 180.625 15.96875 c
183.671875 15.96875 185.3125 15 185.3125 15 c
186.953125 14.03125 186.953125 12.03125 186.953125 12.03125 c
186.953125 10.53125 185.648438 9.46875 185.648438 9.46875 c
184.34375 8.40625 180.578125 6.953125 180.578125 6.953125 c
176.984375 5.609375 175.476562 4.617187 175.476562 4.617187 c
173.96875 3.625 173.226562 2.359375 173.226562 2.359375 c
172.484375 1.09375 172.484375 -0.671875 172.484375 -0.671875 c
172.484375 -3.8125 175.039062 -5.625 175.039062 -5.625 c
177.59375 -7.4375 182.046875 -7.4375 182.046875 -7.4375 c
186.203125 -7.4375 190.15625 -5.75 190.15625 -5.75 c
188.78125 -2.59375 l
184.90625 -4.1875 181.765625 -4.1875 181.765625 -4.1875 c
179 -4.1875 177.59375 -3.320313 177.59375 -3.320313 c
176.1875 -2.453125 176.1875 -0.921875 176.1875 -0.921875 c
176.1875 0.109375 176.71875 0.835938 176.71875 0.835938 c
177.25 1.5625 178.421875 2.21875 178.421875 2.21875 c
179.59375 2.875 182.921875 4.109375 182.921875 4.109375 c
187.484375 5.78125 189.09375 7.46875 189.09375 7.46875 c
190.703125 9.15625 190.703125 11.703125 190.703125 11.703125 c
h
219.1875 5.84375 m
219.1875 12.125 216.023438 15.65625 216.023438 15.65625 c
212.859375 19.1875 207.28125 19.1875 207.28125 19.1875 c
203.84375 19.1875 201.171875 17.570312 201.171875 17.570312 c
198.5 15.953125 197.046875 12.929688 197.046875 12.929688 c
195.59375 9.90625 195.59375 5.84375 195.59375 5.84375 c
195.59375 -0.4375 198.734375 -3.9375 198.734375 -3.9375 c
201.875 -7.4375 207.453125 -7.4375 207.453125 -7.4375 c
212.84375 -7.4375 216.015625 -3.851562 216.015625 -3.851562 c
219.1875 -0.265625 219.1875 5.84375 219.1875 5.84375 c
h
199.625 5.84375 m
199.625 10.765625 201.59375 13.34375 201.59375 13.34375 c
203.5625 15.921875 207.375 15.921875 207.375 15.921875 c
211.203125 15.921875 213.179687 13.359375 213.179687 13.359375 c
215.15625 10.796875 215.15625 5.84375 215.15625 5.84375 c
215.15625 0.953125 213.179687 -1.59375 213.179687 -1.59375 c
211.203125 -4.140625 207.328125 -4.140625 207.328125 -4.140625 c
203.515625 -4.140625 201.570313 -1.632813 201.570313 -1.632813 c
199.625 0.875 199.625 5.84375 199.625 5.84375 c
h
237.734375 -7.4375 m
239.453125 -7.4375 240.8125 -7.15625 240.8125 -7.15625 c
240.265625 -3.546875 l
238.671875 -3.90625 237.453125 -3.90625 237.453125 -3.90625 c
234.34375 -3.90625 232.125 -1.375 232.125 -1.375 c
229.90625 1.15625 229.90625 4.9375 229.90625 4.9375 c
229.90625 18.71875 l
226.015625 18.71875 l
226.015625 -6.96875 l
229.234375 -6.96875 l
229.671875 -2.21875 l
229.859375 -2.21875 l
231.296875 -4.71875 233.3125 -6.078125 233.3125 -6.078125 c
235.328125 -7.4375 237.734375 -7.4375 237.734375 -7.4375 c
h
273.734375 0.765625 m
285.390625 0.765625 l
285.390625 17.421875 l
282.671875 18.296875 279.859375 18.742187 279.859375 18.742187 c
277.046875 19.1875 273.34375 19.1875 273.34375 19.1875 c
265.5625 19.1875 261.226562 14.554688 261.226562 14.554688 c
256.890625 9.921875 256.890625 1.578125 256.890625 1.578125 c
256.890625 -3.765625 259.03125 -7.78125 259.03125 -7.78125 c
261.171875 -11.796875 265.203125 -13.921875 265.203125 -13.921875 c
269.234375 -16.046875 274.65625 -16.046875 274.65625 -16.046875 c
280.140625 -16.046875 284.875 -14.03125 284.875 -14.03125 c
283.328125 -10.515625 l
278.6875 -12.484375 274.390625 -12.484375 274.390625 -12.484375 c
268.140625 -12.484375 264.625 -8.757813 264.625 -8.757813 c
261.109375 -5.03125 261.109375 1.578125 261.109375 1.578125 c
261.109375 8.515625 264.492187 12.101563 264.492187 12.101563 c
267.875 15.6875 274.4375 15.6875 274.4375 15.6875 c
278 15.6875 281.40625 14.875 281.40625 14.875 c
281.40625 4.328125 l
273.734375 4.328125 l
273.734375 0.765625 l
h
304.734375 -7.4375 m
306.453125 -7.4375 307.8125 -7.15625 307.8125 -7.15625 c
307.265625 -3.546875 l
305.671875 -3.90625 304.453125 -3.90625 304.453125 -3.90625 c
301.34375 -3.90625 299.125 -1.375 299.125 -1.375 c
296.90625 1.15625 296.90625 4.9375 296.90625 4.9375 c
296.90625 18.71875 l
293.015625 18.71875 l
293.015625 -6.96875 l
296.234375 -6.96875 l
296.671875 -2.21875 l
296.859375 -2.21875 l
298.296875 -4.71875 300.3125 -6.078125 300.3125 -6.078125 c
302.328125 -7.4375 304.734375 -7.4375 304.734375 -7.4375 c
h
334.78125 5.84375 m
334.78125 12.125 331.617188 15.65625 331.617188 15.65625 c
328.453125 19.1875 322.875 19.1875 322.875 19.1875 c
319.4375 19.1875 316.765625 17.570312 316.765625 17.570312 c
314.09375 15.953125 312.640625 12.929688 312.640625 12.929688 c
311.1875 9.90625 311.1875 5.84375 311.1875 5.84375 c
311.1875 -0.4375 314.328125 -3.9375 314.328125 -3.9375 c
317.46875 -7.4375 323.046875 -7.4375 323.046875 -7.4375 c
328.4375 -7.4375 331.609375 -3.851562 331.609375 -3.851562 c
334.78125 -0.265625 334.78125 5.84375 334.78125 5.84375 c
h
315.21875 5.84375 m
315.21875 10.765625 317.1875 13.34375 317.1875 13.34375 c
319.15625 15.921875 322.96875 15.921875 322.96875 15.921875 c
326.796875 15.921875 328.773437 13.359375 328.773437 13.359375 c
330.75 10.796875 330.75 5.84375 330.75 5.84375 c
330.75 0.953125 328.773437 -1.59375 328.773437 -1.59375 c
326.796875 -4.140625 322.921875 -4.140625 322.921875 -4.140625 c
319.109375 -4.140625 317.164063 -1.632813 317.164063 -1.632813 c
315.21875 0.875 315.21875 5.84375 315.21875 5.84375 c
h
345.265625 -6.96875 m
345.265625 9.6875 l
345.265625 12.828125 346.695312 14.375 346.695312 14.375 c
348.125 15.921875 351.171875 15.921875 351.171875 15.921875 c
355.203125 15.921875 357.070312 13.71875 357.070312 13.71875 c
358.9375 11.515625 358.9375 6.53125 358.9375 6.53125 c
358.9375 -6.96875 l
362.828125 -6.96875 l
362.828125 18.71875 l
359.609375 18.71875 l
359.046875 15.265625 l
358.84375 15.265625 l
357.640625 17.171875 355.523437 18.179688 355.523437 18.179688 c
353.40625 19.1875 350.6875 19.1875 350.6875 19.1875 c
346 19.1875 343.664063 16.960937 343.664063 16.960937 c
341.328125 14.734375 341.328125 9.828125 341.328125 9.828125 c
341.328125 -6.96875 l
345.265625 -6.96875 l
h
383.015625 19.1875 m
380.515625 19.1875 378.4375 18.257813 378.4375 18.257813 c
376.359375 17.328125 374.953125 15.40625 374.953125 15.40625 c
374.671875 15.40625 l
374.953125 17.65625 374.953125 19.6875 374.953125 19.6875 c
374.953125 30.25 l
371.0625 30.25 l
371.0625 -6.96875 l
374.234375 -6.96875 l
374.765625 -3.453125 l
374.953125 -3.453125 l
376.453125 -5.5625 378.445312 -6.5 378.445312 -6.5 c
380.4375 -7.4375 383.015625 -7.4375 383.015625 -7.4375 c
388.125 -7.4375 390.90625 -3.945313 390.90625 -3.945313 c
393.6875 -0.453125 393.6875 5.84375 393.6875 5.84375 c
393.6875 12.171875 390.859375 15.679688 390.859375 15.679688 c
388.03125 19.1875 383.015625 19.1875 383.015625 19.1875 c
h
382.453125 -4.140625 m
378.515625 -4.140625 376.757813 -1.960938 376.757813 -1.960938 c
375 0.21875 374.953125 4.984375 374.953125 4.984375 c
374.953125 5.84375 l
374.953125 11.265625 376.757813 13.59375 376.757813 13.59375 c
378.5625 15.921875 382.546875 15.921875 382.546875 15.921875 c
385.875 15.921875 387.765625 13.226563 387.765625 13.226563 c
389.65625 10.53125 389.65625 5.796875 389.65625 5.796875 c
389.65625 1 387.765625 -1.570313 387.765625 -1.570313 c
385.875 -4.140625 382.453125 -4.140625 382.453125 -4.140625 c
h
f
Q
Q
showpage
%%PageTrailer
pdfEndPage
%%Trailer
end
%%DocumentSuppliedResources:
%%EOF
