%!PS-Adobe-3.0 EPSF-3.0
%Produced by poppler pdftops version: 0.24.5 (http://poppler.freedesktop.org)
%%LanguageLevel: 2
%%DocumentSuppliedResources: (atend)
%%BoundingBox: 0 0 450 450
%%HiResBoundingBox: 0 0 450 450
%%DocumentSuppliedResources: (atend)
%%EndComments
%%BeginProlog
%%BeginResource: procset xpdf 3.00 0
%%Copyright: Copyright 1996-2011 Glyph & Cog, LLC
/xpdf 75 dict def xpdf begin
% PDF special state
/pdfDictSize 15 def
/pdfSetup {
  /setpagedevice where {
    pop 2 dict begin
      /Policies 1 dict dup begin /PageSize 6 def end def
      { /Duplex true def } if
    currentdict end setpagedevice
  } {
    pop
  } ifelse
} def
/pdfSetupPaper {
  2 array astore
  /setpagedevice where {
    pop 2 dict begin
      /PageSize exch def
      /ImagingBBox null def
    currentdict end setpagedevice
  } {
    pop
  } ifelse
} def
/pdfStartPage {
  pdfDictSize dict begin
  /pdfFillCS [] def
  /pdfFillXform {} def
  /pdfStrokeCS [] def
  /pdfStrokeXform {} def
  /pdfFill [0] def
  /pdfStroke [0] def
  /pdfFillOP false def
  /pdfStrokeOP false def
  /pdfLastFill false def
  /pdfLastStroke false def
  /pdfTextMat [1 0 0 1 0 0] def
  /pdfFontSize 0 def
  /pdfCharSpacing 0 def
  /pdfTextRender 0 def
  /pdfPatternCS false def
  /pdfTextRise 0 def
  /pdfWordSpacing 0 def
  /pdfHorizScaling 1 def
  /pdfTextClipPath [] def
} def
/pdfEndPage { end } def
% PDF color state
/cs { /pdfFillXform exch def dup /pdfFillCS exch def
      setcolorspace } def
/CS { /pdfStrokeXform exch def dup /pdfStrokeCS exch def
      setcolorspace } def
/sc { pdfLastFill not { pdfFillCS setcolorspace } if
      dup /pdfFill exch def aload pop pdfFillXform setcolor
     /pdfLastFill true def /pdfLastStroke false def } def
/SC { pdfLastStroke not { pdfStrokeCS setcolorspace } if
      dup /pdfStroke exch def aload pop pdfStrokeXform setcolor
     /pdfLastStroke true def /pdfLastFill false def } def
/op { /pdfFillOP exch def
      pdfLastFill { pdfFillOP setoverprint } if } def
/OP { /pdfStrokeOP exch def
      pdfLastStroke { pdfStrokeOP setoverprint } if } def
/fCol {
  pdfLastFill not {
    pdfFillCS setcolorspace
    pdfFill aload pop pdfFillXform setcolor
    pdfFillOP setoverprint
    /pdfLastFill true def /pdfLastStroke false def
  } if
} def
/sCol {
  pdfLastStroke not {
    pdfStrokeCS setcolorspace
    pdfStroke aload pop pdfStrokeXform setcolor
    pdfStrokeOP setoverprint
    /pdfLastStroke true def /pdfLastFill false def
  } if
} def
% build a font
/pdfMakeFont {
  4 3 roll findfont
  4 2 roll matrix scale makefont
  dup length dict begin
    { 1 index /FID ne { def } { pop pop } ifelse } forall
    /Encoding exch def
    currentdict
  end
  definefont pop
} def
/pdfMakeFont16 {
  exch findfont
  dup length dict begin
    { 1 index /FID ne { def } { pop pop } ifelse } forall
    /WMode exch def
    currentdict
  end
  definefont pop
} def
% graphics state operators
/q { gsave pdfDictSize dict begin } def
/Q {
  end grestore
  /pdfLastFill where {
    pop
    pdfLastFill {
      pdfFillOP setoverprint
    } {
      pdfStrokeOP setoverprint
    } ifelse
  } if
} def
/cm { concat } def
/d { setdash } def
/i { setflat } def
/j { setlinejoin } def
/J { setlinecap } def
/M { setmiterlimit } def
/w { setlinewidth } def
% path segment operators
/m { moveto } def
/l { lineto } def
/c { curveto } def
/re { 4 2 roll moveto 1 index 0 rlineto 0 exch rlineto
      neg 0 rlineto closepath } def
/h { closepath } def
% path painting operators
/S { sCol stroke } def
/Sf { fCol stroke } def
/f { fCol fill } def
/f* { fCol eofill } def
% clipping operators
/W { clip newpath } def
/W* { eoclip newpath } def
/Ws { strokepath clip newpath } def
% text state operators
/Tc { /pdfCharSpacing exch def } def
/Tf { dup /pdfFontSize exch def
      dup pdfHorizScaling mul exch matrix scale
      pdfTextMat matrix concatmatrix dup 4 0 put dup 5 0 put
      exch findfont exch makefont setfont } def
/Tr { /pdfTextRender exch def } def
/Tp { /pdfPatternCS exch def } def
/Ts { /pdfTextRise exch def } def
/Tw { /pdfWordSpacing exch def } def
/Tz { /pdfHorizScaling exch def } def
% text positioning operators
/Td { pdfTextMat transform moveto } def
/Tm { /pdfTextMat exch def } def
% text string operators
/xyshow where {
  pop
  /xyshow2 {
    dup length array
    0 2 2 index length 1 sub {
      2 index 1 index 2 copy get 3 1 roll 1 add get
      pdfTextMat dtransform
      4 2 roll 2 copy 6 5 roll put 1 add 3 1 roll dup 4 2 roll put
    } for
    exch pop
    xyshow
  } def
}{
  /xyshow2 {
    currentfont /FontType get 0 eq {
      0 2 3 index length 1 sub {
        currentpoint 4 index 3 index 2 getinterval show moveto
        2 copy get 2 index 3 2 roll 1 add get
        pdfTextMat dtransform rmoveto
      } for
    } {
      0 1 3 index length 1 sub {
        currentpoint 4 index 3 index 1 getinterval show moveto
        2 copy 2 mul get 2 index 3 2 roll 2 mul 1 add get
        pdfTextMat dtransform rmoveto
      } for
    } ifelse
    pop pop
  } def
} ifelse
/cshow where {
  pop
  /xycp {
    0 3 2 roll
    {
      pop pop currentpoint 3 2 roll
      1 string dup 0 4 3 roll put false charpath moveto
      2 copy get 2 index 2 index 1 add get
      pdfTextMat dtransform rmoveto
      2 add
    } exch cshow
    pop pop
  } def
}{
  /xycp {
    currentfont /FontType get 0 eq {
      0 2 3 index length 1 sub {
        currentpoint 4 index 3 index 2 getinterval false charpath moveto
        2 copy get 2 index 3 2 roll 1 add get
        pdfTextMat dtransform rmoveto
      } for
    } {
      0 1 3 index length 1 sub {
        currentpoint 4 index 3 index 1 getinterval false charpath moveto
        2 copy 2 mul get 2 index 3 2 roll 2 mul 1 add get
        pdfTextMat dtransform rmoveto
      } for
    } ifelse
    pop pop
  } def
} ifelse
/Tj {
  fCol
  0 pdfTextRise pdfTextMat dtransform rmoveto
  currentpoint 4 2 roll
  pdfTextRender 1 and 0 eq {
    2 copy xyshow2
  } if
  pdfTextRender 3 and dup 1 eq exch 2 eq or {
    3 index 3 index moveto
    2 copy
    currentfont /FontType get 3 eq { fCol } { sCol } ifelse
    xycp currentpoint stroke moveto
  } if
  pdfTextRender 4 and 0 ne {
    4 2 roll moveto xycp
    /pdfTextClipPath [ pdfTextClipPath aload pop
      {/moveto cvx}
      {/lineto cvx}
      {/curveto cvx}
      {/closepath cvx}
    pathforall ] def
    currentpoint newpath moveto
  } {
    pop pop pop pop
  } ifelse
  0 pdfTextRise neg pdfTextMat dtransform rmoveto
} def
/TJm { 0.001 mul pdfFontSize mul pdfHorizScaling mul neg 0
       pdfTextMat dtransform rmoveto } def
/TJmV { 0.001 mul pdfFontSize mul neg 0 exch
        pdfTextMat dtransform rmoveto } def
/Tclip { pdfTextClipPath cvx exec clip newpath
         /pdfTextClipPath [] def } def
/Tclip* { pdfTextClipPath cvx exec eoclip newpath
         /pdfTextClipPath [] def } def
% Level 2/3 image operators
/pdfImBuf 100 string def
/pdfImStr {
  2 copy exch length lt {
    2 copy get exch 1 add exch
  } {
    ()
  } ifelse
} def
/skipEOD {
  { currentfile pdfImBuf readline
    not { pop exit } if
    (%-EOD-) eq { exit } if } loop
} def
/pdfIm { image skipEOD } def
/pdfImM { fCol imagemask skipEOD } def
/pr { 2 index 2 index 3 2 roll putinterval 4 add } def
/pdfImClip {
  gsave
  0 2 4 index length 1 sub {
    dup 4 index exch 2 copy
    get 5 index div put
    1 add 3 index exch 2 copy
    get 3 index div put
  } for
  pop pop rectclip
} def
/pdfImClipEnd { grestore } def
% shading operators
/colordelta {
  false 0 1 3 index length 1 sub {
    dup 4 index exch get 3 index 3 2 roll get sub abs 0.004 gt {
      pop true
    } if
  } for
  exch pop exch pop
} def
/funcCol { func n array astore } def
/funcSH {
  dup 0 eq {
    true
  } {
    dup 6 eq {
      false
    } {
      4 index 4 index funcCol dup
      6 index 4 index funcCol dup
      3 1 roll colordelta 3 1 roll
      5 index 5 index funcCol dup
      3 1 roll colordelta 3 1 roll
      6 index 8 index funcCol dup
      3 1 roll colordelta 3 1 roll
      colordelta or or or
    } ifelse
  } ifelse
  {
    1 add
    4 index 3 index add 0.5 mul exch 4 index 3 index add 0.5 mul exch
    6 index 6 index 4 index 4 index 4 index funcSH
    2 index 6 index 6 index 4 index 4 index funcSH
    6 index 2 index 4 index 6 index 4 index funcSH
    5 3 roll 3 2 roll funcSH pop pop
  } {
    pop 3 index 2 index add 0.5 mul 3 index  2 index add 0.5 mul
    funcCol sc
    dup 4 index exch mat transform m
    3 index 3 index mat transform l
    1 index 3 index mat transform l
    mat transform l pop pop h f*
  } ifelse
} def
/axialCol {
  dup 0 lt {
    pop t0
  } {
    dup 1 gt {
      pop t1
    } {
      dt mul t0 add
    } ifelse
  } ifelse
  func n array astore
} def
/axialSH {
  dup 0 eq {
    true
  } {
    dup 8 eq {
      false
    } {
      2 index axialCol 2 index axialCol colordelta
    } ifelse
  } ifelse
  {
    1 add 3 1 roll 2 copy add 0.5 mul
    dup 4 3 roll exch 4 index axialSH
    exch 3 2 roll axialSH
  } {
    pop 2 copy add 0.5 mul
    axialCol sc
    exch dup dx mul x0 add exch dy mul y0 add
    3 2 roll dup dx mul x0 add exch dy mul y0 add
    dx abs dy abs ge {
      2 copy yMin sub dy mul dx div add yMin m
      yMax sub dy mul dx div add yMax l
      2 copy yMax sub dy mul dx div add yMax l
      yMin sub dy mul dx div add yMin l
      h f*
    } {
      exch 2 copy xMin sub dx mul dy div add xMin exch m
      xMax sub dx mul dy div add xMax exch l
      exch 2 copy xMax sub dx mul dy div add xMax exch l
      xMin sub dx mul dy div add xMin exch l
      h f*
    } ifelse
  } ifelse
} def
/radialCol {
  dup t0 lt {
    pop t0
  } {
    dup t1 gt {
      pop t1
    } if
  } ifelse
  func n array astore
} def
/radialSH {
  dup 0 eq {
    true
  } {
    dup 8 eq {
      false
    } {
      2 index dt mul t0 add radialCol
      2 index dt mul t0 add radialCol colordelta
    } ifelse
  } ifelse
  {
    1 add 3 1 roll 2 copy add 0.5 mul
    dup 4 3 roll exch 4 index radialSH
    exch 3 2 roll radialSH
  } {
    pop 2 copy add 0.5 mul dt mul t0 add
    radialCol sc
    encl {
      exch dup dx mul x0 add exch dup dy mul y0 add exch dr mul r0 add
      0 360 arc h
      dup dx mul x0 add exch dup dy mul y0 add exch dr mul r0 add
      360 0 arcn h f
    } {
      2 copy
      dup dx mul x0 add exch dup dy mul y0 add exch dr mul r0 add
      a1 a2 arcn
      dup dx mul x0 add exch dup dy mul y0 add exch dr mul r0 add
      a2 a1 arcn h
      dup dx mul x0 add exch dup dy mul y0 add exch dr mul r0 add
      a1 a2 arc
      dup dx mul x0 add exch dup dy mul y0 add exch dr mul r0 add
      a2 a1 arc h f
    } ifelse
  } ifelse
} def
end
%%EndResource
%%EndProlog
%%BeginSetup
xpdf begin
%%EndSetup
pdfStartPage
[] 0 d
1 i
0 j
0 J
10 M
1 w
/DeviceGray {} cs
[0] sc
/DeviceGray {} CS
[0] SC
false op
false OP
{} settransfer
0 0 450 450 re
W
q
[1 0 0 -1 0 450] cm
[0.75 0 0 0.75 0 0] cm
[0.24 0 0 0.24 0 0] cm
q
[4.166667 0 0 4.166667 0 0] cm
0 0 600 600 re
W
/DeviceGray {} cs
[1] sc
/DeviceGray {} CS
[0] SC
0 0 600 600 re
f
Q
q
[4.166667 0 0 4.166667 0 0] cm
0 0 600 600 re
W
/DeviceGray {} cs
[1] sc
/DeviceGray {} CS
[0] SC
80 100 440 420 re
f
Q
q
[4.166667 0 0 4.166667 333.333341 1729.166705] cm
-80 -415 600 600 re
W
/DeviceGray {} CS
[0] SC
0 0 m
440 0 l
f
Q
q
[4.166667 0 0 4.166667 333.333341 1729.166705] cm
-80 -415 600 600 re
W
/DeviceGray {} CS
[0.9333] SC
/DeviceGray {} cs
[0] sc
0 J
0 j
1 w
4 M
0 0 m
440 0 l
S
Q
q
[4.166667 0 0 4.166667 333.333341 1291.666696] cm
-80 -310 600 600 re
W
/DeviceGray {} CS
[0] SC
0 0 m
440 0 l
f
Q
q
[4.166667 0 0 4.166667 333.333341 1291.666696] cm
-80 -310 600 600 re
W
/DeviceGray {} CS
[0.9333] SC
/DeviceGray {} cs
[0] sc
0 J
0 j
1 w
4 M
0 0 m
440 0 l
S
Q
q
[4.166667 0 0 4.166667 333.333341 854.166686] cm
-80 -205 600 600 re
W
/DeviceGray {} CS
[0] SC
0 0 m
440 0 l
f
Q
q
[4.166667 0 0 4.166667 333.333341 854.166686] cm
-80 -205 600 600 re
W
/DeviceGray {} CS
[0.9333] SC
/DeviceGray {} cs
[0] sc
0 J
0 j
1 w
4 M
0 0 m
440 0 l
S
Q
q
[4.166667 0 0 4.166667 333.333341 416.666676] cm
0.000001 0.000003 440.000007 420.000005 re
W
/DeviceRGB {} cs
[0.1216 0.4667 0.7059] sc
/DeviceGray {} CS
[0] SC
11 112.080002 44 307.919998 re
f
Q
q
[4.166667 0 0 4.166667 333.333341 416.666676] cm
0.000001 0.000003 440.000007 420.000005 re
W
/DeviceRGB {} cs
[0.1216 0.4667 0.7059] sc
/DeviceGray {} CS
[0] SC
121 117.349998 44 302.650002 re
f
Q
q
[4.166667 0 0 4.166667 333.333341 416.666676] cm
0.000001 0.000003 440.000007 420.000005 re
W
/DeviceRGB {} cs
[0.1216 0.4667 0.7059] sc
/DeviceGray {} CS
[0] SC
231 133.289993 44 286.710007 re
f
Q
q
[4.166667 0 0 4.166667 333.333341 416.666676] cm
0.000001 0.000003 440.000007 420.000005 re
W
/DeviceRGB {} cs
[0.1216 0.4667 0.7059] sc
/DeviceGray {} CS
[0] SC
341 133.270004 44 286.729996 re
f
Q
q
[4.166667 0 0 4.166667 333.333341 416.666676] cm
0.000001 0.000003 440.000007 420.000005 re
W
/DeviceRGB {} cs
[1 0.498 0.0549] sc
/DeviceGray {} CS
[0] SC
55 111.93 44 308.07 re
f
Q
q
[4.166667 0 0 4.166667 333.333341 416.666676] cm
0.000001 0.000003 440.000007 420.000005 re
W
/DeviceRGB {} cs
[1 0.498 0.0549] sc
/DeviceGray {} CS
[0] SC
165 111.970001 44 308.029999 re
f
Q
q
[4.166667 0 0 4.166667 333.333341 416.666676] cm
0.000001 0.000003 440.000007 420.000005 re
W
/DeviceRGB {} cs
[1 0.498 0.0549] sc
/DeviceGray {} CS
[0] SC
275 111.970001 44 308.029999 re
f
Q
q
[4.166667 0 0 4.166667 333.333341 416.666676] cm
0.000001 0.000003 440.000007 420.000005 re
W
/DeviceRGB {} cs
[1 0.498 0.0549] sc
/DeviceGray {} CS
[0] SC
385 111.870003 44 308.129997 re
f
Q
q
[4.166667 0 0 4.166667 333.333341 416.666676] cm
-80 -100 600 600 re
W
/DeviceGray {} CS
[0.2667] SC
/DeviceGray {} cs
[0] sc
0 J
0 j
1 w
4 M
-1 420.5 m
441 420.5 l
-1 -0.5 m
441 -0.5 l
S
Q
q
[4.166667 0 0 4.166667 333.333341 416.666676] cm
-80 -100 600 600 re
W
/DeviceGray {} CS
[0.2667] SC
/DeviceGray {} cs
[0] sc
0 J
0 j
1 w
4 M
-0.5 0 m
-0.5 420 l
440.5 0 m
440.5 420 l
S
Q
q
[1.909722 0 0 1.909722 562.500013 416.666676] cm
-294.545448 -218.181813 1309.090881 1309.090881 re
W
/DeviceGray {} CS
[0] SC
-47.25 970.90625 m
-51.234375 970.90625 l
-51.234375 940.171875 l
-62.09375 940.171875 l
-62.09375 936.640625 l
-36.40625 936.640625 l
-36.40625 940.171875 l
-47.25 940.171875 l
-47.25 970.90625 l
h
-9.671875 958.03125 m
-9.671875 964.3125 -12.835938 967.84375 -12.835938 967.84375 c
-16 971.375 -21.578125 971.375 -21.578125 971.375 c
-25.015625 971.375 -27.6875 969.757813 -27.6875 969.757813 c
-30.359375 968.140625 -31.8125 965.117188 -31.8125 965.117188 c
-33.265625 962.09375 -33.265625 958.03125 -33.265625 958.03125 c
-33.265625 951.75 -30.125 948.25 -30.125 948.25 c
-26.984375 944.75 -21.40625 944.75 -21.40625 944.75 c
-16.015625 944.75 -12.84375 948.335938 -12.84375 948.335938 c
-9.671875 951.921875 -9.671875 958.03125 -9.671875 958.03125 c
h
-29.234375 958.03125 m
-29.234375 962.953125 -27.265625 965.53125 -27.265625 965.53125 c
-25.296875 968.109375 -21.484375 968.109375 -21.484375 968.109375 c
-17.65625 968.109375 -15.679688 965.546875 -15.679688 965.546875 c
-13.703125 962.984375 -13.703125 958.03125 -13.703125 958.03125 c
-13.703125 953.140625 -15.679688 950.59375 -15.679688 950.59375 c
-17.65625 948.046875 -21.53125 948.046875 -21.53125 948.046875 c
-25.34375 948.046875 -27.289062 950.554688 -27.289062 950.554688 c
-29.234375 953.0625 -29.234375 958.03125 -29.234375 958.03125 c
h
9.109375 971.375 m
6.609375 971.375 4.53125 970.445313 4.53125 970.445313 c
2.453125 969.515625 1.046875 967.59375 1.046875 967.59375 c
0.765625 967.59375 l
1.046875 969.84375 1.046875 971.875 1.046875 971.875 c
1.046875 982.4375 l
-2.84375 982.4375 l
-2.84375 945.21875 l
0.328125 945.21875 l
0.859375 948.734375 l
1.046875 948.734375 l
2.546875 946.625 4.539063 945.6875 4.539063 945.6875 c
6.53125 944.75 9.109375 944.75 9.109375 944.75 c
14.21875 944.75 17 948.242188 17 948.242188 c
19.78125 951.734375 19.78125 958.03125 19.78125 958.03125 c
19.78125 964.359375 16.953125 967.867187 16.953125 967.867187 c
14.125 971.375 9.109375 971.375 9.109375 971.375 c
h
8.546875 948.046875 m
4.609375 948.046875 2.851562 950.226563 2.851562 950.226563 c
1.09375 952.40625 1.046875 957.171875 1.046875 957.171875 c
1.046875 958.03125 l
1.046875 963.453125 2.851562 965.78125 2.851562 965.78125 c
4.65625 968.109375 8.640625 968.109375 8.640625 968.109375 c
11.96875 968.109375 13.859375 965.414063 13.859375 965.414063 c
15.75 962.71875 15.75 957.984375 15.75 957.984375 c
15.75 953.1875 13.859375 950.617188 13.859375 950.617188 c
11.96875 948.046875 8.546875 948.046875 8.546875 948.046875 c
h
24.390625 959.8125 m
24.390625 956.25 l
35.90625 956.25 l
35.90625 959.8125 l
24.390625 959.8125 l
h
61.453125 944.703125 m
61.453125 947.984375 59.617187 950.070313 59.617187 950.070313 c
57.78125 952.15625 54.40625 952.859375 54.40625 952.859375 c
54.40625 953.046875 l
58.53125 953.5625 60.523438 955.671875 60.523438 955.671875 c
62.515625 957.78125 62.515625 961.203125 62.515625 961.203125 c
62.515625 966.09375 59.117187 968.734375 59.117187 968.734375 c
55.71875 971.375 49.453125 971.375 49.453125 971.375 c
46.734375 971.375 44.476563 970.960938 44.476563 970.960938 c
42.21875 970.546875 40.078125 969.515625 40.078125 969.515625 c
40.078125 965.8125 l
42.3125 966.921875 44.828125 967.492188 44.828125 967.492188 c
47.34375 968.0625 49.59375 968.0625 49.59375 968.0625 c
58.484375 968.0625 58.484375 961.109375 58.484375 961.109375 c
58.484375 954.875 48.6875 954.875 48.6875 954.875 c
45.3125 954.875 l
45.3125 951.515625 l
48.734375 951.515625 l
52.734375 951.515625 55.078125 949.75 55.078125 949.75 c
57.421875 947.984375 57.421875 944.84375 57.421875 944.84375 c
57.421875 942.328125 55.703125 940.898438 55.703125 940.898438 c
53.984375 939.46875 51.03125 939.46875 51.03125 939.46875 c
48.78125 939.46875 46.789063 940.078125 46.789063 940.078125 c
44.796875 940.6875 42.234375 942.328125 42.234375 942.328125 c
40.265625 939.703125 l
42.375 938.046875 45.132813 937.09375 45.132813 937.09375 c
47.890625 936.140625 50.9375 936.140625 50.9375 936.140625 c
55.921875 936.140625 58.6875 938.429688 58.6875 938.429688 c
61.453125 940.71875 61.453125 944.703125 61.453125 944.703125 c
h
f
Q
q
[1.909722 0 0 1.909722 1020.833356 416.666676] cm
-534.545443 -218.181813 1309.090881 1309.090881 re
W
/DeviceGray {} CS
[0] SC
-3.625 970.90625 m
-7.5625 970.90625 l
-14.484375 947.953125 l
-14.96875 946.4375 -15.578125 944.117188 -15.578125 944.117188 c
-16.1875 941.796875 -16.21875 941.328125 -16.21875 941.328125 c
-16.734375 944.421875 -17.859375 948.09375 -17.859375 948.09375 c
-24.5625 970.90625 l
-28.5 970.90625 l
-37.609375 936.640625 l
-33.390625 936.640625 l
-27.984375 957.796875 l
-26.859375 962.25 -26.34375 965.859375 -26.34375 965.859375 c
-25.703125 961.578125 -24.46875 957.46875 -24.46875 957.46875 c
-18.328125 936.640625 l
-14.109375 936.640625 l
-7.65625 957.65625 l
-6.53125 961.296875 -5.765625 965.859375 -5.765625 965.859375 c
-5.3125 962.53125 -4.078125 957.75 -4.078125 957.75 c
1.3125 936.640625 l
5.53125 936.640625 l
-3.625 970.90625 l
h
38.25 953.4375 m
38.25 961.921875 33.648438 966.414063 33.648438 966.414063 c
29.046875 970.90625 20.390625 970.90625 20.390625 970.90625 c
10.90625 970.90625 l
10.90625 936.640625 l
21.40625 936.640625 l
29.390625 936.640625 33.820313 941.070313 33.820313 941.070313 c
38.25 945.5 38.25 953.4375 38.25 953.4375 c
h
34.03125 953.578125 m
34.03125 946.875 30.671875 943.476563 30.671875 943.476563 c
27.3125 940.078125 20.671875 940.078125 20.671875 940.078125 c
14.890625 940.078125 l
14.890625 967.453125 l
19.734375 967.453125 l
26.859375 967.453125 30.445312 963.953125 30.445312 963.953125 c
34.03125 960.453125 34.03125 953.578125 34.03125 953.578125 c
h
f
Q
q
[1.909722 0 0 1.909722 1479.1667 416.666676] cm
-774.545438 -218.181813 1309.090881 1309.090881 re
W
/DeviceGray {} CS
[0] SC
-11.0625 970.90625 m
-15.046875 970.90625 l
-15.046875 940.171875 l
-25.90625 940.171875 l
-25.90625 936.640625 l
-0.21875 936.640625 l
-0.21875 940.171875 l
-11.0625 940.171875 l
-11.0625 970.90625 l
h
15.484375 970.90625 m
11.5 970.90625 l
11.5 940.171875 l
0.640625 940.171875 l
0.640625 936.640625 l
26.328125 936.640625 l
26.328125 940.171875 l
15.484375 940.171875 l
15.484375 970.90625 l
h
f
Q
q
[1.909722 0 0 1.909722 1937.500043 416.666676] cm
-1014.545433 -218.181813 1309.090881 1309.090881 re
W
/DeviceGray {} CS
[0] SC
1.515625 953.4375 m
1.515625 961.921875 -3.085938 966.414063 -3.085938 966.414063 c
-7.6875 970.90625 -16.34375 970.90625 -16.34375 970.90625 c
-25.828125 970.90625 l
-25.828125 936.640625 l
-15.328125 936.640625 l
-7.34375 936.640625 -2.914062 941.070313 -2.914062 941.070313 c
1.515625 945.5 1.515625 953.4375 1.515625 953.4375 c
h
-2.703125 953.578125 m
-2.703125 946.875 -6.0625 943.476563 -6.0625 943.476563 c
-9.421875 940.078125 -16.0625 940.078125 -16.0625 940.078125 c
-21.84375 940.078125 l
-21.84375 967.453125 l
-17 967.453125 l
-9.875 967.453125 -6.289063 963.953125 -6.289063 963.953125 c
-2.703125 960.453125 -2.703125 953.578125 -2.703125 953.578125 c
h
19.703125 970.90625 m
15.71875 970.90625 l
15.71875 940.171875 l
4.859375 940.171875 l
4.859375 936.640625 l
30.546875 936.640625 l
30.546875 940.171875 l
19.703125 940.171875 l
19.703125 970.90625 l
h
f
Q
q
[3.191852 -2.678282 2.678282 3.191852 330.408896 2158.63187] cm
272.26413 -447.837769 m
731.890808 -62.165192 l
346.218231 397.461487 l
-113.408432 11.78891 l
272.26413 -447.837769 l
h
W
/DeviceGray {} CS
[0] SC
-3 3.122396 m
-3 7.197266 -4.285482 9.206055 -4.285482 9.206055 c
-5.570964 11.214844 -8.213542 11.214844 -8.213542 11.214844 c
-10.748698 11.214844 -12.069987 9.155925 -12.069987 9.155925 c
-13.391276 7.097005 -13.391276 3.122396 -13.391276 3.122396 c
-13.391276 -0.98112 -12.112956 -2.968425 -12.112956 -2.968425 c
-10.834636 -4.955729 -8.213542 -4.955729 -8.213542 -4.955729 c
-5.656901 -4.955729 -4.328451 -2.882487 -4.328451 -2.882487 c
-3 -0.809245 -3 3.122396 -3 3.122396 c
h
-11.586589 3.122396 m
-11.586589 6.552734 -10.780925 8.113933 -10.780925 8.113933 c
-9.975261 9.67513 -8.213542 9.67513 -8.213542 9.67513 c
-6.430339 9.67513 -5.628255 8.092448 -5.628255 8.092448 c
-4.826172 6.509766 -4.826172 3.122396 -4.826172 3.122396 c
-4.826172 -0.257813 -5.628255 -1.833334 -5.628255 -1.833334 c
-6.430339 -3.408854 -8.213542 -3.408854 -8.213542 -3.408854 c
-9.975261 -3.408854 -10.780925 -1.854818 -10.780925 -1.854818 c
-11.586589 -0.300781 -11.586589 3.122396 -11.586589 3.122396 c
h
f
Q
q
[3.191852 -2.678282 2.678282 3.191852 330.408896 1721.13186] cm
204.771423 -367.403107 m
664.398132 18.269474 l
278.725525 477.896149 l
-180.901138 92.223579 l
204.771423 -367.403107 l
h
W
/DeviceGray {} CS
[0] SC
-21.079103 1.403646 m
-18.601238 1.403646 -17.176107 2.635417 -17.176107 2.635417 c
-15.750978 3.867187 -15.750978 6.001302 -15.750978 6.001302 c
-15.750978 8.443359 -17.305014 9.829102 -17.305014 9.829102 c
-18.859051 11.214844 -21.587566 11.214844 -21.587566 11.214844 c
-24.237307 11.214844 -25.633791 10.36263 -25.633791 10.36263 c
-25.633791 8.64388 l
-24.881838 9.130859 -23.76465 9.402995 -23.76465 9.402995 c
-22.647463 9.67513 -21.566082 9.67513 -21.566082 9.67513 c
-19.675457 9.67513 -18.626303 8.783528 -18.626303 8.783528 c
-17.57715 7.891927 -17.57715 6.208984 -17.57715 6.208984 c
-17.57715 2.921875 -21.609051 2.921875 -21.609051 2.921875 c
-22.625978 2.921875 -24.337566 3.229818 -24.337566 3.229818 c
-25.261394 2.642578 l
-24.666994 -4.705079 l
-16.861004 -4.705079 l
-16.861004 -3.065104 l
-23.141603 -3.065104 l
-23.542644 1.654297 l
-22.303713 1.403646 -21.079103 1.403646 -21.079103 1.403646 c
h
-3.000001 3.122396 m
-3.000001 7.197266 -4.285483 9.206055 -4.285483 9.206055 c
-5.570965 11.214844 -8.213543 11.214844 -8.213543 11.214844 c
-10.748699 11.214844 -12.069988 9.155925 -12.069988 9.155925 c
-13.391277 7.097005 -13.391277 3.122396 -13.391277 3.122396 c
-13.391277 -0.98112 -12.112957 -2.968425 -12.112957 -2.968425 c
-10.834637 -4.955729 -8.213543 -4.955729 -8.213543 -4.955729 c
-5.656902 -4.955729 -4.328452 -2.882487 -4.328452 -2.882487 c
-3.000001 -0.809245 -3.000001 3.122396 -3.000001 3.122396 c
h
-11.58659 3.122396 m
-11.58659 6.552734 -10.780926 8.113933 -10.780926 8.113933 c
-9.975262 9.67513 -8.213543 9.67513 -8.213543 9.67513 c
-6.43034 9.67513 -5.628256 8.092448 -5.628256 8.092448 c
-4.826173 6.509766 -4.826173 3.122396 -4.826173 3.122396 c
-4.826173 -0.257813 -5.628256 -1.833334 -5.628256 -1.833334 c
-6.43034 -3.408854 -8.213543 -3.408854 -8.213543 -3.408854 c
-9.975262 -3.408854 -10.780926 -1.854818 -10.780926 -1.854818 c
-11.58659 -0.300781 -11.58659 3.122396 -11.58659 3.122396 c
h
f
Q
q
[3.191852 -2.678282 2.678282 3.191852 330.408896 1283.63185] cm
137.278717 -286.968445 m
596.905457 98.70414 l
211.232819 558.330811 l
-248.393845 172.658249 l
137.278717 -286.968445 l
h
W
/DeviceGray {} CS
[0] SC
-31.960939 11 m
-33.701172 11 l
-33.701172 -0.19336 l
-33.701172 -1.589844 -33.615234 -2.835938 -33.615234 -2.835938 c
-33.844402 -2.613933 -34.123699 -2.366862 -34.123699 -2.366862 c
-34.402996 -2.119792 -36.68034 -0.272136 -36.68034 -0.272136 c
-37.625652 -1.496745 l
-33.464844 -4.705079 l
-31.960939 -4.705079 l
-31.960939 11 l
h
-15.579103 3.122396 m
-15.579103 7.197266 -16.864584 9.206055 -16.864584 9.206055 c
-18.150066 11.214844 -20.792644 11.214844 -20.792644 11.214844 c
-23.327801 11.214844 -24.64909 9.155925 -24.64909 9.155925 c
-25.970379 7.097005 -25.970379 3.122396 -25.970379 3.122396 c
-25.970379 -0.98112 -24.692059 -2.968425 -24.692059 -2.968425 c
-23.413738 -4.955729 -20.792644 -4.955729 -20.792644 -4.955729 c
-18.236004 -4.955729 -16.907553 -2.882487 -16.907553 -2.882487 c
-15.579103 -0.809245 -15.579103 3.122396 -15.579103 3.122396 c
h
-24.165691 3.122396 m
-24.165691 6.552734 -23.360027 8.113933 -23.360027 8.113933 c
-22.554363 9.67513 -20.792644 9.67513 -20.792644 9.67513 c
-19.009441 9.67513 -18.207357 8.092448 -18.207357 8.092448 c
-17.405275 6.509766 -17.405275 3.122396 -17.405275 3.122396 c
-17.405275 -0.257813 -18.207357 -1.833334 -18.207357 -1.833334 c
-19.009441 -3.408854 -20.792644 -3.408854 -20.792644 -3.408854 c
-22.554363 -3.408854 -23.360027 -1.854818 -23.360027 -1.854818 c
-24.165691 -0.300781 -24.165691 3.122396 -24.165691 3.122396 c
h
-3.000001 3.122396 m
-3.000001 7.197266 -4.285483 9.206055 -4.285483 9.206055 c
-5.570965 11.214844 -8.213543 11.214844 -8.213543 11.214844 c
-10.748699 11.214844 -12.069988 9.155925 -12.069988 9.155925 c
-13.391277 7.097005 -13.391277 3.122396 -13.391277 3.122396 c
-13.391277 -0.98112 -12.112957 -2.968425 -12.112957 -2.968425 c
-10.834637 -4.955729 -8.213543 -4.955729 -8.213543 -4.955729 c
-5.656902 -4.955729 -4.328452 -2.882487 -4.328452 -2.882487 c
-3.000001 -0.809245 -3.000001 3.122396 -3.000001 3.122396 c
h
-11.58659 3.122396 m
-11.58659 6.552734 -10.780926 8.113933 -10.780926 8.113933 c
-9.975262 9.67513 -8.213543 9.67513 -8.213543 9.67513 c
-6.43034 9.67513 -5.628256 8.092448 -5.628256 8.092448 c
-4.826173 6.509766 -4.826173 3.122396 -4.826173 3.122396 c
-4.826173 -0.257813 -5.628256 -1.833334 -5.628256 -1.833334 c
-6.43034 -3.408854 -8.213543 -3.408854 -8.213543 -3.408854 c
-9.975262 -3.408854 -10.780926 -1.854818 -10.780926 -1.854818 c
-11.58659 -0.300781 -11.58659 3.122396 -11.58659 3.122396 c
h
f
Q
q
[3.191852 -2.678282 2.678282 3.191852 330.408896 846.13184] cm
69.786018 -206.533783 m
529.412781 179.138809 l
143.740112 638.765503 l
-315.886536 253.092911 l
69.786018 -206.533783 l
h
W
/DeviceGray {} CS
[0] SC
-31.960939 11 m
-33.701172 11 l
-33.701172 -0.19336 l
-33.701172 -1.589844 -33.615234 -2.835938 -33.615234 -2.835938 c
-33.844402 -2.613933 -34.123699 -2.366862 -34.123699 -2.366862 c
-34.402996 -2.119792 -36.68034 -0.272136 -36.68034 -0.272136 c
-37.625652 -1.496745 l
-33.464844 -4.705079 l
-31.960939 -4.705079 l
-31.960939 11 l
h
-21.079103 1.403646 m
-18.601238 1.403646 -17.176107 2.635417 -17.176107 2.635417 c
-15.750978 3.867187 -15.750978 6.001302 -15.750978 6.001302 c
-15.750978 8.443359 -17.305014 9.829102 -17.305014 9.829102 c
-18.859051 11.214844 -21.587566 11.214844 -21.587566 11.214844 c
-24.237307 11.214844 -25.633791 10.36263 -25.633791 10.36263 c
-25.633791 8.64388 l
-24.881838 9.130859 -23.76465 9.402995 -23.76465 9.402995 c
-22.647463 9.67513 -21.566082 9.67513 -21.566082 9.67513 c
-19.675457 9.67513 -18.626303 8.783528 -18.626303 8.783528 c
-17.57715 7.891927 -17.57715 6.208984 -17.57715 6.208984 c
-17.57715 2.921875 -21.609051 2.921875 -21.609051 2.921875 c
-22.625978 2.921875 -24.337566 3.229818 -24.337566 3.229818 c
-25.261394 2.642578 l
-24.666994 -4.705079 l
-16.861004 -4.705079 l
-16.861004 -3.065104 l
-23.141603 -3.065104 l
-23.542644 1.654297 l
-22.303713 1.403646 -21.079103 1.403646 -21.079103 1.403646 c
h
-3.000001 3.122396 m
-3.000001 7.197266 -4.285483 9.206055 -4.285483 9.206055 c
-5.570965 11.214844 -8.213543 11.214844 -8.213543 11.214844 c
-10.748699 11.214844 -12.069988 9.155925 -12.069988 9.155925 c
-13.391277 7.097005 -13.391277 3.122396 -13.391277 3.122396 c
-13.391277 -0.98112 -12.112957 -2.968425 -12.112957 -2.968425 c
-10.834637 -4.955729 -8.213543 -4.955729 -8.213543 -4.955729 c
-5.656902 -4.955729 -4.328452 -2.882487 -4.328452 -2.882487 c
-3.000001 -0.809245 -3.000001 3.122396 -3.000001 3.122396 c
h
-11.58659 3.122396 m
-11.58659 6.552734 -10.780926 8.113933 -10.780926 8.113933 c
-9.975262 9.67513 -8.213543 9.67513 -8.213543 9.67513 c
-6.43034 9.67513 -5.628256 8.092448 -5.628256 8.092448 c
-4.826173 6.509766 -4.826173 3.122396 -4.826173 3.122396 c
-4.826173 -0.257813 -5.628256 -1.833334 -5.628256 -1.833334 c
-6.43034 -3.408854 -8.213543 -3.408854 -8.213543 -3.408854 c
-9.975262 -3.408854 -10.780926 -1.854818 -10.780926 -1.854818 c
-11.58659 -0.300781 -11.58659 3.122396 -11.58659 3.122396 c
h
f
Q
q
[3.191852 -2.678282 2.678282 3.191852 330.408896 408.631831] cm
2.293319 -126.099113 m
461.920074 259.573486 l
76.247414 719.200195 l
-383.379242 333.527588 l
2.293319 -126.099113 l
h
W
/DeviceGray {} CS
[0] SC
-28.244143 11 m
-38.570965 11 l
-38.570965 9.460286 l
-34.431641 5.306641 l
-32.541016 3.394531 -31.939455 2.578125 -31.939455 2.578125 c
-31.337893 1.761719 -31.037111 0.988281 -31.037111 0.988281 c
-30.73633 0.214844 -30.73633 -0.680339 -30.73633 -0.680339 c
-30.73633 -1.933594 -31.499025 -2.671224 -31.499025 -2.671224 c
-32.261719 -3.408854 -33.615234 -3.408854 -33.615234 -3.408854 c
-34.596355 -3.408854 -35.470055 -3.086589 -35.470055 -3.086589 c
-36.34375 -2.764323 -37.417969 -1.91211 -37.417969 -1.91211 c
-38.363281 -3.129558 l
-36.193359 -4.934245 -33.636719 -4.934245 -33.636719 -4.934245 c
-31.42383 -4.934245 -30.166994 -3.799154 -30.166994 -3.799154 c
-28.910158 -2.664063 -28.910158 -0.751953 -28.910158 -0.751953 c
-28.910158 0.73763 -29.748049 2.198568 -29.748049 2.198568 c
-30.585939 3.659505 -32.884766 5.89388 -32.884766 5.89388 c
-36.322266 9.259766 l
-36.322266 9.345703 l
-28.244143 9.345703 l
-28.244143 11 l
h
-15.579103 3.122396 m
-15.579103 7.197266 -16.864584 9.206055 -16.864584 9.206055 c
-18.150066 11.214844 -20.792644 11.214844 -20.792644 11.214844 c
-23.327801 11.214844 -24.64909 9.155925 -24.64909 9.155925 c
-25.970379 7.097005 -25.970379 3.122396 -25.970379 3.122396 c
-25.970379 -0.98112 -24.692059 -2.968425 -24.692059 -2.968425 c
-23.413738 -4.955729 -20.792644 -4.955729 -20.792644 -4.955729 c
-18.236004 -4.955729 -16.907553 -2.882487 -16.907553 -2.882487 c
-15.579103 -0.809245 -15.579103 3.122396 -15.579103 3.122396 c
h
-24.165691 3.122396 m
-24.165691 6.552734 -23.360027 8.113933 -23.360027 8.113933 c
-22.554363 9.67513 -20.792644 9.67513 -20.792644 9.67513 c
-19.009441 9.67513 -18.207357 8.092448 -18.207357 8.092448 c
-17.405275 6.509766 -17.405275 3.122396 -17.405275 3.122396 c
-17.405275 -0.257813 -18.207357 -1.833334 -18.207357 -1.833334 c
-19.009441 -3.408854 -20.792644 -3.408854 -20.792644 -3.408854 c
-22.554363 -3.408854 -23.360027 -1.854818 -23.360027 -1.854818 c
-24.165691 -0.300781 -24.165691 3.122396 -24.165691 3.122396 c
h
-3.000001 3.122396 m
-3.000001 7.197266 -4.285483 9.206055 -4.285483 9.206055 c
-5.570965 11.214844 -8.213543 11.214844 -8.213543 11.214844 c
-10.748699 11.214844 -12.069988 9.155925 -12.069988 9.155925 c
-13.391277 7.097005 -13.391277 3.122396 -13.391277 3.122396 c
-13.391277 -0.98112 -12.112957 -2.968425 -12.112957 -2.968425 c
-10.834637 -4.955729 -8.213543 -4.955729 -8.213543 -4.955729 c
-5.656902 -4.955729 -4.328452 -2.882487 -4.328452 -2.882487 c
-3.000001 -0.809245 -3.000001 3.122396 -3.000001 3.122396 c
h
-11.58659 3.122396 m
-11.58659 6.552734 -10.780926 8.113933 -10.780926 8.113933 c
-9.975262 9.67513 -8.213543 9.67513 -8.213543 9.67513 c
-6.43034 9.67513 -5.628256 8.092448 -5.628256 8.092448 c
-4.826173 6.509766 -4.826173 3.122396 -4.826173 3.122396 c
-4.826173 -0.257813 -5.628256 -1.833334 -5.628256 -1.833334 c
-6.43034 -3.408854 -8.213543 -3.408854 -8.213543 -3.408854 c
-9.975262 -3.408854 -10.780926 -1.854818 -10.780926 -1.854818 c
-11.58659 -0.300781 -11.58659 3.122396 -11.58659 3.122396 c
h
f
Q
q
[2.430556 0 0 2.430556 0 -91.666669] cm
-0.000051 37.714277 m
1028.571568 37.714225 l
1028.571464 1066.285855 l
-0.000006 1066.285751 l
-0.000051 37.714277 l
h
W
/DeviceGray {} CS
[0] SC
436.265625 1052.5625 m
424.640625 1022.1875 l
424.453125 1022.1875 l
424.78125 1025.796875 424.78125 1030.765625 424.78125 1030.765625 c
424.78125 1052.5625 l
421.109375 1052.5625 l
421.109375 1018.296875 l
427.109375 1018.296875 l
437.953125 1046.5625 l
438.140625 1046.5625 l
449.09375 1018.296875 l
455.046875 1018.296875 l
455.046875 1052.5625 l
451.0625 1052.5625 l
451.0625 1030.484375 l
451.0625 1026.6875 451.390625 1022.234375 451.390625 1022.234375 c
451.203125 1022.234375 l
439.484375 1052.5625 l
436.265625 1052.5625 l
h
474.703125 1053.03125 m
469 1053.03125 465.710937 1049.5625 465.710937 1049.5625 c
462.421875 1046.09375 462.421875 1039.921875 462.421875 1039.921875 c
462.421875 1033.71875 465.476562 1030.0625 465.476562 1030.0625 c
468.53125 1026.40625 473.6875 1026.40625 473.6875 1026.40625 c
478.515625 1026.40625 481.328125 1029.578125 481.328125 1029.578125 c
484.140625 1032.75 484.140625 1037.953125 484.140625 1037.953125 c
484.140625 1040.421875 l
466.453125 1040.421875 l
466.5625 1044.9375 468.734375 1047.28125 468.734375 1047.28125 c
470.90625 1049.625 474.84375 1049.625 474.84375 1049.625 c
478.984375 1049.625 483.046875 1047.890625 483.046875 1047.890625 c
483.046875 1051.359375 l
480.984375 1052.25 479.140625 1052.640625 479.140625 1052.640625 c
477.296875 1053.03125 474.703125 1053.03125 474.703125 1053.03125 c
h
473.640625 1029.65625 m
470.546875 1029.65625 468.710937 1031.671875 468.710937 1031.671875 c
466.875 1033.6875 466.546875 1037.25 466.546875 1037.25 c
479.96875 1037.25 l
479.96875 1033.578125 478.328125 1031.617188 478.328125 1031.617188 c
476.6875 1029.65625 473.640625 1029.65625 473.640625 1029.65625 c
h
499.078125 1049.8125 m
500.109375 1049.8125 501.070312 1049.664062 501.070312 1049.664062 c
502.03125 1049.515625 502.59375 1049.34375 502.59375 1049.34375 c
502.59375 1052.328125 l
501.96875 1052.640625 500.734375 1052.835938 500.734375 1052.835938 c
499.5 1053.03125 498.515625 1053.03125 498.515625 1053.03125 c
491.0625 1053.03125 491.0625 1045.171875 491.0625 1045.171875 c
491.0625 1029.890625 l
487.390625 1029.890625 l
487.390625 1028.015625 l
491.0625 1026.40625 l
492.703125 1020.921875 l
494.953125 1020.921875 l
494.953125 1026.875 l
502.40625 1026.875 l
502.40625 1029.890625 l
494.953125 1029.890625 l
494.953125 1045.015625 l
494.953125 1047.328125 496.054688 1048.570312 496.054688 1048.570312 c
497.15625 1049.8125 499.078125 1049.8125 499.078125 1049.8125 c
h
525.296875 1052.5625 m
525.296875 1035.9375 l
525.296875 1032.796875 523.867187 1031.25 523.867187 1031.25 c
522.4375 1029.703125 519.390625 1029.703125 519.390625 1029.703125 c
515.34375 1029.703125 513.476563 1031.90625 513.476563 1031.90625 c
511.609375 1034.109375 511.609375 1039.125 511.609375 1039.125 c
511.609375 1052.5625 l
507.71875 1052.5625 l
507.71875 1016.09375 l
511.609375 1016.09375 l
511.609375 1027.125 l
511.609375 1029.125 511.421875 1030.4375 511.421875 1030.4375 c
511.65625 1030.4375 l
512.8125 1028.578125 514.929688 1027.515625 514.929688 1027.515625 c
517.046875 1026.453125 519.765625 1026.453125 519.765625 1026.453125 c
524.484375 1026.453125 526.835938 1028.6875 526.835938 1028.6875 c
529.1875 1030.921875 529.1875 1035.796875 529.1875 1035.796875 c
529.1875 1052.5625 l
525.296875 1052.5625 l
h
559.359375 1039.6875 m
559.359375 1045.96875 556.195313 1049.5 556.195313 1049.5 c
553.03125 1053.03125 547.453125 1053.03125 547.453125 1053.03125 c
544.015625 1053.03125 541.34375 1051.414063 541.34375 1051.414063 c
538.671875 1049.796875 537.21875 1046.773437 537.21875 1046.773437 c
535.765625 1043.75 535.765625 1039.6875 535.765625 1039.6875 c
535.765625 1033.40625 538.90625 1029.90625 538.90625 1029.90625 c
542.046875 1026.40625 547.625 1026.40625 547.625 1026.40625 c
553.015625 1026.40625 556.1875 1029.992188 556.1875 1029.992188 c
559.359375 1033.578125 559.359375 1039.6875 559.359375 1039.6875 c
h
539.796875 1039.6875 m
539.796875 1044.609375 541.765625 1047.1875 541.765625 1047.1875 c
543.734375 1049.765625 547.546875 1049.765625 547.546875 1049.765625 c
551.375 1049.765625 553.351562 1047.203125 553.351562 1047.203125 c
555.328125 1044.640625 555.328125 1039.6875 555.328125 1039.6875 c
555.328125 1034.796875 553.351562 1032.25 553.351562 1032.25 c
551.375 1029.703125 547.5 1029.703125 547.5 1029.703125 c
543.6875 1029.703125 541.742188 1032.210938 541.742188 1032.210938 c
539.796875 1034.71875 539.796875 1039.6875 539.796875 1039.6875 c
h
583.65625 1049.109375 m
583.453125 1049.109375 l
580.75 1053.03125 575.390625 1053.03125 575.390625 1053.03125 c
570.34375 1053.03125 567.546875 1049.585938 567.546875 1049.585938 c
564.75 1046.140625 564.75 1039.78125 564.75 1039.78125 c
564.75 1033.4375 567.5625 1029.921875 567.5625 1029.921875 c
570.375 1026.40625 575.390625 1026.40625 575.390625 1026.40625 c
580.609375 1026.40625 583.40625 1030.203125 583.40625 1030.203125 c
583.703125 1030.203125 l
583.546875 1028.34375 l
583.453125 1026.546875 l
583.453125 1016.09375 l
587.34375 1016.09375 l
587.34375 1052.5625 l
584.171875 1052.5625 l
583.65625 1049.109375 l
h
575.875 1049.765625 m
579.859375 1049.765625 581.65625 1047.601563 581.65625 1047.601563 c
583.453125 1045.4375 583.453125 1040.609375 583.453125 1040.609375 c
583.453125 1039.78125 l
583.453125 1034.328125 581.632813 1031.992188 581.632813 1031.992188 c
579.8125 1029.65625 575.828125 1029.65625 575.828125 1029.65625 c
572.40625 1029.65625 570.59375 1032.320312 570.59375 1032.320312 c
568.78125 1034.984375 568.78125 1039.828125 568.78125 1039.828125 c
568.78125 1044.75 570.585938 1047.257813 570.585938 1047.257813 c
572.390625 1049.765625 575.875 1049.765625 575.875 1049.765625 c
h
612.171875 1045.546875 m
612.171875 1049.140625 609.5 1051.085938 609.5 1051.085938 c
606.828125 1053.03125 602 1053.03125 602 1053.03125 c
596.890625 1053.03125 594.03125 1051.40625 594.03125 1051.40625 c
594.03125 1047.796875 l
595.875 1048.734375 598 1049.273437 598 1049.273437 c
600.125 1049.8125 602.09375 1049.8125 602.09375 1049.8125 c
605.140625 1049.8125 606.78125 1048.84375 606.78125 1048.84375 c
608.421875 1047.875 608.421875 1045.875 608.421875 1045.875 c
608.421875 1044.375 607.117188 1043.3125 607.117188 1043.3125 c
605.8125 1042.25 602.046875 1040.796875 602.046875 1040.796875 c
598.453125 1039.453125 596.945313 1038.460938 596.945313 1038.460938 c
595.4375 1037.46875 594.695313 1036.203125 594.695313 1036.203125 c
593.953125 1034.9375 593.953125 1033.171875 593.953125 1033.171875 c
593.953125 1030.03125 596.507813 1028.21875 596.507813 1028.21875 c
599.0625 1026.40625 603.515625 1026.40625 603.515625 1026.40625 c
607.671875 1026.40625 611.625 1028.09375 611.625 1028.09375 c
610.25 1031.25 l
606.375 1029.65625 603.234375 1029.65625 603.234375 1029.65625 c
600.46875 1029.65625 599.0625 1030.523437 599.0625 1030.523437 c
597.65625 1031.390625 597.65625 1032.921875 597.65625 1032.921875 c
597.65625 1033.953125 598.1875 1034.679688 598.1875 1034.679688 c
598.71875 1035.40625 599.890625 1036.0625 599.890625 1036.0625 c
601.0625 1036.71875 604.390625 1037.953125 604.390625 1037.953125 c
608.953125 1039.625 610.5625 1041.3125 610.5625 1041.3125 c
612.171875 1043 612.171875 1045.546875 612.171875 1045.546875 c
h
f
Q
q
[0 -2.430556 2.430556 0 -1166.666693 1350.00003] cm
555.42859 479.999964 m
555.428643 1508.571585 l
-473.142978 1508.57148 l
-473.142873 480.000016 l
555.42859 479.999964 l
h
W
/DeviceGray {} CS
[0] SC
-174.5625 531.421875 m
-193.65625 531.421875 l
-193.65625 497.15625 l
-174.5625 497.15625 l
-174.5625 500.6875 l
-189.671875 500.6875 l
-189.671875 511.734375 l
-175.46875 511.734375 l
-175.46875 515.25 l
-189.671875 515.25 l
-189.671875 527.859375 l
-174.5625 527.859375 l
-174.5625 531.421875 l
h
-161.359375 518.265625 m
-170.28125 505.734375 l
-165.859375 505.734375 l
-159.078125 515.578125 l
-152.328125 505.734375 l
-147.953125 505.734375 l
-156.875 518.265625 l
-147.484375 531.421875 l
-151.890625 531.421875 l
-159.078125 521.015625 l
-166.34375 531.421875 l
-170.75 531.421875 l
-161.359375 518.265625 l
h
-130.453125 531.890625 m
-132.953125 531.890625 -135.03125 530.960938 -135.03125 530.960938 c
-137.109375 530.03125 -138.515625 528.109375 -138.515625 528.109375 c
-138.796875 528.109375 l
-138.515625 530.359375 -138.515625 532.390625 -138.515625 532.390625 c
-138.515625 542.953125 l
-142.40625 542.953125 l
-142.40625 505.734375 l
-139.234375 505.734375 l
-138.703125 509.25 l
-138.515625 509.25 l
-137.015625 507.140625 -135.023438 506.203125 -135.023438 506.203125 c
-133.03125 505.265625 -130.453125 505.265625 -130.453125 505.265625 c
-125.34375 505.265625 -122.5625 508.757813 -122.5625 508.757813 c
-119.78125 512.25 -119.78125 518.546875 -119.78125 518.546875 c
-119.78125 524.875 -122.609375 528.382813 -122.609375 528.382813 c
-125.4375 531.890625 -130.453125 531.890625 -130.453125 531.890625 c
h
-131.015625 508.5625 m
-134.953125 508.5625 -136.710938 510.742188 -136.710938 510.742188 c
-138.46875 512.921875 -138.515625 517.6875 -138.515625 517.6875 c
-138.515625 518.546875 l
-138.515625 523.96875 -136.710938 526.296875 -136.710938 526.296875 c
-134.90625 528.625 -130.921875 528.625 -130.921875 528.625 c
-127.59375 528.625 -125.703125 525.929688 -125.703125 525.929688 c
-123.8125 523.234375 -123.8125 518.5 -123.8125 518.5 c
-123.8125 513.703125 -125.703125 511.132813 -125.703125 511.132813 c
-127.59375 508.5625 -131.015625 508.5625 -131.015625 508.5625 c
h
-102.125 531.890625 m
-107.828125 531.890625 -111.117188 528.421875 -111.117188 528.421875 c
-114.40625 524.953125 -114.40625 518.78125 -114.40625 518.78125 c
-114.40625 512.578125 -111.351563 508.921875 -111.351563 508.921875 c
-108.296875 505.265625 -103.140625 505.265625 -103.140625 505.265625 c
-98.3125 505.265625 -95.5 508.4375 -95.5 508.4375 c
-92.6875 511.609375 -92.6875 516.8125 -92.6875 516.8125 c
-92.6875 519.28125 l
-110.375 519.28125 l
-110.265625 523.796875 -108.09375 526.140625 -108.09375 526.140625 c
-105.921875 528.484375 -101.984375 528.484375 -101.984375 528.484375 c
-97.84375 528.484375 -93.78125 526.75 -93.78125 526.75 c
-93.78125 530.21875 l
-95.84375 531.109375 -97.6875 531.5 -97.6875 531.5 c
-99.53125 531.890625 -102.125 531.890625 -102.125 531.890625 c
h
-103.1875 508.515625 m
-106.28125 508.515625 -108.117188 510.53125 -108.117188 510.53125 c
-109.953125 512.546875 -110.28125 516.109375 -110.28125 516.109375 c
-96.859375 516.109375 l
-96.859375 512.4375 -98.5 510.476562 -98.5 510.476562 c
-100.140625 508.515625 -103.1875 508.515625 -103.1875 508.515625 c
h
-75.796875 531.890625 m
-81.375 531.890625 -84.429688 528.453125 -84.429688 528.453125 c
-87.484375 525.015625 -87.484375 518.734375 -87.484375 518.734375 c
-87.484375 512.296875 -84.382812 508.78125 -84.382812 508.78125 c
-81.28125 505.265625 -75.53125 505.265625 -75.53125 505.265625 c
-73.6875 505.265625 -71.835937 505.664063 -71.835937 505.664063 c
-69.984375 506.0625 -68.921875 506.59375 -68.921875 506.59375 c
-70.125 509.90625 l
-71.40625 509.390625 -72.929688 509.046875 -72.929688 509.046875 c
-74.453125 508.703125 -75.625 508.703125 -75.625 508.703125 c
-83.453125 508.703125 -83.453125 518.6875 -83.453125 518.6875 c
-83.453125 523.421875 -81.546875 525.953125 -81.546875 525.953125 c
-79.640625 528.484375 -75.890625 528.484375 -75.890625 528.484375 c
-72.671875 528.484375 -69.296875 527.109375 -69.296875 527.109375 c
-69.296875 530.546875 l
-71.875 531.890625 -75.796875 531.890625 -75.796875 531.890625 c
h
-54.90625 528.671875 m
-53.875 528.671875 -52.914062 528.523438 -52.914062 528.523438 c
-51.953125 528.375 -51.390625 528.203125 -51.390625 528.203125 c
-51.390625 531.1875 l
-52.015625 531.5 -53.25 531.695313 -53.25 531.695313 c
-54.484375 531.890625 -55.46875 531.890625 -55.46875 531.890625 c
-62.921875 531.890625 -62.921875 524.03125 -62.921875 524.03125 c
-62.921875 508.75 l
-66.59375 508.75 l
-66.59375 506.875 l
-62.921875 505.265625 l
-61.28125 499.78125 l
-59.03125 499.78125 l
-59.03125 505.734375 l
-51.578125 505.734375 l
-51.578125 508.75 l
-59.03125 508.75 l
-59.03125 523.875 l
-59.03125 526.1875 -57.929687 527.429688 -57.929687 527.429688 c
-56.828125 528.671875 -54.90625 528.671875 -54.90625 528.671875 c
h
-35.40625 531.890625 m
-41.109375 531.890625 -44.398438 528.421875 -44.398438 528.421875 c
-47.6875 524.953125 -47.6875 518.78125 -47.6875 518.78125 c
-47.6875 512.578125 -44.632813 508.921875 -44.632813 508.921875 c
-41.578125 505.265625 -36.421875 505.265625 -36.421875 505.265625 c
-31.59375 505.265625 -28.78125 508.4375 -28.78125 508.4375 c
-25.96875 511.609375 -25.96875 516.8125 -25.96875 516.8125 c
-25.96875 519.28125 l
-43.65625 519.28125 l
-43.546875 523.796875 -41.375 526.140625 -41.375 526.140625 c
-39.203125 528.484375 -35.265625 528.484375 -35.265625 528.484375 c
-31.125 528.484375 -27.0625 526.75 -27.0625 526.75 c
-27.0625 530.21875 l
-29.125 531.109375 -30.96875 531.5 -30.96875 531.5 c
-32.8125 531.890625 -35.40625 531.890625 -35.40625 531.890625 c
h
-36.46875 508.515625 m
-39.5625 508.515625 -41.398438 510.53125 -41.398438 510.53125 c
-43.234375 512.546875 -43.5625 516.109375 -43.5625 516.109375 c
-30.140625 516.109375 l
-30.140625 512.4375 -31.78125 510.476562 -31.78125 510.476562 c
-33.421875 508.515625 -36.46875 508.515625 -36.46875 508.515625 c
h
-1.84375 527.96875 m
-2.046875 527.96875 l
-4.75 531.890625 -10.109375 531.890625 -10.109375 531.890625 c
-15.15625 531.890625 -17.953125 528.445313 -17.953125 528.445313 c
-20.75 525 -20.75 518.640625 -20.75 518.640625 c
-20.75 512.296875 -17.9375 508.78125 -17.9375 508.78125 c
-15.125 505.265625 -10.109375 505.265625 -10.109375 505.265625 c
-4.890625 505.265625 -2.09375 509.0625 -2.09375 509.0625 c
-1.796875 509.0625 l
-1.953125 507.203125 l
-2.046875 505.40625 l
-2.046875 494.953125 l
1.84375 494.953125 l
1.84375 531.421875 l
-1.328125 531.421875 l
-1.84375 527.96875 l
h
-9.625 528.625 m
-5.640625 528.625 -3.84375 526.460938 -3.84375 526.460938 c
-2.046875 524.296875 -2.046875 519.46875 -2.046875 519.46875 c
-2.046875 518.640625 l
-2.046875 513.1875 -3.867188 510.851563 -3.867188 510.851563 c
-5.6875 508.515625 -9.671875 508.515625 -9.671875 508.515625 c
-13.09375 508.515625 -14.90625 511.179688 -14.90625 511.179688 c
-16.71875 513.84375 -16.71875 518.6875 -16.71875 518.6875 c
-16.71875 523.609375 -14.914063 526.117188 -14.914063 526.117188 c
-13.109375 528.625 -9.625 528.625 -9.625 528.625 c
h
44.859375 507.140625 m
44.859375 512.34375 41.3125 515.140625 41.3125 515.140625 c
37.765625 517.9375 31.15625 517.9375 31.15625 517.9375 c
27.125 517.9375 l
27.125 531.421875 l
23.140625 531.421875 l
23.140625 497.15625 l
32.015625 497.15625 l
44.859375 497.15625 44.859375 507.140625 44.859375 507.140625 c
h
27.125 514.515625 m
30.703125 514.515625 l
36 514.515625 38.367187 512.804688 38.367187 512.804688 c
40.734375 511.09375 40.734375 507.328125 40.734375 507.328125 c
40.734375 503.921875 38.507813 502.257813 38.507813 502.257813 c
36.28125 500.59375 31.578125 500.59375 31.578125 500.59375 c
27.125 500.59375 l
27.125 514.515625 l
h
62.296875 531.890625 m
56.59375 531.890625 53.304687 528.421875 53.304687 528.421875 c
50.015625 524.953125 50.015625 518.78125 50.015625 518.78125 c
50.015625 512.578125 53.070313 508.921875 53.070313 508.921875 c
56.125 505.265625 61.28125 505.265625 61.28125 505.265625 c
66.109375 505.265625 68.921875 508.4375 68.921875 508.4375 c
71.734375 511.609375 71.734375 516.8125 71.734375 516.8125 c
71.734375 519.28125 l
54.046875 519.28125 l
54.15625 523.796875 56.328125 526.140625 56.328125 526.140625 c
58.5 528.484375 62.4375 528.484375 62.4375 528.484375 c
66.578125 528.484375 70.640625 526.75 70.640625 526.75 c
70.640625 530.21875 l
68.578125 531.109375 66.734375 531.5 66.734375 531.5 c
64.890625 531.890625 62.296875 531.890625 62.296875 531.890625 c
h
61.234375 508.515625 m
58.140625 508.515625 56.304687 510.53125 56.304687 510.53125 c
54.46875 512.546875 54.140625 516.109375 54.140625 516.109375 c
67.5625 516.109375 l
67.5625 512.4375 65.921875 510.476562 65.921875 510.476562 c
64.28125 508.515625 61.234375 508.515625 61.234375 508.515625 c
h
94.171875 531.421875 m
93.40625 527.765625 l
93.21875 527.765625 l
91.296875 530.171875 89.382812 531.03125 89.382812 531.03125 c
87.46875 531.890625 84.609375 531.890625 84.609375 531.890625 c
80.796875 531.890625 78.625 529.921875 78.625 529.921875 c
76.453125 527.953125 76.453125 524.3125 76.453125 524.3125 c
76.453125 516.53125 88.90625 516.15625 88.90625 516.15625 c
93.265625 516.015625 l
93.265625 514.421875 l
93.265625 511.40625 91.960938 509.960937 91.960938 509.960937 c
90.65625 508.515625 87.796875 508.515625 87.796875 508.515625 c
84.59375 508.515625 80.53125 510.484375 80.53125 510.484375 c
79.34375 507.515625 l
81.234375 506.484375 83.5 505.898437 83.5 505.898437 c
85.765625 505.3125 88.03125 505.3125 88.03125 505.3125 c
92.625 505.3125 94.84375 507.351563 94.84375 507.351563 c
97.0625 509.390625 97.0625 513.890625 97.0625 513.890625 c
97.0625 531.421875 l
94.171875 531.421875 l
h
85.390625 528.671875 m
89.015625 528.671875 91.09375 526.679688 91.09375 526.679688 c
93.171875 524.6875 93.171875 521.109375 93.171875 521.109375 c
93.171875 518.78125 l
89.28125 518.953125 l
84.640625 519.109375 82.585937 520.390625 82.585937 520.390625 c
80.53125 521.671875 80.53125 524.359375 80.53125 524.359375 c
80.53125 526.46875 81.8125 527.570313 81.8125 527.570313 c
83.09375 528.671875 85.390625 528.671875 85.390625 528.671875 c
h
108.90625 518.265625 m
109.921875 516.84375 111.984375 514.515625 111.984375 514.515625 c
120.28125 505.734375 l
124.890625 505.734375 l
114.484375 516.671875 l
125.625 531.421875 l
120.90625 531.421875 l
111.84375 519.28125 l
108.90625 521.8125 l
108.90625 531.421875 l
105.0625 531.421875 l
105.0625 494.953125 l
108.90625 494.953125 l
108.90625 514.28125 l
108.90625 515.578125 108.71875 518.265625 108.71875 518.265625 c
108.90625 518.265625 l
h
153.875 531.421875 m
149.890625 531.421875 l
149.890625 500.6875 l
139.03125 500.6875 l
139.03125 497.15625 l
164.71875 497.15625 l
164.71875 500.6875 l
153.875 500.6875 l
153.875 531.421875 l
h
173.171875 531.421875 m
169.28125 531.421875 l
169.28125 505.734375 l
173.171875 505.734375 l
173.171875 531.421875 l
h
168.953125 498.765625 m
168.953125 497.4375 169.609375 496.8125 169.609375 496.8125 c
170.265625 496.1875 171.25 496.1875 171.25 496.1875 c
172.1875 496.1875 172.867188 496.820312 172.867188 496.820312 c
173.546875 497.453125 173.546875 498.765625 173.546875 498.765625 c
173.546875 500.078125 172.867188 500.726562 172.867188 500.726562 c
172.1875 501.375 171.25 501.375 171.25 501.375 c
170.265625 501.375 169.609375 500.726562 169.609375 500.726562 c
168.953125 500.078125 168.953125 498.765625 168.953125 498.765625 c
h
214.171875 531.421875 m
214.171875 514.703125 l
214.171875 511.640625 212.859375 510.101563 212.859375 510.101563 c
211.546875 508.5625 208.78125 508.5625 208.78125 508.5625 c
205.140625 508.5625 203.40625 510.648438 203.40625 510.648438 c
201.671875 512.734375 201.671875 517.078125 201.671875 517.078125 c
201.671875 531.421875 l
197.78125 531.421875 l
197.78125 514.703125 l
197.78125 511.640625 196.46875 510.101563 196.46875 510.101563 c
195.15625 508.5625 192.375 508.5625 192.375 508.5625 c
188.71875 508.5625 187.015625 510.757813 187.015625 510.757813 c
185.3125 512.953125 185.3125 517.9375 185.3125 517.9375 c
185.3125 531.421875 l
181.421875 531.421875 l
181.421875 505.734375 l
184.59375 505.734375 l
185.21875 509.25 l
185.40625 509.25 l
186.515625 507.375 188.515625 506.320312 188.515625 506.320312 c
190.515625 505.265625 193 505.265625 193 505.265625 c
199.03125 505.265625 200.875 509.625 200.875 509.625 c
201.0625 509.625 l
202.21875 507.609375 204.398438 506.4375 204.398438 506.4375 c
206.578125 505.265625 209.359375 505.265625 209.359375 505.265625 c
213.71875 505.265625 215.890625 507.5 215.890625 507.5 c
218.0625 509.734375 218.0625 514.65625 218.0625 514.65625 c
218.0625 531.421875 l
214.171875 531.421875 l
h
236.9375 531.890625 m
231.234375 531.890625 227.945313 528.421875 227.945313 528.421875 c
224.65625 524.953125 224.65625 518.78125 224.65625 518.78125 c
224.65625 512.578125 227.710938 508.921875 227.710938 508.921875 c
230.765625 505.265625 235.921875 505.265625 235.921875 505.265625 c
240.75 505.265625 243.5625 508.4375 243.5625 508.4375 c
246.375 511.609375 246.375 516.8125 246.375 516.8125 c
246.375 519.28125 l
228.6875 519.28125 l
228.796875 523.796875 230.96875 526.140625 230.96875 526.140625 c
233.140625 528.484375 237.078125 528.484375 237.078125 528.484375 c
241.21875 528.484375 245.28125 526.75 245.28125 526.75 c
245.28125 530.21875 l
243.21875 531.109375 241.375 531.5 241.375 531.5 c
239.53125 531.890625 236.9375 531.890625 236.9375 531.890625 c
h
235.875 508.515625 m
232.78125 508.515625 230.945313 510.53125 230.945313 510.53125 c
229.109375 512.546875 228.78125 516.109375 228.78125 516.109375 c
242.203125 516.109375 l
242.203125 512.4375 240.5625 510.476562 240.5625 510.476562 c
238.921875 508.515625 235.875 508.515625 235.875 508.515625 c
h
f
Q
q
[4.166667 0 0 4.166667 350.000008 433.333343] cm
-0.000002 0 142.000002 81.000006 re
W
/DeviceGray {} cs
[1] sc
/DeviceGray {} CS
[0] SC
0.5 0.5 141 80 re
f
Q
q
[4.166667 0 0 4.166667 350.000008 433.333343] cm
-0.000002 0 142.000002 81.000006 re
W
/DeviceGray {} cs
[0] sc
0 J
0 j
1 w
4 M
0.5 0.5 141 80 re
S
Q
q
[4.166667 0 0 4.166667 437.50001 529.583347] cm
-21.000002 -23.1 142.000002 81.000006 re
W
/DeviceRGB {} cs
[0.1216 0.4667 0.7059] sc
/DeviceGray {} CS
[0] SC
-6 -6 12 12 re
f
Q
q
[2.083333 0 0 2.083333 354.166675 529.583347] cm
-2.000004 -46.200001 284.000004 162.000011 re
W
/DeviceGray {} CS
[0] SC
104.046875 9.59375 m
104.046875 14.125 100.765625 16.65625 100.765625 16.65625 c
97.484375 19.1875 91.859375 19.1875 91.859375 19.1875 c
85.765625 19.1875 82.484375 17.609375 82.484375 17.609375 c
82.484375 13.765625 l
84.59375 14.65625 87.078125 15.171875 87.078125 15.171875 c
89.5625 15.6875 92 15.6875 92 15.6875 c
95.984375 15.6875 98 14.179688 98 14.179688 c
100.015625 12.671875 100.015625 9.96875 100.015625 9.96875 c
100.015625 8.1875 99.304688 7.054687 99.304688 7.054687 c
98.59375 5.921875 96.914063 4.960937 96.914063 4.960937 c
95.234375 4 91.8125 2.78125 91.8125 2.78125 c
87.03125 1.0625 84.984375 -1.28125 84.984375 -1.28125 c
82.9375 -3.625 82.9375 -7.390625 82.9375 -7.390625 c
82.9375 -11.359375 85.914063 -13.703125 85.914063 -13.703125 c
88.890625 -16.046875 93.78125 -16.046875 93.78125 -16.046875 c
98.890625 -16.046875 103.1875 -14.171875 103.1875 -14.171875 c
101.9375 -10.703125 l
97.703125 -12.484375 93.6875 -12.484375 93.6875 -12.484375 c
90.53125 -12.484375 88.75 -11.125 88.75 -11.125 c
86.96875 -9.765625 86.96875 -7.34375 86.96875 -7.34375 c
86.96875 -5.5625 87.625 -4.429688 87.625 -4.429688 c
88.28125 -3.296875 89.835937 -2.34375 89.835937 -2.34375 c
91.390625 -1.390625 94.609375 -0.25 94.609375 -0.25 c
100 1.671875 102.023437 3.875 102.023437 3.875 c
104.046875 6.078125 104.046875 9.59375 104.046875 9.59375 c
h
121.328125 19.1875 m
115.625 19.1875 112.335937 15.71875 112.335937 15.71875 c
109.046875 12.25 109.046875 6.078125 109.046875 6.078125 c
109.046875 -0.125 112.101563 -3.78125 112.101563 -3.78125 c
115.15625 -7.4375 120.3125 -7.4375 120.3125 -7.4375 c
125.140625 -7.4375 127.953125 -4.265625 127.953125 -4.265625 c
130.765625 -1.09375 130.765625 4.109375 130.765625 4.109375 c
130.765625 6.578125 l
113.078125 6.578125 l
113.1875 11.09375 115.359375 13.4375 115.359375 13.4375 c
117.53125 15.78125 121.46875 15.78125 121.46875 15.78125 c
125.609375 15.78125 129.671875 14.046875 129.671875 14.046875 c
129.671875 17.515625 l
127.609375 18.40625 125.765625 18.796875 125.765625 18.796875 c
123.921875 19.1875 121.328125 19.1875 121.328125 19.1875 c
h
120.265625 -4.1875 m
117.171875 -4.1875 115.335937 -2.171875 115.335937 -2.171875 c
113.5 -0.15625 113.171875 3.40625 113.171875 3.40625 c
126.59375 3.40625 l
126.59375 -0.265625 124.953125 -2.226563 124.953125 -2.226563 c
123.3125 -4.1875 120.265625 -4.1875 120.265625 -4.1875 c
h
154.96875 18.71875 m
154.96875 2.09375 l
154.96875 -1.046875 153.539062 -2.59375 153.539062 -2.59375 c
152.109375 -4.140625 149.0625 -4.140625 149.0625 -4.140625 c
145.03125 -4.140625 143.15625 -1.960938 143.15625 -1.960938 c
141.28125 0.21875 141.28125 5.234375 141.28125 5.234375 c
141.28125 18.71875 l
137.390625 18.71875 l
137.390625 -6.96875 l
140.5625 -6.96875 l
141.1875 -3.453125 l
141.375 -3.453125 l
142.578125 -5.359375 144.734375 -6.398437 144.734375 -6.398437 c
146.890625 -7.4375 149.53125 -7.4375 149.53125 -7.4375 c
154.171875 -7.4375 156.515625 -5.203125 156.515625 -5.203125 c
158.859375 -2.96875 158.859375 1.953125 158.859375 1.953125 c
158.859375 18.71875 l
154.96875 18.71875 l
h
183.4375 11.703125 m
183.4375 15.296875 180.765625 17.242187 180.765625 17.242187 c
178.09375 19.1875 173.265625 19.1875 173.265625 19.1875 c
168.15625 19.1875 165.296875 17.5625 165.296875 17.5625 c
165.296875 13.953125 l
167.140625 14.890625 169.265625 15.429688 169.265625 15.429688 c
171.390625 15.96875 173.359375 15.96875 173.359375 15.96875 c
176.40625 15.96875 178.046875 15 178.046875 15 c
179.6875 14.03125 179.6875 12.03125 179.6875 12.03125 c
179.6875 10.53125 178.382813 9.46875 178.382813 9.46875 c
177.078125 8.40625 173.3125 6.953125 173.3125 6.953125 c
169.71875 5.609375 168.210938 4.617187 168.210938 4.617187 c
166.703125 3.625 165.960938 2.359375 165.960938 2.359375 c
165.21875 1.09375 165.21875 -0.671875 165.21875 -0.671875 c
165.21875 -3.8125 167.773438 -5.625 167.773438 -5.625 c
170.328125 -7.4375 174.78125 -7.4375 174.78125 -7.4375 c
178.9375 -7.4375 182.890625 -5.75 182.890625 -5.75 c
181.515625 -2.59375 l
177.640625 -4.1875 174.5 -4.1875 174.5 -4.1875 c
171.734375 -4.1875 170.328125 -3.320313 170.328125 -3.320313 c
168.921875 -2.453125 168.921875 -0.921875 168.921875 -0.921875 c
168.921875 0.109375 169.453125 0.835938 169.453125 0.835938 c
169.984375 1.5625 171.15625 2.21875 171.15625 2.21875 c
172.328125 2.875 175.65625 4.109375 175.65625 4.109375 c
180.21875 5.78125 181.828125 7.46875 181.828125 7.46875 c
183.4375 9.15625 183.4375 11.703125 183.4375 11.703125 c
h
211.921875 5.84375 m
211.921875 12.125 208.757813 15.65625 208.757813 15.65625 c
205.59375 19.1875 200.015625 19.1875 200.015625 19.1875 c
196.578125 19.1875 193.90625 17.570312 193.90625 17.570312 c
191.234375 15.953125 189.78125 12.929688 189.78125 12.929688 c
188.328125 9.90625 188.328125 5.84375 188.328125 5.84375 c
188.328125 -0.4375 191.46875 -3.9375 191.46875 -3.9375 c
194.609375 -7.4375 200.1875 -7.4375 200.1875 -7.4375 c
205.578125 -7.4375 208.75 -3.851562 208.75 -3.851562 c
211.921875 -0.265625 211.921875 5.84375 211.921875 5.84375 c
h
192.359375 5.84375 m
192.359375 10.765625 194.328125 13.34375 194.328125 13.34375 c
196.296875 15.921875 200.109375 15.921875 200.109375 15.921875 c
203.9375 15.921875 205.914062 13.359375 205.914062 13.359375 c
207.890625 10.796875 207.890625 5.84375 207.890625 5.84375 c
207.890625 0.953125 205.914062 -1.59375 205.914062 -1.59375 c
203.9375 -4.140625 200.0625 -4.140625 200.0625 -4.140625 c
196.25 -4.140625 194.304688 -1.632813 194.304688 -1.632813 c
192.359375 0.875 192.359375 5.84375 192.359375 5.84375 c
h
230.46875 -7.4375 m
232.1875 -7.4375 233.546875 -7.15625 233.546875 -7.15625 c
233 -3.546875 l
231.40625 -3.90625 230.1875 -3.90625 230.1875 -3.90625 c
227.078125 -3.90625 224.859375 -1.375 224.859375 -1.375 c
222.640625 1.15625 222.640625 4.9375 222.640625 4.9375 c
222.640625 18.71875 l
218.75 18.71875 l
218.75 -6.96875 l
221.96875 -6.96875 l
222.40625 -2.21875 l
222.59375 -2.21875 l
224.03125 -4.71875 226.046875 -6.078125 226.046875 -6.078125 c
228.0625 -7.4375 230.46875 -7.4375 230.46875 -7.4375 c
h
254.921875 11.703125 m
254.921875 15.296875 252.25 17.242187 252.25 17.242187 c
249.578125 19.1875 244.75 19.1875 244.75 19.1875 c
239.640625 19.1875 236.78125 17.5625 236.78125 17.5625 c
236.78125 13.953125 l
238.625 14.890625 240.75 15.429688 240.75 15.429688 c
242.875 15.96875 244.84375 15.96875 244.84375 15.96875 c
247.890625 15.96875 249.53125 15 249.53125 15 c
251.171875 14.03125 251.171875 12.03125 251.171875 12.03125 c
251.171875 10.53125 249.867188 9.46875 249.867188 9.46875 c
248.5625 8.40625 244.796875 6.953125 244.796875 6.953125 c
241.203125 5.609375 239.695313 4.617187 239.695313 4.617187 c
238.1875 3.625 237.445313 2.359375 237.445313 2.359375 c
236.703125 1.09375 236.703125 -0.671875 236.703125 -0.671875 c
236.703125 -3.8125 239.257813 -5.625 239.257813 -5.625 c
241.8125 -7.4375 246.265625 -7.4375 246.265625 -7.4375 c
250.421875 -7.4375 254.375 -5.75 254.375 -5.75 c
253 -2.59375 l
249.125 -4.1875 245.984375 -4.1875 245.984375 -4.1875 c
243.21875 -4.1875 241.8125 -3.320313 241.8125 -3.320313 c
240.40625 -2.453125 240.40625 -0.921875 240.40625 -0.921875 c
240.40625 0.109375 240.9375 0.835938 240.9375 0.835938 c
241.46875 1.5625 242.640625 2.21875 242.640625 2.21875 c
243.8125 2.875 247.140625 4.109375 247.140625 4.109375 c
251.703125 5.78125 253.3125 7.46875 253.3125 7.46875 c
254.921875 9.15625 254.921875 11.703125 254.921875 11.703125 c
h
f
Q
q
[4.166667 0 0 4.166667 437.50001 672.083345] cm
-21.000002 -57.299999 142.000002 81.000006 re
W
/DeviceRGB {} cs
[1 0.498 0.0549] sc
/DeviceGray {} CS
[0] SC
-6 -6 12 12 re
f
Q
q
[2.083333 0 0 2.083333 354.166675 672.083345] cm
-2.000004 -114.599998 284.000004 162.000011 re
W
/DeviceGray {} CS
[0] SC
88.703125 4.46875 m
88.703125 18.71875 l
84.71875 18.71875 l
84.71875 -15.546875 l
94.109375 -15.546875 l
100.421875 -15.546875 103.429688 -13.132813 103.429688 -13.132813 c
106.4375 -10.71875 106.4375 -5.875 106.4375 -5.875 c
106.4375 0.921875 99.546875 3.3125 99.546875 3.3125 c
108.859375 18.71875 l
104.140625 18.71875 l
95.84375 4.46875 l
88.703125 4.46875 l
h
88.703125 1.046875 m
94.15625 1.046875 l
98.375 1.046875 100.34375 -0.632813 100.34375 -0.632813 c
102.3125 -2.3125 102.3125 -5.65625 102.3125 -5.65625 c
102.3125 -9.0625 100.3125 -10.5625 100.3125 -10.5625 c
98.3125 -12.0625 93.875 -12.0625 93.875 -12.0625 c
88.703125 -12.0625 l
88.703125 1.046875 l
h
129.59375 18.71875 m
128.828125 15.0625 l
128.640625 15.0625 l
126.71875 17.46875 124.804688 18.328125 124.804688 18.328125 c
122.890625 19.1875 120.03125 19.1875 120.03125 19.1875 c
116.21875 19.1875 114.046875 17.21875 114.046875 17.21875 c
111.875 15.25 111.875 11.609375 111.875 11.609375 c
111.875 3.828125 124.328125 3.453125 124.328125 3.453125 c
128.6875 3.3125 l
128.6875 1.71875 l
128.6875 -1.296875 127.382812 -2.742188 127.382812 -2.742188 c
126.078125 -4.1875 123.21875 -4.1875 123.21875 -4.1875 c
120.015625 -4.1875 115.953125 -2.21875 115.953125 -2.21875 c
114.765625 -5.1875 l
116.65625 -6.21875 118.921875 -6.804687 118.921875 -6.804687 c
121.1875 -7.390625 123.453125 -7.390625 123.453125 -7.390625 c
128.046875 -7.390625 130.265625 -5.351563 130.265625 -5.351563 c
132.484375 -3.3125 132.484375 1.1875 132.484375 1.1875 c
132.484375 18.71875 l
129.59375 18.71875 l
h
120.8125 15.96875 m
124.4375 15.96875 126.515625 13.976563 126.515625 13.976563 c
128.59375 11.984375 128.59375 8.40625 128.59375 8.40625 c
128.59375 6.078125 l
124.703125 6.25 l
120.0625 6.40625 118.007813 7.6875 118.007813 7.6875 c
115.953125 8.96875 115.953125 11.65625 115.953125 11.65625 c
115.953125 13.765625 117.234375 14.867188 117.234375 14.867188 c
118.515625 15.96875 120.8125 15.96875 120.8125 15.96875 c
h
158.0625 18.71875 m
158.0625 2.09375 l
158.0625 -1.046875 156.632813 -2.59375 156.632813 -2.59375 c
155.203125 -4.140625 152.15625 -4.140625 152.15625 -4.140625 c
148.125 -4.140625 146.25 -1.960938 146.25 -1.960938 c
144.375 0.21875 144.375 5.234375 144.375 5.234375 c
144.375 18.71875 l
140.484375 18.71875 l
140.484375 -6.96875 l
143.65625 -6.96875 l
144.28125 -3.453125 l
144.46875 -3.453125 l
145.671875 -5.359375 147.828125 -6.398437 147.828125 -6.398437 c
149.984375 -7.4375 152.625 -7.4375 152.625 -7.4375 c
157.265625 -7.4375 159.609375 -5.203125 159.609375 -5.203125 c
161.953125 -2.96875 161.953125 1.953125 161.953125 1.953125 c
161.953125 18.71875 l
158.0625 18.71875 l
h
187.4375 15.265625 m
187.234375 15.265625 l
184.53125 19.1875 179.171875 19.1875 179.171875 19.1875 c
174.125 19.1875 171.328125 15.742188 171.328125 15.742188 c
168.53125 12.296875 168.53125 5.9375 168.53125 5.9375 c
168.53125 -0.40625 171.34375 -3.921875 171.34375 -3.921875 c
174.15625 -7.4375 179.171875 -7.4375 179.171875 -7.4375 c
184.390625 -7.4375 187.1875 -3.640625 187.1875 -3.640625 c
187.484375 -3.640625 l
187.328125 -5.5 l
187.234375 -7.296875 l
187.234375 -17.75 l
191.125 -17.75 l
191.125 18.71875 l
187.953125 18.71875 l
187.4375 15.265625 l
h
179.65625 15.921875 m
183.640625 15.921875 185.4375 13.757813 185.4375 13.757813 c
187.234375 11.59375 187.234375 6.765625 187.234375 6.765625 c
187.234375 5.9375 l
187.234375 0.484375 185.414062 -1.851563 185.414062 -1.851563 c
183.59375 -4.1875 179.609375 -4.1875 179.609375 -4.1875 c
176.1875 -4.1875 174.375 -1.523438 174.375 -1.523438 c
172.5625 1.140625 172.5625 5.984375 172.5625 5.984375 c
172.5625 10.90625 174.367188 13.414063 174.367188 13.414063 c
176.171875 15.921875 179.65625 15.921875 179.65625 15.921875 c
h
221.53125 5.84375 m
221.53125 12.125 218.367188 15.65625 218.367188 15.65625 c
215.203125 19.1875 209.625 19.1875 209.625 19.1875 c
206.1875 19.1875 203.515625 17.570312 203.515625 17.570312 c
200.84375 15.953125 199.390625 12.929688 199.390625 12.929688 c
197.9375 9.90625 197.9375 5.84375 197.9375 5.84375 c
197.9375 -0.4375 201.078125 -3.9375 201.078125 -3.9375 c
204.21875 -7.4375 209.796875 -7.4375 209.796875 -7.4375 c
215.1875 -7.4375 218.359375 -3.851562 218.359375 -3.851562 c
221.53125 -0.265625 221.53125 5.84375 221.53125 5.84375 c
h
201.96875 5.84375 m
201.96875 10.765625 203.9375 13.34375 203.9375 13.34375 c
205.90625 15.921875 209.71875 15.921875 209.71875 15.921875 c
213.546875 15.921875 215.523438 13.359375 215.523438 13.359375 c
217.5 10.796875 217.5 5.84375 217.5 5.84375 c
217.5 0.953125 215.523438 -1.59375 215.523438 -1.59375 c
213.546875 -4.140625 209.671875 -4.140625 209.671875 -4.140625 c
205.859375 -4.140625 203.914062 -1.632813 203.914062 -1.632813 c
201.96875 0.875 201.96875 5.84375 201.96875 5.84375 c
h
261.109375 18.71875 m
261.109375 2 l
261.109375 -1.0625 259.796875 -2.601563 259.796875 -2.601563 c
258.484375 -4.140625 255.71875 -4.140625 255.71875 -4.140625 c
252.078125 -4.140625 250.34375 -2.054688 250.34375 -2.054688 c
248.609375 0.03125 248.609375 4.375 248.609375 4.375 c
248.609375 18.71875 l
244.71875 18.71875 l
244.71875 2 l
244.71875 -1.0625 243.40625 -2.601563 243.40625 -2.601563 c
242.09375 -4.140625 239.3125 -4.140625 239.3125 -4.140625 c
235.65625 -4.140625 233.953125 -1.945313 233.953125 -1.945313 c
232.25 0.25 232.25 5.234375 232.25 5.234375 c
232.25 18.71875 l
228.359375 18.71875 l
228.359375 -6.96875 l
231.53125 -6.96875 l
232.15625 -3.453125 l
232.34375 -3.453125 l
233.453125 -5.328125 235.453125 -6.382812 235.453125 -6.382812 c
237.453125 -7.4375 239.9375 -7.4375 239.9375 -7.4375 c
245.96875 -7.4375 247.8125 -3.078125 247.8125 -3.078125 c
248 -3.078125 l
249.15625 -5.09375 251.335938 -6.265625 251.335938 -6.265625 c
253.515625 -7.4375 256.296875 -7.4375 256.296875 -7.4375 c
260.65625 -7.4375 262.828125 -5.203125 262.828125 -5.203125 c
265 -2.96875 265 1.953125 265 1.953125 c
265 18.71875 l
261.109375 18.71875 l
h
f
Q
Q
showpage
%%PageTrailer
pdfEndPage
%%Trailer
end
%%DocumentSuppliedResources:
%%EOF
