%!PS-Adobe-3.0 EPSF-3.0
%Produced by poppler pdftops version: 0.24.5 (http://poppler.freedesktop.org)
%%LanguageLevel: 2
%%DocumentSuppliedResources: (atend)
%%BoundingBox: 0 0 450 450
%%HiResBoundingBox: 0 0 450 450
%%DocumentSuppliedResources: (atend)
%%EndComments
%%BeginProlog
%%BeginResource: procset xpdf 3.00 0
%%Copyright: Copyright 1996-2011 Glyph & Cog, LLC
/xpdf 75 dict def xpdf begin
% PDF special state
/pdfDictSize 15 def
/pdfSetup {
  /setpagedevice where {
    pop 2 dict begin
      /Policies 1 dict dup begin /PageSize 6 def end def
      { /Duplex true def } if
    currentdict end setpagedevice
  } {
    pop
  } ifelse
} def
/pdfSetupPaper {
  2 array astore
  /setpagedevice where {
    pop 2 dict begin
      /PageSize exch def
      /ImagingBBox null def
    currentdict end setpagedevice
  } {
    pop
  } ifelse
} def
/pdfStartPage {
  pdfDictSize dict begin
  /pdfFillCS [] def
  /pdfFillXform {} def
  /pdfStrokeCS [] def
  /pdfStrokeXform {} def
  /pdfFill [0] def
  /pdfStroke [0] def
  /pdfFillOP false def
  /pdfStrokeOP false def
  /pdfLastFill false def
  /pdfLastStroke false def
  /pdfTextMat [1 0 0 1 0 0] def
  /pdfFontSize 0 def
  /pdfCharSpacing 0 def
  /pdfTextRender 0 def
  /pdfPatternCS false def
  /pdfTextRise 0 def
  /pdfWordSpacing 0 def
  /pdfHorizScaling 1 def
  /pdfTextClipPath [] def
} def
/pdfEndPage { end } def
% PDF color state
/cs { /pdfFillXform exch def dup /pdfFillCS exch def
      setcolorspace } def
/CS { /pdfStrokeXform exch def dup /pdfStrokeCS exch def
      setcolorspace } def
/sc { pdfLastFill not { pdfFillCS setcolorspace } if
      dup /pdfFill exch def aload pop pdfFillXform setcolor
     /pdfLastFill true def /pdfLastStroke false def } def
/SC { pdfLastStroke not { pdfStrokeCS setcolorspace } if
      dup /pdfStroke exch def aload pop pdfStrokeXform setcolor
     /pdfLastStroke true def /pdfLastFill false def } def
/op { /pdfFillOP exch def
      pdfLastFill { pdfFillOP setoverprint } if } def
/OP { /pdfStrokeOP exch def
      pdfLastStroke { pdfStrokeOP setoverprint } if } def
/fCol {
  pdfLastFill not {
    pdfFillCS setcolorspace
    pdfFill aload pop pdfFillXform setcolor
    pdfFillOP setoverprint
    /pdfLastFill true def /pdfLastStroke false def
  } if
} def
/sCol {
  pdfLastStroke not {
    pdfStrokeCS setcolorspace
    pdfStroke aload pop pdfStrokeXform setcolor
    pdfStrokeOP setoverprint
    /pdfLastStroke true def /pdfLastFill false def
  } if
} def
% build a font
/pdfMakeFont {
  4 3 roll findfont
  4 2 roll matrix scale makefont
  dup length dict begin
    { 1 index /FID ne { def } { pop pop } ifelse } forall
    /Encoding exch def
    currentdict
  end
  definefont pop
} def
/pdfMakeFont16 {
  exch findfont
  dup length dict begin
    { 1 index /FID ne { def } { pop pop } ifelse } forall
    /WMode exch def
    currentdict
  end
  definefont pop
} def
% graphics state operators
/q { gsave pdfDictSize dict begin } def
/Q {
  end grestore
  /pdfLastFill where {
    pop
    pdfLastFill {
      pdfFillOP setoverprint
    } {
      pdfStrokeOP setoverprint
    } ifelse
  } if
} def
/cm { concat } def
/d { setdash } def
/i { setflat } def
/j { setlinejoin } def
/J { setlinecap } def
/M { setmiterlimit } def
/w { setlinewidth } def
% path segment operators
/m { moveto } def
/l { lineto } def
/c { curveto } def
/re { 4 2 roll moveto 1 index 0 rlineto 0 exch rlineto
      neg 0 rlineto closepath } def
/h { closepath } def
% path painting operators
/S { sCol stroke } def
/Sf { fCol stroke } def
/f { fCol fill } def
/f* { fCol eofill } def
% clipping operators
/W { clip newpath } def
/W* { eoclip newpath } def
/Ws { strokepath clip newpath } def
% text state operators
/Tc { /pdfCharSpacing exch def } def
/Tf { dup /pdfFontSize exch def
      dup pdfHorizScaling mul exch matrix scale
      pdfTextMat matrix concatmatrix dup 4 0 put dup 5 0 put
      exch findfont exch makefont setfont } def
/Tr { /pdfTextRender exch def } def
/Tp { /pdfPatternCS exch def } def
/Ts { /pdfTextRise exch def } def
/Tw { /pdfWordSpacing exch def } def
/Tz { /pdfHorizScaling exch def } def
% text positioning operators
/Td { pdfTextMat transform moveto } def
/Tm { /pdfTextMat exch def } def
% text string operators
/xyshow where {
  pop
  /xyshow2 {
    dup length array
    0 2 2 index length 1 sub {
      2 index 1 index 2 copy get 3 1 roll 1 add get
      pdfTextMat dtransform
      4 2 roll 2 copy 6 5 roll put 1 add 3 1 roll dup 4 2 roll put
    } for
    exch pop
    xyshow
  } def
}{
  /xyshow2 {
    currentfont /FontType get 0 eq {
      0 2 3 index length 1 sub {
        currentpoint 4 index 3 index 2 getinterval show moveto
        2 copy get 2 index 3 2 roll 1 add get
        pdfTextMat dtransform rmoveto
      } for
    } {
      0 1 3 index length 1 sub {
        currentpoint 4 index 3 index 1 getinterval show moveto
        2 copy 2 mul get 2 index 3 2 roll 2 mul 1 add get
        pdfTextMat dtransform rmoveto
      } for
    } ifelse
    pop pop
  } def
} ifelse
/cshow where {
  pop
  /xycp {
    0 3 2 roll
    {
      pop pop currentpoint 3 2 roll
      1 string dup 0 4 3 roll put false charpath moveto
      2 copy get 2 index 2 index 1 add get
      pdfTextMat dtransform rmoveto
      2 add
    } exch cshow
    pop pop
  } def
}{
  /xycp {
    currentfont /FontType get 0 eq {
      0 2 3 index length 1 sub {
        currentpoint 4 index 3 index 2 getinterval false charpath moveto
        2 copy get 2 index 3 2 roll 1 add get
        pdfTextMat dtransform rmoveto
      } for
    } {
      0 1 3 index length 1 sub {
        currentpoint 4 index 3 index 1 getinterval false charpath moveto
        2 copy 2 mul get 2 index 3 2 roll 2 mul 1 add get
        pdfTextMat dtransform rmoveto
      } for
    } ifelse
    pop pop
  } def
} ifelse
/Tj {
  fCol
  0 pdfTextRise pdfTextMat dtransform rmoveto
  currentpoint 4 2 roll
  pdfTextRender 1 and 0 eq {
    2 copy xyshow2
  } if
  pdfTextRender 3 and dup 1 eq exch 2 eq or {
    3 index 3 index moveto
    2 copy
    currentfont /FontType get 3 eq { fCol } { sCol } ifelse
    xycp currentpoint stroke moveto
  } if
  pdfTextRender 4 and 0 ne {
    4 2 roll moveto xycp
    /pdfTextClipPath [ pdfTextClipPath aload pop
      {/moveto cvx}
      {/lineto cvx}
      {/curveto cvx}
      {/closepath cvx}
    pathforall ] def
    currentpoint newpath moveto
  } {
    pop pop pop pop
  } ifelse
  0 pdfTextRise neg pdfTextMat dtransform rmoveto
} def
/TJm { 0.001 mul pdfFontSize mul pdfHorizScaling mul neg 0
       pdfTextMat dtransform rmoveto } def
/TJmV { 0.001 mul pdfFontSize mul neg 0 exch
        pdfTextMat dtransform rmoveto } def
/Tclip { pdfTextClipPath cvx exec clip newpath
         /pdfTextClipPath [] def } def
/Tclip* { pdfTextClipPath cvx exec eoclip newpath
         /pdfTextClipPath [] def } def
% Level 2/3 image operators
/pdfImBuf 100 string def
/pdfImStr {
  2 copy exch length lt {
    2 copy get exch 1 add exch
  } {
    ()
  } ifelse
} def
/skipEOD {
  { currentfile pdfImBuf readline
    not { pop exit } if
    (%-EOD-) eq { exit } if } loop
} def
/pdfIm { image skipEOD } def
/pdfImM { fCol imagemask skipEOD } def
/pr { 2 index 2 index 3 2 roll putinterval 4 add } def
/pdfImClip {
  gsave
  0 2 4 index length 1 sub {
    dup 4 index exch 2 copy
    get 5 index div put
    1 add 3 index exch 2 copy
    get 3 index div put
  } for
  pop pop rectclip
} def
/pdfImClipEnd { grestore } def
% shading operators
/colordelta {
  false 0 1 3 index length 1 sub {
    dup 4 index exch get 3 index 3 2 roll get sub abs 0.004 gt {
      pop true
    } if
  } for
  exch pop exch pop
} def
/funcCol { func n array astore } def
/funcSH {
  dup 0 eq {
    true
  } {
    dup 6 eq {
      false
    } {
      4 index 4 index funcCol dup
      6 index 4 index funcCol dup
      3 1 roll colordelta 3 1 roll
      5 index 5 index funcCol dup
      3 1 roll colordelta 3 1 roll
      6 index 8 index funcCol dup
      3 1 roll colordelta 3 1 roll
      colordelta or or or
    } ifelse
  } ifelse
  {
    1 add
    4 index 3 index add 0.5 mul exch 4 index 3 index add 0.5 mul exch
    6 index 6 index 4 index 4 index 4 index funcSH
    2 index 6 index 6 index 4 index 4 index funcSH
    6 index 2 index 4 index 6 index 4 index funcSH
    5 3 roll 3 2 roll funcSH pop pop
  } {
    pop 3 index 2 index add 0.5 mul 3 index  2 index add 0.5 mul
    funcCol sc
    dup 4 index exch mat transform m
    3 index 3 index mat transform l
    1 index 3 index mat transform l
    mat transform l pop pop h f*
  } ifelse
} def
/axialCol {
  dup 0 lt {
    pop t0
  } {
    dup 1 gt {
      pop t1
    } {
      dt mul t0 add
    } ifelse
  } ifelse
  func n array astore
} def
/axialSH {
  dup 0 eq {
    true
  } {
    dup 8 eq {
      false
    } {
      2 index axialCol 2 index axialCol colordelta
    } ifelse
  } ifelse
  {
    1 add 3 1 roll 2 copy add 0.5 mul
    dup 4 3 roll exch 4 index axialSH
    exch 3 2 roll axialSH
  } {
    pop 2 copy add 0.5 mul
    axialCol sc
    exch dup dx mul x0 add exch dy mul y0 add
    3 2 roll dup dx mul x0 add exch dy mul y0 add
    dx abs dy abs ge {
      2 copy yMin sub dy mul dx div add yMin m
      yMax sub dy mul dx div add yMax l
      2 copy yMax sub dy mul dx div add yMax l
      yMin sub dy mul dx div add yMin l
      h f*
    } {
      exch 2 copy xMin sub dx mul dy div add xMin exch m
      xMax sub dx mul dy div add xMax exch l
      exch 2 copy xMax sub dx mul dy div add xMax exch l
      xMin sub dx mul dy div add xMin exch l
      h f*
    } ifelse
  } ifelse
} def
/radialCol {
  dup t0 lt {
    pop t0
  } {
    dup t1 gt {
      pop t1
    } if
  } ifelse
  func n array astore
} def
/radialSH {
  dup 0 eq {
    true
  } {
    dup 8 eq {
      false
    } {
      2 index dt mul t0 add radialCol
      2 index dt mul t0 add radialCol colordelta
    } ifelse
  } ifelse
  {
    1 add 3 1 roll 2 copy add 0.5 mul
    dup 4 3 roll exch 4 index radialSH
    exch 3 2 roll radialSH
  } {
    pop 2 copy add 0.5 mul dt mul t0 add
    radialCol sc
    encl {
      exch dup dx mul x0 add exch dup dy mul y0 add exch dr mul r0 add
      0 360 arc h
      dup dx mul x0 add exch dup dy mul y0 add exch dr mul r0 add
      360 0 arcn h f
    } {
      2 copy
      dup dx mul x0 add exch dup dy mul y0 add exch dr mul r0 add
      a1 a2 arcn
      dup dx mul x0 add exch dup dy mul y0 add exch dr mul r0 add
      a2 a1 arcn h
      dup dx mul x0 add exch dup dy mul y0 add exch dr mul r0 add
      a1 a2 arc
      dup dx mul x0 add exch dup dy mul y0 add exch dr mul r0 add
      a2 a1 arc h f
    } ifelse
  } ifelse
} def
end
%%EndResource
%%EndProlog
%%BeginSetup
xpdf begin
%%EndSetup
pdfStartPage
[] 0 d
1 i
0 j
0 J
10 M
1 w
/DeviceGray {} cs
[0] sc
/DeviceGray {} CS
[0] SC
false op
false OP
{} settransfer
0 0 450 450 re
W
q
[1 0 0 -1 0 450] cm
[0.75 0 0 0.75 0 0] cm
[0.24 0 0 0.24 0 0] cm
q
[4.166667 0 0 4.166667 0 0] cm
0 0 600 600 re
W
/DeviceGray {} cs
[1] sc
/DeviceGray {} CS
[0] SC
0 0 600 600 re
f
Q
q
[4.166667 0 0 4.166667 0 0] cm
0 0 600 600 re
W
/DeviceGray {} cs
[1] sc
/DeviceGray {} CS
[0] SC
80 100 440 420 re
f
Q
q
[4.166667 0 0 4.166667 447.833341 416.666676] cm
-107.48 -100 600 600 re
W
/DeviceGray {} CS
[0] SC
0 0 m
0 420 l
f
Q
q
[4.166667 0 0 4.166667 447.833341 416.666676] cm
-107.48 -100 600 600 re
W
/DeviceGray {} CS
[0.9333] SC
/DeviceGray {} cs
[0] sc
0 J
0 j
1 w
4 M
0 0 m
0 420 l
S
Q
q
[4.166667 0 0 4.166667 768.083335 416.666676] cm
-184.339996 -100 600 600 re
W
/DeviceGray {} CS
[0] SC
0 0 m
0 420 l
f
Q
q
[4.166667 0 0 4.166667 768.083335 416.666676] cm
-184.339996 -100 600 600 re
W
/DeviceGray {} CS
[0.9333] SC
/DeviceGray {} cs
[0] sc
0 J
0 j
1 w
4 M
0 0 m
0 420 l
S
Q
q
[4.166667 0 0 4.166667 1088.291701 416.666676] cm
-261.190002 -100 600 600 re
W
/DeviceGray {} CS
[0] SC
0 0 m
0 420 l
f
Q
q
[4.166667 0 0 4.166667 1088.291701 416.666676] cm
-261.190002 -100 600 600 re
W
/DeviceGray {} CS
[0.9333] SC
/DeviceGray {} cs
[0] sc
0 J
0 j
1 w
4 M
0 0 m
0 420 l
S
Q
q
[4.166667 0 0 4.166667 1408.500067 416.666676] cm
-338.040009 -100 600 600 re
W
/DeviceGray {} CS
[0] SC
0 0 m
0 420 l
f
Q
q
[4.166667 0 0 4.166667 1408.500067 416.666676] cm
-338.040009 -100 600 600 re
W
/DeviceGray {} CS
[0.9333] SC
/DeviceGray {} cs
[0] sc
0 J
0 j
1 w
4 M
0 0 m
0 420 l
S
Q
q
[4.166667 0 0 4.166667 1728.750013 416.666676] cm
-414.899994 -100 600 600 re
W
/DeviceGray {} CS
[0] SC
0 0 m
0 420 l
f
Q
q
[4.166667 0 0 4.166667 1728.750013 416.666676] cm
-414.899994 -100 600 600 re
W
/DeviceGray {} CS
[0.9333] SC
/DeviceGray {} cs
[0] sc
0 J
0 j
1 w
4 M
0 0 m
0 420 l
S
Q
q
[4.166667 0 0 4.166667 2048.958379 416.666676] cm
-491.75 -100 600 600 re
W
/DeviceGray {} CS
[0] SC
0 0 m
0 420 l
f
Q
q
[4.166667 0 0 4.166667 2048.958379 416.666676] cm
-491.75 -100 600 600 re
W
/DeviceGray {} CS
[0.9333] SC
/DeviceGray {} cs
[0] sc
0 J
0 j
1 w
4 M
0 0 m
0 420 l
S
Q
q
[4.166667 0 0 4.166667 333.333341 2093.45835] cm
-80 -502.429993 600 600 re
W
/DeviceGray {} CS
[0] SC
0 0 m
440 0 l
f
Q
q
[4.166667 0 0 4.166667 333.333341 2093.45835] cm
-80 -502.429993 600 600 re
W
/DeviceGray {} CS
[0.9333] SC
/DeviceGray {} cs
[0] sc
0 J
0 j
1 w
4 M
0 0 m
440 0 l
S
Q
q
[4.166667 0 0 4.166667 333.333341 1901.541689] cm
-80 -456.369995 600 600 re
W
/DeviceGray {} CS
[0] SC
0 0 m
440 0 l
f
Q
q
[4.166667 0 0 4.166667 333.333341 1901.541689] cm
-80 -456.369995 600 600 re
W
/DeviceGray {} CS
[0.9333] SC
/DeviceGray {} cs
[0] sc
0 J
0 j
1 w
4 M
0 0 m
440 0 l
S
Q
q
[4.166667 0 0 4.166667 333.333341 1709.625028] cm
-80 -410.309998 600 600 re
W
/DeviceGray {} CS
[0] SC
0 0 m
440 0 l
f
Q
q
[4.166667 0 0 4.166667 333.333341 1709.625028] cm
-80 -410.309998 600 600 re
W
/DeviceGray {} CS
[0.9333] SC
/DeviceGray {} cs
[0] sc
0 J
0 j
1 w
4 M
0 0 m
440 0 l
S
Q
q
[4.166667 0 0 4.166667 333.333341 1517.708367] cm
-80 -364.25 600 600 re
W
/DeviceGray {} CS
[0] SC
0 0 m
440 0 l
f
Q
q
[4.166667 0 0 4.166667 333.333341 1517.708367] cm
-80 -364.25 600 600 re
W
/DeviceGray {} CS
[0.9333] SC
/DeviceGray {} cs
[0] sc
0 J
0 j
1 w
4 M
0 0 m
440 0 l
S
Q
q
[4.166667 0 0 4.166667 333.333341 1325.83335] cm
-80 -318.199997 600 600 re
W
/DeviceGray {} CS
[0] SC
0 0 m
440 0 l
f
Q
q
[4.166667 0 0 4.166667 333.333341 1325.83335] cm
-80 -318.199997 600 600 re
W
/DeviceGray {} CS
[0.9333] SC
/DeviceGray {} cs
[0] sc
0 J
0 j
1 w
4 M
0 0 m
440 0 l
S
Q
q
[4.166667 0 0 4.166667 333.333341 1133.916689] cm
-80 -272.139999 600 600 re
W
/DeviceGray {} CS
[0] SC
0 0 m
440 0 l
f
Q
q
[4.166667 0 0 4.166667 333.333341 1133.916689] cm
-80 -272.139999 600 600 re
W
/DeviceGray {} CS
[0.9333] SC
/DeviceGray {} cs
[0] sc
0 J
0 j
1 w
4 M
0 0 m
440 0 l
S
Q
q
[4.166667 0 0 4.166667 333.333341 942.000029] cm
-80 -226.080002 600 600 re
W
/DeviceGray {} CS
[0] SC
0 0 m
440 0 l
f
Q
q
[4.166667 0 0 4.166667 333.333341 942.000029] cm
-80 -226.080002 600 600 re
W
/DeviceGray {} CS
[0.9333] SC
/DeviceGray {} cs
[0] sc
0 J
0 j
1 w
4 M
0 0 m
440 0 l
S
Q
q
[4.166667 0 0 4.166667 333.333341 750.083336] cm
-80 -180.019997 600 600 re
W
/DeviceGray {} CS
[0] SC
0 0 m
440 0 l
f
Q
q
[4.166667 0 0 4.166667 333.333341 750.083336] cm
-80 -180.019997 600 600 re
W
/DeviceGray {} CS
[0.9333] SC
/DeviceGray {} cs
[0] sc
0 J
0 j
1 w
4 M
0 0 m
440 0 l
S
Q
q
[4.166667 0 0 4.166667 333.333341 558.208351] cm
-80 -133.970001 600 600 re
W
/DeviceGray {} CS
[0] SC
0 0 m
440 0 l
f
Q
q
[4.166667 0 0 4.166667 333.333341 558.208351] cm
-80 -133.970001 600 600 re
W
/DeviceGray {} CS
[0.9333] SC
/DeviceGray {} cs
[0] sc
0 J
0 j
1 w
4 M
0 0 m
440 0 l
S
Q
q
[4.166667 0 0 4.166667 333.333341 416.666676] cm
0.000001 0.000003 440.000007 420.000005 re
W
/DeviceRGB {} CS
[0.1216 0.4667 0.7059] SC
/DeviceGray {} cs
[0] sc
0 J
0 j
3 w
2 M
28.25 392.75 m
31.32 327.820007 l
35.169998 214.149994 l
46.689999 151.990005 l
65.910004 122.559998 l
85.120003 97.709999 l
104.339996 95.379997 l
181.190002 27.25 l
258.040009 90.260002 l
334.899994 124.440002 l
411.75 228.070007 l
S
Q
q
[4.166667 0 0 4.166667 451.041677 2053.125046] cm
-28.249999 -392.749997 440.000007 420.000005 re
W
/DeviceRGB {} cs
[0.1216 0.4667 0.7059] sc
/DeviceGray {} CS
[0] SC
5 0 m
5 2.761424 2.761424 5 0 5 c
-2.761424 5 -5 2.761424 -5 0 c
-5 -2.761424 -2.761424 -5 0 -5 c
0 -5 l
2.761424 -5 5 -2.761424 5 0 c
h
f
Q
q
[4.166667 0 0 4.166667 463.833342 1782.583404] cm
-31.319999 -327.820005 440.000007 420.000005 re
W
/DeviceRGB {} cs
[0.1216 0.4667 0.7059] sc
/DeviceGray {} CS
[0] SC
5 0 m
5 2.761424 2.761424 5 0 5 c
-2.761424 5 -5 2.761424 -5 0 c
-5 -2.761424 -2.761424 -5 0 -5 c
0 -5 l
2.761424 -5 5 -2.761424 5 0 c
h
f
Q
q
[4.166667 0 0 4.166667 479.875003 1308.958337] cm
-35.169998 -214.149991 440.000007 420.000005 re
W
/DeviceRGB {} cs
[0.1216 0.4667 0.7059] sc
/DeviceGray {} CS
[0] SC
5 0 m
5 2.761424 2.761424 5 0 5 c
-2.761424 5 -5 2.761424 -5 0 c
-5 -2.761424 -2.761424 -5 0 -5 c
0 -5 l
2.761424 -5 5 -2.761424 5 0 c
h
f
Q
q
[4.166667 0 0 4.166667 527.875006 1049.95838] cm
-46.689998 -151.990003 440.000007 420.000005 re
W
/DeviceRGB {} cs
[0.1216 0.4667 0.7059] sc
/DeviceGray {} CS
[0] SC
5 0 m
5 2.761424 2.761424 5 0 5 c
-2.761424 5 -5 2.761424 -5 0 c
-5 -2.761424 -2.761424 -5 0 -5 c
0 -5 l
2.761424 -5 5 -2.761424 5 0 c
h
f
Q
q
[4.166667 0 0 4.166667 607.958362 927.333344] cm
-65.910003 -122.559995 440.000007 420.000005 re
W
/DeviceRGB {} cs
[0.1216 0.4667 0.7059] sc
/DeviceGray {} CS
[0] SC
5 0 m
5 2.761424 2.761424 5 0 5 c
-2.761424 5 -5 2.761424 -5 0 c
-5 -2.761424 -2.761424 -5 0 -5 c
0 -5 l
2.761424 -5 5 -2.761424 5 0 c
h
f
Q
q
[4.166667 0 0 4.166667 688.000027 823.791681] cm
-85.120002 -97.709996 440.000007 420.000005 re
W
/DeviceRGB {} cs
[0.1216 0.4667 0.7059] sc
/DeviceGray {} CS
[0] SC
5 0 m
5 2.761424 2.761424 5 0 5 c
-2.761424 5 -5 2.761424 -5 0 c
-5 -2.761424 -2.761424 -5 0 -5 c
0 -5 l
2.761424 -5 5 -2.761424 5 0 c
h
f
Q
q
[4.166667 0 0 4.166667 768.083335 814.08334] cm
-104.339996 -95.379995 440.000007 420.000005 re
W
/DeviceRGB {} cs
[0.1216 0.4667 0.7059] sc
/DeviceGray {} CS
[0] SC
5 0 m
5 2.761424 2.761424 5 0 5 c
-2.761424 5 -5 2.761424 -5 0 c
-5 -2.761424 -2.761424 -5 0 -5 c
0 -5 l
2.761424 -5 5 -2.761424 5 0 c
h
f
Q
q
[4.166667 0 0 4.166667 1088.291701 530.208345] cm
-181.190002 -27.249997 440.000007 420.000005 re
W
/DeviceRGB {} cs
[0.1216 0.4667 0.7059] sc
/DeviceGray {} CS
[0] SC
5 0 m
5 2.761424 2.761424 5 0 5 c
-2.761424 5 -5 2.761424 -5 0 c
-5 -2.761424 -2.761424 -5 0 -5 c
0 -5 l
2.761424 -5 5 -2.761424 5 0 c
h
f
Q
q
[4.166667 0 0 4.166667 1408.500067 792.750027] cm
-258.040008 -90.259999 440.000007 420.000005 re
W
/DeviceRGB {} cs
[0.1216 0.4667 0.7059] sc
/DeviceGray {} CS
[0] SC
5 0 m
5 2.761424 2.761424 5 0 5 c
-2.761424 5 -5 2.761424 -5 0 c
-5 -2.761424 -2.761424 -5 0 -5 c
0 -5 l
2.761424 -5 5 -2.761424 5 0 c
h
f
Q
q
[4.166667 0 0 4.166667 1728.750013 935.166698] cm
-334.899993 -124.44 440.000007 420.000005 re
W
/DeviceRGB {} cs
[0.1216 0.4667 0.7059] sc
/DeviceGray {} CS
[0] SC
5 0 m
5 2.761424 2.761424 5 0 5 c
-2.761424 5 -5 2.761424 -5 0 c
-5 -2.761424 -2.761424 -5 0 -5 c
0 -5 l
2.761424 -5 5 -2.761424 5 0 c
h
f
Q
q
[4.166667 0 0 4.166667 2048.958379 1366.958394] cm
-411.749999 -228.070005 440.000007 420.000005 re
W
/DeviceRGB {} cs
[0.1216 0.4667 0.7059] sc
/DeviceGray {} CS
[0] SC
5 0 m
5 2.761424 2.761424 5 0 5 c
-2.761424 5 -5 2.761424 -5 0 c
-5 -2.761424 -2.761424 -5 0 -5 c
0 -5 l
2.761424 -5 5 -2.761424 5 0 c
h
f
Q
q
[4.166667 0 0 4.166667 333.333341 416.666676] cm
-80 -100 600 600 re
W
/DeviceGray {} CS
[0.2667] SC
/DeviceGray {} cs
[0] sc
0 J
0 j
1 w
4 M
-1 420.5 m
441 420.5 l
-1 -0.5 m
441 -0.5 l
S
Q
q
[4.166667 0 0 4.166667 333.333341 416.666676] cm
-80 -100 600 600 re
W
/DeviceGray {} CS
[0.2667] SC
/DeviceGray {} cs
[0] sc
0 J
0 j
1 w
4 M
-0.5 0 m
-0.5 420 l
440.5 0 m
440.5 420 l
S
Q
q
[1.909722 0 0 1.909722 447.833341 416.666676] cm
-234.501804 -218.181813 1309.090847 1309.090881 re
W
/DeviceGray {} CS
[0] SC
12.53125 953.71875 m
12.53125 962.609375 9.726563 966.992188 9.726563 966.992188 c
6.921875 971.375 1.15625 971.375 1.15625 971.375 c
-4.375 971.375 -7.257812 966.882813 -7.257812 966.882813 c
-10.140625 962.390625 -10.140625 953.71875 -10.140625 953.71875 c
-10.140625 944.765625 -7.351563 940.429688 -7.351563 940.429688 c
-4.5625 936.09375 1.15625 936.09375 1.15625 936.09375 c
6.734375 936.09375 9.632813 940.617188 9.632813 940.617188 c
12.53125 945.140625 12.53125 953.71875 12.53125 953.71875 c
h
-6.203125 953.71875 m
-6.203125 961.203125 -4.445313 964.609375 -4.445313 964.609375 c
-2.6875 968.015625 1.15625 968.015625 1.15625 968.015625 c
5.046875 968.015625 6.796875 964.5625 6.796875 964.5625 c
8.546875 961.109375 8.546875 953.71875 8.546875 953.71875 c
8.546875 946.34375 6.796875 942.90625 6.796875 942.90625 c
5.046875 939.46875 1.15625 939.46875 1.15625 939.46875 c
-2.6875 939.46875 -4.445313 942.859375 -4.445313 942.859375 c
-6.203125 946.25 -6.203125 953.71875 -6.203125 953.71875 c
h
f
Q
q
[1.909722 0 0 1.909722 768.083335 416.666676] cm
-402.196347 -218.181813 1309.090881 1309.090881 re
W
/DeviceGray {} CS
[0] SC
-9.484375 970.90625 m
-13.28125 970.90625 l
-13.28125 946.484375 l
-13.28125 943.4375 -13.09375 940.71875 -13.09375 940.71875 c
-13.59375 941.203125 -14.203125 941.742188 -14.203125 941.742188 c
-14.8125 942.28125 -19.78125 946.3125 -19.78125 946.3125 c
-21.84375 943.640625 l
-12.765625 936.640625 l
-9.484375 936.640625 l
-9.484375 970.90625 l
h
26.25 953.71875 m
26.25 962.609375 23.445312 966.992188 23.445312 966.992188 c
20.640625 971.375 14.875 971.375 14.875 971.375 c
9.34375 971.375 6.460937 966.882813 6.460937 966.882813 c
3.578125 962.390625 3.578125 953.71875 3.578125 953.71875 c
3.578125 944.765625 6.367187 940.429688 6.367187 940.429688 c
9.15625 936.09375 14.875 936.09375 14.875 936.09375 c
20.453125 936.09375 23.351563 940.617188 23.351563 940.617188 c
26.25 945.140625 26.25 953.71875 26.25 953.71875 c
h
7.515625 953.71875 m
7.515625 961.203125 9.273438 964.609375 9.273438 964.609375 c
11.03125 968.015625 14.875 968.015625 14.875 968.015625 c
18.765625 968.015625 20.515625 964.5625 20.515625 964.5625 c
22.265625 961.109375 22.265625 953.71875 22.265625 953.71875 c
22.265625 946.34375 20.515625 942.90625 20.515625 942.90625 c
18.765625 939.46875 14.875 939.46875 14.875 939.46875 c
11.03125 939.46875 9.273438 942.859375 9.273438 942.859375 c
7.515625 946.25 7.515625 953.71875 7.515625 953.71875 c
h
f
Q
q
[1.909722 0 0 1.909722 1088.291701 416.666676] cm
-569.869084 -218.181813 1309.090881 1309.090881 re
W
/DeviceGray {} CS
[0] SC
-1.375 970.90625 m
-23.90625 970.90625 l
-23.90625 967.546875 l
-14.875 958.484375 l
-10.75 954.3125 -9.4375 952.53125 -9.4375 952.53125 c
-8.125 950.75 -7.46875 949.0625 -7.46875 949.0625 c
-6.8125 947.375 -6.8125 945.421875 -6.8125 945.421875 c
-6.8125 942.6875 -8.476563 941.078125 -8.476563 941.078125 c
-10.140625 939.46875 -13.09375 939.46875 -13.09375 939.46875 c
-15.234375 939.46875 -17.140625 940.171875 -17.140625 940.171875 c
-19.046875 940.875 -21.390625 942.734375 -21.390625 942.734375 c
-23.453125 940.078125 l
-18.71875 936.140625 -13.140625 936.140625 -13.140625 936.140625 c
-8.3125 936.140625 -5.570313 938.617188 -5.570313 938.617188 c
-2.828125 941.09375 -2.828125 945.265625 -2.828125 945.265625 c
-2.828125 948.515625 -4.65625 951.703125 -4.65625 951.703125 c
-6.484375 954.890625 -11.5 959.765625 -11.5 959.765625 c
-19 967.109375 l
-19 967.296875 l
-1.375 967.296875 l
-1.375 970.90625 l
h
26.25 953.71875 m
26.25 962.609375 23.445312 966.992188 23.445312 966.992188 c
20.640625 971.375 14.875 971.375 14.875 971.375 c
9.34375 971.375 6.460937 966.882813 6.460937 966.882813 c
3.578125 962.390625 3.578125 953.71875 3.578125 953.71875 c
3.578125 944.765625 6.367187 940.429688 6.367187 940.429688 c
9.15625 936.09375 14.875 936.09375 14.875 936.09375 c
20.453125 936.09375 23.351563 940.617188 23.351563 940.617188 c
26.25 945.140625 26.25 953.71875 26.25 953.71875 c
h
7.515625 953.71875 m
7.515625 961.203125 9.273438 964.609375 9.273438 964.609375 c
11.03125 968.015625 14.875 968.015625 14.875 968.015625 c
18.765625 968.015625 20.515625 964.5625 20.515625 964.5625 c
22.265625 961.109375 22.265625 953.71875 22.265625 953.71875 c
22.265625 946.34375 20.515625 942.90625 20.515625 942.90625 c
18.765625 939.46875 14.875 939.46875 14.875 939.46875 c
11.03125 939.46875 9.273438 942.859375 9.273438 942.859375 c
7.515625 946.25 7.515625 953.71875 7.515625 953.71875 c
h
f
Q
q
[1.909722 0 0 1.909722 1408.500067 416.666676] cm
-737.541821 -218.181813 1309.090881 1309.090881 re
W
/DeviceGray {} CS
[0] SC
-2.671875 944.703125 m
-2.671875 947.984375 -4.507812 950.070313 -4.507812 950.070313 c
-6.34375 952.15625 -9.71875 952.859375 -9.71875 952.859375 c
-9.71875 953.046875 l
-5.59375 953.5625 -3.601563 955.671875 -3.601563 955.671875 c
-1.609375 957.78125 -1.609375 961.203125 -1.609375 961.203125 c
-1.609375 966.09375 -5.007812 968.734375 -5.007812 968.734375 c
-8.40625 971.375 -14.671875 971.375 -14.671875 971.375 c
-17.390625 971.375 -19.648437 970.960938 -19.648437 970.960938 c
-21.90625 970.546875 -24.046875 969.515625 -24.046875 969.515625 c
-24.046875 965.8125 l
-21.8125 966.921875 -19.296875 967.492188 -19.296875 967.492188 c
-16.78125 968.0625 -14.53125 968.0625 -14.53125 968.0625 c
-5.640625 968.0625 -5.640625 961.109375 -5.640625 961.109375 c
-5.640625 954.875 -15.4375 954.875 -15.4375 954.875 c
-18.8125 954.875 l
-18.8125 951.515625 l
-15.390625 951.515625 l
-11.390625 951.515625 -9.046875 949.75 -9.046875 949.75 c
-6.703125 947.984375 -6.703125 944.84375 -6.703125 944.84375 c
-6.703125 942.328125 -8.421875 940.898438 -8.421875 940.898438 c
-10.140625 939.46875 -13.09375 939.46875 -13.09375 939.46875 c
-15.34375 939.46875 -17.335938 940.078125 -17.335938 940.078125 c
-19.328125 940.6875 -21.890625 942.328125 -21.890625 942.328125 c
-23.859375 939.703125 l
-21.75 938.046875 -18.992187 937.09375 -18.992187 937.09375 c
-16.234375 936.140625 -13.1875 936.140625 -13.1875 936.140625 c
-8.203125 936.140625 -5.4375 938.429688 -5.4375 938.429688 c
-2.671875 940.71875 -2.671875 944.703125 -2.671875 944.703125 c
h
26.25 953.71875 m
26.25 962.609375 23.445312 966.992188 23.445312 966.992188 c
20.640625 971.375 14.875 971.375 14.875 971.375 c
9.34375 971.375 6.460937 966.882813 6.460937 966.882813 c
3.578125 962.390625 3.578125 953.71875 3.578125 953.71875 c
3.578125 944.765625 6.367187 940.429688 6.367187 940.429688 c
9.15625 936.09375 14.875 936.09375 14.875 936.09375 c
20.453125 936.09375 23.351563 940.617188 23.351563 940.617188 c
26.25 945.140625 26.25 953.71875 26.25 953.71875 c
h
7.515625 953.71875 m
7.515625 961.203125 9.273438 964.609375 9.273438 964.609375 c
11.03125 968.015625 14.875 968.015625 14.875 968.015625 c
18.765625 968.015625 20.515625 964.5625 20.515625 964.5625 c
22.265625 961.109375 22.265625 953.71875 22.265625 953.71875 c
22.265625 946.34375 20.515625 942.90625 20.515625 942.90625 c
18.765625 939.46875 14.875 939.46875 14.875 939.46875 c
11.03125 939.46875 9.273438 942.859375 9.273438 942.859375 c
7.515625 946.25 7.515625 953.71875 7.515625 953.71875 c
h
f
Q
q
[1.909722 0 0 1.909722 1728.750013 416.666676] cm
-905.236331 -218.181813 1309.090881 1309.090881 re
W
/DeviceGray {} CS
[0] SC
0.234375 963.03125 m
-4.84375 963.03125 l
-4.84375 970.90625 l
-8.578125 970.90625 l
-8.578125 963.03125 l
-25.234375 963.03125 l
-25.234375 959.625 l
-8.96875 936.453125 l
-4.84375 936.453125 l
-4.84375 959.484375 l
0.234375 959.484375 l
0.234375 963.03125 l
h
-8.578125 959.484375 m
-8.578125 948.09375 l
-8.578125 944.75 -8.34375 940.53125 -8.34375 940.53125 c
-8.53125 940.53125 l
-9.65625 942.78125 -10.640625 944.25 -10.640625 944.25 c
-21.34375 959.484375 l
-8.578125 959.484375 l
h
26.25 953.71875 m
26.25 962.609375 23.445312 966.992188 23.445312 966.992188 c
20.640625 971.375 14.875 971.375 14.875 971.375 c
9.34375 971.375 6.460937 966.882813 6.460937 966.882813 c
3.578125 962.390625 3.578125 953.71875 3.578125 953.71875 c
3.578125 944.765625 6.367187 940.429688 6.367187 940.429688 c
9.15625 936.09375 14.875 936.09375 14.875 936.09375 c
20.453125 936.09375 23.351563 940.617188 23.351563 940.617188 c
26.25 945.140625 26.25 953.71875 26.25 953.71875 c
h
7.515625 953.71875 m
7.515625 961.203125 9.273438 964.609375 9.273438 964.609375 c
11.03125 968.015625 14.875 968.015625 14.875 968.015625 c
18.765625 968.015625 20.515625 964.5625 20.515625 964.5625 c
22.265625 961.109375 22.265625 953.71875 22.265625 953.71875 c
22.265625 946.34375 20.515625 942.90625 20.515625 942.90625 c
18.765625 939.46875 14.875 939.46875 14.875 939.46875 c
11.03125 939.46875 9.273438 942.859375 9.273438 942.859375 c
7.515625 946.25 7.515625 953.71875 7.515625 953.71875 c
h
f
Q
q
[1.909722 0 0 1.909722 2048.958379 416.666676] cm
-1072.909068 -218.181813 1309.090881 1309.090881 re
W
/DeviceGray {} CS
[0] SC
-13.1875 949.96875 m
-7.78125 949.96875 -4.671875 952.65625 -4.671875 952.65625 c
-1.5625 955.34375 -1.5625 960 -1.5625 960 c
-1.5625 965.328125 -4.953125 968.351562 -4.953125 968.351562 c
-8.34375 971.375 -14.296875 971.375 -14.296875 971.375 c
-20.078125 971.375 -23.125 969.515625 -23.125 969.515625 c
-23.125 965.765625 l
-21.484375 966.828125 -19.046875 967.421875 -19.046875 967.421875 c
-16.609375 968.015625 -14.25 968.015625 -14.25 968.015625 c
-10.125 968.015625 -7.835937 966.070313 -7.835937 966.070313 c
-5.546875 964.125 -5.546875 960.453125 -5.546875 960.453125 c
-5.546875 953.28125 -14.34375 953.28125 -14.34375 953.28125 c
-16.5625 953.28125 -20.296875 953.953125 -20.296875 953.953125 c
-22.3125 952.671875 l
-21.015625 936.640625 l
-3.984375 936.640625 l
-3.984375 940.21875 l
-17.6875 940.21875 l
-18.5625 950.515625 l
-15.859375 949.96875 -13.1875 949.96875 -13.1875 949.96875 c
h
26.25 953.71875 m
26.25 962.609375 23.445312 966.992188 23.445312 966.992188 c
20.640625 971.375 14.875 971.375 14.875 971.375 c
9.34375 971.375 6.460937 966.882813 6.460937 966.882813 c
3.578125 962.390625 3.578125 953.71875 3.578125 953.71875 c
3.578125 944.765625 6.367187 940.429688 6.367187 940.429688 c
9.15625 936.09375 14.875 936.09375 14.875 936.09375 c
20.453125 936.09375 23.351563 940.617188 23.351563 940.617188 c
26.25 945.140625 26.25 953.71875 26.25 953.71875 c
h
7.515625 953.71875 m
7.515625 961.203125 9.273438 964.609375 9.273438 964.609375 c
11.03125 968.015625 14.875 968.015625 14.875 968.015625 c
18.765625 968.015625 20.515625 964.5625 20.515625 964.5625 c
22.265625 961.109375 22.265625 953.71875 22.265625 953.71875 c
22.265625 946.34375 20.515625 942.90625 20.515625 942.90625 c
18.765625 939.46875 14.875 939.46875 14.875 939.46875 c
11.03125 939.46875 9.273438 942.859375 9.273438 942.859375 c
7.515625 946.25 7.515625 953.71875 7.515625 953.71875 c
h
f
Q
q
[1.909722 0 0 1.909722 333.333341 2093.45835] cm
-174.545451 -1096.210869 1309.090881 1309.090881 re
W
/DeviceGray {} CS
[0] SC
-6.53125 24 m
-29.0625 24 l
-29.0625 20.640625 l
-20.03125 11.578125 l
-15.90625 7.40625 -14.59375 5.625 -14.59375 5.625 c
-13.28125 3.84375 -12.625 2.15625 -12.625 2.15625 c
-11.96875 0.46875 -11.96875 -1.484375 -11.96875 -1.484375 c
-11.96875 -4.21875 -13.632813 -5.828125 -13.632813 -5.828125 c
-15.296875 -7.4375 -18.25 -7.4375 -18.25 -7.4375 c
-20.390625 -7.4375 -22.296875 -6.734375 -22.296875 -6.734375 c
-24.203125 -6.03125 -26.546875 -4.171875 -26.546875 -4.171875 c
-28.609375 -6.828125 l
-23.875 -10.765625 -18.296875 -10.765625 -18.296875 -10.765625 c
-13.46875 -10.765625 -10.726563 -8.289063 -10.726563 -8.289063 c
-7.984375 -5.8125 -7.984375 -1.640625 -7.984375 -1.640625 c
-7.984375 1.609375 -9.8125 4.796875 -9.8125 4.796875 c
-11.640625 7.984375 -16.65625 12.859375 -16.65625 12.859375 c
-24.15625 20.203125 l
-24.15625 20.390625 l
-6.53125 20.390625 l
-6.53125 24 l
h
f
Q
q
[1.909722 0 0 1.909722 333.333341 1901.541689] cm
-174.545451 -995.716331 1309.090881 1309.090881 re
W
/DeviceGray {} CS
[0] SC
-6.53125 16.125 m
-11.609375 16.125 l
-11.609375 24 l
-15.34375 24 l
-15.34375 16.125 l
-32 16.125 l
-32 12.71875 l
-15.734375 -10.453125 l
-11.609375 -10.453125 l
-11.609375 12.578125 l
-6.53125 12.578125 l
-6.53125 16.125 l
h
-15.34375 12.578125 m
-15.34375 1.1875 l
-15.34375 -2.15625 -15.109375 -6.375 -15.109375 -6.375 c
-15.296875 -6.375 l
-16.421875 -4.125 -17.40625 -2.65625 -17.40625 -2.65625 c
-28.109375 12.578125 l
-15.34375 12.578125 l
h
f
Q
q
[1.909722 0 0 1.909722 333.333341 1709.625028] cm
-174.545451 -895.221793 1309.090881 1309.090881 re
W
/DeviceGray {} CS
[0] SC
-28.890625 9.34375 m
-28.890625 -0.75 -24.96875 -5.757812 -24.96875 -5.757812 c
-21.046875 -10.765625 -13.359375 -10.765625 -13.359375 -10.765625 c
-10.703125 -10.765625 -9.1875 -10.3125 -9.1875 -10.3125 c
-9.1875 -6.96875 l
-10.984375 -7.546875 -13.3125 -7.546875 -13.3125 -7.546875 c
-18.8125 -7.546875 -21.71875 -4.117187 -21.71875 -4.117187 c
-24.625 -0.6875 -24.90625 6.671875 -24.90625 6.671875 c
-24.625 6.671875 l
-22.046875 2.640625 -16.46875 2.640625 -16.46875 2.640625 c
-11.859375 2.640625 -9.195313 5.429688 -9.195313 5.429688 c
-6.53125 8.21875 -6.53125 13 -6.53125 13 c
-6.53125 18.34375 -9.453125 21.40625 -9.453125 21.40625 c
-12.375 24.46875 -17.34375 24.46875 -17.34375 24.46875 c
-22.65625 24.46875 -25.773437 20.46875 -25.773437 20.46875 c
-28.890625 16.46875 -28.890625 9.34375 -28.890625 9.34375 c
h
-17.390625 21.15625 m
-14.0625 21.15625 -12.21875 19.0625 -12.21875 19.0625 c
-10.375 16.96875 -10.375 13 -10.375 13 c
-10.375 9.609375 -12.085938 7.664062 -12.085938 7.664062 c
-13.796875 5.71875 -17.203125 5.71875 -17.203125 5.71875 c
-19.3125 5.71875 -21.070312 6.585937 -21.070312 6.585937 c
-22.828125 7.453125 -23.867188 8.976563 -23.867188 8.976563 c
-24.90625 10.5 -24.90625 12.140625 -24.90625 12.140625 c
-24.90625 14.546875 -23.96875 16.632813 -23.96875 16.632813 c
-23.03125 18.71875 -21.3125 19.9375 -21.3125 19.9375 c
-19.59375 21.15625 -17.390625 21.15625 -17.390625 21.15625 c
h
f
Q
q
[1.909722 0 0 1.909722 333.333341 1517.708367] cm
-174.545451 -794.727256 1309.090881 1309.090881 re
W
/DeviceGray {} CS
[0] SC
-17.8125 -10.765625 m
-13.125 -10.765625 -10.382813 -8.585938 -10.382813 -8.585938 c
-7.640625 -6.40625 -7.640625 -2.5625 -7.640625 -2.5625 c
-7.640625 -0.03125 -9.210938 2.054688 -9.210938 2.054688 c
-10.78125 4.140625 -14.21875 5.859375 -14.21875 5.859375 c
-10.046875 7.84375 -8.289063 10.039063 -8.289063 10.039063 c
-6.53125 12.234375 -6.53125 15.109375 -6.53125 15.109375 c
-6.53125 19.375 -9.507813 21.921875 -9.507813 21.921875 c
-12.484375 24.46875 -17.671875 24.46875 -17.671875 24.46875 c
-23.15625 24.46875 -26.109375 22.0625 -26.109375 22.0625 c
-29.0625 19.65625 -29.0625 15.25 -29.0625 15.25 c
-29.0625 9.375 -21.890625 6.09375 -21.890625 6.09375 c
-25.125 4.265625 -26.53125 2.140625 -26.53125 2.140625 c
-27.9375 0.015625 -27.9375 -2.609375 -27.9375 -2.609375 c
-27.9375 -6.328125 -25.179688 -8.546875 -25.179688 -8.546875 c
-22.421875 -10.765625 -17.8125 -10.765625 -17.8125 -10.765625 c
h
-25.21875 15.34375 m
-25.21875 18.15625 -23.257813 19.726562 -23.257813 19.726562 c
-21.296875 21.296875 -17.765625 21.296875 -17.765625 21.296875 c
-14.265625 21.296875 -12.320313 19.65625 -12.320313 19.65625 c
-10.375 18.015625 -10.375 15.15625 -10.375 15.15625 c
-10.375 12.890625 -12.203125 11.117188 -12.203125 11.117188 c
-14.03125 9.34375 -18.578125 7.6875 -18.578125 7.6875 c
-22.078125 9.1875 -23.648437 11 -23.648437 11 c
-25.21875 12.8125 -25.21875 15.34375 -25.21875 15.34375 c
h
-17.859375 -7.59375 m
-20.78125 -7.59375 -22.445312 -6.1875 -22.445312 -6.1875 c
-24.109375 -4.78125 -24.109375 -2.4375 -24.109375 -2.4375 c
-24.109375 -0.28125 -22.726562 1.265625 -22.726562 1.265625 c
-21.34375 2.8125 -17.625 4.359375 -17.625 4.359375 c
-14.265625 2.953125 -12.875 1.335938 -12.875 1.335938 c
-11.484375 -0.28125 -11.484375 -2.4375 -11.484375 -2.4375 c
-11.484375 -4.8125 -13.179688 -6.203125 -13.179688 -6.203125 c
-14.875 -7.59375 -17.859375 -7.59375 -17.859375 -7.59375 c
h
f
Q
q
[1.909722 0 0 1.909722 333.333341 1325.83335] cm
-174.545451 -694.254557 1309.090881 1309.090881 re
W
/DeviceGray {} CS
[0] SC
-42.28125 24 m
-46.078125 24 l
-46.078125 -0.421875 l
-46.078125 -3.46875 -45.890625 -6.1875 -45.890625 -6.1875 c
-46.390625 -5.703125 -47 -5.164062 -47 -5.164062 c
-47.609375 -4.625 -52.578125 -0.59375 -52.578125 -0.59375 c
-54.640625 -3.265625 l
-45.5625 -10.265625 l
-42.28125 -10.265625 l
-42.28125 24 l
h
-6.53125 6.8125 m
-6.53125 15.703125 -9.335938 20.085937 -9.335938 20.085937 c
-12.140625 24.46875 -17.90625 24.46875 -17.90625 24.46875 c
-23.4375 24.46875 -26.320312 19.976562 -26.320312 19.976562 c
-29.203125 15.484375 -29.203125 6.8125 -29.203125 6.8125 c
-29.203125 -2.140625 -26.414063 -6.476563 -26.414063 -6.476563 c
-23.625 -10.8125 -17.90625 -10.8125 -17.90625 -10.8125 c
-12.328125 -10.8125 -9.429688 -6.289063 -9.429688 -6.289063 c
-6.53125 -1.765625 -6.53125 6.8125 -6.53125 6.8125 c
h
-25.265625 6.8125 m
-25.265625 14.296875 -23.507813 17.703125 -23.507813 17.703125 c
-21.75 21.109375 -17.90625 21.109375 -17.90625 21.109375 c
-14.015625 21.109375 -12.265625 17.65625 -12.265625 17.65625 c
-10.515625 14.203125 -10.515625 6.8125 -10.515625 6.8125 c
-10.515625 -0.5625 -12.265625 -4 -12.265625 -4 c
-14.015625 -7.4375 -17.90625 -7.4375 -17.90625 -7.4375 c
-21.75 -7.4375 -23.507813 -4.046875 -23.507813 -4.046875 c
-25.265625 -0.65625 -25.265625 6.8125 -25.265625 6.8125 c
h
f
Q
q
[1.909722 0 0 1.909722 333.333341 1133.916689] cm
-174.545451 -593.760019 1309.090881 1309.090881 re
W
/DeviceGray {} CS
[0] SC
-42.09375 24 m
-45.890625 24 l
-45.890625 -0.421875 l
-45.890625 -3.46875 -45.703125 -6.1875 -45.703125 -6.1875 c
-46.203125 -5.703125 -46.8125 -5.164062 -46.8125 -5.164062 c
-47.421875 -4.625 -52.390625 -0.59375 -52.390625 -0.59375 c
-54.453125 -3.265625 l
-45.375 -10.265625 l
-42.09375 -10.265625 l
-42.09375 24 l
h
-6.53125 24 m
-29.0625 24 l
-29.0625 20.640625 l
-20.03125 11.578125 l
-15.90625 7.40625 -14.59375 5.625 -14.59375 5.625 c
-13.28125 3.84375 -12.625 2.15625 -12.625 2.15625 c
-11.96875 0.46875 -11.96875 -1.484375 -11.96875 -1.484375 c
-11.96875 -4.21875 -13.632813 -5.828125 -13.632813 -5.828125 c
-15.296875 -7.4375 -18.25 -7.4375 -18.25 -7.4375 c
-20.390625 -7.4375 -22.296875 -6.734375 -22.296875 -6.734375 c
-24.203125 -6.03125 -26.546875 -4.171875 -26.546875 -4.171875 c
-28.609375 -6.828125 l
-23.875 -10.765625 -18.296875 -10.765625 -18.296875 -10.765625 c
-13.46875 -10.765625 -10.726563 -8.289063 -10.726563 -8.289063 c
-7.984375 -5.8125 -7.984375 -1.640625 -7.984375 -1.640625 c
-7.984375 1.609375 -9.8125 4.796875 -9.8125 4.796875 c
-11.640625 7.984375 -16.65625 12.859375 -16.65625 12.859375 c
-24.15625 20.203125 l
-24.15625 20.390625 l
-6.53125 20.390625 l
-6.53125 24 l
h
f
Q
q
[1.909722 0 0 1.909722 333.333341 942.000029] cm
-174.545451 -493.265481 1309.090881 1309.090881 re
W
/DeviceGray {} CS
[0] SC
-43.703125 24 m
-47.5 24 l
-47.5 -0.421875 l
-47.5 -3.46875 -47.3125 -6.1875 -47.3125 -6.1875 c
-47.8125 -5.703125 -48.421875 -5.164062 -48.421875 -5.164062 c
-49.03125 -4.625 -54 -0.59375 -54 -0.59375 c
-56.0625 -3.265625 l
-46.984375 -10.265625 l
-43.703125 -10.265625 l
-43.703125 24 l
h
-6.53125 16.125 m
-11.609375 16.125 l
-11.609375 24 l
-15.34375 24 l
-15.34375 16.125 l
-32 16.125 l
-32 12.71875 l
-15.734375 -10.453125 l
-11.609375 -10.453125 l
-11.609375 12.578125 l
-6.53125 12.578125 l
-6.53125 16.125 l
h
-15.34375 12.578125 m
-15.34375 1.1875 l
-15.34375 -2.15625 -15.109375 -6.375 -15.109375 -6.375 c
-15.296875 -6.375 l
-16.421875 -4.125 -17.40625 -2.65625 -17.40625 -2.65625 c
-28.109375 12.578125 l
-15.34375 12.578125 l
h
f
Q
q
[1.909722 0 0 1.909722 333.333341 750.083336] cm
-174.545451 -392.770943 1309.090881 1309.090881 re
W
/DeviceGray {} CS
[0] SC
-42.328125 24 m
-46.125 24 l
-46.125 -0.421875 l
-46.125 -3.46875 -45.9375 -6.1875 -45.9375 -6.1875 c
-46.4375 -5.703125 -47.046875 -5.164062 -47.046875 -5.164062 c
-47.65625 -4.625 -52.625 -0.59375 -52.625 -0.59375 c
-54.6875 -3.265625 l
-45.609375 -10.265625 l
-42.328125 -10.265625 l
-42.328125 24 l
h
-28.890625 9.34375 m
-28.890625 -0.75 -24.96875 -5.757812 -24.96875 -5.757812 c
-21.046875 -10.765625 -13.359375 -10.765625 -13.359375 -10.765625 c
-10.703125 -10.765625 -9.1875 -10.3125 -9.1875 -10.3125 c
-9.1875 -6.96875 l
-10.984375 -7.546875 -13.3125 -7.546875 -13.3125 -7.546875 c
-18.8125 -7.546875 -21.71875 -4.117187 -21.71875 -4.117187 c
-24.625 -0.6875 -24.90625 6.671875 -24.90625 6.671875 c
-24.625 6.671875 l
-22.046875 2.640625 -16.46875 2.640625 -16.46875 2.640625 c
-11.859375 2.640625 -9.195313 5.429688 -9.195313 5.429688 c
-6.53125 8.21875 -6.53125 13 -6.53125 13 c
-6.53125 18.34375 -9.453125 21.40625 -9.453125 21.40625 c
-12.375 24.46875 -17.34375 24.46875 -17.34375 24.46875 c
-22.65625 24.46875 -25.773437 20.46875 -25.773437 20.46875 c
-28.890625 16.46875 -28.890625 9.34375 -28.890625 9.34375 c
h
-17.390625 21.15625 m
-14.0625 21.15625 -12.21875 19.0625 -12.21875 19.0625 c
-10.375 16.96875 -10.375 13 -10.375 13 c
-10.375 9.609375 -12.085938 7.664062 -12.085938 7.664062 c
-13.796875 5.71875 -17.203125 5.71875 -17.203125 5.71875 c
-19.3125 5.71875 -21.070312 6.585937 -21.070312 6.585937 c
-22.828125 7.453125 -23.867188 8.976563 -23.867188 8.976563 c
-24.90625 10.5 -24.90625 12.140625 -24.90625 12.140625 c
-24.90625 14.546875 -23.96875 16.632813 -23.96875 16.632813 c
-23.03125 18.71875 -21.3125 19.9375 -21.3125 19.9375 c
-19.59375 21.15625 -17.390625 21.15625 -17.390625 21.15625 c
h
f
Q
q
[1.909722 0 0 1.909722 333.333341 558.208351] cm
-174.545451 -292.298211 1309.090881 1309.090847 re
W
/DeviceGray {} CS
[0] SC
-42.1875 24 m
-45.984375 24 l
-45.984375 -0.421875 l
-45.984375 -3.46875 -45.796875 -6.1875 -45.796875 -6.1875 c
-46.296875 -5.703125 -46.90625 -5.164062 -46.90625 -5.164062 c
-47.515625 -4.625 -52.484375 -0.59375 -52.484375 -0.59375 c
-54.546875 -3.265625 l
-45.46875 -10.265625 l
-42.1875 -10.265625 l
-42.1875 24 l
h
-17.8125 -10.765625 m
-13.125 -10.765625 -10.382813 -8.585938 -10.382813 -8.585938 c
-7.640625 -6.40625 -7.640625 -2.5625 -7.640625 -2.5625 c
-7.640625 -0.03125 -9.210938 2.054688 -9.210938 2.054688 c
-10.78125 4.140625 -14.21875 5.859375 -14.21875 5.859375 c
-10.046875 7.84375 -8.289063 10.039063 -8.289063 10.039063 c
-6.53125 12.234375 -6.53125 15.109375 -6.53125 15.109375 c
-6.53125 19.375 -9.507813 21.921875 -9.507813 21.921875 c
-12.484375 24.46875 -17.671875 24.46875 -17.671875 24.46875 c
-23.15625 24.46875 -26.109375 22.0625 -26.109375 22.0625 c
-29.0625 19.65625 -29.0625 15.25 -29.0625 15.25 c
-29.0625 9.375 -21.890625 6.09375 -21.890625 6.09375 c
-25.125 4.265625 -26.53125 2.140625 -26.53125 2.140625 c
-27.9375 0.015625 -27.9375 -2.609375 -27.9375 -2.609375 c
-27.9375 -6.328125 -25.179688 -8.546875 -25.179688 -8.546875 c
-22.421875 -10.765625 -17.8125 -10.765625 -17.8125 -10.765625 c
h
-25.21875 15.34375 m
-25.21875 18.15625 -23.257813 19.726562 -23.257813 19.726562 c
-21.296875 21.296875 -17.765625 21.296875 -17.765625 21.296875 c
-14.265625 21.296875 -12.320313 19.65625 -12.320313 19.65625 c
-10.375 18.015625 -10.375 15.15625 -10.375 15.15625 c
-10.375 12.890625 -12.203125 11.117188 -12.203125 11.117188 c
-14.03125 9.34375 -18.578125 7.6875 -18.578125 7.6875 c
-22.078125 9.1875 -23.648437 11 -23.648437 11 c
-25.21875 12.8125 -25.21875 15.34375 -25.21875 15.34375 c
h
-17.859375 -7.59375 m
-20.78125 -7.59375 -22.445312 -6.1875 -22.445312 -6.1875 c
-24.109375 -4.78125 -24.109375 -2.4375 -24.109375 -2.4375 c
-24.109375 -0.28125 -22.726562 1.265625 -22.726562 1.265625 c
-21.34375 2.8125 -17.625 4.359375 -17.625 4.359375 c
-14.265625 2.953125 -12.875 1.335938 -12.875 1.335938 c
-11.484375 -0.28125 -11.484375 -2.4375 -11.484375 -2.4375 c
-11.484375 -4.8125 -13.179688 -6.203125 -13.179688 -6.203125 c
-14.875 -7.59375 -17.859375 -7.59375 -17.859375 -7.59375 c
h
f
Q
q
[2.430556 0 0 2.430556 0 -91.666669] cm
0 37.714261 1028.571464 1028.57149 re
W
/DeviceGray {} CS
[0] SC
330.09375 1052.5625 m
325.546875 1052.5625 l
306.8125 1023.796875 l
306.625 1023.796875 l
307 1028.859375 307 1033.078125 307 1033.078125 c
307 1052.5625 l
303.328125 1052.5625 l
303.328125 1018.296875 l
307.828125 1018.296875 l
326.5 1046.9375 l
326.6875 1046.9375 l
326.640625 1046.296875 326.476562 1042.867188 326.476562 1042.867188 c
326.3125 1039.4375 326.359375 1037.953125 326.359375 1037.953125 c
326.359375 1018.296875 l
330.09375 1018.296875 l
330.09375 1052.5625 l
h
342.578125 1026.875 m
342.578125 1043.53125 l
342.578125 1046.671875 344.007813 1048.21875 344.007813 1048.21875 c
345.4375 1049.765625 348.484375 1049.765625 348.484375 1049.765625 c
352.515625 1049.765625 354.382813 1047.5625 354.382813 1047.5625 c
356.25 1045.359375 356.25 1040.375 356.25 1040.375 c
356.25 1026.875 l
360.140625 1026.875 l
360.140625 1052.5625 l
356.921875 1052.5625 l
356.359375 1049.109375 l
356.15625 1049.109375 l
354.953125 1051.015625 352.835937 1052.023437 352.835937 1052.023437 c
350.71875 1053.03125 348 1053.03125 348 1053.03125 c
343.3125 1053.03125 340.976562 1050.804688 340.976562 1050.804688 c
338.640625 1048.578125 338.640625 1043.671875 338.640625 1043.671875 c
338.640625 1026.875 l
342.578125 1026.875 l
h
401.125 1052.5625 m
401.125 1035.84375 l
401.125 1032.78125 399.8125 1031.242188 399.8125 1031.242188 c
398.5 1029.703125 395.734375 1029.703125 395.734375 1029.703125 c
392.09375 1029.703125 390.359375 1031.789063 390.359375 1031.789063 c
388.625 1033.875 388.625 1038.21875 388.625 1038.21875 c
388.625 1052.5625 l
384.734375 1052.5625 l
384.734375 1035.84375 l
384.734375 1032.78125 383.421875 1031.242188 383.421875 1031.242188 c
382.109375 1029.703125 379.328125 1029.703125 379.328125 1029.703125 c
375.671875 1029.703125 373.96875 1031.898437 373.96875 1031.898437 c
372.265625 1034.09375 372.265625 1039.078125 372.265625 1039.078125 c
372.265625 1052.5625 l
368.375 1052.5625 l
368.375 1026.875 l
371.546875 1026.875 l
372.171875 1030.390625 l
372.359375 1030.390625 l
373.46875 1028.515625 375.46875 1027.460938 375.46875 1027.460938 c
377.46875 1026.40625 379.953125 1026.40625 379.953125 1026.40625 c
385.984375 1026.40625 387.828125 1030.765625 387.828125 1030.765625 c
388.015625 1030.765625 l
389.171875 1028.75 391.351563 1027.578125 391.351563 1027.578125 c
393.53125 1026.40625 396.3125 1026.40625 396.3125 1026.40625 c
400.671875 1026.40625 402.84375 1028.640625 402.84375 1028.640625 c
405.015625 1030.875 405.015625 1035.796875 405.015625 1035.796875 c
405.015625 1052.5625 l
401.125 1052.5625 l
h
424.984375 1026.453125 m
430.046875 1026.453125 432.851563 1029.90625 432.851563 1029.90625 c
435.65625 1033.359375 435.65625 1039.6875 435.65625 1039.6875 c
435.65625 1046.015625 432.828125 1049.523437 432.828125 1049.523437 c
430 1053.03125 424.984375 1053.03125 424.984375 1053.03125 c
422.484375 1053.03125 420.40625 1052.101563 420.40625 1052.101563 c
418.328125 1051.171875 416.921875 1049.25 416.921875 1049.25 c
416.640625 1049.25 l
415.828125 1052.5625 l
413.03125 1052.5625 l
413.03125 1016.09375 l
416.921875 1016.09375 l
416.921875 1024.953125 l
416.921875 1027.921875 416.734375 1030.296875 416.734375 1030.296875 c
416.921875 1030.296875 l
419.640625 1026.453125 424.984375 1026.453125 424.984375 1026.453125 c
h
424.421875 1029.703125 m
420.4375 1029.703125 418.679688 1031.992188 418.679688 1031.992188 c
416.921875 1034.28125 416.921875 1039.6875 416.921875 1039.6875 c
416.921875 1045.109375 418.726562 1047.4375 418.726562 1047.4375 c
420.53125 1049.765625 424.515625 1049.765625 424.515625 1049.765625 c
428.109375 1049.765625 429.867188 1047.15625 429.867188 1047.15625 c
431.625 1044.546875 431.625 1039.640625 431.625 1039.640625 c
431.625 1034.625 429.867188 1032.164062 429.867188 1032.164062 c
428.109375 1029.703125 424.421875 1029.703125 424.421875 1029.703125 c
h
453.296875 1053.03125 m
447.59375 1053.03125 444.304688 1049.5625 444.304688 1049.5625 c
441.015625 1046.09375 441.015625 1039.921875 441.015625 1039.921875 c
441.015625 1033.71875 444.070312 1030.0625 444.070312 1030.0625 c
447.125 1026.40625 452.28125 1026.40625 452.28125 1026.40625 c
457.109375 1026.40625 459.921875 1029.578125 459.921875 1029.578125 c
462.734375 1032.75 462.734375 1037.953125 462.734375 1037.953125 c
462.734375 1040.421875 l
445.046875 1040.421875 l
445.15625 1044.9375 447.328125 1047.28125 447.328125 1047.28125 c
449.5 1049.625 453.4375 1049.625 453.4375 1049.625 c
457.578125 1049.625 461.640625 1047.890625 461.640625 1047.890625 c
461.640625 1051.359375 l
459.578125 1052.25 457.734375 1052.640625 457.734375 1052.640625 c
455.890625 1053.03125 453.296875 1053.03125 453.296875 1053.03125 c
h
452.234375 1029.65625 m
449.140625 1029.65625 447.304688 1031.671875 447.304688 1031.671875 c
445.46875 1033.6875 445.140625 1037.25 445.140625 1037.25 c
458.5625 1037.25 l
458.5625 1033.578125 456.921875 1031.617188 456.921875 1031.617188 c
455.28125 1029.65625 452.234375 1029.65625 452.234375 1029.65625 c
h
481.09375 1026.40625 m
482.8125 1026.40625 484.171875 1026.6875 484.171875 1026.6875 c
483.625 1030.296875 l
482.03125 1029.9375 480.8125 1029.9375 480.8125 1029.9375 c
477.703125 1029.9375 475.484375 1032.46875 475.484375 1032.46875 c
473.265625 1035 473.265625 1038.78125 473.265625 1038.78125 c
473.265625 1052.5625 l
469.375 1052.5625 l
469.375 1026.875 l
472.59375 1026.875 l
473.03125 1031.625 l
473.21875 1031.625 l
474.65625 1029.125 476.671875 1027.765625 476.671875 1027.765625 c
478.6875 1026.40625 481.09375 1026.40625 481.09375 1026.40625 c
h
523.609375 1039.6875 m
523.609375 1045.96875 520.445313 1049.5 520.445313 1049.5 c
517.28125 1053.03125 511.703125 1053.03125 511.703125 1053.03125 c
508.265625 1053.03125 505.59375 1051.414063 505.59375 1051.414063 c
502.921875 1049.796875 501.46875 1046.773437 501.46875 1046.773437 c
500.015625 1043.75 500.015625 1039.6875 500.015625 1039.6875 c
500.015625 1033.40625 503.15625 1029.90625 503.15625 1029.90625 c
506.296875 1026.40625 511.875 1026.40625 511.875 1026.40625 c
517.265625 1026.40625 520.4375 1029.992188 520.4375 1029.992188 c
523.609375 1033.578125 523.609375 1039.6875 523.609375 1039.6875 c
h
504.046875 1039.6875 m
504.046875 1044.609375 506.015625 1047.1875 506.015625 1047.1875 c
507.984375 1049.765625 511.796875 1049.765625 511.796875 1049.765625 c
515.625 1049.765625 517.601563 1047.203125 517.601563 1047.203125 c
519.578125 1044.640625 519.578125 1039.6875 519.578125 1039.6875 c
519.578125 1034.796875 517.601563 1032.25 517.601563 1032.25 c
515.625 1029.703125 511.75 1029.703125 511.75 1029.703125 c
507.9375 1029.703125 505.992187 1032.210938 505.992187 1032.210938 c
504.046875 1034.71875 504.046875 1039.6875 504.046875 1039.6875 c
h
542 1029.890625 m
535.46875 1029.890625 l
535.46875 1052.5625 l
531.578125 1052.5625 l
531.578125 1029.890625 l
526.984375 1029.890625 l
526.984375 1028.140625 l
531.578125 1026.734375 l
531.578125 1025.296875 l
531.578125 1015.828125 539.84375 1015.828125 539.84375 1015.828125 c
541.890625 1015.828125 544.625 1016.65625 544.625 1016.65625 c
543.625 1019.765625 l
541.375 1019.046875 539.78125 1019.046875 539.78125 1019.046875 c
537.578125 1019.046875 536.523438 1020.507813 536.523438 1020.507813 c
535.46875 1021.96875 535.46875 1025.203125 535.46875 1025.203125 c
535.46875 1026.875 l
542 1026.875 l
542 1029.890625 l
h
579.078125 1043.4375 m
579.078125 1047.96875 575.796875 1050.5 575.796875 1050.5 c
572.515625 1053.03125 566.890625 1053.03125 566.890625 1053.03125 c
560.796875 1053.03125 557.515625 1051.453125 557.515625 1051.453125 c
557.515625 1047.609375 l
559.625 1048.5 562.109375 1049.015625 562.109375 1049.015625 c
564.59375 1049.53125 567.03125 1049.53125 567.03125 1049.53125 c
571.015625 1049.53125 573.03125 1048.023437 573.03125 1048.023437 c
575.046875 1046.515625 575.046875 1043.8125 575.046875 1043.8125 c
575.046875 1042.03125 574.335938 1040.898437 574.335938 1040.898437 c
573.625 1039.765625 571.945313 1038.804688 571.945313 1038.804688 c
570.265625 1037.84375 566.84375 1036.625 566.84375 1036.625 c
562.0625 1034.90625 560.015625 1032.5625 560.015625 1032.5625 c
557.96875 1030.21875 557.96875 1026.453125 557.96875 1026.453125 c
557.96875 1022.484375 560.945313 1020.140625 560.945313 1020.140625 c
563.921875 1017.796875 568.8125 1017.796875 568.8125 1017.796875 c
573.921875 1017.796875 578.21875 1019.671875 578.21875 1019.671875 c
576.96875 1023.140625 l
572.734375 1021.359375 568.71875 1021.359375 568.71875 1021.359375 c
565.5625 1021.359375 563.78125 1022.71875 563.78125 1022.71875 c
562 1024.078125 562 1026.5 562 1026.5 c
562 1028.28125 562.65625 1029.414063 562.65625 1029.414063 c
563.3125 1030.546875 564.867187 1031.5 564.867187 1031.5 c
566.421875 1032.453125 569.640625 1033.59375 569.640625 1033.59375 c
575.03125 1035.515625 577.054688 1037.71875 577.054688 1037.71875 c
579.078125 1039.921875 579.078125 1043.4375 579.078125 1043.4375 c
h
596.359375 1053.03125 m
590.65625 1053.03125 587.367187 1049.5625 587.367187 1049.5625 c
584.078125 1046.09375 584.078125 1039.921875 584.078125 1039.921875 c
584.078125 1033.71875 587.132813 1030.0625 587.132813 1030.0625 c
590.1875 1026.40625 595.34375 1026.40625 595.34375 1026.40625 c
600.171875 1026.40625 602.984375 1029.578125 602.984375 1029.578125 c
605.796875 1032.75 605.796875 1037.953125 605.796875 1037.953125 c
605.796875 1040.421875 l
588.109375 1040.421875 l
588.21875 1044.9375 590.390625 1047.28125 590.390625 1047.28125 c
592.5625 1049.625 596.5 1049.625 596.5 1049.625 c
600.640625 1049.625 604.703125 1047.890625 604.703125 1047.890625 c
604.703125 1051.359375 l
602.640625 1052.25 600.796875 1052.640625 600.796875 1052.640625 c
598.953125 1053.03125 596.359375 1053.03125 596.359375 1053.03125 c
h
595.296875 1029.65625 m
592.203125 1029.65625 590.367187 1031.671875 590.367187 1031.671875 c
588.53125 1033.6875 588.203125 1037.25 588.203125 1037.25 c
601.625 1037.25 l
601.625 1033.578125 599.984375 1031.617188 599.984375 1031.617188 c
598.34375 1029.65625 595.296875 1029.65625 595.296875 1029.65625 c
h
630.015625 1052.5625 m
630.015625 1035.9375 l
630.015625 1032.796875 628.585938 1031.25 628.585938 1031.25 c
627.15625 1029.703125 624.109375 1029.703125 624.109375 1029.703125 c
620.078125 1029.703125 618.203125 1031.882812 618.203125 1031.882812 c
616.328125 1034.0625 616.328125 1039.078125 616.328125 1039.078125 c
616.328125 1052.5625 l
612.4375 1052.5625 l
612.4375 1026.875 l
615.609375 1026.875 l
616.234375 1030.390625 l
616.421875 1030.390625 l
617.625 1028.484375 619.78125 1027.445313 619.78125 1027.445313 c
621.9375 1026.40625 624.578125 1026.40625 624.578125 1026.40625 c
629.21875 1026.40625 631.5625 1028.640625 631.5625 1028.640625 c
633.90625 1030.875 633.90625 1035.796875 633.90625 1035.796875 c
633.90625 1052.5625 l
630.015625 1052.5625 l
h
658.46875 1045.546875 m
658.46875 1049.140625 655.796875 1051.085938 655.796875 1051.085938 c
653.125 1053.03125 648.296875 1053.03125 648.296875 1053.03125 c
643.1875 1053.03125 640.328125 1051.40625 640.328125 1051.40625 c
640.328125 1047.796875 l
642.171875 1048.734375 644.296875 1049.273437 644.296875 1049.273437 c
646.421875 1049.8125 648.390625 1049.8125 648.390625 1049.8125 c
651.4375 1049.8125 653.078125 1048.84375 653.078125 1048.84375 c
654.71875 1047.875 654.71875 1045.875 654.71875 1045.875 c
654.71875 1044.375 653.414063 1043.3125 653.414063 1043.3125 c
652.109375 1042.25 648.34375 1040.796875 648.34375 1040.796875 c
644.75 1039.453125 643.242188 1038.460938 643.242188 1038.460938 c
641.734375 1037.46875 640.992188 1036.203125 640.992188 1036.203125 c
640.25 1034.9375 640.25 1033.171875 640.25 1033.171875 c
640.25 1030.03125 642.804688 1028.21875 642.804688 1028.21875 c
645.359375 1026.40625 649.8125 1026.40625 649.8125 1026.40625 c
653.96875 1026.40625 657.921875 1028.09375 657.921875 1028.09375 c
656.546875 1031.25 l
652.671875 1029.65625 649.53125 1029.65625 649.53125 1029.65625 c
646.765625 1029.65625 645.359375 1030.523437 645.359375 1030.523437 c
643.953125 1031.390625 643.953125 1032.921875 643.953125 1032.921875 c
643.953125 1033.953125 644.484375 1034.679688 644.484375 1034.679688 c
645.015625 1035.40625 646.1875 1036.0625 646.1875 1036.0625 c
647.359375 1036.71875 650.6875 1037.953125 650.6875 1037.953125 c
655.25 1039.625 656.859375 1041.3125 656.859375 1041.3125 c
658.46875 1043 658.46875 1045.546875 658.46875 1045.546875 c
h
686.96875 1039.6875 m
686.96875 1045.96875 683.804688 1049.5 683.804688 1049.5 c
680.640625 1053.03125 675.0625 1053.03125 675.0625 1053.03125 c
671.625 1053.03125 668.953125 1051.414063 668.953125 1051.414063 c
666.28125 1049.796875 664.828125 1046.773437 664.828125 1046.773437 c
663.375 1043.75 663.375 1039.6875 663.375 1039.6875 c
663.375 1033.40625 666.515625 1029.90625 666.515625 1029.90625 c
669.65625 1026.40625 675.234375 1026.40625 675.234375 1026.40625 c
680.625 1026.40625 683.796875 1029.992188 683.796875 1029.992188 c
686.96875 1033.578125 686.96875 1039.6875 686.96875 1039.6875 c
h
667.40625 1039.6875 m
667.40625 1044.609375 669.375 1047.1875 669.375 1047.1875 c
671.34375 1049.765625 675.15625 1049.765625 675.15625 1049.765625 c
678.984375 1049.765625 680.960938 1047.203125 680.960938 1047.203125 c
682.9375 1044.640625 682.9375 1039.6875 682.9375 1039.6875 c
682.9375 1034.796875 680.960938 1032.25 680.960938 1032.25 c
678.984375 1029.703125 675.109375 1029.703125 675.109375 1029.703125 c
671.296875 1029.703125 669.351562 1032.210938 669.351562 1032.210938 c
667.40625 1034.71875 667.40625 1039.6875 667.40625 1039.6875 c
h
705.5 1026.40625 m
707.21875 1026.40625 708.578125 1026.6875 708.578125 1026.6875 c
708.03125 1030.296875 l
706.4375 1029.9375 705.21875 1029.9375 705.21875 1029.9375 c
702.109375 1029.9375 699.890625 1032.46875 699.890625 1032.46875 c
697.671875 1035 697.671875 1038.78125 697.671875 1038.78125 c
697.671875 1052.5625 l
693.78125 1052.5625 l
693.78125 1026.875 l
697 1026.875 l
697.4375 1031.625 l
697.625 1031.625 l
699.0625 1029.125 701.078125 1027.765625 701.078125 1027.765625 c
703.09375 1026.40625 705.5 1026.40625 705.5 1026.40625 c
h
729.953125 1045.546875 m
729.953125 1049.140625 727.28125 1051.085938 727.28125 1051.085938 c
724.609375 1053.03125 719.78125 1053.03125 719.78125 1053.03125 c
714.671875 1053.03125 711.8125 1051.40625 711.8125 1051.40625 c
711.8125 1047.796875 l
713.65625 1048.734375 715.78125 1049.273437 715.78125 1049.273437 c
717.90625 1049.8125 719.875 1049.8125 719.875 1049.8125 c
722.921875 1049.8125 724.5625 1048.84375 724.5625 1048.84375 c
726.203125 1047.875 726.203125 1045.875 726.203125 1045.875 c
726.203125 1044.375 724.898438 1043.3125 724.898438 1043.3125 c
723.59375 1042.25 719.828125 1040.796875 719.828125 1040.796875 c
716.234375 1039.453125 714.726563 1038.460938 714.726563 1038.460938 c
713.21875 1037.46875 712.476563 1036.203125 712.476563 1036.203125 c
711.734375 1034.9375 711.734375 1033.171875 711.734375 1033.171875 c
711.734375 1030.03125 714.289063 1028.21875 714.289063 1028.21875 c
716.84375 1026.40625 721.296875 1026.40625 721.296875 1026.40625 c
725.453125 1026.40625 729.40625 1028.09375 729.40625 1028.09375 c
728.03125 1031.25 l
724.15625 1029.65625 721.015625 1029.65625 721.015625 1029.65625 c
718.25 1029.65625 716.84375 1030.523437 716.84375 1030.523437 c
715.4375 1031.390625 715.4375 1032.921875 715.4375 1032.921875 c
715.4375 1033.953125 715.96875 1034.679688 715.96875 1034.679688 c
716.5 1035.40625 717.671875 1036.0625 717.671875 1036.0625 c
718.84375 1036.71875 722.171875 1037.953125 722.171875 1037.953125 c
726.734375 1039.625 728.34375 1041.3125 728.34375 1041.3125 c
729.953125 1043 729.953125 1045.546875 729.953125 1045.546875 c
h
f
Q
q
[0 -2.430556 2.430556 0 -1166.666693 1350.00003] cm
-473.142873 480.000016 1028.571464 1028.571464 re
W
/DeviceGray {} CS
[0] SC
-316.703125 531.421875 m
-328.328125 501.046875 l
-328.515625 501.046875 l
-328.1875 504.65625 -328.1875 509.625 -328.1875 509.625 c
-328.1875 531.421875 l
-331.859375 531.421875 l
-331.859375 497.15625 l
-325.859375 497.15625 l
-315.015625 525.421875 l
-314.828125 525.421875 l
-303.875 497.15625 l
-297.921875 497.15625 l
-297.921875 531.421875 l
-301.90625 531.421875 l
-301.90625 509.34375 l
-301.90625 505.546875 -301.578125 501.09375 -301.578125 501.09375 c
-301.765625 501.09375 l
-313.484375 531.421875 l
-316.703125 531.421875 l
h
-278.265625 531.890625 m
-283.96875 531.890625 -287.257813 528.421875 -287.257813 528.421875 c
-290.546875 524.953125 -290.546875 518.78125 -290.546875 518.78125 c
-290.546875 512.578125 -287.492187 508.921875 -287.492187 508.921875 c
-284.4375 505.265625 -279.28125 505.265625 -279.28125 505.265625 c
-274.453125 505.265625 -271.640625 508.4375 -271.640625 508.4375 c
-268.828125 511.609375 -268.828125 516.8125 -268.828125 516.8125 c
-268.828125 519.28125 l
-286.515625 519.28125 l
-286.40625 523.796875 -284.234375 526.140625 -284.234375 526.140625 c
-282.0625 528.484375 -278.125 528.484375 -278.125 528.484375 c
-273.984375 528.484375 -269.921875 526.75 -269.921875 526.75 c
-269.921875 530.21875 l
-271.984375 531.109375 -273.828125 531.5 -273.828125 531.5 c
-275.671875 531.890625 -278.265625 531.890625 -278.265625 531.890625 c
h
-279.328125 508.515625 m
-282.421875 508.515625 -284.257813 510.53125 -284.257813 510.53125 c
-286.09375 512.546875 -286.421875 516.109375 -286.421875 516.109375 c
-273 516.109375 l
-273 512.4375 -274.640625 510.476562 -274.640625 510.476562 c
-276.28125 508.515625 -279.328125 508.515625 -279.328125 508.515625 c
h
-246.390625 531.421875 m
-247.15625 527.765625 l
-247.34375 527.765625 l
-249.265625 530.171875 -251.179687 531.03125 -251.179687 531.03125 c
-253.09375 531.890625 -255.953125 531.890625 -255.953125 531.890625 c
-259.765625 531.890625 -261.9375 529.921875 -261.9375 529.921875 c
-264.109375 527.953125 -264.109375 524.3125 -264.109375 524.3125 c
-264.109375 516.53125 -251.65625 516.15625 -251.65625 516.15625 c
-247.296875 516.015625 l
-247.296875 514.421875 l
-247.296875 511.40625 -248.601562 509.960937 -248.601562 509.960937 c
-249.90625 508.515625 -252.765625 508.515625 -252.765625 508.515625 c
-255.96875 508.515625 -260.03125 510.484375 -260.03125 510.484375 c
-261.21875 507.515625 l
-259.328125 506.484375 -257.0625 505.898437 -257.0625 505.898437 c
-254.796875 505.3125 -252.53125 505.3125 -252.53125 505.3125 c
-247.9375 505.3125 -245.71875 507.351563 -245.71875 507.351563 c
-243.5 509.390625 -243.5 513.890625 -243.5 513.890625 c
-243.5 531.421875 l
-246.390625 531.421875 l
h
-255.171875 528.671875 m
-251.546875 528.671875 -249.46875 526.679688 -249.46875 526.679688 c
-247.390625 524.6875 -247.390625 521.109375 -247.390625 521.109375 c
-247.390625 518.78125 l
-251.28125 518.953125 l
-255.921875 519.109375 -257.976562 520.390625 -257.976562 520.390625 c
-260.03125 521.671875 -260.03125 524.359375 -260.03125 524.359375 c
-260.03125 526.46875 -258.75 527.570313 -258.75 527.570313 c
-257.46875 528.671875 -255.171875 528.671875 -255.171875 528.671875 c
h
-217.921875 531.421875 m
-217.921875 514.796875 l
-217.921875 511.65625 -219.351563 510.109375 -219.351563 510.109375 c
-220.78125 508.5625 -223.828125 508.5625 -223.828125 508.5625 c
-227.859375 508.5625 -229.734375 510.742188 -229.734375 510.742188 c
-231.609375 512.921875 -231.609375 517.9375 -231.609375 517.9375 c
-231.609375 531.421875 l
-235.5 531.421875 l
-235.5 505.734375 l
-232.328125 505.734375 l
-231.703125 509.25 l
-231.515625 509.25 l
-230.3125 507.34375 -228.15625 506.304688 -228.15625 506.304688 c
-226 505.265625 -223.359375 505.265625 -223.359375 505.265625 c
-218.71875 505.265625 -216.375 507.5 -216.375 507.5 c
-214.03125 509.734375 -214.03125 514.65625 -214.03125 514.65625 c
-214.03125 531.421875 l
-217.921875 531.421875 l
h
-193.015625 497.15625 m
-205.796875 531.421875 l
-209.6875 531.421875 l
-196.90625 497.15625 l
-193.015625 497.15625 l
h
-168.25 497.15625 m
-163.953125 497.15625 l
-176.3125 531.421875 l
-180.25 531.421875 l
-192.53125 497.15625 l
-188.3125 497.15625 l
-180.4375 519.328125 l
-179.078125 523.140625 -178.28125 526.75 -178.28125 526.75 c
-177.4375 522.953125 -176.078125 519.1875 -176.078125 519.1875 c
-168.25 497.15625 l
h
-144.046875 531.421875 m
-144.8125 527.765625 l
-145 527.765625 l
-146.921875 530.171875 -148.835938 531.03125 -148.835938 531.03125 c
-150.75 531.890625 -153.609375 531.890625 -153.609375 531.890625 c
-157.421875 531.890625 -159.59375 529.921875 -159.59375 529.921875 c
-161.765625 527.953125 -161.765625 524.3125 -161.765625 524.3125 c
-161.765625 516.53125 -149.3125 516.15625 -149.3125 516.15625 c
-144.953125 516.015625 l
-144.953125 514.421875 l
-144.953125 511.40625 -146.257813 509.960937 -146.257813 509.960937 c
-147.5625 508.515625 -150.421875 508.515625 -150.421875 508.515625 c
-153.625 508.515625 -157.6875 510.484375 -157.6875 510.484375 c
-158.875 507.515625 l
-156.984375 506.484375 -154.71875 505.898437 -154.71875 505.898437 c
-152.453125 505.3125 -150.1875 505.3125 -150.1875 505.3125 c
-145.59375 505.3125 -143.375 507.351563 -143.375 507.351563 c
-141.15625 509.390625 -141.15625 513.890625 -141.15625 513.890625 c
-141.15625 531.421875 l
-144.046875 531.421875 l
h
-152.828125 528.671875 m
-149.203125 528.671875 -147.125 526.679688 -147.125 526.679688 c
-145.046875 524.6875 -145.046875 521.109375 -145.046875 521.109375 c
-145.046875 518.78125 l
-148.9375 518.953125 l
-153.578125 519.109375 -155.632813 520.390625 -155.632813 520.390625 c
-157.6875 521.671875 -157.6875 524.359375 -157.6875 524.359375 c
-157.6875 526.46875 -156.40625 527.570313 -156.40625 527.570313 c
-155.125 528.671875 -152.828125 528.671875 -152.828125 528.671875 c
h
-121.421875 505.265625 m
-119.703125 505.265625 -118.34375 505.546875 -118.34375 505.546875 c
-118.890625 509.15625 l
-120.484375 508.796875 -121.703125 508.796875 -121.703125 508.796875 c
-124.8125 508.796875 -127.03125 511.328125 -127.03125 511.328125 c
-129.25 513.859375 -129.25 517.640625 -129.25 517.640625 c
-129.25 531.421875 l
-133.140625 531.421875 l
-133.140625 505.734375 l
-129.921875 505.734375 l
-129.484375 510.484375 l
-129.296875 510.484375 l
-127.859375 507.984375 -125.84375 506.625 -125.84375 506.625 c
-123.828125 505.265625 -121.421875 505.265625 -121.421875 505.265625 c
h
-109.65625 531.421875 m
-113.546875 531.421875 l
-113.546875 505.734375 l
-109.65625 505.734375 l
-109.65625 531.421875 l
h
-113.875 498.765625 m
-113.875 497.4375 -113.21875 496.8125 -113.21875 496.8125 c
-112.5625 496.1875 -111.578125 496.1875 -111.578125 496.1875 c
-110.640625 496.1875 -109.960938 496.820312 -109.960938 496.820312 c
-109.28125 497.453125 -109.28125 498.765625 -109.28125 498.765625 c
-109.28125 500.078125 -109.960938 500.726562 -109.960938 500.726562 c
-110.640625 501.375 -111.578125 501.375 -111.578125 501.375 c
-112.5625 501.375 -113.21875 500.726562 -113.21875 500.726562 c
-113.875 500.078125 -113.875 498.765625 -113.875 498.765625 c
h
-85.609375 531.421875 m
-86.375 527.765625 l
-86.5625 527.765625 l
-88.484375 530.171875 -90.398437 531.03125 -90.398437 531.03125 c
-92.3125 531.890625 -95.171875 531.890625 -95.171875 531.890625 c
-98.984375 531.890625 -101.15625 529.921875 -101.15625 529.921875 c
-103.328125 527.953125 -103.328125 524.3125 -103.328125 524.3125 c
-103.328125 516.53125 -90.875 516.15625 -90.875 516.15625 c
-86.515625 516.015625 l
-86.515625 514.421875 l
-86.515625 511.40625 -87.820312 509.960937 -87.820312 509.960937 c
-89.125 508.515625 -91.984375 508.515625 -91.984375 508.515625 c
-95.1875 508.515625 -99.25 510.484375 -99.25 510.484375 c
-100.4375 507.515625 l
-98.546875 506.484375 -96.28125 505.898437 -96.28125 505.898437 c
-94.015625 505.3125 -91.75 505.3125 -91.75 505.3125 c
-87.15625 505.3125 -84.9375 507.351563 -84.9375 507.351563 c
-82.71875 509.390625 -82.71875 513.890625 -82.71875 513.890625 c
-82.71875 531.421875 l
-85.609375 531.421875 l
h
-94.390625 528.671875 m
-90.765625 528.671875 -88.6875 526.679688 -88.6875 526.679688 c
-86.609375 524.6875 -86.609375 521.109375 -86.609375 521.109375 c
-86.609375 518.78125 l
-90.5 518.953125 l
-95.140625 519.109375 -97.195312 520.390625 -97.195312 520.390625 c
-99.25 521.671875 -99.25 524.359375 -99.25 524.359375 c
-99.25 526.46875 -97.96875 527.570313 -97.96875 527.570313 c
-96.6875 528.671875 -94.390625 528.671875 -94.390625 528.671875 c
h
-57.140625 531.421875 m
-57.140625 514.796875 l
-57.140625 511.65625 -58.570313 510.109375 -58.570313 510.109375 c
-60 508.5625 -63.046875 508.5625 -63.046875 508.5625 c
-67.078125 508.5625 -68.953125 510.742188 -68.953125 510.742188 c
-70.828125 512.921875 -70.828125 517.9375 -70.828125 517.9375 c
-70.828125 531.421875 l
-74.71875 531.421875 l
-74.71875 505.734375 l
-71.546875 505.734375 l
-70.921875 509.25 l
-70.734375 509.25 l
-69.53125 507.34375 -67.375 506.304688 -67.375 506.304688 c
-65.21875 505.265625 -62.578125 505.265625 -62.578125 505.265625 c
-57.9375 505.265625 -55.59375 507.5 -55.59375 507.5 c
-53.25 509.734375 -53.25 514.65625 -53.25 514.65625 c
-53.25 531.421875 l
-57.140625 531.421875 l
h
-34.984375 531.890625 m
-40.5625 531.890625 -43.617187 528.453125 -43.617187 528.453125 c
-46.671875 525.015625 -46.671875 518.734375 -46.671875 518.734375 c
-46.671875 512.296875 -43.570313 508.78125 -43.570313 508.78125 c
-40.46875 505.265625 -34.71875 505.265625 -34.71875 505.265625 c
-32.875 505.265625 -31.023437 505.664063 -31.023437 505.664063 c
-29.171875 506.0625 -28.109375 506.59375 -28.109375 506.59375 c
-29.3125 509.90625 l
-30.59375 509.390625 -32.117187 509.046875 -32.117187 509.046875 c
-33.640625 508.703125 -34.8125 508.703125 -34.8125 508.703125 c
-42.640625 508.703125 -42.640625 518.6875 -42.640625 518.6875 c
-42.640625 523.421875 -40.734375 525.953125 -40.734375 525.953125 c
-38.828125 528.484375 -35.078125 528.484375 -35.078125 528.484375 c
-31.859375 528.484375 -28.484375 527.109375 -28.484375 527.109375 c
-28.484375 530.546875 l
-31.0625 531.890625 -34.984375 531.890625 -34.984375 531.890625 c
h
-11.546875 531.890625 m
-17.25 531.890625 -20.539063 528.421875 -20.539063 528.421875 c
-23.828125 524.953125 -23.828125 518.78125 -23.828125 518.78125 c
-23.828125 512.578125 -20.773437 508.921875 -20.773437 508.921875 c
-17.71875 505.265625 -12.5625 505.265625 -12.5625 505.265625 c
-7.734375 505.265625 -4.921875 508.4375 -4.921875 508.4375 c
-2.109375 511.609375 -2.109375 516.8125 -2.109375 516.8125 c
-2.109375 519.28125 l
-19.796875 519.28125 l
-19.6875 523.796875 -17.515625 526.140625 -17.515625 526.140625 c
-15.34375 528.484375 -11.40625 528.484375 -11.40625 528.484375 c
-7.265625 528.484375 -3.203125 526.75 -3.203125 526.75 c
-3.203125 530.21875 l
-5.265625 531.109375 -7.109375 531.5 -7.109375 531.5 c
-8.953125 531.890625 -11.546875 531.890625 -11.546875 531.890625 c
h
-12.609375 508.515625 m
-15.703125 508.515625 -17.539063 510.53125 -17.539063 510.53125 c
-19.375 512.546875 -19.703125 516.109375 -19.703125 516.109375 c
-6.28125 516.109375 l
-6.28125 512.4375 -7.921875 510.476562 -7.921875 510.476562 c
-9.5625 508.515625 -12.609375 508.515625 -12.609375 508.515625 c
h
39.15625 518.546875 m
39.15625 524.828125 35.992188 528.359375 35.992188 528.359375 c
32.828125 531.890625 27.25 531.890625 27.25 531.890625 c
23.8125 531.890625 21.140625 530.273438 21.140625 530.273438 c
18.46875 528.65625 17.015625 525.632813 17.015625 525.632813 c
15.5625 522.609375 15.5625 518.546875 15.5625 518.546875 c
15.5625 512.265625 18.703125 508.765625 18.703125 508.765625 c
21.84375 505.265625 27.421875 505.265625 27.421875 505.265625 c
32.8125 505.265625 35.984375 508.851563 35.984375 508.851563 c
39.15625 512.4375 39.15625 518.546875 39.15625 518.546875 c
h
19.59375 518.546875 m
19.59375 523.46875 21.5625 526.046875 21.5625 526.046875 c
23.53125 528.625 27.34375 528.625 27.34375 528.625 c
31.171875 528.625 33.148438 526.0625 33.148438 526.0625 c
35.125 523.5 35.125 518.546875 35.125 518.546875 c
35.125 513.65625 33.148438 511.109375 33.148438 511.109375 c
31.171875 508.5625 27.296875 508.5625 27.296875 508.5625 c
23.484375 508.5625 21.539063 511.070312 21.539063 511.070312 c
19.59375 513.578125 19.59375 518.546875 19.59375 518.546875 c
h
57.5625 508.75 m
51.03125 508.75 l
51.03125 531.421875 l
47.140625 531.421875 l
47.140625 508.75 l
42.546875 508.75 l
42.546875 507 l
47.140625 505.59375 l
47.140625 504.15625 l
47.140625 494.6875 55.40625 494.6875 55.40625 494.6875 c
57.453125 494.6875 60.1875 495.515625 60.1875 495.515625 c
59.1875 498.625 l
56.9375 497.90625 55.34375 497.90625 55.34375 497.90625 c
53.140625 497.90625 52.085938 499.367188 52.085938 499.367188 c
51.03125 500.828125 51.03125 504.0625 51.03125 504.0625 c
51.03125 505.734375 l
57.5625 505.734375 l
57.5625 508.75 l
h
83.015625 528.671875 m
84.046875 528.671875 85.007813 528.523438 85.007813 528.523438 c
85.96875 528.375 86.53125 528.203125 86.53125 528.203125 c
86.53125 531.1875 l
85.90625 531.5 84.671875 531.695313 84.671875 531.695313 c
83.4375 531.890625 82.453125 531.890625 82.453125 531.890625 c
75 531.890625 75 524.03125 75 524.03125 c
75 508.75 l
71.328125 508.75 l
71.328125 506.875 l
75 505.265625 l
76.640625 499.78125 l
78.890625 499.78125 l
78.890625 505.734375 l
86.34375 505.734375 l
86.34375 508.75 l
78.890625 508.75 l
78.890625 523.875 l
78.890625 526.1875 79.992188 527.429688 79.992188 527.429688 c
81.09375 528.671875 83.015625 528.671875 83.015625 528.671875 c
h
109.234375 531.421875 m
109.234375 514.796875 l
109.234375 511.65625 107.804688 510.109375 107.804688 510.109375 c
106.375 508.5625 103.328125 508.5625 103.328125 508.5625 c
99.28125 508.5625 97.414063 510.765625 97.414063 510.765625 c
95.546875 512.96875 95.546875 517.984375 95.546875 517.984375 c
95.546875 531.421875 l
91.65625 531.421875 l
91.65625 494.953125 l
95.546875 494.953125 l
95.546875 505.984375 l
95.546875 507.984375 95.359375 509.296875 95.359375 509.296875 c
95.59375 509.296875 l
96.75 507.4375 98.867188 506.375 98.867188 506.375 c
100.984375 505.3125 103.703125 505.3125 103.703125 505.3125 c
108.421875 505.3125 110.773437 507.546875 110.773437 507.546875 c
113.125 509.78125 113.125 514.65625 113.125 514.65625 c
113.125 531.421875 l
109.234375 531.421875 l
h
131.984375 531.890625 m
126.28125 531.890625 122.992188 528.421875 122.992188 528.421875 c
119.703125 524.953125 119.703125 518.78125 119.703125 518.78125 c
119.703125 512.578125 122.757813 508.921875 122.757813 508.921875 c
125.8125 505.265625 130.96875 505.265625 130.96875 505.265625 c
135.796875 505.265625 138.609375 508.4375 138.609375 508.4375 c
141.421875 511.609375 141.421875 516.8125 141.421875 516.8125 c
141.421875 519.28125 l
123.734375 519.28125 l
123.84375 523.796875 126.015625 526.140625 126.015625 526.140625 c
128.1875 528.484375 132.125 528.484375 132.125 528.484375 c
136.265625 528.484375 140.328125 526.75 140.328125 526.75 c
140.328125 530.21875 l
138.265625 531.109375 136.421875 531.5 136.421875 531.5 c
134.578125 531.890625 131.984375 531.890625 131.984375 531.890625 c
h
130.921875 508.515625 m
127.828125 508.515625 125.992188 510.53125 125.992188 510.53125 c
124.15625 512.546875 123.828125 516.109375 123.828125 516.109375 c
137.25 516.109375 l
137.25 512.4375 135.609375 510.476562 135.609375 510.476562 c
133.96875 508.515625 130.921875 508.515625 130.921875 508.515625 c
h
161.109375 531.421875 m
161.109375 497.15625 l
165.09375 497.15625 l
165.09375 527.8125 l
180.203125 527.8125 l
180.203125 531.421875 l
161.109375 531.421875 l
h
196.296875 531.890625 m
190.59375 531.890625 187.304688 528.421875 187.304688 528.421875 c
184.015625 524.953125 184.015625 518.78125 184.015625 518.78125 c
184.015625 512.578125 187.070313 508.921875 187.070313 508.921875 c
190.125 505.265625 195.28125 505.265625 195.28125 505.265625 c
200.109375 505.265625 202.921875 508.4375 202.921875 508.4375 c
205.734375 511.609375 205.734375 516.8125 205.734375 516.8125 c
205.734375 519.28125 l
188.046875 519.28125 l
188.15625 523.796875 190.328125 526.140625 190.328125 526.140625 c
192.5 528.484375 196.4375 528.484375 196.4375 528.484375 c
200.578125 528.484375 204.640625 526.75 204.640625 526.75 c
204.640625 530.21875 l
202.578125 531.109375 200.734375 531.5 200.734375 531.5 c
198.890625 531.890625 196.296875 531.890625 196.296875 531.890625 c
h
195.234375 508.515625 m
192.140625 508.515625 190.304688 510.53125 190.304688 510.53125 c
188.46875 512.546875 188.140625 516.109375 188.140625 516.109375 c
201.5625 516.109375 l
201.5625 512.4375 199.921875 510.476562 199.921875 510.476562 c
198.28125 508.515625 195.234375 508.515625 195.234375 508.515625 c
h
228.15625 531.421875 m
227.390625 527.765625 l
227.203125 527.765625 l
225.28125 530.171875 223.367188 531.03125 223.367188 531.03125 c
221.453125 531.890625 218.59375 531.890625 218.59375 531.890625 c
214.78125 531.890625 212.609375 529.921875 212.609375 529.921875 c
210.4375 527.953125 210.4375 524.3125 210.4375 524.3125 c
210.4375 516.53125 222.890625 516.15625 222.890625 516.15625 c
227.25 516.015625 l
227.25 514.421875 l
227.25 511.40625 225.945313 509.960937 225.945313 509.960937 c
224.640625 508.515625 221.78125 508.515625 221.78125 508.515625 c
218.578125 508.515625 214.515625 510.484375 214.515625 510.484375 c
213.328125 507.515625 l
215.21875 506.484375 217.484375 505.898437 217.484375 505.898437 c
219.75 505.3125 222.015625 505.3125 222.015625 505.3125 c
226.609375 505.3125 228.828125 507.351563 228.828125 507.351563 c
231.046875 509.390625 231.046875 513.890625 231.046875 513.890625 c
231.046875 531.421875 l
228.15625 531.421875 l
h
219.375 528.671875 m
223 528.671875 225.078125 526.679688 225.078125 526.679688 c
227.15625 524.6875 227.15625 521.109375 227.15625 521.109375 c
227.15625 518.78125 l
223.265625 518.953125 l
218.625 519.109375 216.570313 520.390625 216.570313 520.390625 c
214.515625 521.671875 214.515625 524.359375 214.515625 524.359375 c
214.515625 526.46875 215.796875 527.570313 215.796875 527.570313 c
217.078125 528.671875 219.375 528.671875 219.375 528.671875 c
h
256.546875 527.96875 m
256.34375 527.96875 l
253.640625 531.890625 248.28125 531.890625 248.28125 531.890625 c
243.234375 531.890625 240.4375 528.445313 240.4375 528.445313 c
237.640625 525 237.640625 518.640625 237.640625 518.640625 c
237.640625 512.296875 240.453125 508.78125 240.453125 508.78125 c
243.265625 505.265625 248.28125 505.265625 248.28125 505.265625 c
253.5 505.265625 256.296875 509.0625 256.296875 509.0625 c
256.59375 509.0625 l
256.4375 507.203125 l
256.34375 505.40625 l
256.34375 494.953125 l
260.234375 494.953125 l
260.234375 531.421875 l
257.0625 531.421875 l
256.546875 527.96875 l
h
248.765625 528.625 m
252.75 528.625 254.546875 526.460938 254.546875 526.460938 c
256.34375 524.296875 256.34375 519.46875 256.34375 519.46875 c
256.34375 518.640625 l
256.34375 513.1875 254.523438 510.851563 254.523438 510.851563 c
252.703125 508.515625 248.71875 508.515625 248.71875 508.515625 c
245.296875 508.515625 243.484375 511.179688 243.484375 511.179688 c
241.671875 513.84375 241.671875 518.6875 241.671875 518.6875 c
241.671875 523.609375 243.476562 526.117188 243.476562 526.117188 c
245.28125 528.625 248.765625 528.625 248.765625 528.625 c
h
292.078125 531.421875 m
288.09375 531.421875 l
288.09375 500.6875 l
277.234375 500.6875 l
277.234375 497.15625 l
302.921875 497.15625 l
302.921875 500.6875 l
292.078125 500.6875 l
292.078125 531.421875 l
h
311.390625 531.421875 m
307.5 531.421875 l
307.5 505.734375 l
311.390625 505.734375 l
311.390625 531.421875 l
h
307.171875 498.765625 m
307.171875 497.4375 307.828125 496.8125 307.828125 496.8125 c
308.484375 496.1875 309.46875 496.1875 309.46875 496.1875 c
310.40625 496.1875 311.085937 496.820312 311.085937 496.820312 c
311.765625 497.453125 311.765625 498.765625 311.765625 498.765625 c
311.765625 500.078125 311.085937 500.726562 311.085937 500.726562 c
310.40625 501.375 309.46875 501.375 309.46875 501.375 c
308.484375 501.375 307.828125 500.726562 307.828125 500.726562 c
307.171875 500.078125 307.171875 498.765625 307.171875 498.765625 c
h
352.390625 531.421875 m
352.390625 514.703125 l
352.390625 511.640625 351.078125 510.101563 351.078125 510.101563 c
349.765625 508.5625 347 508.5625 347 508.5625 c
343.359375 508.5625 341.625 510.648438 341.625 510.648438 c
339.890625 512.734375 339.890625 517.078125 339.890625 517.078125 c
339.890625 531.421875 l
336 531.421875 l
336 514.703125 l
336 511.640625 334.6875 510.101563 334.6875 510.101563 c
333.375 508.5625 330.59375 508.5625 330.59375 508.5625 c
326.9375 508.5625 325.234375 510.757813 325.234375 510.757813 c
323.53125 512.953125 323.53125 517.9375 323.53125 517.9375 c
323.53125 531.421875 l
319.640625 531.421875 l
319.640625 505.734375 l
322.8125 505.734375 l
323.4375 509.25 l
323.625 509.25 l
324.734375 507.375 326.734375 506.320312 326.734375 506.320312 c
328.734375 505.265625 331.21875 505.265625 331.21875 505.265625 c
337.25 505.265625 339.09375 509.625 339.09375 509.625 c
339.28125 509.625 l
340.4375 507.609375 342.617188 506.4375 342.617188 506.4375 c
344.796875 505.265625 347.578125 505.265625 347.578125 505.265625 c
351.9375 505.265625 354.109375 507.5 354.109375 507.5 c
356.28125 509.734375 356.28125 514.65625 356.28125 514.65625 c
356.28125 531.421875 l
352.390625 531.421875 l
h
375.140625 531.890625 m
369.4375 531.890625 366.148438 528.421875 366.148438 528.421875 c
362.859375 524.953125 362.859375 518.78125 362.859375 518.78125 c
362.859375 512.578125 365.914063 508.921875 365.914063 508.921875 c
368.96875 505.265625 374.125 505.265625 374.125 505.265625 c
378.953125 505.265625 381.765625 508.4375 381.765625 508.4375 c
384.578125 511.609375 384.578125 516.8125 384.578125 516.8125 c
384.578125 519.28125 l
366.890625 519.28125 l
367 523.796875 369.171875 526.140625 369.171875 526.140625 c
371.34375 528.484375 375.28125 528.484375 375.28125 528.484375 c
379.421875 528.484375 383.484375 526.75 383.484375 526.75 c
383.484375 530.21875 l
381.421875 531.109375 379.578125 531.5 379.578125 531.5 c
377.734375 531.890625 375.140625 531.890625 375.140625 531.890625 c
h
374.078125 508.515625 m
370.984375 508.515625 369.148438 510.53125 369.148438 510.53125 c
367.3125 512.546875 366.984375 516.109375 366.984375 516.109375 c
380.40625 516.109375 l
380.40625 512.4375 378.765625 510.476562 378.765625 510.476562 c
377.125 508.515625 374.078125 508.515625 374.078125 508.515625 c
h
f
Q
Q
showpage
%%PageTrailer
pdfEndPage
%%Trailer
end
%%DocumentSuppliedResources:
%%EOF
