%!PS-Adobe-3.0 EPSF-3.0
%Produced by poppler pdftops version: 0.24.5 (http://poppler.freedesktop.org)
%%LanguageLevel: 2
%%DocumentSuppliedResources: (atend)
%%BoundingBox: 0 0 450 450
%%HiResBoundingBox: 0 0 450 450
%%DocumentSuppliedResources: (atend)
%%EndComments
%%BeginProlog
%%BeginResource: procset xpdf 3.00 0
%%Copyright: Copyright 1996-2011 Glyph & Cog, LLC
/xpdf 75 dict def xpdf begin
% PDF special state
/pdfDictSize 15 def
/pdfSetup {
  /setpagedevice where {
    pop 2 dict begin
      /Policies 1 dict dup begin /PageSize 6 def end def
      { /Duplex true def } if
    currentdict end setpagedevice
  } {
    pop
  } ifelse
} def
/pdfSetupPaper {
  2 array astore
  /setpagedevice where {
    pop 2 dict begin
      /PageSize exch def
      /ImagingBBox null def
    currentdict end setpagedevice
  } {
    pop
  } ifelse
} def
/pdfStartPage {
  pdfDictSize dict begin
  /pdfFillCS [] def
  /pdfFillXform {} def
  /pdfStrokeCS [] def
  /pdfStrokeXform {} def
  /pdfFill [0] def
  /pdfStroke [0] def
  /pdfFillOP false def
  /pdfStrokeOP false def
  /pdfLastFill false def
  /pdfLastStroke false def
  /pdfTextMat [1 0 0 1 0 0] def
  /pdfFontSize 0 def
  /pdfCharSpacing 0 def
  /pdfTextRender 0 def
  /pdfPatternCS false def
  /pdfTextRise 0 def
  /pdfWordSpacing 0 def
  /pdfHorizScaling 1 def
  /pdfTextClipPath [] def
} def
/pdfEndPage { end } def
% PDF color state
/cs { /pdfFillXform exch def dup /pdfFillCS exch def
      setcolorspace } def
/CS { /pdfStrokeXform exch def dup /pdfStrokeCS exch def
      setcolorspace } def
/sc { pdfLastFill not { pdfFillCS setcolorspace } if
      dup /pdfFill exch def aload pop pdfFillXform setcolor
     /pdfLastFill true def /pdfLastStroke false def } def
/SC { pdfLastStroke not { pdfStrokeCS setcolorspace } if
      dup /pdfStroke exch def aload pop pdfStrokeXform setcolor
     /pdfLastStroke true def /pdfLastFill false def } def
/op { /pdfFillOP exch def
      pdfLastFill { pdfFillOP setoverprint } if } def
/OP { /pdfStrokeOP exch def
      pdfLastStroke { pdfStrokeOP setoverprint } if } def
/fCol {
  pdfLastFill not {
    pdfFillCS setcolorspace
    pdfFill aload pop pdfFillXform setcolor
    pdfFillOP setoverprint
    /pdfLastFill true def /pdfLastStroke false def
  } if
} def
/sCol {
  pdfLastStroke not {
    pdfStrokeCS setcolorspace
    pdfStroke aload pop pdfStrokeXform setcolor
    pdfStrokeOP setoverprint
    /pdfLastStroke true def /pdfLastFill false def
  } if
} def
% build a font
/pdfMakeFont {
  4 3 roll findfont
  4 2 roll matrix scale makefont
  dup length dict begin
    { 1 index /FID ne { def } { pop pop } ifelse } forall
    /Encoding exch def
    currentdict
  end
  definefont pop
} def
/pdfMakeFont16 {
  exch findfont
  dup length dict begin
    { 1 index /FID ne { def } { pop pop } ifelse } forall
    /WMode exch def
    currentdict
  end
  definefont pop
} def
% graphics state operators
/q { gsave pdfDictSize dict begin } def
/Q {
  end grestore
  /pdfLastFill where {
    pop
    pdfLastFill {
      pdfFillOP setoverprint
    } {
      pdfStrokeOP setoverprint
    } ifelse
  } if
} def
/cm { concat } def
/d { setdash } def
/i { setflat } def
/j { setlinejoin } def
/J { setlinecap } def
/M { setmiterlimit } def
/w { setlinewidth } def
% path segment operators
/m { moveto } def
/l { lineto } def
/c { curveto } def
/re { 4 2 roll moveto 1 index 0 rlineto 0 exch rlineto
      neg 0 rlineto closepath } def
/h { closepath } def
% path painting operators
/S { sCol stroke } def
/Sf { fCol stroke } def
/f { fCol fill } def
/f* { fCol eofill } def
% clipping operators
/W { clip newpath } def
/W* { eoclip newpath } def
/Ws { strokepath clip newpath } def
% text state operators
/Tc { /pdfCharSpacing exch def } def
/Tf { dup /pdfFontSize exch def
      dup pdfHorizScaling mul exch matrix scale
      pdfTextMat matrix concatmatrix dup 4 0 put dup 5 0 put
      exch findfont exch makefont setfont } def
/Tr { /pdfTextRender exch def } def
/Tp { /pdfPatternCS exch def } def
/Ts { /pdfTextRise exch def } def
/Tw { /pdfWordSpacing exch def } def
/Tz { /pdfHorizScaling exch def } def
% text positioning operators
/Td { pdfTextMat transform moveto } def
/Tm { /pdfTextMat exch def } def
% text string operators
/xyshow where {
  pop
  /xyshow2 {
    dup length array
    0 2 2 index length 1 sub {
      2 index 1 index 2 copy get 3 1 roll 1 add get
      pdfTextMat dtransform
      4 2 roll 2 copy 6 5 roll put 1 add 3 1 roll dup 4 2 roll put
    } for
    exch pop
    xyshow
  } def
}{
  /xyshow2 {
    currentfont /FontType get 0 eq {
      0 2 3 index length 1 sub {
        currentpoint 4 index 3 index 2 getinterval show moveto
        2 copy get 2 index 3 2 roll 1 add get
        pdfTextMat dtransform rmoveto
      } for
    } {
      0 1 3 index length 1 sub {
        currentpoint 4 index 3 index 1 getinterval show moveto
        2 copy 2 mul get 2 index 3 2 roll 2 mul 1 add get
        pdfTextMat dtransform rmoveto
      } for
    } ifelse
    pop pop
  } def
} ifelse
/cshow where {
  pop
  /xycp {
    0 3 2 roll
    {
      pop pop currentpoint 3 2 roll
      1 string dup 0 4 3 roll put false charpath moveto
      2 copy get 2 index 2 index 1 add get
      pdfTextMat dtransform rmoveto
      2 add
    } exch cshow
    pop pop
  } def
}{
  /xycp {
    currentfont /FontType get 0 eq {
      0 2 3 index length 1 sub {
        currentpoint 4 index 3 index 2 getinterval false charpath moveto
        2 copy get 2 index 3 2 roll 1 add get
        pdfTextMat dtransform rmoveto
      } for
    } {
      0 1 3 index length 1 sub {
        currentpoint 4 index 3 index 1 getinterval false charpath moveto
        2 copy 2 mul get 2 index 3 2 roll 2 mul 1 add get
        pdfTextMat dtransform rmoveto
      } for
    } ifelse
    pop pop
  } def
} ifelse
/Tj {
  fCol
  0 pdfTextRise pdfTextMat dtransform rmoveto
  currentpoint 4 2 roll
  pdfTextRender 1 and 0 eq {
    2 copy xyshow2
  } if
  pdfTextRender 3 and dup 1 eq exch 2 eq or {
    3 index 3 index moveto
    2 copy
    currentfont /FontType get 3 eq { fCol } { sCol } ifelse
    xycp currentpoint stroke moveto
  } if
  pdfTextRender 4 and 0 ne {
    4 2 roll moveto xycp
    /pdfTextClipPath [ pdfTextClipPath aload pop
      {/moveto cvx}
      {/lineto cvx}
      {/curveto cvx}
      {/closepath cvx}
    pathforall ] def
    currentpoint newpath moveto
  } {
    pop pop pop pop
  } ifelse
  0 pdfTextRise neg pdfTextMat dtransform rmoveto
} def
/TJm { 0.001 mul pdfFontSize mul pdfHorizScaling mul neg 0
       pdfTextMat dtransform rmoveto } def
/TJmV { 0.001 mul pdfFontSize mul neg 0 exch
        pdfTextMat dtransform rmoveto } def
/Tclip { pdfTextClipPath cvx exec clip newpath
         /pdfTextClipPath [] def } def
/Tclip* { pdfTextClipPath cvx exec eoclip newpath
         /pdfTextClipPath [] def } def
% Level 2/3 image operators
/pdfImBuf 100 string def
/pdfImStr {
  2 copy exch length lt {
    2 copy get exch 1 add exch
  } {
    ()
  } ifelse
} def
/skipEOD {
  { currentfile pdfImBuf readline
    not { pop exit } if
    (%-EOD-) eq { exit } if } loop
} def
/pdfIm { image skipEOD } def
/pdfImM { fCol imagemask skipEOD } def
/pr { 2 index 2 index 3 2 roll putinterval 4 add } def
/pdfImClip {
  gsave
  0 2 4 index length 1 sub {
    dup 4 index exch 2 copy
    get 5 index div put
    1 add 3 index exch 2 copy
    get 3 index div put
  } for
  pop pop rectclip
} def
/pdfImClipEnd { grestore } def
% shading operators
/colordelta {
  false 0 1 3 index length 1 sub {
    dup 4 index exch get 3 index 3 2 roll get sub abs 0.004 gt {
      pop true
    } if
  } for
  exch pop exch pop
} def
/funcCol { func n array astore } def
/funcSH {
  dup 0 eq {
    true
  } {
    dup 6 eq {
      false
    } {
      4 index 4 index funcCol dup
      6 index 4 index funcCol dup
      3 1 roll colordelta 3 1 roll
      5 index 5 index funcCol dup
      3 1 roll colordelta 3 1 roll
      6 index 8 index funcCol dup
      3 1 roll colordelta 3 1 roll
      colordelta or or or
    } ifelse
  } ifelse
  {
    1 add
    4 index 3 index add 0.5 mul exch 4 index 3 index add 0.5 mul exch
    6 index 6 index 4 index 4 index 4 index funcSH
    2 index 6 index 6 index 4 index 4 index funcSH
    6 index 2 index 4 index 6 index 4 index funcSH
    5 3 roll 3 2 roll funcSH pop pop
  } {
    pop 3 index 2 index add 0.5 mul 3 index  2 index add 0.5 mul
    funcCol sc
    dup 4 index exch mat transform m
    3 index 3 index mat transform l
    1 index 3 index mat transform l
    mat transform l pop pop h f*
  } ifelse
} def
/axialCol {
  dup 0 lt {
    pop t0
  } {
    dup 1 gt {
      pop t1
    } {
      dt mul t0 add
    } ifelse
  } ifelse
  func n array astore
} def
/axialSH {
  dup 0 eq {
    true
  } {
    dup 8 eq {
      false
    } {
      2 index axialCol 2 index axialCol colordelta
    } ifelse
  } ifelse
  {
    1 add 3 1 roll 2 copy add 0.5 mul
    dup 4 3 roll exch 4 index axialSH
    exch 3 2 roll axialSH
  } {
    pop 2 copy add 0.5 mul
    axialCol sc
    exch dup dx mul x0 add exch dy mul y0 add
    3 2 roll dup dx mul x0 add exch dy mul y0 add
    dx abs dy abs ge {
      2 copy yMin sub dy mul dx div add yMin m
      yMax sub dy mul dx div add yMax l
      2 copy yMax sub dy mul dx div add yMax l
      yMin sub dy mul dx div add yMin l
      h f*
    } {
      exch 2 copy xMin sub dx mul dy div add xMin exch m
      xMax sub dx mul dy div add xMax exch l
      exch 2 copy xMax sub dx mul dy div add xMax exch l
      xMin sub dx mul dy div add xMin exch l
      h f*
    } ifelse
  } ifelse
} def
/radialCol {
  dup t0 lt {
    pop t0
  } {
    dup t1 gt {
      pop t1
    } if
  } ifelse
  func n array astore
} def
/radialSH {
  dup 0 eq {
    true
  } {
    dup 8 eq {
      false
    } {
      2 index dt mul t0 add radialCol
      2 index dt mul t0 add radialCol colordelta
    } ifelse
  } ifelse
  {
    1 add 3 1 roll 2 copy add 0.5 mul
    dup 4 3 roll exch 4 index radialSH
    exch 3 2 roll radialSH
  } {
    pop 2 copy add 0.5 mul dt mul t0 add
    radialCol sc
    encl {
      exch dup dx mul x0 add exch dup dy mul y0 add exch dr mul r0 add
      0 360 arc h
      dup dx mul x0 add exch dup dy mul y0 add exch dr mul r0 add
      360 0 arcn h f
    } {
      2 copy
      dup dx mul x0 add exch dup dy mul y0 add exch dr mul r0 add
      a1 a2 arcn
      dup dx mul x0 add exch dup dy mul y0 add exch dr mul r0 add
      a2 a1 arcn h
      dup dx mul x0 add exch dup dy mul y0 add exch dr mul r0 add
      a1 a2 arc
      dup dx mul x0 add exch dup dy mul y0 add exch dr mul r0 add
      a2 a1 arc h f
    } ifelse
  } ifelse
} def
end
%%EndResource
%%EndProlog
%%BeginSetup
xpdf begin
%%EndSetup
pdfStartPage
[] 0 d
1 i
0 j
0 J
10 M
1 w
/DeviceGray {} cs
[0] sc
/DeviceGray {} CS
[0] SC
false op
false OP
{} settransfer
0 0 450 450 re
W
q
[1 0 0 -1 0 450] cm
[0.75 0 0 0.75 0 0] cm
[0.24 0 0 0.24 0 0] cm
q
[4.166667 0 0 4.166667 0 0] cm
0 0 600 600 re
W
/DeviceGray {} cs
[1] sc
/DeviceGray {} CS
[0] SC
0 0 600 600 re
f
Q
q
[4.166667 0 0 4.166667 0 0] cm
0 0 600 600 re
W
/DeviceGray {} cs
[1] sc
/DeviceGray {} CS
[0] SC
80 100 440 420 re
f
Q
q
[4.166667 0 0 4.166667 418.416676 416.666676] cm
-100.42 -100 600 600 re
W
/DeviceGray {} CS
[0] SC
0 0 m
0 420 l
f
Q
q
[4.166667 0 0 4.166667 418.416676 416.666676] cm
-100.42 -100 600 600 re
W
/DeviceGray {} CS
[0.9333] SC
/DeviceGray {} cs
[0] sc
0 J
0 j
1 w
4 M
0 0 m
0 420 l
S
Q
q
[4.166667 0 0 4.166667 744.541693 416.666676] cm
-178.690002 -100 600 600 re
W
/DeviceGray {} CS
[0] SC
0 0 m
0 420 l
f
Q
q
[4.166667 0 0 4.166667 744.541693 416.666676] cm
-178.690002 -100 600 600 re
W
/DeviceGray {} CS
[0.9333] SC
/DeviceGray {} cs
[0] sc
0 J
0 j
1 w
4 M
0 0 m
0 420 l
S
Q
q
[4.166667 0 0 4.166667 1070.625011 416.666676] cm
-256.949997 -100 600 600 re
W
/DeviceGray {} CS
[0] SC
0 0 m
0 420 l
f
Q
q
[4.166667 0 0 4.166667 1070.625011 416.666676] cm
-256.949997 -100 600 600 re
W
/DeviceGray {} CS
[0.9333] SC
/DeviceGray {} cs
[0] sc
0 J
0 j
1 w
4 M
0 0 m
0 420 l
S
Q
q
[4.166667 0 0 4.166667 1396.750036 416.666676] cm
-335.220001 -100 600 600 re
W
/DeviceGray {} CS
[0] SC
0 0 m
0 420 l
f
Q
q
[4.166667 0 0 4.166667 1396.750036 416.666676] cm
-335.220001 -100 600 600 re
W
/DeviceGray {} CS
[0.9333] SC
/DeviceGray {} cs
[0] sc
0 J
0 j
1 w
4 M
0 0 m
0 420 l
S
Q
q
[4.166667 0 0 4.166667 1722.833418 416.666676] cm
-413.480011 -100 600 600 re
W
/DeviceGray {} CS
[0] SC
0 0 m
0 420 l
f
Q
q
[4.166667 0 0 4.166667 1722.833418 416.666676] cm
-413.480011 -100 600 600 re
W
/DeviceGray {} CS
[0.9333] SC
/DeviceGray {} cs
[0] sc
0 J
0 j
1 w
4 M
0 0 m
0 420 l
S
Q
q
[4.166667 0 0 4.166667 2048.958379 416.666676] cm
-491.75 -100 600 600 re
W
/DeviceGray {} CS
[0] SC
0 0 m
0 420 l
f
Q
q
[4.166667 0 0 4.166667 2048.958379 416.666676] cm
-491.75 -100 600 600 re
W
/DeviceGray {} CS
[0.9333] SC
/DeviceGray {} cs
[0] sc
0 J
0 j
1 w
4 M
0 0 m
0 420 l
S
Q
q
[4.166667 0 0 4.166667 333.333341 2131.000058] cm
-80 -511.440002 600 600 re
W
/DeviceGray {} CS
[0] SC
0 0 m
440 0 l
f
Q
q
[4.166667 0 0 4.166667 333.333341 2131.000058] cm
-80 -511.440002 600 600 re
W
/DeviceGray {} CS
[0.9333] SC
/DeviceGray {} cs
[0] sc
0 J
0 j
1 w
4 M
0 0 m
440 0 l
S
Q
q
[4.166667 0 0 4.166667 333.333341 1889.95836] cm
-80 -453.589996 600 600 re
W
/DeviceGray {} CS
[0] SC
0 0 m
440 0 l
f
Q
q
[4.166667 0 0 4.166667 333.333341 1889.95836] cm
-80 -453.589996 600 600 re
W
/DeviceGray {} CS
[0.9333] SC
/DeviceGray {} cs
[0] sc
0 J
0 j
1 w
4 M
0 0 m
440 0 l
S
Q
q
[4.166667 0 0 4.166667 333.333341 1648.95837] cm
-80 -395.75 600 600 re
W
/DeviceGray {} CS
[0] SC
0 0 m
440 0 l
f
Q
q
[4.166667 0 0 4.166667 333.333341 1648.95837] cm
-80 -395.75 600 600 re
W
/DeviceGray {} CS
[0.9333] SC
/DeviceGray {} cs
[0] sc
0 J
0 j
1 w
4 M
0 0 m
440 0 l
S
Q
q
[4.166667 0 0 4.166667 333.333341 1407.95838] cm
-80 -337.910004 600 600 re
W
/DeviceGray {} CS
[0] SC
0 0 m
440 0 l
f
Q
q
[4.166667 0 0 4.166667 333.333341 1407.95838] cm
-80 -337.910004 600 600 re
W
/DeviceGray {} CS
[0.9333] SC
/DeviceGray {} cs
[0] sc
0 J
0 j
1 w
4 M
0 0 m
440 0 l
S
Q
q
[4.166667 0 0 4.166667 333.333341 1166.95839] cm
-80 -280.070007 600 600 re
W
/DeviceGray {} CS
[0] SC
0 0 m
440 0 l
f
Q
q
[4.166667 0 0 4.166667 333.333341 1166.95839] cm
-80 -280.070007 600 600 re
W
/DeviceGray {} CS
[0.9333] SC
/DeviceGray {} cs
[0] sc
0 J
0 j
1 w
4 M
0 0 m
440 0 l
S
Q
q
[4.166667 0 0 4.166667 333.333341 925.916692] cm
-80 -222.220001 600 600 re
W
/DeviceGray {} CS
[0] SC
0 0 m
440 0 l
f
Q
q
[4.166667 0 0 4.166667 333.333341 925.916692] cm
-80 -222.220001 600 600 re
W
/DeviceGray {} CS
[0.9333] SC
/DeviceGray {} cs
[0] sc
0 J
0 j
1 w
4 M
0 0 m
440 0 l
S
Q
q
[4.166667 0 0 4.166667 333.333341 684.916671] cm
-80 -164.379997 600 600 re
W
/DeviceGray {} CS
[0] SC
0 0 m
440 0 l
f
Q
q
[4.166667 0 0 4.166667 333.333341 684.916671] cm
-80 -164.379997 600 600 re
W
/DeviceGray {} CS
[0.9333] SC
/DeviceGray {} cs
[0] sc
0 J
0 j
1 w
4 M
0 0 m
440 0 l
S
Q
q
[4.166667 0 0 4.166667 333.333341 443.916676] cm
-80 -106.54 600 600 re
W
/DeviceGray {} CS
[0] SC
0 0 m
440 0 l
f
Q
q
[4.166667 0 0 4.166667 333.333341 443.916676] cm
-80 -106.54 600 600 re
W
/DeviceGray {} CS
[0.9333] SC
/DeviceGray {} cs
[0] sc
0 J
0 j
1 w
4 M
0 0 m
440 0 l
S
Q
q
[4.166667 0 0 4.166667 333.333341 416.666676] cm
0.000001 0.000003 440.000007 420.000005 re
W
/DeviceRGB {} CS
[0.1216 0.4667 0.7059] SC
/DeviceGray {} cs
[0] sc
0 J
0 j
2 w
4 M
24.25 21 m
32.25 21 l
28.25 21 m
28.25 196.839996 l
24.25 196.839996 m
32.25 196.839996 l
S
Q
q
[4.166667 0 0 4.166667 333.333341 416.666676] cm
0.000001 0.000003 440.000007 420.000005 re
W
/DeviceRGB {} CS
[0.1216 0.4667 0.7059] SC
/DeviceGray {} cs
[0] sc
0 J
0 j
2 w
4 M
55.560001 180.070007 m
63.560001 180.070007 l
59.560001 180.070007 m
59.560001 261.049988 l
55.560001 261.049988 m
63.560001 261.049988 l
S
Q
q
[4.166667 0 0 4.166667 333.333341 416.666676] cm
0.000001 0.000003 440.000007 420.000005 re
W
/DeviceRGB {} CS
[0.1216 0.4667 0.7059] SC
/DeviceGray {} cs
[0] sc
0 J
0 j
2 w
4 M
94.690002 237.619995 m
102.690002 237.619995 l
98.690002 237.619995 m
98.690002 298.929993 l
94.690002 298.929993 m
102.690002 298.929993 l
S
Q
q
[4.166667 0 0 4.166667 333.333341 416.666676] cm
0.000001 0.000003 440.000007 420.000005 re
W
/DeviceRGB {} CS
[0.1216 0.4667 0.7059] SC
/DeviceGray {} cs
[0] sc
0 J
0 j
2 w
4 M
212.089996 305.869995 m
220.089996 305.869995 l
216.089996 305.869995 m
216.089996 349.26001 l
212.089996 349.26001 m
220.089996 349.26001 l
S
Q
q
[4.166667 0 0 4.166667 333.333341 416.666676] cm
0.000001 0.000003 440.000007 420.000005 re
W
/DeviceRGB {} CS
[0.1216 0.4667 0.7059] SC
/DeviceGray {} cs
[0] sc
0 J
0 j
2 w
4 M
407.75 375.279999 m
415.75 375.279999 l
411.75 375.279999 m
411.75 399 l
407.75 399 m
415.75 399 l
S
Q
q
[4.166667 0 0 4.166667 333.333341 416.666676] cm
0.000001 0.000003 440.000007 420.000005 re
W
/DeviceRGB {} CS
[0.1216 0.4667 0.7059] SC
/DeviceGray {} cs
[0] sc
0 J
0 j
3 w
2 M
28.25 108.919998 m
59.560001 220.559998 l
98.690002 268.279999 l
216.089996 327.559998 l
411.75 387.140015 l
S
Q
q
[4.166667 0 0 4.166667 451.041677 870.500012] cm
-28.249999 -108.919996 440.000007 420.000005 re
W
/DeviceRGB {} cs
[0.1216 0.4667 0.7059] sc
/DeviceGray {} CS
[0] SC
5 0 m
5 2.761424 2.761424 5 0 5 c
-2.761424 5 -5 2.761424 -5 0 c
-5 -2.761424 -2.761424 -5 0 -5 c
0 -5 l
2.761424 -5 5 -2.761424 5 0 c
h
f
Q
q
[4.166667 0 0 4.166667 581.500019 1335.666686] cm
-59.560001 -220.559995 440.000007 420.000005 re
W
/DeviceRGB {} cs
[0.1216 0.4667 0.7059] sc
/DeviceGray {} CS
[0] SC
5 0 m
5 2.761424 2.761424 5 0 5 c
-2.761424 5 -5 2.761424 -5 0 c
-5 -2.761424 -2.761424 -5 0 -5 c
0 -5 l
2.761424 -5 5 -2.761424 5 0 c
h
f
Q
q
[4.166667 0 0 4.166667 744.541693 1534.500029] cm
-98.690002 -268.279996 440.000007 420.000005 re
W
/DeviceRGB {} cs
[0.1216 0.4667 0.7059] sc
/DeviceGray {} CS
[0] SC
5 0 m
5 2.761424 2.761424 5 0 5 c
-2.761424 5 -5 2.761424 -5 0 c
-5 -2.761424 -2.761424 -5 0 -5 c
0 -5 l
2.761424 -5 5 -2.761424 5 0 c
h
f
Q
q
[4.166667 0 0 4.166667 1233.708346 1781.50003] cm
-216.089996 -327.559995 440.000007 420.000005 re
W
/DeviceRGB {} cs
[0.1216 0.4667 0.7059] sc
/DeviceGray {} CS
[0] SC
5 0 m
5 2.761424 2.761424 5 0 5 c
-2.761424 5 -5 2.761424 -5 0 c
-5 -2.761424 -2.761424 -5 0 -5 c
0 -5 l
2.761424 -5 5 -2.761424 5 0 c
h
f
Q
q
[4.166667 0 0 4.166667 2048.958379 2029.750106] cm
-411.749999 -387.140012 440.000007 420.000005 re
W
/DeviceRGB {} cs
[0.1216 0.4667 0.7059] sc
/DeviceGray {} CS
[0] SC
5 0 m
5 2.761424 2.761424 5 0 5 c
-2.761424 5 -5 2.761424 -5 0 c
-5 -2.761424 -2.761424 -5 0 -5 c
0 -5 l
2.761424 -5 5 -2.761424 5 0 c
h
f
Q
q
[4.166667 0 0 4.166667 333.333341 416.666676] cm
-80 -100 600 600 re
W
/DeviceGray {} CS
[0.2667] SC
/DeviceGray {} cs
[0] sc
0 J
0 j
1 w
4 M
-1 420.5 m
441 420.5 l
-1 -0.5 m
441 -0.5 l
S
Q
q
[4.166667 0 0 4.166667 333.333341 416.666676] cm
-80 -100 600 600 re
W
/DeviceGray {} CS
[0.2667] SC
/DeviceGray {} cs
[0] sc
0 J
0 j
1 w
4 M
-0.5 0 m
-0.5 420 l
440.5 0 m
440.5 420 l
S
Q
q
[1.909722 0 0 1.909722 418.416676 416.666676] cm
-219.098173 -218.181813 1309.090847 1309.090881 re
W
/DeviceGray {} CS
[0] SC
12.53125 953.71875 m
12.53125 962.609375 9.726563 966.992188 9.726563 966.992188 c
6.921875 971.375 1.15625 971.375 1.15625 971.375 c
-4.375 971.375 -7.257812 966.882813 -7.257812 966.882813 c
-10.140625 962.390625 -10.140625 953.71875 -10.140625 953.71875 c
-10.140625 944.765625 -7.351563 940.429688 -7.351563 940.429688 c
-4.5625 936.09375 1.15625 936.09375 1.15625 936.09375 c
6.734375 936.09375 9.632813 940.617188 9.632813 940.617188 c
12.53125 945.140625 12.53125 953.71875 12.53125 953.71875 c
h
-6.203125 953.71875 m
-6.203125 961.203125 -4.445313 964.609375 -4.445313 964.609375 c
-2.6875 968.015625 1.15625 968.015625 1.15625 968.015625 c
5.046875 968.015625 6.796875 964.5625 6.796875 964.5625 c
8.546875 961.109375 8.546875 953.71875 8.546875 953.71875 c
8.546875 946.34375 6.796875 942.90625 6.796875 942.90625 c
5.046875 939.46875 1.15625 939.46875 1.15625 939.46875 c
-2.6875 939.46875 -4.445313 942.859375 -4.445313 942.859375 c
-6.203125 946.25 -6.203125 953.71875 -6.203125 953.71875 c
h
f
Q
q
[1.909722 0 0 1.909722 744.541693 416.666676] cm
-389.869088 -218.181813 1309.090881 1309.090881 re
W
/DeviceGray {} CS
[0] SC
8.390625 970.90625 m
4.59375 970.90625 l
4.59375 946.484375 l
4.59375 943.4375 4.78125 940.71875 4.78125 940.71875 c
4.28125 941.203125 3.671875 941.742188 3.671875 941.742188 c
3.0625 942.28125 -1.90625 946.3125 -1.90625 946.3125 c
-3.96875 943.640625 l
5.109375 936.640625 l
8.390625 936.640625 l
8.390625 970.90625 l
h
f
Q
q
[1.909722 0 0 1.909722 1070.625011 416.666676] cm
-560.618196 -218.181813 1309.090881 1309.090881 re
W
/DeviceGray {} CS
[0] SC
12.4375 970.90625 m
-10.09375 970.90625 l
-10.09375 967.546875 l
-1.0625 958.484375 l
3.0625 954.3125 4.375 952.53125 4.375 952.53125 c
5.6875 950.75 6.34375 949.0625 6.34375 949.0625 c
7 947.375 7 945.421875 7 945.421875 c
7 942.6875 5.335937 941.078125 5.335937 941.078125 c
3.671875 939.46875 0.71875 939.46875 0.71875 939.46875 c
-1.421875 939.46875 -3.328125 940.171875 -3.328125 940.171875 c
-5.234375 940.875 -7.578125 942.734375 -7.578125 942.734375 c
-9.640625 940.078125 l
-4.90625 936.140625 0.671875 936.140625 0.671875 936.140625 c
5.5 936.140625 8.242188 938.617188 8.242188 938.617188 c
10.984375 941.09375 10.984375 945.265625 10.984375 945.265625 c
10.984375 948.515625 9.15625 951.703125 9.15625 951.703125 c
7.328125 954.890625 2.3125 959.765625 2.3125 959.765625 c
-5.1875 967.109375 l
-5.1875 967.296875 l
12.4375 967.296875 l
12.4375 970.90625 l
h
f
Q
q
[1.909722 0 0 1.909722 1396.750036 416.666676] cm
-731.389144 -218.181813 1309.090881 1309.090881 re
W
/DeviceGray {} CS
[0] SC
11.265625 944.703125 m
11.265625 947.984375 9.429688 950.070313 9.429688 950.070313 c
7.59375 952.15625 4.21875 952.859375 4.21875 952.859375 c
4.21875 953.046875 l
8.34375 953.5625 10.335938 955.671875 10.335938 955.671875 c
12.328125 957.78125 12.328125 961.203125 12.328125 961.203125 c
12.328125 966.09375 8.929688 968.734375 8.929688 968.734375 c
5.53125 971.375 -0.734375 971.375 -0.734375 971.375 c
-3.453125 971.375 -5.710937 970.960938 -5.710937 970.960938 c
-7.96875 970.546875 -10.109375 969.515625 -10.109375 969.515625 c
-10.109375 965.8125 l
-7.875 966.921875 -5.359375 967.492188 -5.359375 967.492188 c
-2.84375 968.0625 -0.59375 968.0625 -0.59375 968.0625 c
8.296875 968.0625 8.296875 961.109375 8.296875 961.109375 c
8.296875 954.875 -1.5 954.875 -1.5 954.875 c
-4.875 954.875 l
-4.875 951.515625 l
-1.453125 951.515625 l
2.546875 951.515625 4.890625 949.75 4.890625 949.75 c
7.234375 947.984375 7.234375 944.84375 7.234375 944.84375 c
7.234375 942.328125 5.515625 940.898438 5.515625 940.898438 c
3.796875 939.46875 0.84375 939.46875 0.84375 939.46875 c
-1.40625 939.46875 -3.398438 940.078125 -3.398438 940.078125 c
-5.390625 940.6875 -7.953125 942.328125 -7.953125 942.328125 c
-9.921875 939.703125 l
-7.8125 938.046875 -5.054687 937.09375 -5.054687 937.09375 c
-2.296875 936.140625 0.75 936.140625 0.75 936.140625 c
5.734375 936.140625 8.5 938.429688 8.5 938.429688 c
11.265625 940.71875 11.265625 944.703125 11.265625 944.703125 c
h
f
Q
q
[1.909722 0 0 1.909722 1722.833418 416.666676] cm
-902.138253 -218.181813 1309.090881 1309.090881 re
W
/DeviceGray {} CS
[0] SC
13.25 963.03125 m
8.171875 963.03125 l
8.171875 970.90625 l
4.4375 970.90625 l
4.4375 963.03125 l
-12.21875 963.03125 l
-12.21875 959.625 l
4.046875 936.453125 l
8.171875 936.453125 l
8.171875 959.484375 l
13.25 959.484375 l
13.25 963.03125 l
h
4.4375 959.484375 m
4.4375 948.09375 l
4.4375 944.75 4.671875 940.53125 4.671875 940.53125 c
4.484375 940.53125 l
3.359375 942.78125 2.375 944.25 2.375 944.25 c
-8.328125 959.484375 l
4.4375 959.484375 l
h
f
Q
q
[1.909722 0 0 1.909722 2048.958379 416.666676] cm
-1072.909134 -218.181813 1309.090881 1309.090881 re
W
/DeviceGray {} CS
[0] SC
0.71875 949.96875 m
6.125 949.96875 9.234375 952.65625 9.234375 952.65625 c
12.34375 955.34375 12.34375 960 12.34375 960 c
12.34375 965.328125 8.953125 968.351562 8.953125 968.351562 c
5.5625 971.375 -0.390625 971.375 -0.390625 971.375 c
-6.171875 971.375 -9.21875 969.515625 -9.21875 969.515625 c
-9.21875 965.765625 l
-7.578125 966.828125 -5.140625 967.421875 -5.140625 967.421875 c
-2.703125 968.015625 -0.34375 968.015625 -0.34375 968.015625 c
3.78125 968.015625 6.070313 966.070313 6.070313 966.070313 c
8.359375 964.125 8.359375 960.453125 8.359375 960.453125 c
8.359375 953.28125 -0.4375 953.28125 -0.4375 953.28125 c
-2.65625 953.28125 -6.390625 953.953125 -6.390625 953.953125 c
-8.40625 952.671875 l
-7.109375 936.640625 l
9.921875 936.640625 l
9.921875 940.21875 l
-3.78125 940.21875 l
-4.65625 950.515625 l
-1.953125 949.96875 0.71875 949.96875 0.71875 949.96875 c
h
f
Q
q
[1.909722 0 0 1.909722 333.333341 2131.000058] cm
-174.545517 -1115.869072 1309.090947 1309.090881 re
W
/DeviceGray {} CS
[0] SC
-17.8125 -10.765625 m
-13.125 -10.765625 -10.382813 -8.585938 -10.382813 -8.585938 c
-7.640625 -6.40625 -7.640625 -2.5625 -7.640625 -2.5625 c
-7.640625 -0.03125 -9.210938 2.054688 -9.210938 2.054688 c
-10.78125 4.140625 -14.21875 5.859375 -14.21875 5.859375 c
-10.046875 7.84375 -8.289063 10.039063 -8.289063 10.039063 c
-6.53125 12.234375 -6.53125 15.109375 -6.53125 15.109375 c
-6.53125 19.375 -9.507813 21.921875 -9.507813 21.921875 c
-12.484375 24.46875 -17.671875 24.46875 -17.671875 24.46875 c
-23.15625 24.46875 -26.109375 22.0625 -26.109375 22.0625 c
-29.0625 19.65625 -29.0625 15.25 -29.0625 15.25 c
-29.0625 9.375 -21.890625 6.09375 -21.890625 6.09375 c
-25.125 4.265625 -26.53125 2.140625 -26.53125 2.140625 c
-27.9375 0.015625 -27.9375 -2.609375 -27.9375 -2.609375 c
-27.9375 -6.328125 -25.179688 -8.546875 -25.179688 -8.546875 c
-22.421875 -10.765625 -17.8125 -10.765625 -17.8125 -10.765625 c
h
-25.21875 15.34375 m
-25.21875 18.15625 -23.257813 19.726562 -23.257813 19.726562 c
-21.296875 21.296875 -17.765625 21.296875 -17.765625 21.296875 c
-14.265625 21.296875 -12.320313 19.65625 -12.320313 19.65625 c
-10.375 18.015625 -10.375 15.15625 -10.375 15.15625 c
-10.375 12.890625 -12.203125 11.117188 -12.203125 11.117188 c
-14.03125 9.34375 -18.578125 7.6875 -18.578125 7.6875 c
-22.078125 9.1875 -23.648437 11 -23.648437 11 c
-25.21875 12.8125 -25.21875 15.34375 -25.21875 15.34375 c
h
-17.859375 -7.59375 m
-20.78125 -7.59375 -22.445312 -6.1875 -22.445312 -6.1875 c
-24.109375 -4.78125 -24.109375 -2.4375 -24.109375 -2.4375 c
-24.109375 -0.28125 -22.726562 1.265625 -22.726562 1.265625 c
-21.34375 2.8125 -17.625 4.359375 -17.625 4.359375 c
-14.265625 2.953125 -12.875 1.335938 -12.875 1.335938 c
-11.484375 -0.28125 -11.484375 -2.4375 -11.484375 -2.4375 c
-11.484375 -4.8125 -13.179688 -6.203125 -13.179688 -6.203125 c
-14.875 -7.59375 -17.859375 -7.59375 -17.859375 -7.59375 c
h
f
Q
q
[1.909722 0 0 1.909722 333.333341 1889.95836] cm
-174.545517 -989.65088 1309.090947 1309.090881 re
W
/DeviceGray {} CS
[0] SC
-42.28125 24 m
-46.078125 24 l
-46.078125 -0.421875 l
-46.078125 -3.46875 -45.890625 -6.1875 -45.890625 -6.1875 c
-46.390625 -5.703125 -47 -5.164062 -47 -5.164062 c
-47.609375 -4.625 -52.578125 -0.59375 -52.578125 -0.59375 c
-54.640625 -3.265625 l
-45.5625 -10.265625 l
-42.28125 -10.265625 l
-42.28125 24 l
h
-6.53125 6.8125 m
-6.53125 15.703125 -9.335938 20.085937 -9.335938 20.085937 c
-12.140625 24.46875 -17.90625 24.46875 -17.90625 24.46875 c
-23.4375 24.46875 -26.320312 19.976562 -26.320312 19.976562 c
-29.203125 15.484375 -29.203125 6.8125 -29.203125 6.8125 c
-29.203125 -2.140625 -26.414063 -6.476563 -26.414063 -6.476563 c
-23.625 -10.8125 -17.90625 -10.8125 -17.90625 -10.8125 c
-12.328125 -10.8125 -9.429688 -6.289063 -9.429688 -6.289063 c
-6.53125 -1.765625 -6.53125 6.8125 -6.53125 6.8125 c
h
-25.265625 6.8125 m
-25.265625 14.296875 -23.507813 17.703125 -23.507813 17.703125 c
-21.75 21.109375 -17.90625 21.109375 -17.90625 21.109375 c
-14.015625 21.109375 -12.265625 17.65625 -12.265625 17.65625 c
-10.515625 14.203125 -10.515625 6.8125 -10.515625 6.8125 c
-10.515625 -0.5625 -12.265625 -4 -12.265625 -4 c
-14.015625 -7.4375 -17.90625 -7.4375 -17.90625 -7.4375 c
-21.75 -7.4375 -23.507813 -4.046875 -23.507813 -4.046875 c
-25.265625 -0.65625 -25.265625 6.8125 -25.265625 6.8125 c
h
f
Q
q
[1.909722 0 0 1.909722 333.333341 1648.95837] cm
-174.545517 -863.454527 1309.090947 1309.090881 re
W
/DeviceGray {} CS
[0] SC
-42.09375 24 m
-45.890625 24 l
-45.890625 -0.421875 l
-45.890625 -3.46875 -45.703125 -6.1875 -45.703125 -6.1875 c
-46.203125 -5.703125 -46.8125 -5.164062 -46.8125 -5.164062 c
-47.421875 -4.625 -52.390625 -0.59375 -52.390625 -0.59375 c
-54.453125 -3.265625 l
-45.375 -10.265625 l
-42.09375 -10.265625 l
-42.09375 24 l
h
-6.53125 24 m
-29.0625 24 l
-29.0625 20.640625 l
-20.03125 11.578125 l
-15.90625 7.40625 -14.59375 5.625 -14.59375 5.625 c
-13.28125 3.84375 -12.625 2.15625 -12.625 2.15625 c
-11.96875 0.46875 -11.96875 -1.484375 -11.96875 -1.484375 c
-11.96875 -4.21875 -13.632813 -5.828125 -13.632813 -5.828125 c
-15.296875 -7.4375 -18.25 -7.4375 -18.25 -7.4375 c
-20.390625 -7.4375 -22.296875 -6.734375 -22.296875 -6.734375 c
-24.203125 -6.03125 -26.546875 -4.171875 -26.546875 -4.171875 c
-28.609375 -6.828125 l
-23.875 -10.765625 -18.296875 -10.765625 -18.296875 -10.765625 c
-13.46875 -10.765625 -10.726563 -8.289063 -10.726563 -8.289063 c
-7.984375 -5.8125 -7.984375 -1.640625 -7.984375 -1.640625 c
-7.984375 1.609375 -9.8125 4.796875 -9.8125 4.796875 c
-11.640625 7.984375 -16.65625 12.859375 -16.65625 12.859375 c
-24.15625 20.203125 l
-24.15625 20.390625 l
-6.53125 20.390625 l
-6.53125 24 l
h
f
Q
q
[1.909722 0 0 1.909722 333.333341 1407.95838] cm
-174.545517 -737.258174 1309.090947 1309.090881 re
W
/DeviceGray {} CS
[0] SC
-43.703125 24 m
-47.5 24 l
-47.5 -0.421875 l
-47.5 -3.46875 -47.3125 -6.1875 -47.3125 -6.1875 c
-47.8125 -5.703125 -48.421875 -5.164062 -48.421875 -5.164062 c
-49.03125 -4.625 -54 -0.59375 -54 -0.59375 c
-56.0625 -3.265625 l
-46.984375 -10.265625 l
-43.703125 -10.265625 l
-43.703125 24 l
h
-6.53125 16.125 m
-11.609375 16.125 l
-11.609375 24 l
-15.34375 24 l
-15.34375 16.125 l
-32 16.125 l
-32 12.71875 l
-15.734375 -10.453125 l
-11.609375 -10.453125 l
-11.609375 12.578125 l
-6.53125 12.578125 l
-6.53125 16.125 l
h
-15.34375 12.578125 m
-15.34375 1.1875 l
-15.34375 -2.15625 -15.109375 -6.375 -15.109375 -6.375 c
-15.296875 -6.375 l
-16.421875 -4.125 -17.40625 -2.65625 -17.40625 -2.65625 c
-28.109375 12.578125 l
-15.34375 12.578125 l
h
f
Q
q
[1.909722 0 0 1.909722 333.333341 1166.95839] cm
-174.545517 -611.061821 1309.090947 1309.090881 re
W
/DeviceGray {} CS
[0] SC
-42.328125 24 m
-46.125 24 l
-46.125 -0.421875 l
-46.125 -3.46875 -45.9375 -6.1875 -45.9375 -6.1875 c
-46.4375 -5.703125 -47.046875 -5.164062 -47.046875 -5.164062 c
-47.65625 -4.625 -52.625 -0.59375 -52.625 -0.59375 c
-54.6875 -3.265625 l
-45.609375 -10.265625 l
-42.328125 -10.265625 l
-42.328125 24 l
h
-28.890625 9.34375 m
-28.890625 -0.75 -24.96875 -5.757812 -24.96875 -5.757812 c
-21.046875 -10.765625 -13.359375 -10.765625 -13.359375 -10.765625 c
-10.703125 -10.765625 -9.1875 -10.3125 -9.1875 -10.3125 c
-9.1875 -6.96875 l
-10.984375 -7.546875 -13.3125 -7.546875 -13.3125 -7.546875 c
-18.8125 -7.546875 -21.71875 -4.117187 -21.71875 -4.117187 c
-24.625 -0.6875 -24.90625 6.671875 -24.90625 6.671875 c
-24.625 6.671875 l
-22.046875 2.640625 -16.46875 2.640625 -16.46875 2.640625 c
-11.859375 2.640625 -9.195313 5.429688 -9.195313 5.429688 c
-6.53125 8.21875 -6.53125 13 -6.53125 13 c
-6.53125 18.34375 -9.453125 21.40625 -9.453125 21.40625 c
-12.375 24.46875 -17.34375 24.46875 -17.34375 24.46875 c
-22.65625 24.46875 -25.773437 20.46875 -25.773437 20.46875 c
-28.890625 16.46875 -28.890625 9.34375 -28.890625 9.34375 c
h
-17.390625 21.15625 m
-14.0625 21.15625 -12.21875 19.0625 -12.21875 19.0625 c
-10.375 16.96875 -10.375 13 -10.375 13 c
-10.375 9.609375 -12.085938 7.664062 -12.085938 7.664062 c
-13.796875 5.71875 -17.203125 5.71875 -17.203125 5.71875 c
-19.3125 5.71875 -21.070312 6.585937 -21.070312 6.585937 c
-22.828125 7.453125 -23.867188 8.976563 -23.867188 8.976563 c
-24.90625 10.5 -24.90625 12.140625 -24.90625 12.140625 c
-24.90625 14.546875 -23.96875 16.632813 -23.96875 16.632813 c
-23.03125 18.71875 -21.3125 19.9375 -21.3125 19.9375 c
-19.59375 21.15625 -17.390625 21.15625 -17.390625 21.15625 c
h
f
Q
q
[1.909722 0 0 1.909722 333.333341 925.916692] cm
-174.545517 -484.843629 1309.090947 1309.090881 re
W
/DeviceGray {} CS
[0] SC
-42.1875 24 m
-45.984375 24 l
-45.984375 -0.421875 l
-45.984375 -3.46875 -45.796875 -6.1875 -45.796875 -6.1875 c
-46.296875 -5.703125 -46.90625 -5.164062 -46.90625 -5.164062 c
-47.515625 -4.625 -52.484375 -0.59375 -52.484375 -0.59375 c
-54.546875 -3.265625 l
-45.46875 -10.265625 l
-42.1875 -10.265625 l
-42.1875 24 l
h
-17.8125 -10.765625 m
-13.125 -10.765625 -10.382813 -8.585938 -10.382813 -8.585938 c
-7.640625 -6.40625 -7.640625 -2.5625 -7.640625 -2.5625 c
-7.640625 -0.03125 -9.210938 2.054688 -9.210938 2.054688 c
-10.78125 4.140625 -14.21875 5.859375 -14.21875 5.859375 c
-10.046875 7.84375 -8.289063 10.039063 -8.289063 10.039063 c
-6.53125 12.234375 -6.53125 15.109375 -6.53125 15.109375 c
-6.53125 19.375 -9.507813 21.921875 -9.507813 21.921875 c
-12.484375 24.46875 -17.671875 24.46875 -17.671875 24.46875 c
-23.15625 24.46875 -26.109375 22.0625 -26.109375 22.0625 c
-29.0625 19.65625 -29.0625 15.25 -29.0625 15.25 c
-29.0625 9.375 -21.890625 6.09375 -21.890625 6.09375 c
-25.125 4.265625 -26.53125 2.140625 -26.53125 2.140625 c
-27.9375 0.015625 -27.9375 -2.609375 -27.9375 -2.609375 c
-27.9375 -6.328125 -25.179688 -8.546875 -25.179688 -8.546875 c
-22.421875 -10.765625 -17.8125 -10.765625 -17.8125 -10.765625 c
h
-25.21875 15.34375 m
-25.21875 18.15625 -23.257813 19.726562 -23.257813 19.726562 c
-21.296875 21.296875 -17.765625 21.296875 -17.765625 21.296875 c
-14.265625 21.296875 -12.320313 19.65625 -12.320313 19.65625 c
-10.375 18.015625 -10.375 15.15625 -10.375 15.15625 c
-10.375 12.890625 -12.203125 11.117188 -12.203125 11.117188 c
-14.03125 9.34375 -18.578125 7.6875 -18.578125 7.6875 c
-22.078125 9.1875 -23.648437 11 -23.648437 11 c
-25.21875 12.8125 -25.21875 15.34375 -25.21875 15.34375 c
h
-17.859375 -7.59375 m
-20.78125 -7.59375 -22.445312 -6.1875 -22.445312 -6.1875 c
-24.109375 -4.78125 -24.109375 -2.4375 -24.109375 -2.4375 c
-24.109375 -0.28125 -22.726562 1.265625 -22.726562 1.265625 c
-21.34375 2.8125 -17.625 4.359375 -17.625 4.359375 c
-14.265625 2.953125 -12.875 1.335938 -12.875 1.335938 c
-11.484375 -0.28125 -11.484375 -2.4375 -11.484375 -2.4375 c
-11.484375 -4.8125 -13.179688 -6.203125 -13.179688 -6.203125 c
-14.875 -7.59375 -17.859375 -7.59375 -17.859375 -7.59375 c
h
f
Q
q
[1.909722 0 0 1.909722 333.333341 684.916671] cm
-174.545517 -358.647276 1309.090947 1309.090881 re
W
/DeviceGray {} CS
[0] SC
-34.171875 24 m
-56.703125 24 l
-56.703125 20.640625 l
-47.671875 11.578125 l
-43.546875 7.40625 -42.234375 5.625 -42.234375 5.625 c
-40.921875 3.84375 -40.265625 2.15625 -40.265625 2.15625 c
-39.609375 0.46875 -39.609375 -1.484375 -39.609375 -1.484375 c
-39.609375 -4.21875 -41.273438 -5.828125 -41.273438 -5.828125 c
-42.9375 -7.4375 -45.890625 -7.4375 -45.890625 -7.4375 c
-48.03125 -7.4375 -49.9375 -6.734375 -49.9375 -6.734375 c
-51.84375 -6.03125 -54.1875 -4.171875 -54.1875 -4.171875 c
-56.25 -6.828125 l
-51.515625 -10.765625 -45.9375 -10.765625 -45.9375 -10.765625 c
-41.109375 -10.765625 -38.367187 -8.289063 -38.367187 -8.289063 c
-35.625 -5.8125 -35.625 -1.640625 -35.625 -1.640625 c
-35.625 1.609375 -37.453125 4.796875 -37.453125 4.796875 c
-39.28125 7.984375 -44.296875 12.859375 -44.296875 12.859375 c
-51.796875 20.203125 l
-51.796875 20.390625 l
-34.171875 20.390625 l
-34.171875 24 l
h
-6.53125 6.8125 m
-6.53125 15.703125 -9.335938 20.085937 -9.335938 20.085937 c
-12.140625 24.46875 -17.90625 24.46875 -17.90625 24.46875 c
-23.4375 24.46875 -26.320312 19.976562 -26.320312 19.976562 c
-29.203125 15.484375 -29.203125 6.8125 -29.203125 6.8125 c
-29.203125 -2.140625 -26.414063 -6.476563 -26.414063 -6.476563 c
-23.625 -10.8125 -17.90625 -10.8125 -17.90625 -10.8125 c
-12.328125 -10.8125 -9.429688 -6.289063 -9.429688 -6.289063 c
-6.53125 -1.765625 -6.53125 6.8125 -6.53125 6.8125 c
h
-25.265625 6.8125 m
-25.265625 14.296875 -23.507813 17.703125 -23.507813 17.703125 c
-21.75 21.109375 -17.90625 21.109375 -17.90625 21.109375 c
-14.015625 21.109375 -12.265625 17.65625 -12.265625 17.65625 c
-10.515625 14.203125 -10.515625 6.8125 -10.515625 6.8125 c
-10.515625 -0.5625 -12.265625 -4 -12.265625 -4 c
-14.015625 -7.4375 -17.90625 -7.4375 -17.90625 -7.4375 c
-21.75 -7.4375 -23.507813 -4.046875 -23.507813 -4.046875 c
-25.265625 -0.65625 -25.265625 6.8125 -25.265625 6.8125 c
h
f
Q
q
[1.909722 0 0 1.909722 333.333341 443.916676] cm
-174.545517 -232.450923 1309.090947 1309.090881 re
W
/DeviceGray {} CS
[0] SC
-33.984375 24 m
-56.515625 24 l
-56.515625 20.640625 l
-47.484375 11.578125 l
-43.359375 7.40625 -42.046875 5.625 -42.046875 5.625 c
-40.734375 3.84375 -40.078125 2.15625 -40.078125 2.15625 c
-39.421875 0.46875 -39.421875 -1.484375 -39.421875 -1.484375 c
-39.421875 -4.21875 -41.085938 -5.828125 -41.085938 -5.828125 c
-42.75 -7.4375 -45.703125 -7.4375 -45.703125 -7.4375 c
-47.84375 -7.4375 -49.75 -6.734375 -49.75 -6.734375 c
-51.65625 -6.03125 -54 -4.171875 -54 -4.171875 c
-56.0625 -6.828125 l
-51.328125 -10.765625 -45.75 -10.765625 -45.75 -10.765625 c
-40.921875 -10.765625 -38.179687 -8.289063 -38.179687 -8.289063 c
-35.4375 -5.8125 -35.4375 -1.640625 -35.4375 -1.640625 c
-35.4375 1.609375 -37.265625 4.796875 -37.265625 4.796875 c
-39.09375 7.984375 -44.109375 12.859375 -44.109375 12.859375 c
-51.609375 20.203125 l
-51.609375 20.390625 l
-33.984375 20.390625 l
-33.984375 24 l
h
-6.53125 24 m
-29.0625 24 l
-29.0625 20.640625 l
-20.03125 11.578125 l
-15.90625 7.40625 -14.59375 5.625 -14.59375 5.625 c
-13.28125 3.84375 -12.625 2.15625 -12.625 2.15625 c
-11.96875 0.46875 -11.96875 -1.484375 -11.96875 -1.484375 c
-11.96875 -4.21875 -13.632813 -5.828125 -13.632813 -5.828125 c
-15.296875 -7.4375 -18.25 -7.4375 -18.25 -7.4375 c
-20.390625 -7.4375 -22.296875 -6.734375 -22.296875 -6.734375 c
-24.203125 -6.03125 -26.546875 -4.171875 -26.546875 -4.171875 c
-28.609375 -6.828125 l
-23.875 -10.765625 -18.296875 -10.765625 -18.296875 -10.765625 c
-13.46875 -10.765625 -10.726563 -8.289063 -10.726563 -8.289063 c
-7.984375 -5.8125 -7.984375 -1.640625 -7.984375 -1.640625 c
-7.984375 1.609375 -9.8125 4.796875 -9.8125 4.796875 c
-11.640625 7.984375 -16.65625 12.859375 -16.65625 12.859375 c
-24.15625 20.203125 l
-24.15625 20.390625 l
-6.53125 20.390625 l
-6.53125 24 l
h
f
Q
q
[2.430556 0 0 2.430556 0 -91.666669] cm
-0.000052 37.714274 1028.571516 1028.571477 re
W
/DeviceGray {} CS
[0] SC
173.546875 1043.4375 m
173.546875 1047.96875 170.265625 1050.5 170.265625 1050.5 c
166.984375 1053.03125 161.359375 1053.03125 161.359375 1053.03125 c
155.265625 1053.03125 151.984375 1051.453125 151.984375 1051.453125 c
151.984375 1047.609375 l
154.09375 1048.5 156.578125 1049.015625 156.578125 1049.015625 c
159.0625 1049.53125 161.5 1049.53125 161.5 1049.53125 c
165.484375 1049.53125 167.5 1048.023437 167.5 1048.023437 c
169.515625 1046.515625 169.515625 1043.8125 169.515625 1043.8125 c
169.515625 1042.03125 168.804688 1040.898437 168.804688 1040.898437 c
168.09375 1039.765625 166.414062 1038.804688 166.414062 1038.804688 c
164.734375 1037.84375 161.3125 1036.625 161.3125 1036.625 c
156.53125 1034.90625 154.484375 1032.5625 154.484375 1032.5625 c
152.4375 1030.21875 152.4375 1026.453125 152.4375 1026.453125 c
152.4375 1022.484375 155.414062 1020.140625 155.414062 1020.140625 c
158.390625 1017.796875 163.28125 1017.796875 163.28125 1017.796875 c
168.390625 1017.796875 172.6875 1019.671875 172.6875 1019.671875 c
171.4375 1023.140625 l
167.203125 1021.359375 163.1875 1021.359375 163.1875 1021.359375 c
160.03125 1021.359375 158.25 1022.71875 158.25 1022.71875 c
156.46875 1024.078125 156.46875 1026.5 156.46875 1026.5 c
156.46875 1028.28125 157.125 1029.414063 157.125 1029.414063 c
157.78125 1030.546875 159.335938 1031.5 159.335938 1031.5 c
160.890625 1032.453125 164.109375 1033.59375 164.109375 1033.59375 c
169.5 1035.515625 171.523438 1037.71875 171.523438 1037.71875 c
173.546875 1039.921875 173.546875 1043.4375 173.546875 1043.4375 c
h
190.828125 1053.03125 m
185.125 1053.03125 181.835938 1049.5625 181.835938 1049.5625 c
178.546875 1046.09375 178.546875 1039.921875 178.546875 1039.921875 c
178.546875 1033.71875 181.601562 1030.0625 181.601562 1030.0625 c
184.65625 1026.40625 189.8125 1026.40625 189.8125 1026.40625 c
194.640625 1026.40625 197.453125 1029.578125 197.453125 1029.578125 c
200.265625 1032.75 200.265625 1037.953125 200.265625 1037.953125 c
200.265625 1040.421875 l
182.578125 1040.421875 l
182.6875 1044.9375 184.859375 1047.28125 184.859375 1047.28125 c
187.03125 1049.625 190.96875 1049.625 190.96875 1049.625 c
195.109375 1049.625 199.171875 1047.890625 199.171875 1047.890625 c
199.171875 1051.359375 l
197.109375 1052.25 195.265625 1052.640625 195.265625 1052.640625 c
193.421875 1053.03125 190.828125 1053.03125 190.828125 1053.03125 c
h
189.765625 1029.65625 m
186.671875 1029.65625 184.835938 1031.671875 184.835938 1031.671875 c
183 1033.6875 182.671875 1037.25 182.671875 1037.25 c
196.09375 1037.25 l
196.09375 1033.578125 194.453125 1031.617188 194.453125 1031.617188 c
192.8125 1029.65625 189.765625 1029.65625 189.765625 1029.65625 c
h
224.46875 1052.5625 m
224.46875 1035.9375 l
224.46875 1032.796875 223.039062 1031.25 223.039062 1031.25 c
221.609375 1029.703125 218.5625 1029.703125 218.5625 1029.703125 c
214.53125 1029.703125 212.65625 1031.882812 212.65625 1031.882812 c
210.78125 1034.0625 210.78125 1039.078125 210.78125 1039.078125 c
210.78125 1052.5625 l
206.890625 1052.5625 l
206.890625 1026.875 l
210.0625 1026.875 l
210.6875 1030.390625 l
210.875 1030.390625 l
212.078125 1028.484375 214.234375 1027.445313 214.234375 1027.445313 c
216.390625 1026.40625 219.03125 1026.40625 219.03125 1026.40625 c
223.671875 1026.40625 226.015625 1028.640625 226.015625 1028.640625 c
228.359375 1030.875 228.359375 1035.796875 228.359375 1035.796875 c
228.359375 1052.5625 l
224.46875 1052.5625 l
h
252.9375 1045.546875 m
252.9375 1049.140625 250.265625 1051.085938 250.265625 1051.085938 c
247.59375 1053.03125 242.765625 1053.03125 242.765625 1053.03125 c
237.65625 1053.03125 234.796875 1051.40625 234.796875 1051.40625 c
234.796875 1047.796875 l
236.640625 1048.734375 238.765625 1049.273437 238.765625 1049.273437 c
240.890625 1049.8125 242.859375 1049.8125 242.859375 1049.8125 c
245.90625 1049.8125 247.546875 1048.84375 247.546875 1048.84375 c
249.1875 1047.875 249.1875 1045.875 249.1875 1045.875 c
249.1875 1044.375 247.882813 1043.3125 247.882813 1043.3125 c
246.578125 1042.25 242.8125 1040.796875 242.8125 1040.796875 c
239.21875 1039.453125 237.710938 1038.460938 237.710938 1038.460938 c
236.203125 1037.46875 235.460938 1036.203125 235.460938 1036.203125 c
234.71875 1034.9375 234.71875 1033.171875 234.71875 1033.171875 c
234.71875 1030.03125 237.273438 1028.21875 237.273438 1028.21875 c
239.828125 1026.40625 244.28125 1026.40625 244.28125 1026.40625 c
248.4375 1026.40625 252.390625 1028.09375 252.390625 1028.09375 c
251.015625 1031.25 l
247.140625 1029.65625 244 1029.65625 244 1029.65625 c
241.234375 1029.65625 239.828125 1030.523437 239.828125 1030.523437 c
238.421875 1031.390625 238.421875 1032.921875 238.421875 1032.921875 c
238.421875 1033.953125 238.953125 1034.679688 238.953125 1034.679688 c
239.484375 1035.40625 240.65625 1036.0625 240.65625 1036.0625 c
241.828125 1036.71875 245.15625 1037.953125 245.15625 1037.953125 c
249.71875 1039.625 251.328125 1041.3125 251.328125 1041.3125 c
252.9375 1043 252.9375 1045.546875 252.9375 1045.546875 c
h
281.421875 1039.6875 m
281.421875 1045.96875 278.257813 1049.5 278.257813 1049.5 c
275.09375 1053.03125 269.515625 1053.03125 269.515625 1053.03125 c
266.078125 1053.03125 263.40625 1051.414063 263.40625 1051.414063 c
260.734375 1049.796875 259.28125 1046.773437 259.28125 1046.773437 c
257.828125 1043.75 257.828125 1039.6875 257.828125 1039.6875 c
257.828125 1033.40625 260.96875 1029.90625 260.96875 1029.90625 c
264.109375 1026.40625 269.6875 1026.40625 269.6875 1026.40625 c
275.078125 1026.40625 278.25 1029.992188 278.25 1029.992188 c
281.421875 1033.578125 281.421875 1039.6875 281.421875 1039.6875 c
h
261.859375 1039.6875 m
261.859375 1044.609375 263.828125 1047.1875 263.828125 1047.1875 c
265.796875 1049.765625 269.609375 1049.765625 269.609375 1049.765625 c
273.4375 1049.765625 275.414063 1047.203125 275.414063 1047.203125 c
277.390625 1044.640625 277.390625 1039.6875 277.390625 1039.6875 c
277.390625 1034.796875 275.414063 1032.25 275.414063 1032.25 c
273.4375 1029.703125 269.5625 1029.703125 269.5625 1029.703125 c
265.75 1029.703125 263.804688 1032.210938 263.804688 1032.210938 c
261.859375 1034.71875 261.859375 1039.6875 261.859375 1039.6875 c
h
299.96875 1026.40625 m
301.6875 1026.40625 303.046875 1026.6875 303.046875 1026.6875 c
302.5 1030.296875 l
300.90625 1029.9375 299.6875 1029.9375 299.6875 1029.9375 c
296.578125 1029.9375 294.359375 1032.46875 294.359375 1032.46875 c
292.140625 1035 292.140625 1038.78125 292.140625 1038.78125 c
292.140625 1052.5625 l
288.25 1052.5625 l
288.25 1026.875 l
291.46875 1026.875 l
291.90625 1031.625 l
292.09375 1031.625 l
293.53125 1029.125 295.546875 1027.765625 295.546875 1027.765625 c
297.5625 1026.40625 299.96875 1026.40625 299.96875 1026.40625 c
h
340.234375 1043.4375 m
340.234375 1047.96875 336.953125 1050.5 336.953125 1050.5 c
333.671875 1053.03125 328.046875 1053.03125 328.046875 1053.03125 c
321.953125 1053.03125 318.671875 1051.453125 318.671875 1051.453125 c
318.671875 1047.609375 l
320.78125 1048.5 323.265625 1049.015625 323.265625 1049.015625 c
325.75 1049.53125 328.1875 1049.53125 328.1875 1049.53125 c
332.171875 1049.53125 334.1875 1048.023437 334.1875 1048.023437 c
336.203125 1046.515625 336.203125 1043.8125 336.203125 1043.8125 c
336.203125 1042.03125 335.492187 1040.898437 335.492187 1040.898437 c
334.78125 1039.765625 333.101563 1038.804688 333.101563 1038.804688 c
331.421875 1037.84375 328 1036.625 328 1036.625 c
323.21875 1034.90625 321.171875 1032.5625 321.171875 1032.5625 c
319.125 1030.21875 319.125 1026.453125 319.125 1026.453125 c
319.125 1022.484375 322.101563 1020.140625 322.101563 1020.140625 c
325.078125 1017.796875 329.96875 1017.796875 329.96875 1017.796875 c
335.078125 1017.796875 339.375 1019.671875 339.375 1019.671875 c
338.125 1023.140625 l
333.890625 1021.359375 329.875 1021.359375 329.875 1021.359375 c
326.71875 1021.359375 324.9375 1022.71875 324.9375 1022.71875 c
323.15625 1024.078125 323.15625 1026.5 323.15625 1026.5 c
323.15625 1028.28125 323.8125 1029.414063 323.8125 1029.414063 c
324.46875 1030.546875 326.023437 1031.5 326.023437 1031.5 c
327.578125 1032.453125 330.796875 1033.59375 330.796875 1033.59375 c
336.1875 1035.515625 338.210937 1037.71875 338.210937 1037.71875 c
340.234375 1039.921875 340.234375 1043.4375 340.234375 1043.4375 c
h
357.515625 1053.03125 m
351.8125 1053.03125 348.523437 1049.5625 348.523437 1049.5625 c
345.234375 1046.09375 345.234375 1039.921875 345.234375 1039.921875 c
345.234375 1033.71875 348.289063 1030.0625 348.289063 1030.0625 c
351.34375 1026.40625 356.5 1026.40625 356.5 1026.40625 c
361.328125 1026.40625 364.140625 1029.578125 364.140625 1029.578125 c
366.953125 1032.75 366.953125 1037.953125 366.953125 1037.953125 c
366.953125 1040.421875 l
349.265625 1040.421875 l
349.375 1044.9375 351.546875 1047.28125 351.546875 1047.28125 c
353.71875 1049.625 357.65625 1049.625 357.65625 1049.625 c
361.796875 1049.625 365.859375 1047.890625 365.859375 1047.890625 c
365.859375 1051.359375 l
363.796875 1052.25 361.953125 1052.640625 361.953125 1052.640625 c
360.109375 1053.03125 357.515625 1053.03125 357.515625 1053.03125 c
h
356.453125 1029.65625 m
353.359375 1029.65625 351.523437 1031.671875 351.523437 1031.671875 c
349.6875 1033.6875 349.359375 1037.25 349.359375 1037.25 c
362.78125 1037.25 l
362.78125 1033.578125 361.140625 1031.617188 361.140625 1031.617188 c
359.5 1029.65625 356.453125 1029.65625 356.453125 1029.65625 c
h
381.875 1049.8125 m
382.90625 1049.8125 383.867188 1049.664062 383.867188 1049.664062 c
384.828125 1049.515625 385.390625 1049.34375 385.390625 1049.34375 c
385.390625 1052.328125 l
384.765625 1052.640625 383.53125 1052.835938 383.53125 1052.835938 c
382.296875 1053.03125 381.3125 1053.03125 381.3125 1053.03125 c
373.859375 1053.03125 373.859375 1045.171875 373.859375 1045.171875 c
373.859375 1029.890625 l
370.1875 1029.890625 l
370.1875 1028.015625 l
373.859375 1026.40625 l
375.5 1020.921875 l
377.75 1020.921875 l
377.75 1026.875 l
385.203125 1026.875 l
385.203125 1029.890625 l
377.75 1029.890625 l
377.75 1045.015625 l
377.75 1047.328125 378.851563 1048.570312 378.851563 1048.570312 c
379.953125 1049.8125 381.875 1049.8125 381.875 1049.8125 c
h
422.921875 1043.4375 m
422.921875 1047.96875 419.640625 1050.5 419.640625 1050.5 c
416.359375 1053.03125 410.734375 1053.03125 410.734375 1053.03125 c
404.640625 1053.03125 401.359375 1051.453125 401.359375 1051.453125 c
401.359375 1047.609375 l
403.46875 1048.5 405.953125 1049.015625 405.953125 1049.015625 c
408.4375 1049.53125 410.875 1049.53125 410.875 1049.53125 c
414.859375 1049.53125 416.875 1048.023437 416.875 1048.023437 c
418.890625 1046.515625 418.890625 1043.8125 418.890625 1043.8125 c
418.890625 1042.03125 418.179688 1040.898437 418.179688 1040.898437 c
417.46875 1039.765625 415.789063 1038.804688 415.789063 1038.804688 c
414.109375 1037.84375 410.6875 1036.625 410.6875 1036.625 c
405.90625 1034.90625 403.859375 1032.5625 403.859375 1032.5625 c
401.8125 1030.21875 401.8125 1026.453125 401.8125 1026.453125 c
401.8125 1022.484375 404.789063 1020.140625 404.789063 1020.140625 c
407.765625 1017.796875 412.65625 1017.796875 412.65625 1017.796875 c
417.765625 1017.796875 422.0625 1019.671875 422.0625 1019.671875 c
420.8125 1023.140625 l
416.578125 1021.359375 412.5625 1021.359375 412.5625 1021.359375 c
409.40625 1021.359375 407.625 1022.71875 407.625 1022.71875 c
405.84375 1024.078125 405.84375 1026.5 405.84375 1026.5 c
405.84375 1028.28125 406.5 1029.414063 406.5 1029.414063 c
407.15625 1030.546875 408.710937 1031.5 408.710937 1031.5 c
410.265625 1032.453125 413.484375 1033.59375 413.484375 1033.59375 c
418.875 1035.515625 420.898437 1037.71875 420.898437 1037.71875 c
422.921875 1039.921875 422.921875 1043.4375 422.921875 1043.4375 c
h
433.234375 1052.5625 m
429.34375 1052.5625 l
429.34375 1026.875 l
433.234375 1026.875 l
433.234375 1052.5625 l
h
429.015625 1019.90625 m
429.015625 1018.578125 429.671875 1017.953125 429.671875 1017.953125 c
430.328125 1017.328125 431.3125 1017.328125 431.3125 1017.328125 c
432.25 1017.328125 432.929688 1017.960938 432.929688 1017.960938 c
433.609375 1018.59375 433.609375 1019.90625 433.609375 1019.90625 c
433.609375 1021.21875 432.929688 1021.867187 432.929688 1021.867187 c
432.25 1022.515625 431.3125 1022.515625 431.3125 1022.515625 c
430.328125 1022.515625 429.671875 1021.867187 429.671875 1021.867187 c
429.015625 1021.21875 429.015625 1019.90625 429.015625 1019.90625 c
h
457.921875 1052.5625 m
439.28125 1052.5625 l
439.28125 1049.90625 l
453.296875 1029.890625 l
440.15625 1029.890625 l
440.15625 1026.875 l
457.5625 1026.875 l
457.5625 1029.890625 l
443.734375 1049.53125 l
457.921875 1049.53125 l
457.921875 1052.5625 l
h
474.796875 1053.03125 m
469.09375 1053.03125 465.804688 1049.5625 465.804688 1049.5625 c
462.515625 1046.09375 462.515625 1039.921875 462.515625 1039.921875 c
462.515625 1033.71875 465.570312 1030.0625 465.570312 1030.0625 c
468.625 1026.40625 473.78125 1026.40625 473.78125 1026.40625 c
478.609375 1026.40625 481.421875 1029.578125 481.421875 1029.578125 c
484.234375 1032.75 484.234375 1037.953125 484.234375 1037.953125 c
484.234375 1040.421875 l
466.546875 1040.421875 l
466.65625 1044.9375 468.828125 1047.28125 468.828125 1047.28125 c
471 1049.625 474.9375 1049.625 474.9375 1049.625 c
479.078125 1049.625 483.140625 1047.890625 483.140625 1047.890625 c
483.140625 1051.359375 l
481.078125 1052.25 479.234375 1052.640625 479.234375 1052.640625 c
477.390625 1053.03125 474.796875 1053.03125 474.796875 1053.03125 c
h
473.734375 1029.65625 m
470.640625 1029.65625 468.804688 1031.671875 468.804688 1031.671875 c
466.96875 1033.6875 466.640625 1037.25 466.640625 1037.25 c
480.0625 1037.25 l
480.0625 1033.578125 478.421875 1031.617188 478.421875 1031.617188 c
476.78125 1029.65625 473.734375 1029.65625 473.734375 1029.65625 c
h
501.125 1039.40625 m
501.125 1033.203125 502.945312 1027.789063 502.945312 1027.789063 c
504.765625 1022.375 508.1875 1018.296875 508.1875 1018.296875 c
511.984375 1018.296875 l
508.609375 1022.8125 506.90625 1028.226563 506.90625 1028.226563 c
505.203125 1033.640625 505.203125 1039.359375 505.203125 1039.359375 c
505.203125 1044.984375 506.9375 1050.359375 506.9375 1050.359375 c
508.671875 1055.734375 511.9375 1060.15625 511.9375 1060.15625 c
508.1875 1060.15625 l
504.734375 1056.171875 502.929688 1050.851563 502.929688 1050.851563 c
501.125 1045.53125 501.125 1039.40625 501.125 1039.40625 c
h
519.078125 1028.515625 m
519.078125 1032.5 519.945313 1034.492188 519.945313 1034.492188 c
520.8125 1036.484375 522.765625 1036.484375 522.765625 1036.484375 c
526.609375 1036.484375 526.609375 1028.515625 526.609375 1028.515625 c
526.609375 1020.59375 522.765625 1020.59375 522.765625 1020.59375 c
520.8125 1020.59375 519.945313 1022.5625 519.945313 1022.5625 c
519.078125 1024.53125 519.078125 1028.515625 519.078125 1028.515625 c
h
529.8125 1028.515625 m
529.8125 1033.859375 528.023438 1036.585938 528.023438 1036.585938 c
526.234375 1039.3125 522.765625 1039.3125 522.765625 1039.3125 c
519.484375 1039.3125 517.664063 1036.523437 517.664063 1036.523437 c
515.84375 1033.734375 515.84375 1028.515625 515.84375 1028.515625 c
515.84375 1023.1875 517.59375 1020.492188 517.59375 1020.492188 c
519.34375 1017.796875 522.765625 1017.796875 522.765625 1017.796875 c
526.15625 1017.796875 527.984375 1020.585938 527.984375 1020.585938 c
529.8125 1023.375 529.8125 1028.515625 529.8125 1028.515625 c
h
539.703125 1042.25 m
539.703125 1046.25 540.570313 1048.234375 540.570313 1048.234375 c
541.4375 1050.21875 543.40625 1050.21875 543.40625 1050.21875 c
545.375 1050.21875 546.3125 1048.257813 546.3125 1048.257813 c
547.25 1046.296875 547.25 1042.25 547.25 1042.25 c
547.25 1038.234375 546.3125 1036.304688 546.3125 1036.304688 c
545.375 1034.375 543.40625 1034.375 543.40625 1034.375 c
541.4375 1034.375 540.570313 1036.304688 540.570313 1036.304688 c
539.703125 1038.234375 539.703125 1042.25 539.703125 1042.25 c
h
550.46875 1042.25 m
550.46875 1047.5625 548.671875 1050.296875 548.671875 1050.296875 c
546.875 1053.03125 543.40625 1053.03125 543.40625 1053.03125 c
540.078125 1053.03125 538.289063 1050.242188 538.289063 1050.242188 c
536.5 1047.453125 536.5 1042.25 536.5 1042.25 c
536.5 1036.921875 538.242188 1034.226563 538.242188 1034.226563 c
539.984375 1031.53125 543.40625 1031.53125 543.40625 1031.53125 c
546.734375 1031.53125 548.601563 1034.289063 548.601563 1034.289063 c
550.46875 1037.046875 550.46875 1042.25 550.46875 1042.25 c
h
544.421875 1018.296875 m
525.40625 1052.5625 l
521.96875 1052.5625 l
540.96875 1018.296875 l
544.421875 1018.296875 l
h
591.6875 1039.6875 m
591.6875 1045.96875 588.523438 1049.5 588.523438 1049.5 c
585.359375 1053.03125 579.78125 1053.03125 579.78125 1053.03125 c
576.34375 1053.03125 573.671875 1051.414063 573.671875 1051.414063 c
571 1049.796875 569.546875 1046.773437 569.546875 1046.773437 c
568.09375 1043.75 568.09375 1039.6875 568.09375 1039.6875 c
568.09375 1033.40625 571.234375 1029.90625 571.234375 1029.90625 c
574.375 1026.40625 579.953125 1026.40625 579.953125 1026.40625 c
585.34375 1026.40625 588.515625 1029.992188 588.515625 1029.992188 c
591.6875 1033.578125 591.6875 1039.6875 591.6875 1039.6875 c
h
572.125 1039.6875 m
572.125 1044.609375 574.09375 1047.1875 574.09375 1047.1875 c
576.0625 1049.765625 579.875 1049.765625 579.875 1049.765625 c
583.703125 1049.765625 585.679688 1047.203125 585.679688 1047.203125 c
587.65625 1044.640625 587.65625 1039.6875 587.65625 1039.6875 c
587.65625 1034.796875 585.679688 1032.25 585.679688 1032.25 c
583.703125 1029.703125 579.828125 1029.703125 579.828125 1029.703125 c
576.015625 1029.703125 574.070313 1032.210938 574.070313 1032.210938 c
572.125 1034.71875 572.125 1039.6875 572.125 1039.6875 c
h
610.09375 1029.890625 m
603.5625 1029.890625 l
603.5625 1052.5625 l
599.671875 1052.5625 l
599.671875 1029.890625 l
595.078125 1029.890625 l
595.078125 1028.140625 l
599.671875 1026.734375 l
599.671875 1025.296875 l
599.671875 1015.828125 607.9375 1015.828125 607.9375 1015.828125 c
609.984375 1015.828125 612.71875 1016.65625 612.71875 1016.65625 c
611.71875 1019.765625 l
609.46875 1019.046875 607.875 1019.046875 607.875 1019.046875 c
605.671875 1019.046875 604.617188 1020.507813 604.617188 1020.507813 c
603.5625 1021.96875 603.5625 1025.203125 603.5625 1025.203125 c
603.5625 1026.875 l
610.09375 1026.875 l
610.09375 1029.890625 l
h
639.203125 1053.03125 m
636.703125 1053.03125 634.625 1052.101563 634.625 1052.101563 c
632.546875 1051.171875 631.140625 1049.25 631.140625 1049.25 c
630.859375 1049.25 l
631.140625 1051.5 631.140625 1053.53125 631.140625 1053.53125 c
631.140625 1064.09375 l
627.25 1064.09375 l
627.25 1026.875 l
630.421875 1026.875 l
630.953125 1030.390625 l
631.140625 1030.390625 l
632.640625 1028.28125 634.632813 1027.34375 634.632813 1027.34375 c
636.625 1026.40625 639.203125 1026.40625 639.203125 1026.40625 c
644.3125 1026.40625 647.09375 1029.898437 647.09375 1029.898437 c
649.875 1033.390625 649.875 1039.6875 649.875 1039.6875 c
649.875 1046.015625 647.046875 1049.523437 647.046875 1049.523437 c
644.21875 1053.03125 639.203125 1053.03125 639.203125 1053.03125 c
h
638.640625 1029.703125 m
634.703125 1029.703125 632.945313 1031.882812 632.945313 1031.882812 c
631.1875 1034.0625 631.140625 1038.828125 631.140625 1038.828125 c
631.140625 1039.6875 l
631.140625 1045.109375 632.945313 1047.4375 632.945313 1047.4375 c
634.75 1049.765625 638.734375 1049.765625 638.734375 1049.765625 c
642.0625 1049.765625 643.953125 1047.070312 643.953125 1047.070312 c
645.84375 1044.375 645.84375 1039.640625 645.84375 1039.640625 c
645.84375 1034.84375 643.953125 1032.273437 643.953125 1032.273437 c
642.0625 1029.703125 638.640625 1029.703125 638.640625 1029.703125 c
h
678.828125 1039.6875 m
678.828125 1045.96875 675.664063 1049.5 675.664063 1049.5 c
672.5 1053.03125 666.921875 1053.03125 666.921875 1053.03125 c
663.484375 1053.03125 660.8125 1051.414063 660.8125 1051.414063 c
658.140625 1049.796875 656.6875 1046.773437 656.6875 1046.773437 c
655.234375 1043.75 655.234375 1039.6875 655.234375 1039.6875 c
655.234375 1033.40625 658.375 1029.90625 658.375 1029.90625 c
661.515625 1026.40625 667.09375 1026.40625 667.09375 1026.40625 c
672.484375 1026.40625 675.65625 1029.992188 675.65625 1029.992188 c
678.828125 1033.578125 678.828125 1039.6875 678.828125 1039.6875 c
h
659.265625 1039.6875 m
659.265625 1044.609375 661.234375 1047.1875 661.234375 1047.1875 c
663.203125 1049.765625 667.015625 1049.765625 667.015625 1049.765625 c
670.84375 1049.765625 672.820313 1047.203125 672.820313 1047.203125 c
674.796875 1044.640625 674.796875 1039.6875 674.796875 1039.6875 c
674.796875 1034.796875 672.820313 1032.25 672.820313 1032.25 c
670.84375 1029.703125 666.96875 1029.703125 666.96875 1029.703125 c
663.15625 1029.703125 661.210938 1032.210938 661.210938 1032.210938 c
659.265625 1034.71875 659.265625 1039.6875 659.265625 1039.6875 c
h
697.609375 1053.03125 m
695.109375 1053.03125 693.03125 1052.101563 693.03125 1052.101563 c
690.953125 1051.171875 689.546875 1049.25 689.546875 1049.25 c
689.265625 1049.25 l
689.546875 1051.5 689.546875 1053.53125 689.546875 1053.53125 c
689.546875 1064.09375 l
685.65625 1064.09375 l
685.65625 1026.875 l
688.828125 1026.875 l
689.359375 1030.390625 l
689.546875 1030.390625 l
691.046875 1028.28125 693.039063 1027.34375 693.039063 1027.34375 c
695.03125 1026.40625 697.609375 1026.40625 697.609375 1026.40625 c
702.71875 1026.40625 705.5 1029.898437 705.5 1029.898437 c
708.28125 1033.390625 708.28125 1039.6875 708.28125 1039.6875 c
708.28125 1046.015625 705.453125 1049.523437 705.453125 1049.523437 c
702.625 1053.03125 697.609375 1053.03125 697.609375 1053.03125 c
h
697.046875 1029.703125 m
693.109375 1029.703125 691.351562 1031.882812 691.351562 1031.882812 c
689.59375 1034.0625 689.546875 1038.828125 689.546875 1038.828125 c
689.546875 1039.6875 l
689.546875 1045.109375 691.351562 1047.4375 691.351562 1047.4375 c
693.15625 1049.765625 697.140625 1049.765625 697.140625 1049.765625 c
700.46875 1049.765625 702.359375 1047.070312 702.359375 1047.070312 c
704.25 1044.375 704.25 1039.640625 704.25 1039.640625 c
704.25 1034.84375 702.359375 1032.273437 702.359375 1032.273437 c
700.46875 1029.703125 697.046875 1029.703125 697.046875 1029.703125 c
h
718.71875 1026.875 m
718.71875 1043.53125 l
718.71875 1046.671875 720.148438 1048.21875 720.148438 1048.21875 c
721.578125 1049.765625 724.625 1049.765625 724.625 1049.765625 c
728.65625 1049.765625 730.523438 1047.5625 730.523438 1047.5625 c
732.390625 1045.359375 732.390625 1040.375 732.390625 1040.375 c
732.390625 1026.875 l
736.28125 1026.875 l
736.28125 1052.5625 l
733.0625 1052.5625 l
732.5 1049.109375 l
732.296875 1049.109375 l
731.09375 1051.015625 728.976563 1052.023437 728.976563 1052.023437 c
726.859375 1053.03125 724.140625 1053.03125 724.140625 1053.03125 c
719.453125 1053.03125 717.117188 1050.804688 717.117188 1050.804688 c
714.78125 1048.578125 714.78125 1043.671875 714.78125 1043.671875 c
714.78125 1026.875 l
718.71875 1026.875 l
h
748.421875 1052.5625 m
744.53125 1052.5625 l
744.53125 1016.09375 l
748.421875 1016.09375 l
748.421875 1052.5625 l
h
772.46875 1052.5625 m
771.703125 1048.90625 l
771.515625 1048.90625 l
769.59375 1051.3125 767.679688 1052.171875 767.679688 1052.171875 c
765.765625 1053.03125 762.90625 1053.03125 762.90625 1053.03125 c
759.09375 1053.03125 756.921875 1051.0625 756.921875 1051.0625 c
754.75 1049.09375 754.75 1045.453125 754.75 1045.453125 c
754.75 1037.671875 767.203125 1037.296875 767.203125 1037.296875 c
771.5625 1037.15625 l
771.5625 1035.5625 l
771.5625 1032.546875 770.257813 1031.101563 770.257813 1031.101563 c
768.953125 1029.65625 766.09375 1029.65625 766.09375 1029.65625 c
762.890625 1029.65625 758.828125 1031.625 758.828125 1031.625 c
757.640625 1028.65625 l
759.53125 1027.625 761.796875 1027.039063 761.796875 1027.039063 c
764.0625 1026.453125 766.328125 1026.453125 766.328125 1026.453125 c
770.921875 1026.453125 773.140625 1028.492188 773.140625 1028.492188 c
775.359375 1030.53125 775.359375 1035.03125 775.359375 1035.03125 c
775.359375 1052.5625 l
772.46875 1052.5625 l
h
763.6875 1049.8125 m
767.3125 1049.8125 769.390625 1047.820312 769.390625 1047.820312 c
771.46875 1045.828125 771.46875 1042.25 771.46875 1042.25 c
771.46875 1039.921875 l
767.578125 1040.09375 l
762.9375 1040.25 760.882813 1041.53125 760.882813 1041.53125 c
758.828125 1042.8125 758.828125 1045.5 758.828125 1045.5 c
758.828125 1047.609375 760.109375 1048.710938 760.109375 1048.710938 c
761.390625 1049.8125 763.6875 1049.8125 763.6875 1049.8125 c
h
791.65625 1049.8125 m
792.6875 1049.8125 793.648438 1049.664062 793.648438 1049.664062 c
794.609375 1049.515625 795.171875 1049.34375 795.171875 1049.34375 c
795.171875 1052.328125 l
794.546875 1052.640625 793.3125 1052.835938 793.3125 1052.835938 c
792.078125 1053.03125 791.09375 1053.03125 791.09375 1053.03125 c
783.640625 1053.03125 783.640625 1045.171875 783.640625 1045.171875 c
783.640625 1029.890625 l
779.96875 1029.890625 l
779.96875 1028.015625 l
783.640625 1026.40625 l
785.28125 1020.921875 l
787.53125 1020.921875 l
787.53125 1026.875 l
794.984375 1026.875 l
794.984375 1029.890625 l
787.53125 1029.890625 l
787.53125 1045.015625 l
787.53125 1047.328125 788.632813 1048.570312 788.632813 1048.570312 c
789.734375 1049.8125 791.65625 1049.8125 791.65625 1049.8125 c
h
804.203125 1052.5625 m
800.3125 1052.5625 l
800.3125 1026.875 l
804.203125 1026.875 l
804.203125 1052.5625 l
h
799.984375 1019.90625 m
799.984375 1018.578125 800.640625 1017.953125 800.640625 1017.953125 c
801.296875 1017.328125 802.28125 1017.328125 802.28125 1017.328125 c
803.21875 1017.328125 803.898438 1017.960938 803.898438 1017.960938 c
804.578125 1018.59375 804.578125 1019.90625 804.578125 1019.90625 c
804.578125 1021.21875 803.898438 1021.867187 803.898438 1021.867187 c
803.21875 1022.515625 802.28125 1022.515625 802.28125 1022.515625 c
801.296875 1022.515625 800.640625 1021.867187 800.640625 1021.867187 c
799.984375 1021.21875 799.984375 1019.90625 799.984375 1019.90625 c
h
834.625 1039.6875 m
834.625 1045.96875 831.460938 1049.5 831.460938 1049.5 c
828.296875 1053.03125 822.71875 1053.03125 822.71875 1053.03125 c
819.28125 1053.03125 816.609375 1051.414063 816.609375 1051.414063 c
813.9375 1049.796875 812.484375 1046.773437 812.484375 1046.773437 c
811.03125 1043.75 811.03125 1039.6875 811.03125 1039.6875 c
811.03125 1033.40625 814.171875 1029.90625 814.171875 1029.90625 c
817.3125 1026.40625 822.890625 1026.40625 822.890625 1026.40625 c
828.28125 1026.40625 831.453125 1029.992188 831.453125 1029.992188 c
834.625 1033.578125 834.625 1039.6875 834.625 1039.6875 c
h
815.0625 1039.6875 m
815.0625 1044.609375 817.03125 1047.1875 817.03125 1047.1875 c
819 1049.765625 822.8125 1049.765625 822.8125 1049.765625 c
826.640625 1049.765625 828.617188 1047.203125 828.617188 1047.203125 c
830.59375 1044.640625 830.59375 1039.6875 830.59375 1039.6875 c
830.59375 1034.796875 828.617188 1032.25 828.617188 1032.25 c
826.640625 1029.703125 822.765625 1029.703125 822.765625 1029.703125 c
818.953125 1029.703125 817.007813 1032.210938 817.007813 1032.210938 c
815.0625 1034.71875 815.0625 1039.6875 815.0625 1039.6875 c
h
859.015625 1052.5625 m
859.015625 1035.9375 l
859.015625 1032.796875 857.585938 1031.25 857.585938 1031.25 c
856.15625 1029.703125 853.109375 1029.703125 853.109375 1029.703125 c
849.078125 1029.703125 847.203125 1031.882812 847.203125 1031.882812 c
845.328125 1034.0625 845.328125 1039.078125 845.328125 1039.078125 c
845.328125 1052.5625 l
841.4375 1052.5625 l
841.4375 1026.875 l
844.609375 1026.875 l
845.234375 1030.390625 l
845.421875 1030.390625 l
846.625 1028.484375 848.78125 1027.445313 848.78125 1027.445313 c
850.9375 1026.40625 853.578125 1026.40625 853.578125 1026.40625 c
858.21875 1026.40625 860.5625 1028.640625 860.5625 1028.640625 c
862.90625 1030.875 862.90625 1035.796875 862.90625 1035.796875 c
862.90625 1052.5625 l
859.015625 1052.5625 l
h
879.0625 1039.40625 m
879.0625 1045.578125 877.25 1050.898437 877.25 1050.898437 c
875.4375 1056.21875 872.015625 1060.15625 872.015625 1060.15625 c
868.265625 1060.15625 l
871.515625 1055.75 873.25 1050.367188 873.25 1050.367188 c
874.984375 1044.984375 874.984375 1039.359375 874.984375 1039.359375 c
874.984375 1033.640625 873.289063 1028.226563 873.289063 1028.226563 c
871.59375 1022.8125 868.21875 1018.296875 868.21875 1018.296875 c
872.015625 1018.296875 l
875.453125 1022.390625 877.257813 1027.820312 877.257813 1027.820312 c
879.0625 1033.25 879.0625 1039.40625 879.0625 1039.40625 c
h
f
Q
q
[0 -2.430556 2.430556 0 -1166.666693 1350.00003] cm
-473.142873 479.999964 1028.571464 1028.571516 re
W
/DeviceGray {} CS
[0] SC
-200.53125 531.421875 m
-212.15625 501.046875 l
-212.34375 501.046875 l
-212.015625 504.65625 -212.015625 509.625 -212.015625 509.625 c
-212.015625 531.421875 l
-215.6875 531.421875 l
-215.6875 497.15625 l
-209.6875 497.15625 l
-198.84375 525.421875 l
-198.65625 525.421875 l
-187.703125 497.15625 l
-181.75 497.15625 l
-181.75 531.421875 l
-185.734375 531.421875 l
-185.734375 509.34375 l
-185.734375 505.546875 -185.40625 501.09375 -185.40625 501.09375 c
-185.59375 501.09375 l
-197.3125 531.421875 l
-200.53125 531.421875 l
h
-162.09375 531.890625 m
-167.796875 531.890625 -171.085938 528.421875 -171.085938 528.421875 c
-174.375 524.953125 -174.375 518.78125 -174.375 518.78125 c
-174.375 512.578125 -171.320313 508.921875 -171.320313 508.921875 c
-168.265625 505.265625 -163.109375 505.265625 -163.109375 505.265625 c
-158.28125 505.265625 -155.46875 508.4375 -155.46875 508.4375 c
-152.65625 511.609375 -152.65625 516.8125 -152.65625 516.8125 c
-152.65625 519.28125 l
-170.34375 519.28125 l
-170.234375 523.796875 -168.0625 526.140625 -168.0625 526.140625 c
-165.890625 528.484375 -161.953125 528.484375 -161.953125 528.484375 c
-157.8125 528.484375 -153.75 526.75 -153.75 526.75 c
-153.75 530.21875 l
-155.8125 531.109375 -157.65625 531.5 -157.65625 531.5 c
-159.5 531.890625 -162.09375 531.890625 -162.09375 531.890625 c
h
-163.15625 508.515625 m
-166.25 508.515625 -168.085938 510.53125 -168.085938 510.53125 c
-169.921875 512.546875 -170.25 516.109375 -170.25 516.109375 c
-156.828125 516.109375 l
-156.828125 512.4375 -158.46875 510.476562 -158.46875 510.476562 c
-160.109375 508.515625 -163.15625 508.515625 -163.15625 508.515625 c
h
-130.21875 531.421875 m
-130.984375 527.765625 l
-131.171875 527.765625 l
-133.09375 530.171875 -135.007813 531.03125 -135.007813 531.03125 c
-136.921875 531.890625 -139.78125 531.890625 -139.78125 531.890625 c
-143.59375 531.890625 -145.765625 529.921875 -145.765625 529.921875 c
-147.9375 527.953125 -147.9375 524.3125 -147.9375 524.3125 c
-147.9375 516.53125 -135.484375 516.15625 -135.484375 516.15625 c
-131.125 516.015625 l
-131.125 514.421875 l
-131.125 511.40625 -132.429688 509.960937 -132.429688 509.960937 c
-133.734375 508.515625 -136.59375 508.515625 -136.59375 508.515625 c
-139.796875 508.515625 -143.859375 510.484375 -143.859375 510.484375 c
-145.046875 507.515625 l
-143.15625 506.484375 -140.890625 505.898437 -140.890625 505.898437 c
-138.625 505.3125 -136.359375 505.3125 -136.359375 505.3125 c
-131.765625 505.3125 -129.546875 507.351563 -129.546875 507.351563 c
-127.328125 509.390625 -127.328125 513.890625 -127.328125 513.890625 c
-127.328125 531.421875 l
-130.21875 531.421875 l
h
-139 528.671875 m
-135.375 528.671875 -133.296875 526.679688 -133.296875 526.679688 c
-131.21875 524.6875 -131.21875 521.109375 -131.21875 521.109375 c
-131.21875 518.78125 l
-135.109375 518.953125 l
-139.75 519.109375 -141.804688 520.390625 -141.804688 520.390625 c
-143.859375 521.671875 -143.859375 524.359375 -143.859375 524.359375 c
-143.859375 526.46875 -142.578125 527.570313 -142.578125 527.570313 c
-141.296875 528.671875 -139 528.671875 -139 528.671875 c
h
-101.75 531.421875 m
-101.75 514.796875 l
-101.75 511.65625 -103.179687 510.109375 -103.179687 510.109375 c
-104.609375 508.5625 -107.65625 508.5625 -107.65625 508.5625 c
-111.6875 508.5625 -113.5625 510.742188 -113.5625 510.742188 c
-115.4375 512.921875 -115.4375 517.9375 -115.4375 517.9375 c
-115.4375 531.421875 l
-119.328125 531.421875 l
-119.328125 505.734375 l
-116.15625 505.734375 l
-115.53125 509.25 l
-115.34375 509.25 l
-114.140625 507.34375 -111.984375 506.304688 -111.984375 506.304688 c
-109.828125 505.265625 -107.1875 505.265625 -107.1875 505.265625 c
-102.546875 505.265625 -100.203125 507.5 -100.203125 507.5 c
-97.859375 509.734375 -97.859375 514.65625 -97.859375 514.65625 c
-97.859375 531.421875 l
-101.75 531.421875 l
h
-76.796875 531.421875 m
-76.796875 497.15625 l
-72.8125 497.15625 l
-72.8125 527.8125 l
-57.703125 527.8125 l
-57.703125 531.421875 l
-76.796875 531.421875 l
h
-41.625 531.890625 m
-47.328125 531.890625 -50.617187 528.421875 -50.617187 528.421875 c
-53.90625 524.953125 -53.90625 518.78125 -53.90625 518.78125 c
-53.90625 512.578125 -50.851562 508.921875 -50.851562 508.921875 c
-47.796875 505.265625 -42.640625 505.265625 -42.640625 505.265625 c
-37.8125 505.265625 -35 508.4375 -35 508.4375 c
-32.1875 511.609375 -32.1875 516.8125 -32.1875 516.8125 c
-32.1875 519.28125 l
-49.875 519.28125 l
-49.765625 523.796875 -47.59375 526.140625 -47.59375 526.140625 c
-45.421875 528.484375 -41.484375 528.484375 -41.484375 528.484375 c
-37.34375 528.484375 -33.28125 526.75 -33.28125 526.75 c
-33.28125 530.21875 l
-35.34375 531.109375 -37.1875 531.5 -37.1875 531.5 c
-39.03125 531.890625 -41.625 531.890625 -41.625 531.890625 c
h
-42.6875 508.515625 m
-45.78125 508.515625 -47.617187 510.53125 -47.617187 510.53125 c
-49.453125 512.546875 -49.78125 516.109375 -49.78125 516.109375 c
-36.359375 516.109375 l
-36.359375 512.4375 -38 510.476562 -38 510.476562 c
-39.640625 508.515625 -42.6875 508.515625 -42.6875 508.515625 c
h
-9.75 531.421875 m
-10.515625 527.765625 l
-10.703125 527.765625 l
-12.625 530.171875 -14.539063 531.03125 -14.539063 531.03125 c
-16.453125 531.890625 -19.3125 531.890625 -19.3125 531.890625 c
-23.125 531.890625 -25.296875 529.921875 -25.296875 529.921875 c
-27.46875 527.953125 -27.46875 524.3125 -27.46875 524.3125 c
-27.46875 516.53125 -15.015625 516.15625 -15.015625 516.15625 c
-10.65625 516.015625 l
-10.65625 514.421875 l
-10.65625 511.40625 -11.960938 509.960937 -11.960938 509.960937 c
-13.265625 508.515625 -16.125 508.515625 -16.125 508.515625 c
-19.328125 508.515625 -23.390625 510.484375 -23.390625 510.484375 c
-24.578125 507.515625 l
-22.6875 506.484375 -20.421875 505.898437 -20.421875 505.898437 c
-18.15625 505.3125 -15.890625 505.3125 -15.890625 505.3125 c
-11.296875 505.3125 -9.078125 507.351563 -9.078125 507.351563 c
-6.859375 509.390625 -6.859375 513.890625 -6.859375 513.890625 c
-6.859375 531.421875 l
-9.75 531.421875 l
h
-18.53125 528.671875 m
-14.90625 528.671875 -12.828125 526.679688 -12.828125 526.679688 c
-10.75 524.6875 -10.75 521.109375 -10.75 521.109375 c
-10.75 518.78125 l
-14.640625 518.953125 l
-19.28125 519.109375 -21.335938 520.390625 -21.335938 520.390625 c
-23.390625 521.671875 -23.390625 524.359375 -23.390625 524.359375 c
-23.390625 526.46875 -22.109375 527.570313 -22.109375 527.570313 c
-20.828125 528.671875 -18.53125 528.671875 -18.53125 528.671875 c
h
18.625 527.96875 m
18.421875 527.96875 l
15.71875 531.890625 10.359375 531.890625 10.359375 531.890625 c
5.3125 531.890625 2.515625 528.445313 2.515625 528.445313 c
-0.28125 525 -0.28125 518.640625 -0.28125 518.640625 c
-0.28125 512.296875 2.53125 508.78125 2.53125 508.78125 c
5.34375 505.265625 10.359375 505.265625 10.359375 505.265625 c
15.578125 505.265625 18.375 509.0625 18.375 509.0625 c
18.671875 509.0625 l
18.515625 507.203125 l
18.421875 505.40625 l
18.421875 494.953125 l
22.3125 494.953125 l
22.3125 531.421875 l
19.140625 531.421875 l
18.625 527.96875 l
h
10.84375 528.625 m
14.828125 528.625 16.625 526.460938 16.625 526.460938 c
18.421875 524.296875 18.421875 519.46875 18.421875 519.46875 c
18.421875 518.640625 l
18.421875 513.1875 16.601563 510.851563 16.601563 510.851563 c
14.78125 508.515625 10.796875 508.515625 10.796875 508.515625 c
7.375 508.515625 5.5625 511.179688 5.5625 511.179688 c
3.75 513.84375 3.75 518.6875 3.75 518.6875 c
3.75 523.609375 5.554687 526.117188 5.554687 526.117188 c
7.359375 528.625 10.84375 528.625 10.84375 528.625 c
h
54.15625 531.421875 m
50.171875 531.421875 l
50.171875 500.6875 l
39.3125 500.6875 l
39.3125 497.15625 l
65 497.15625 l
65 500.6875 l
54.15625 500.6875 l
54.15625 531.421875 l
h
73.453125 531.421875 m
69.5625 531.421875 l
69.5625 505.734375 l
73.453125 505.734375 l
73.453125 531.421875 l
h
69.234375 498.765625 m
69.234375 497.4375 69.890625 496.8125 69.890625 496.8125 c
70.546875 496.1875 71.53125 496.1875 71.53125 496.1875 c
72.46875 496.1875 73.148437 496.820312 73.148437 496.820312 c
73.828125 497.453125 73.828125 498.765625 73.828125 498.765625 c
73.828125 500.078125 73.148437 500.726562 73.148437 500.726562 c
72.46875 501.375 71.53125 501.375 71.53125 501.375 c
70.546875 501.375 69.890625 500.726562 69.890625 500.726562 c
69.234375 500.078125 69.234375 498.765625 69.234375 498.765625 c
h
114.453125 531.421875 m
114.453125 514.703125 l
114.453125 511.640625 113.140625 510.101563 113.140625 510.101563 c
111.828125 508.5625 109.0625 508.5625 109.0625 508.5625 c
105.421875 508.5625 103.6875 510.648438 103.6875 510.648438 c
101.953125 512.734375 101.953125 517.078125 101.953125 517.078125 c
101.953125 531.421875 l
98.0625 531.421875 l
98.0625 514.703125 l
98.0625 511.640625 96.75 510.101563 96.75 510.101563 c
95.4375 508.5625 92.65625 508.5625 92.65625 508.5625 c
89 508.5625 87.296875 510.757813 87.296875 510.757813 c
85.59375 512.953125 85.59375 517.9375 85.59375 517.9375 c
85.59375 531.421875 l
81.703125 531.421875 l
81.703125 505.734375 l
84.875 505.734375 l
85.5 509.25 l
85.6875 509.25 l
86.796875 507.375 88.796875 506.320312 88.796875 506.320312 c
90.796875 505.265625 93.28125 505.265625 93.28125 505.265625 c
99.3125 505.265625 101.15625 509.625 101.15625 509.625 c
101.34375 509.625 l
102.5 507.609375 104.679687 506.4375 104.679687 506.4375 c
106.859375 505.265625 109.640625 505.265625 109.640625 505.265625 c
114 505.265625 116.171875 507.5 116.171875 507.5 c
118.34375 509.734375 118.34375 514.65625 118.34375 514.65625 c
118.34375 531.421875 l
114.453125 531.421875 l
h
137.21875 531.890625 m
131.515625 531.890625 128.226562 528.421875 128.226562 528.421875 c
124.9375 524.953125 124.9375 518.78125 124.9375 518.78125 c
124.9375 512.578125 127.992188 508.921875 127.992188 508.921875 c
131.046875 505.265625 136.203125 505.265625 136.203125 505.265625 c
141.03125 505.265625 143.84375 508.4375 143.84375 508.4375 c
146.65625 511.609375 146.65625 516.8125 146.65625 516.8125 c
146.65625 519.28125 l
128.96875 519.28125 l
129.078125 523.796875 131.25 526.140625 131.25 526.140625 c
133.421875 528.484375 137.359375 528.484375 137.359375 528.484375 c
141.5 528.484375 145.5625 526.75 145.5625 526.75 c
145.5625 530.21875 l
143.5 531.109375 141.65625 531.5 141.65625 531.5 c
139.8125 531.890625 137.21875 531.890625 137.21875 531.890625 c
h
136.15625 508.515625 m
133.0625 508.515625 131.226562 510.53125 131.226562 510.53125 c
129.390625 512.546875 129.0625 516.109375 129.0625 516.109375 c
142.484375 516.109375 l
142.484375 512.4375 140.84375 510.476562 140.84375 510.476562 c
139.203125 508.515625 136.15625 508.515625 136.15625 508.515625 c
h
163.546875 518.265625 m
163.546875 512.0625 165.367188 506.648438 165.367188 506.648438 c
167.1875 501.234375 170.609375 497.15625 170.609375 497.15625 c
174.40625 497.15625 l
171.03125 501.671875 169.328125 507.085937 169.328125 507.085937 c
167.625 512.5 167.625 518.21875 167.625 518.21875 c
167.625 523.84375 169.359375 529.21875 169.359375 529.21875 c
171.09375 534.59375 174.359375 539.015625 174.359375 539.015625 c
170.609375 539.015625 l
167.15625 535.03125 165.351563 529.710938 165.351563 529.710938 c
163.546875 524.390625 163.546875 518.265625 163.546875 518.265625 c
h
197.4375 527.96875 m
197.234375 527.96875 l
194.53125 531.890625 189.171875 531.890625 189.171875 531.890625 c
184.125 531.890625 181.328125 528.445313 181.328125 528.445313 c
178.53125 525 178.53125 518.640625 178.53125 518.640625 c
178.53125 512.296875 181.34375 508.78125 181.34375 508.78125 c
184.15625 505.265625 189.171875 505.265625 189.171875 505.265625 c
194.390625 505.265625 197.1875 509.0625 197.1875 509.0625 c
197.484375 509.0625 l
197.328125 507.203125 l
197.234375 505.40625 l
197.234375 494.953125 l
201.125 494.953125 l
201.125 531.421875 l
197.953125 531.421875 l
197.4375 527.96875 l
h
189.65625 528.625 m
193.640625 528.625 195.4375 526.460938 195.4375 526.460938 c
197.234375 524.296875 197.234375 519.46875 197.234375 519.46875 c
197.234375 518.640625 l
197.234375 513.1875 195.414062 510.851563 195.414062 510.851563 c
193.59375 508.515625 189.609375 508.515625 189.609375 508.515625 c
186.1875 508.515625 184.375 511.179688 184.375 511.179688 c
182.5625 513.84375 182.5625 518.6875 182.5625 518.6875 c
182.5625 523.609375 184.367188 526.117188 184.367188 526.117188 c
186.171875 528.625 189.65625 528.625 189.65625 528.625 c
h
225.171875 531.421875 m
224.40625 527.765625 l
224.21875 527.765625 l
222.296875 530.171875 220.382813 531.03125 220.382813 531.03125 c
218.46875 531.890625 215.609375 531.890625 215.609375 531.890625 c
211.796875 531.890625 209.625 529.921875 209.625 529.921875 c
207.453125 527.953125 207.453125 524.3125 207.453125 524.3125 c
207.453125 516.53125 219.90625 516.15625 219.90625 516.15625 c
224.265625 516.015625 l
224.265625 514.421875 l
224.265625 511.40625 222.960938 509.960937 222.960938 509.960937 c
221.65625 508.515625 218.796875 508.515625 218.796875 508.515625 c
215.59375 508.515625 211.53125 510.484375 211.53125 510.484375 c
210.34375 507.515625 l
212.234375 506.484375 214.5 505.898437 214.5 505.898437 c
216.765625 505.3125 219.03125 505.3125 219.03125 505.3125 c
223.625 505.3125 225.84375 507.351563 225.84375 507.351563 c
228.0625 509.390625 228.0625 513.890625 228.0625 513.890625 c
228.0625 531.421875 l
225.171875 531.421875 l
h
216.390625 528.671875 m
220.015625 528.671875 222.09375 526.679688 222.09375 526.679688 c
224.171875 524.6875 224.171875 521.109375 224.171875 521.109375 c
224.171875 518.78125 l
220.28125 518.953125 l
215.640625 519.109375 213.585938 520.390625 213.585938 520.390625 c
211.53125 521.671875 211.53125 524.359375 211.53125 524.359375 c
211.53125 526.46875 212.8125 527.570313 212.8125 527.570313 c
214.09375 528.671875 216.390625 528.671875 216.390625 528.671875 c
h
231.984375 505.734375 m
236.15625 505.734375 l
241.78125 520.375 l
243.640625 525.390625 244.078125 527.625 244.078125 527.625 c
244.265625 527.625 l
244.578125 526.421875 245.546875 523.53125 245.546875 523.53125 c
246.515625 520.640625 251.90625 505.734375 251.90625 505.734375 c
256.078125 505.734375 l
245.046875 534.984375 l
243.40625 539.328125 241.210938 541.140625 241.210938 541.140625 c
239.015625 542.953125 235.828125 542.953125 235.828125 542.953125 c
234.046875 542.953125 232.3125 542.5625 232.3125 542.5625 c
232.3125 539.4375 l
233.609375 539.71875 235.203125 539.71875 235.203125 539.71875 c
239.203125 539.71875 240.921875 535.21875 240.921875 535.21875 c
242.34375 531.5625 l
231.984375 505.734375 l
h
268.40625 518.265625 m
268.40625 524.4375 266.59375 529.757813 266.59375 529.757813 c
264.78125 535.078125 261.359375 539.015625 261.359375 539.015625 c
257.609375 539.015625 l
260.859375 534.609375 262.59375 529.226563 262.59375 529.226563 c
264.328125 523.84375 264.328125 518.21875 264.328125 518.21875 c
264.328125 512.5 262.632813 507.085937 262.632813 507.085937 c
260.9375 501.671875 257.5625 497.15625 257.5625 497.15625 c
261.359375 497.15625 l
264.796875 501.25 266.601563 506.679688 266.601563 506.679688 c
268.40625 512.109375 268.40625 518.265625 268.40625 518.265625 c
h
f
Q
Q
showpage
%%PageTrailer
pdfEndPage
%%Trailer
end
%%DocumentSuppliedResources:
%%EOF
