%!PS-Adobe-3.0 EPSF-3.0
%Produced by poppler pdftops version: 0.24.5 (http://poppler.freedesktop.org)
%%LanguageLevel: 2
%%DocumentSuppliedResources: (atend)
%%BoundingBox: 0 0 450 450
%%HiResBoundingBox: 0 0 450 450
%%DocumentSuppliedResources: (atend)
%%EndComments
%%BeginProlog
%%BeginResource: procset xpdf 3.00 0
%%Copyright: Copyright 1996-2011 Glyph & Cog, LLC
/xpdf 75 dict def xpdf begin
% PDF special state
/pdfDictSize 15 def
/pdfSetup {
  /setpagedevice where {
    pop 2 dict begin
      /Policies 1 dict dup begin /PageSize 6 def end def
      { /Duplex true def } if
    currentdict end setpagedevice
  } {
    pop
  } ifelse
} def
/pdfSetupPaper {
  2 array astore
  /setpagedevice where {
    pop 2 dict begin
      /PageSize exch def
      /ImagingBBox null def
    currentdict end setpagedevice
  } {
    pop
  } ifelse
} def
/pdfStartPage {
  pdfDictSize dict begin
  /pdfFillCS [] def
  /pdfFillXform {} def
  /pdfStrokeCS [] def
  /pdfStrokeXform {} def
  /pdfFill [0] def
  /pdfStroke [0] def
  /pdfFillOP false def
  /pdfStrokeOP false def
  /pdfLastFill false def
  /pdfLastStroke false def
  /pdfTextMat [1 0 0 1 0 0] def
  /pdfFontSize 0 def
  /pdfCharSpacing 0 def
  /pdfTextRender 0 def
  /pdfPatternCS false def
  /pdfTextRise 0 def
  /pdfWordSpacing 0 def
  /pdfHorizScaling 1 def
  /pdfTextClipPath [] def
} def
/pdfEndPage { end } def
% PDF color state
/cs { /pdfFillXform exch def dup /pdfFillCS exch def
      setcolorspace } def
/CS { /pdfStrokeXform exch def dup /pdfStrokeCS exch def
      setcolorspace } def
/sc { pdfLastFill not { pdfFillCS setcolorspace } if
      dup /pdfFill exch def aload pop pdfFillXform setcolor
     /pdfLastFill true def /pdfLastStroke false def } def
/SC { pdfLastStroke not { pdfStrokeCS setcolorspace } if
      dup /pdfStroke exch def aload pop pdfStrokeXform setcolor
     /pdfLastStroke true def /pdfLastFill false def } def
/op { /pdfFillOP exch def
      pdfLastFill { pdfFillOP setoverprint } if } def
/OP { /pdfStrokeOP exch def
      pdfLastStroke { pdfStrokeOP setoverprint } if } def
/fCol {
  pdfLastFill not {
    pdfFillCS setcolorspace
    pdfFill aload pop pdfFillXform setcolor
    pdfFillOP setoverprint
    /pdfLastFill true def /pdfLastStroke false def
  } if
} def
/sCol {
  pdfLastStroke not {
    pdfStrokeCS setcolorspace
    pdfStroke aload pop pdfStrokeXform setcolor
    pdfStrokeOP setoverprint
    /pdfLastStroke true def /pdfLastFill false def
  } if
} def
% build a font
/pdfMakeFont {
  4 3 roll findfont
  4 2 roll matrix scale makefont
  dup length dict begin
    { 1 index /FID ne { def } { pop pop } ifelse } forall
    /Encoding exch def
    currentdict
  end
  definefont pop
} def
/pdfMakeFont16 {
  exch findfont
  dup length dict begin
    { 1 index /FID ne { def } { pop pop } ifelse } forall
    /WMode exch def
    currentdict
  end
  definefont pop
} def
% graphics state operators
/q { gsave pdfDictSize dict begin } def
/Q {
  end grestore
  /pdfLastFill where {
    pop
    pdfLastFill {
      pdfFillOP setoverprint
    } {
      pdfStrokeOP setoverprint
    } ifelse
  } if
} def
/cm { concat } def
/d { setdash } def
/i { setflat } def
/j { setlinejoin } def
/J { setlinecap } def
/M { setmiterlimit } def
/w { setlinewidth } def
% path segment operators
/m { moveto } def
/l { lineto } def
/c { curveto } def
/re { 4 2 roll moveto 1 index 0 rlineto 0 exch rlineto
      neg 0 rlineto closepath } def
/h { closepath } def
% path painting operators
/S { sCol stroke } def
/Sf { fCol stroke } def
/f { fCol fill } def
/f* { fCol eofill } def
% clipping operators
/W { clip newpath } def
/W* { eoclip newpath } def
/Ws { strokepath clip newpath } def
% text state operators
/Tc { /pdfCharSpacing exch def } def
/Tf { dup /pdfFontSize exch def
      dup pdfHorizScaling mul exch matrix scale
      pdfTextMat matrix concatmatrix dup 4 0 put dup 5 0 put
      exch findfont exch makefont setfont } def
/Tr { /pdfTextRender exch def } def
/Tp { /pdfPatternCS exch def } def
/Ts { /pdfTextRise exch def } def
/Tw { /pdfWordSpacing exch def } def
/Tz { /pdfHorizScaling exch def } def
% text positioning operators
/Td { pdfTextMat transform moveto } def
/Tm { /pdfTextMat exch def } def
% text string operators
/xyshow where {
  pop
  /xyshow2 {
    dup length array
    0 2 2 index length 1 sub {
      2 index 1 index 2 copy get 3 1 roll 1 add get
      pdfTextMat dtransform
      4 2 roll 2 copy 6 5 roll put 1 add 3 1 roll dup 4 2 roll put
    } for
    exch pop
    xyshow
  } def
}{
  /xyshow2 {
    currentfont /FontType get 0 eq {
      0 2 3 index length 1 sub {
        currentpoint 4 index 3 index 2 getinterval show moveto
        2 copy get 2 index 3 2 roll 1 add get
        pdfTextMat dtransform rmoveto
      } for
    } {
      0 1 3 index length 1 sub {
        currentpoint 4 index 3 index 1 getinterval show moveto
        2 copy 2 mul get 2 index 3 2 roll 2 mul 1 add get
        pdfTextMat dtransform rmoveto
      } for
    } ifelse
    pop pop
  } def
} ifelse
/cshow where {
  pop
  /xycp {
    0 3 2 roll
    {
      pop pop currentpoint 3 2 roll
      1 string dup 0 4 3 roll put false charpath moveto
      2 copy get 2 index 2 index 1 add get
      pdfTextMat dtransform rmoveto
      2 add
    } exch cshow
    pop pop
  } def
}{
  /xycp {
    currentfont /FontType get 0 eq {
      0 2 3 index length 1 sub {
        currentpoint 4 index 3 index 2 getinterval false charpath moveto
        2 copy get 2 index 3 2 roll 1 add get
        pdfTextMat dtransform rmoveto
      } for
    } {
      0 1 3 index length 1 sub {
        currentpoint 4 index 3 index 1 getinterval false charpath moveto
        2 copy 2 mul get 2 index 3 2 roll 2 mul 1 add get
        pdfTextMat dtransform rmoveto
      } for
    } ifelse
    pop pop
  } def
} ifelse
/Tj {
  fCol
  0 pdfTextRise pdfTextMat dtransform rmoveto
  currentpoint 4 2 roll
  pdfTextRender 1 and 0 eq {
    2 copy xyshow2
  } if
  pdfTextRender 3 and dup 1 eq exch 2 eq or {
    3 index 3 index moveto
    2 copy
    currentfont /FontType get 3 eq { fCol } { sCol } ifelse
    xycp currentpoint stroke moveto
  } if
  pdfTextRender 4 and 0 ne {
    4 2 roll moveto xycp
    /pdfTextClipPath [ pdfTextClipPath aload pop
      {/moveto cvx}
      {/lineto cvx}
      {/curveto cvx}
      {/closepath cvx}
    pathforall ] def
    currentpoint newpath moveto
  } {
    pop pop pop pop
  } ifelse
  0 pdfTextRise neg pdfTextMat dtransform rmoveto
} def
/TJm { 0.001 mul pdfFontSize mul pdfHorizScaling mul neg 0
       pdfTextMat dtransform rmoveto } def
/TJmV { 0.001 mul pdfFontSize mul neg 0 exch
        pdfTextMat dtransform rmoveto } def
/Tclip { pdfTextClipPath cvx exec clip newpath
         /pdfTextClipPath [] def } def
/Tclip* { pdfTextClipPath cvx exec eoclip newpath
         /pdfTextClipPath [] def } def
% Level 2/3 image operators
/pdfImBuf 100 string def
/pdfImStr {
  2 copy exch length lt {
    2 copy get exch 1 add exch
  } {
    ()
  } ifelse
} def
/skipEOD {
  { currentfile pdfImBuf readline
    not { pop exit } if
    (%-EOD-) eq { exit } if } loop
} def
/pdfIm { image skipEOD } def
/pdfImM { fCol imagemask skipEOD } def
/pr { 2 index 2 index 3 2 roll putinterval 4 add } def
/pdfImClip {
  gsave
  0 2 4 index length 1 sub {
    dup 4 index exch 2 copy
    get 5 index div put
    1 add 3 index exch 2 copy
    get 3 index div put
  } for
  pop pop rectclip
} def
/pdfImClipEnd { grestore } def
% shading operators
/colordelta {
  false 0 1 3 index length 1 sub {
    dup 4 index exch get 3 index 3 2 roll get sub abs 0.004 gt {
      pop true
    } if
  } for
  exch pop exch pop
} def
/funcCol { func n array astore } def
/funcSH {
  dup 0 eq {
    true
  } {
    dup 6 eq {
      false
    } {
      4 index 4 index funcCol dup
      6 index 4 index funcCol dup
      3 1 roll colordelta 3 1 roll
      5 index 5 index funcCol dup
      3 1 roll colordelta 3 1 roll
      6 index 8 index funcCol dup
      3 1 roll colordelta 3 1 roll
      colordelta or or or
    } ifelse
  } ifelse
  {
    1 add
    4 index 3 index add 0.5 mul exch 4 index 3 index add 0.5 mul exch
    6 index 6 index 4 index 4 index 4 index funcSH
    2 index 6 index 6 index 4 index 4 index funcSH
    6 index 2 index 4 index 6 index 4 index funcSH
    5 3 roll 3 2 roll funcSH pop pop
  } {
    pop 3 index 2 index add 0.5 mul 3 index  2 index add 0.5 mul
    funcCol sc
    dup 4 index exch mat transform m
    3 index 3 index mat transform l
    1 index 3 index mat transform l
    mat transform l pop pop h f*
  } ifelse
} def
/axialCol {
  dup 0 lt {
    pop t0
  } {
    dup 1 gt {
      pop t1
    } {
      dt mul t0 add
    } ifelse
  } ifelse
  func n array astore
} def
/axialSH {
  dup 0 eq {
    true
  } {
    dup 8 eq {
      false
    } {
      2 index axialCol 2 index axialCol colordelta
    } ifelse
  } ifelse
  {
    1 add 3 1 roll 2 copy add 0.5 mul
    dup 4 3 roll exch 4 index axialSH
    exch 3 2 roll axialSH
  } {
    pop 2 copy add 0.5 mul
    axialCol sc
    exch dup dx mul x0 add exch dy mul y0 add
    3 2 roll dup dx mul x0 add exch dy mul y0 add
    dx abs dy abs ge {
      2 copy yMin sub dy mul dx div add yMin m
      yMax sub dy mul dx div add yMax l
      2 copy yMax sub dy mul dx div add yMax l
      yMin sub dy mul dx div add yMin l
      h f*
    } {
      exch 2 copy xMin sub dx mul dy div add xMin exch m
      xMax sub dx mul dy div add xMax exch l
      exch 2 copy xMax sub dx mul dy div add xMax exch l
      xMin sub dx mul dy div add xMin exch l
      h f*
    } ifelse
  } ifelse
} def
/radialCol {
  dup t0 lt {
    pop t0
  } {
    dup t1 gt {
      pop t1
    } if
  } ifelse
  func n array astore
} def
/radialSH {
  dup 0 eq {
    true
  } {
    dup 8 eq {
      false
    } {
      2 index dt mul t0 add radialCol
      2 index dt mul t0 add radialCol colordelta
    } ifelse
  } ifelse
  {
    1 add 3 1 roll 2 copy add 0.5 mul
    dup 4 3 roll exch 4 index radialSH
    exch 3 2 roll radialSH
  } {
    pop 2 copy add 0.5 mul dt mul t0 add
    radialCol sc
    encl {
      exch dup dx mul x0 add exch dup dy mul y0 add exch dr mul r0 add
      0 360 arc h
      dup dx mul x0 add exch dup dy mul y0 add exch dr mul r0 add
      360 0 arcn h f
    } {
      2 copy
      dup dx mul x0 add exch dup dy mul y0 add exch dr mul r0 add
      a1 a2 arcn
      dup dx mul x0 add exch dup dy mul y0 add exch dr mul r0 add
      a2 a1 arcn h
      dup dx mul x0 add exch dup dy mul y0 add exch dr mul r0 add
      a1 a2 arc
      dup dx mul x0 add exch dup dy mul y0 add exch dr mul r0 add
      a2 a1 arc h f
    } ifelse
  } ifelse
} def
end
%%EndResource
%%EndProlog
%%BeginSetup
xpdf begin
%%EndSetup
pdfStartPage
[] 0 d
1 i
0 j
0 J
10 M
1 w
/DeviceGray {} cs
[0] sc
/DeviceGray {} CS
[0] SC
false op
false OP
{} settransfer
0 0 450 450 re
W
q
[1 0 0 -1 0 450] cm
[0.75 0 0 0.75 0 0] cm
[0.24 0 0 0.24 0 0] cm
q
[4.166667 0 0 4.166667 0 0] cm
0 0 600 600 re
W
/DeviceGray {} cs
[1] sc
/DeviceGray {} CS
[0] SC
0 0 600 600 re
f
Q
q
[4.166667 0 0 4.166667 0 0] cm
0 0 600 600 re
W
/DeviceGray {} cs
[1] sc
/DeviceGray {} CS
[0] SC
80 100 440 420 re
f
Q
q
[4.166667 0 0 4.166667 628.625025 416.666676] cm
-150.870003 -100 600 600 re
W
/DeviceGray {} CS
[0] SC
0 0 m
0 420 l
f
Q
q
[4.166667 0 0 4.166667 628.625025 416.666676] cm
-150.870003 -100 600 600 re
W
/DeviceGray {} CS
[0.9333] SC
/DeviceGray {} cs
[0] sc
0 J
0 j
1 w
4 M
0 0 m
0 420 l
S
Q
q
[4.166667 0 0 4.166667 936.250008 416.666676] cm
-224.699997 -100 600 600 re
W
/DeviceGray {} CS
[0] SC
0 0 m
0 420 l
f
Q
q
[4.166667 0 0 4.166667 936.250008 416.666676] cm
-224.699997 -100 600 600 re
W
/DeviceGray {} CS
[0.9333] SC
/DeviceGray {} cs
[0] sc
0 J
0 j
1 w
4 M
0 0 m
0 420 l
S
Q
q
[4.166667 0 0 4.166667 1243.833379 416.666676] cm
-298.520004 -100 600 600 re
W
/DeviceGray {} CS
[0] SC
0 0 m
0 420 l
f
Q
q
[4.166667 0 0 4.166667 1243.833379 416.666676] cm
-298.520004 -100 600 600 re
W
/DeviceGray {} CS
[0.9333] SC
/DeviceGray {} cs
[0] sc
0 J
0 j
1 w
4 M
0 0 m
0 420 l
S
Q
q
[4.166667 0 0 4.166667 1551.458393 416.666676] cm
-372.350006 -100 600 600 re
W
/DeviceGray {} CS
[0] SC
0 0 m
0 420 l
f
Q
q
[4.166667 0 0 4.166667 1551.458393 416.666676] cm
-372.350006 -100 600 600 re
W
/DeviceGray {} CS
[0.9333] SC
/DeviceGray {} cs
[0] sc
0 J
0 j
1 w
4 M
0 0 m
0 420 l
S
Q
q
[4.166667 0 0 4.166667 1859.041764 416.666676] cm
-446.170013 -100 600 600 re
W
/DeviceGray {} CS
[0] SC
0 0 m
0 420 l
f
Q
q
[4.166667 0 0 4.166667 1859.041764 416.666676] cm
-446.170013 -100 600 600 re
W
/DeviceGray {} CS
[0.9333] SC
/DeviceGray {} cs
[0] sc
0 J
0 j
1 w
4 M
0 0 m
0 420 l
S
Q
q
[4.166667 0 0 4.166667 333.333341 2079.166713] cm
-80 -499 600 600 re
W
/DeviceGray {} CS
[0] SC
0 0 m
440 0 l
f
Q
q
[4.166667 0 0 4.166667 333.333341 2079.166713] cm
-80 -499 600 600 re
W
/DeviceGray {} CS
[0.9333] SC
/DeviceGray {} cs
[0] sc
0 J
0 j
1 w
4 M
0 0 m
440 0 l
S
Q
q
[4.166667 0 0 4.166667 333.333341 1896.041658] cm
-80 -455.049988 600 600 re
W
/DeviceGray {} CS
[0] SC
0 0 m
440 0 l
f
Q
q
[4.166667 0 0 4.166667 333.333341 1896.041658] cm
-80 -455.049988 600 600 re
W
/DeviceGray {} CS
[0.9333] SC
/DeviceGray {} cs
[0] sc
0 J
0 j
1 w
4 M
0 0 m
440 0 l
S
Q
q
[4.166667 0 0 4.166667 333.333341 1712.875023] cm
-80 -411.089996 600 600 re
W
/DeviceGray {} CS
[0] SC
0 0 m
440 0 l
f
Q
q
[4.166667 0 0 4.166667 333.333341 1712.875023] cm
-80 -411.089996 600 600 re
W
/DeviceGray {} CS
[0.9333] SC
/DeviceGray {} cs
[0] sc
0 J
0 j
1 w
4 M
0 0 m
440 0 l
S
Q
q
[4.166667 0 0 4.166667 333.333341 1529.750095] cm
-80 -367.140015 600 600 re
W
/DeviceGray {} CS
[0] SC
0 0 m
440 0 l
f
Q
q
[4.166667 0 0 4.166667 333.333341 1529.750095] cm
-80 -367.140015 600 600 re
W
/DeviceGray {} CS
[0.9333] SC
/DeviceGray {} cs
[0] sc
0 J
0 j
1 w
4 M
0 0 m
440 0 l
S
Q
q
[4.166667 0 0 4.166667 333.333341 1346.62504] cm
-80 -323.190002 600 600 re
W
/DeviceGray {} CS
[0] SC
0 0 m
440 0 l
f
Q
q
[4.166667 0 0 4.166667 333.333341 1346.62504] cm
-80 -323.190002 600 600 re
W
/DeviceGray {} CS
[0.9333] SC
/DeviceGray {} cs
[0] sc
0 J
0 j
1 w
4 M
0 0 m
440 0 l
S
Q
q
[4.166667 0 0 4.166667 333.333341 1163.458342] cm
-80 -279.229996 600 600 re
W
/DeviceGray {} CS
[0] SC
0 0 m
440 0 l
f
Q
q
[4.166667 0 0 4.166667 333.333341 1163.458342] cm
-80 -279.229996 600 600 re
W
/DeviceGray {} CS
[0.9333] SC
/DeviceGray {} cs
[0] sc
0 J
0 j
1 w
4 M
0 0 m
440 0 l
S
Q
q
[4.166667 0 0 4.166667 333.333341 980.33335] cm
-80 -235.279999 600 600 re
W
/DeviceGray {} CS
[0] SC
0 0 m
440 0 l
f
Q
q
[4.166667 0 0 4.166667 333.333341 980.33335] cm
-80 -235.279999 600 600 re
W
/DeviceGray {} CS
[0.9333] SC
/DeviceGray {} cs
[0] sc
0 J
0 j
1 w
4 M
0 0 m
440 0 l
S
Q
q
[4.166667 0 0 4.166667 333.333341 797.208359] cm
-80 -191.330002 600 600 re
W
/DeviceGray {} CS
[0] SC
0 0 m
440 0 l
f
Q
q
[4.166667 0 0 4.166667 333.333341 797.208359] cm
-80 -191.330002 600 600 re
W
/DeviceGray {} CS
[0.9333] SC
/DeviceGray {} cs
[0] sc
0 J
0 j
1 w
4 M
0 0 m
440 0 l
S
Q
q
[4.166667 0 0 4.166667 333.333341 614.041676] cm
-80 -147.369999 600 600 re
W
/DeviceGray {} CS
[0] SC
0 0 m
440 0 l
f
Q
q
[4.166667 0 0 4.166667 333.333341 614.041676] cm
-80 -147.369999 600 600 re
W
/DeviceGray {} CS
[0.9333] SC
/DeviceGray {} cs
[0] sc
0 J
0 j
1 w
4 M
0 0 m
440 0 l
S
Q
q
[4.166667 0 0 4.166667 333.333341 430.916677] cm
-80 -103.42 600 600 re
W
/DeviceGray {} CS
[0] SC
0 0 m
440 0 l
f
Q
q
[4.166667 0 0 4.166667 333.333341 430.916677] cm
-80 -103.42 600 600 re
W
/DeviceGray {} CS
[0.9333] SC
/DeviceGray {} cs
[0] sc
0 J
0 j
1 w
4 M
0 0 m
440 0 l
S
Q
q
[4.166667 0 0 4.166667 333.333341 416.666676] cm
0.000001 0.000003 440.000007 420.000005 re
W
/DeviceRGB {} CS
[0.1216 0.4667 0.7059] SC
/DeviceGray {} cs
[0] sc
0 J
0 j
3 w
2 M
0 267.140015 m
10.34 267.140015 l
11.81 275.929993 l
13.29 284.720001 l
14.77 249.559998 l
16.24 205.600006 l
17.719999 188.020004 l
23.620001 319.880005 l
25.1 337.470001 l
26.58 363.839996 l
28.049999 372.630005 l
29.530001 381.420013 l
31.01 399 l
33.959999 319.880005 l
35.439999 311.089996 l
39.869999 249.559998 l
41.34 214.399994 l
45.77 91.330002 l
47.25 29.790001 l
50.200001 29.790001 l
51.68 38.580002 l
53.150002 47.369999 l
54.630001 47.369999 l
57.580002 47.369999 l
59.060001 38.580002 l
60.540001 38.580002 l
62.009998 21 l
66.440002 21 l
67.919998 29.790001 l
69.400002 29.790001 l
70.870003 21 l
73.830002 21 l
75.300003 29.790001 l
76.779999 29.790001 l
78.260002 47.369999 l
82.68 91.330002 l
84.160004 91.330002 l
88.589996 135.279999 l
90.07 144.070007 l
91.540001 144.070007 l
93.019997 152.860001 l
98.93 152.860001 l
100.400002 161.649994 l
103.360001 161.649994 l
104.830002 170.440002 l
106.309998 161.649994 l
107.790001 170.440002 l
112.209999 170.440002 l
113.690002 161.649994 l
115.169998 170.440002 l
116.639999 161.649994 l
118.120003 161.649994 l
119.599998 152.860001 l
138.789993 152.860001 l
140.270004 161.649994 l
156.509995 161.649994 l
157.990005 170.440002 l
159.460007 179.229996 l
160.940002 179.229996 l
166.850006 179.229996 l
168.320007 170.440002 l
199.330002 170.440002 l
200.809998 161.649994 l
230.339996 161.649994 l
231.809998 152.860001 l
239.190002 152.860001 l
240.669998 161.649994 l
440 161.649994 l
S
Q
q
[4.166667 0 0 4.166667 333.333341 416.666676] cm
-80 -100 600 600 re
W
/DeviceGray {} CS
[0.2667] SC
/DeviceGray {} cs
[0] sc
0 J
0 j
1 w
4 M
-1 420.5 m
441 420.5 l
-1 -0.5 m
441 -0.5 l
S
Q
q
[4.166667 0 0 4.166667 333.333341 416.666676] cm
-80 -100 600 600 re
W
/DeviceGray {} CS
[0.2667] SC
/DeviceGray {} cs
[0] sc
0 J
0 j
1 w
4 M
-0.5 0 m
-0.5 420 l
440.5 0 m
440.5 420 l
S
Q
q
[1.909722 0 0 1.909722 628.625025 416.666676] cm
-329.170891 -218.181813 1309.090881 1309.090881 re
W
/DeviceGray {} CS
[0] SC
-13.1875 949.96875 m
-7.78125 949.96875 -4.671875 952.65625 -4.671875 952.65625 c
-1.5625 955.34375 -1.5625 960 -1.5625 960 c
-1.5625 965.328125 -4.953125 968.351562 -4.953125 968.351562 c
-8.34375 971.375 -14.296875 971.375 -14.296875 971.375 c
-20.078125 971.375 -23.125 969.515625 -23.125 969.515625 c
-23.125 965.765625 l
-21.484375 966.828125 -19.046875 967.421875 -19.046875 967.421875 c
-16.609375 968.015625 -14.25 968.015625 -14.25 968.015625 c
-10.125 968.015625 -7.835937 966.070313 -7.835937 966.070313 c
-5.546875 964.125 -5.546875 960.453125 -5.546875 960.453125 c
-5.546875 953.28125 -14.34375 953.28125 -14.34375 953.28125 c
-16.5625 953.28125 -20.296875 953.953125 -20.296875 953.953125 c
-22.3125 952.671875 l
-21.015625 936.640625 l
-3.984375 936.640625 l
-3.984375 940.21875 l
-17.6875 940.21875 l
-18.5625 950.515625 l
-15.859375 949.96875 -13.1875 949.96875 -13.1875 949.96875 c
h
26.25 953.71875 m
26.25 962.609375 23.445312 966.992188 23.445312 966.992188 c
20.640625 971.375 14.875 971.375 14.875 971.375 c
9.34375 971.375 6.460937 966.882813 6.460937 966.882813 c
3.578125 962.390625 3.578125 953.71875 3.578125 953.71875 c
3.578125 944.765625 6.367187 940.429688 6.367187 940.429688 c
9.15625 936.09375 14.875 936.09375 14.875 936.09375 c
20.453125 936.09375 23.351563 940.617188 23.351563 940.617188 c
26.25 945.140625 26.25 953.71875 26.25 953.71875 c
h
7.515625 953.71875 m
7.515625 961.203125 9.273438 964.609375 9.273438 964.609375 c
11.03125 968.015625 14.875 968.015625 14.875 968.015625 c
18.765625 968.015625 20.515625 964.5625 20.515625 964.5625 c
22.265625 961.109375 22.265625 953.71875 22.265625 953.71875 c
22.265625 946.34375 20.515625 942.90625 20.515625 942.90625 c
18.765625 939.46875 14.875 939.46875 14.875 939.46875 c
11.03125 939.46875 9.273438 942.859375 9.273438 942.859375 c
7.515625 946.25 7.515625 953.71875 7.515625 953.71875 c
h
f
Q
q
[1.909722 0 0 1.909722 936.250008 416.666676] cm
-490.254495 -218.181813 1309.090881 1309.090881 re
W
/DeviceGray {} CS
[0] SC
-23.203125 970.90625 m
-27 970.90625 l
-27 946.484375 l
-27 943.4375 -26.8125 940.71875 -26.8125 940.71875 c
-27.3125 941.203125 -27.921875 941.742188 -27.921875 941.742188 c
-28.53125 942.28125 -33.5 946.3125 -33.5 946.3125 c
-35.5625 943.640625 l
-26.484375 936.640625 l
-23.203125 936.640625 l
-23.203125 970.90625 l
h
12.53125 953.71875 m
12.53125 962.609375 9.726563 966.992188 9.726563 966.992188 c
6.921875 971.375 1.15625 971.375 1.15625 971.375 c
-4.375 971.375 -7.257812 966.882813 -7.257812 966.882813 c
-10.140625 962.390625 -10.140625 953.71875 -10.140625 953.71875 c
-10.140625 944.765625 -7.351563 940.429688 -7.351563 940.429688 c
-4.5625 936.09375 1.15625 936.09375 1.15625 936.09375 c
6.734375 936.09375 9.632813 940.617188 9.632813 940.617188 c
12.53125 945.140625 12.53125 953.71875 12.53125 953.71875 c
h
-6.203125 953.71875 m
-6.203125 961.203125 -4.445313 964.609375 -4.445313 964.609375 c
-2.6875 968.015625 1.15625 968.015625 1.15625 968.015625 c
5.046875 968.015625 6.796875 964.5625 6.796875 964.5625 c
8.546875 961.109375 8.546875 953.71875 8.546875 953.71875 c
8.546875 946.34375 6.796875 942.90625 6.796875 942.90625 c
5.046875 939.46875 1.15625 939.46875 1.15625 939.46875 c
-2.6875 939.46875 -4.445313 942.859375 -4.445313 942.859375 c
-6.203125 946.25 -6.203125 953.71875 -6.203125 953.71875 c
h
39.96875 953.71875 m
39.96875 962.609375 37.164063 966.992188 37.164063 966.992188 c
34.359375 971.375 28.59375 971.375 28.59375 971.375 c
23.0625 971.375 20.179688 966.882813 20.179688 966.882813 c
17.296875 962.390625 17.296875 953.71875 17.296875 953.71875 c
17.296875 944.765625 20.085937 940.429688 20.085937 940.429688 c
22.875 936.09375 28.59375 936.09375 28.59375 936.09375 c
34.171875 936.09375 37.070313 940.617188 37.070313 940.617188 c
39.96875 945.140625 39.96875 953.71875 39.96875 953.71875 c
h
21.234375 953.71875 m
21.234375 961.203125 22.992187 964.609375 22.992187 964.609375 c
24.75 968.015625 28.59375 968.015625 28.59375 968.015625 c
32.484375 968.015625 34.234375 964.5625 34.234375 964.5625 c
35.984375 961.109375 35.984375 953.71875 35.984375 953.71875 c
35.984375 946.34375 34.234375 942.90625 34.234375 942.90625 c
32.484375 939.46875 28.59375 939.46875 28.59375 939.46875 c
24.75 939.46875 22.992187 942.859375 22.992187 942.859375 c
21.234375 946.25 21.234375 953.71875 21.234375 953.71875 c
h
f
Q
q
[1.909722 0 0 1.909722 1243.833379 416.666676] cm
-651.316326 -218.181813 1309.090881 1309.090881 re
W
/DeviceGray {} CS
[0] SC
-23.203125 970.90625 m
-27 970.90625 l
-27 946.484375 l
-27 943.4375 -26.8125 940.71875 -26.8125 940.71875 c
-27.3125 941.203125 -27.921875 941.742188 -27.921875 941.742188 c
-28.53125 942.28125 -33.5 946.3125 -33.5 946.3125 c
-35.5625 943.640625 l
-26.484375 936.640625 l
-23.203125 936.640625 l
-23.203125 970.90625 l
h
0.53125 949.96875 m
5.9375 949.96875 9.046875 952.65625 9.046875 952.65625 c
12.15625 955.34375 12.15625 960 12.15625 960 c
12.15625 965.328125 8.765625 968.351562 8.765625 968.351562 c
5.375 971.375 -0.578125 971.375 -0.578125 971.375 c
-6.359375 971.375 -9.40625 969.515625 -9.40625 969.515625 c
-9.40625 965.765625 l
-7.765625 966.828125 -5.328125 967.421875 -5.328125 967.421875 c
-2.890625 968.015625 -0.53125 968.015625 -0.53125 968.015625 c
3.59375 968.015625 5.882812 966.070313 5.882812 966.070313 c
8.171875 964.125 8.171875 960.453125 8.171875 960.453125 c
8.171875 953.28125 -0.625 953.28125 -0.625 953.28125 c
-2.84375 953.28125 -6.578125 953.953125 -6.578125 953.953125 c
-8.59375 952.671875 l
-7.296875 936.640625 l
9.734375 936.640625 l
9.734375 940.21875 l
-3.96875 940.21875 l
-4.84375 950.515625 l
-2.140625 949.96875 0.53125 949.96875 0.53125 949.96875 c
h
39.96875 953.71875 m
39.96875 962.609375 37.164063 966.992188 37.164063 966.992188 c
34.359375 971.375 28.59375 971.375 28.59375 971.375 c
23.0625 971.375 20.179688 966.882813 20.179688 966.882813 c
17.296875 962.390625 17.296875 953.71875 17.296875 953.71875 c
17.296875 944.765625 20.085937 940.429688 20.085937 940.429688 c
22.875 936.09375 28.59375 936.09375 28.59375 936.09375 c
34.171875 936.09375 37.070313 940.617188 37.070313 940.617188 c
39.96875 945.140625 39.96875 953.71875 39.96875 953.71875 c
h
21.234375 953.71875 m
21.234375 961.203125 22.992187 964.609375 22.992187 964.609375 c
24.75 968.015625 28.59375 968.015625 28.59375 968.015625 c
32.484375 968.015625 34.234375 964.5625 34.234375 964.5625 c
35.984375 961.109375 35.984375 953.71875 35.984375 953.71875 c
35.984375 946.34375 34.234375 942.90625 34.234375 942.90625 c
32.484375 939.46875 28.59375 939.46875 28.59375 939.46875 c
24.75 939.46875 22.992187 942.859375 22.992187 942.859375 c
21.234375 946.25 21.234375 953.71875 21.234375 953.71875 c
h
f
Q
q
[1.909722 0 0 1.909722 1551.458393 416.666676] cm
-812.399996 -218.181813 1309.090914 1309.090881 re
W
/DeviceGray {} CS
[0] SC
-15.09375 970.90625 m
-37.625 970.90625 l
-37.625 967.546875 l
-28.59375 958.484375 l
-24.46875 954.3125 -23.15625 952.53125 -23.15625 952.53125 c
-21.84375 950.75 -21.1875 949.0625 -21.1875 949.0625 c
-20.53125 947.375 -20.53125 945.421875 -20.53125 945.421875 c
-20.53125 942.6875 -22.195312 941.078125 -22.195312 941.078125 c
-23.859375 939.46875 -26.8125 939.46875 -26.8125 939.46875 c
-28.953125 939.46875 -30.859375 940.171875 -30.859375 940.171875 c
-32.765625 940.875 -35.109375 942.734375 -35.109375 942.734375 c
-37.171875 940.078125 l
-32.4375 936.140625 -26.859375 936.140625 -26.859375 936.140625 c
-22.03125 936.140625 -19.289062 938.617188 -19.289062 938.617188 c
-16.546875 941.09375 -16.546875 945.265625 -16.546875 945.265625 c
-16.546875 948.515625 -18.375 951.703125 -18.375 951.703125 c
-20.203125 954.890625 -25.21875 959.765625 -25.21875 959.765625 c
-32.71875 967.109375 l
-32.71875 967.296875 l
-15.09375 967.296875 l
-15.09375 970.90625 l
h
12.53125 953.71875 m
12.53125 962.609375 9.726563 966.992188 9.726563 966.992188 c
6.921875 971.375 1.15625 971.375 1.15625 971.375 c
-4.375 971.375 -7.257812 966.882813 -7.257812 966.882813 c
-10.140625 962.390625 -10.140625 953.71875 -10.140625 953.71875 c
-10.140625 944.765625 -7.351563 940.429688 -7.351563 940.429688 c
-4.5625 936.09375 1.15625 936.09375 1.15625 936.09375 c
6.734375 936.09375 9.632813 940.617188 9.632813 940.617188 c
12.53125 945.140625 12.53125 953.71875 12.53125 953.71875 c
h
-6.203125 953.71875 m
-6.203125 961.203125 -4.445313 964.609375 -4.445313 964.609375 c
-2.6875 968.015625 1.15625 968.015625 1.15625 968.015625 c
5.046875 968.015625 6.796875 964.5625 6.796875 964.5625 c
8.546875 961.109375 8.546875 953.71875 8.546875 953.71875 c
8.546875 946.34375 6.796875 942.90625 6.796875 942.90625 c
5.046875 939.46875 1.15625 939.46875 1.15625 939.46875 c
-2.6875 939.46875 -4.445313 942.859375 -4.445313 942.859375 c
-6.203125 946.25 -6.203125 953.71875 -6.203125 953.71875 c
h
39.96875 953.71875 m
39.96875 962.609375 37.164063 966.992188 37.164063 966.992188 c
34.359375 971.375 28.59375 971.375 28.59375 971.375 c
23.0625 971.375 20.179688 966.882813 20.179688 966.882813 c
17.296875 962.390625 17.296875 953.71875 17.296875 953.71875 c
17.296875 944.765625 20.085937 940.429688 20.085937 940.429688 c
22.875 936.09375 28.59375 936.09375 28.59375 936.09375 c
34.171875 936.09375 37.070313 940.617188 37.070313 940.617188 c
39.96875 945.140625 39.96875 953.71875 39.96875 953.71875 c
h
21.234375 953.71875 m
21.234375 961.203125 22.992187 964.609375 22.992187 964.609375 c
24.75 968.015625 28.59375 968.015625 28.59375 968.015625 c
32.484375 968.015625 34.234375 964.5625 34.234375 964.5625 c
35.984375 961.109375 35.984375 953.71875 35.984375 953.71875 c
35.984375 946.34375 34.234375 942.90625 34.234375 942.90625 c
32.484375 939.46875 28.59375 939.46875 28.59375 939.46875 c
24.75 939.46875 22.992187 942.859375 22.992187 942.859375 c
21.234375 946.25 21.234375 953.71875 21.234375 953.71875 c
h
f
Q
q
[1.909722 0 0 1.909722 1859.041764 416.666676] cm
-973.461826 -218.181813 1309.090914 1309.090881 re
W
/DeviceGray {} CS
[0] SC
-15.09375 970.90625 m
-37.625 970.90625 l
-37.625 967.546875 l
-28.59375 958.484375 l
-24.46875 954.3125 -23.15625 952.53125 -23.15625 952.53125 c
-21.84375 950.75 -21.1875 949.0625 -21.1875 949.0625 c
-20.53125 947.375 -20.53125 945.421875 -20.53125 945.421875 c
-20.53125 942.6875 -22.195312 941.078125 -22.195312 941.078125 c
-23.859375 939.46875 -26.8125 939.46875 -26.8125 939.46875 c
-28.953125 939.46875 -30.859375 940.171875 -30.859375 940.171875 c
-32.765625 940.875 -35.109375 942.734375 -35.109375 942.734375 c
-37.171875 940.078125 l
-32.4375 936.140625 -26.859375 936.140625 -26.859375 936.140625 c
-22.03125 936.140625 -19.289062 938.617188 -19.289062 938.617188 c
-16.546875 941.09375 -16.546875 945.265625 -16.546875 945.265625 c
-16.546875 948.515625 -18.375 951.703125 -18.375 951.703125 c
-20.203125 954.890625 -25.21875 959.765625 -25.21875 959.765625 c
-32.71875 967.109375 l
-32.71875 967.296875 l
-15.09375 967.296875 l
-15.09375 970.90625 l
h
0.53125 949.96875 m
5.9375 949.96875 9.046875 952.65625 9.046875 952.65625 c
12.15625 955.34375 12.15625 960 12.15625 960 c
12.15625 965.328125 8.765625 968.351562 8.765625 968.351562 c
5.375 971.375 -0.578125 971.375 -0.578125 971.375 c
-6.359375 971.375 -9.40625 969.515625 -9.40625 969.515625 c
-9.40625 965.765625 l
-7.765625 966.828125 -5.328125 967.421875 -5.328125 967.421875 c
-2.890625 968.015625 -0.53125 968.015625 -0.53125 968.015625 c
3.59375 968.015625 5.882812 966.070313 5.882812 966.070313 c
8.171875 964.125 8.171875 960.453125 8.171875 960.453125 c
8.171875 953.28125 -0.625 953.28125 -0.625 953.28125 c
-2.84375 953.28125 -6.578125 953.953125 -6.578125 953.953125 c
-8.59375 952.671875 l
-7.296875 936.640625 l
9.734375 936.640625 l
9.734375 940.21875 l
-3.96875 940.21875 l
-4.84375 950.515625 l
-2.140625 949.96875 0.53125 949.96875 0.53125 949.96875 c
h
39.96875 953.71875 m
39.96875 962.609375 37.164063 966.992188 37.164063 966.992188 c
34.359375 971.375 28.59375 971.375 28.59375 971.375 c
23.0625 971.375 20.179688 966.882813 20.179688 966.882813 c
17.296875 962.390625 17.296875 953.71875 17.296875 953.71875 c
17.296875 944.765625 20.085937 940.429688 20.085937 940.429688 c
22.875 936.09375 28.59375 936.09375 28.59375 936.09375 c
34.171875 936.09375 37.070313 940.617188 37.070313 940.617188 c
39.96875 945.140625 39.96875 953.71875 39.96875 953.71875 c
h
21.234375 953.71875 m
21.234375 961.203125 22.992187 964.609375 22.992187 964.609375 c
24.75 968.015625 28.59375 968.015625 28.59375 968.015625 c
32.484375 968.015625 34.234375 964.5625 34.234375 964.5625 c
35.984375 961.109375 35.984375 953.71875 35.984375 953.71875 c
35.984375 946.34375 34.234375 942.90625 34.234375 942.90625 c
32.484375 939.46875 28.59375 939.46875 28.59375 939.46875 c
24.75 939.46875 22.992187 942.859375 22.992187 942.859375 c
21.234375 946.25 21.234375 953.71875 21.234375 953.71875 c
h
f
Q
q
[1.909722 0 0 1.909722 2166.666715 416.666676] cm
-1134.54543 -218.181813 1309.090914 1309.090881 re
W
/DeviceGray {} CS
[0] SC
-16.390625 944.703125 m
-16.390625 947.984375 -18.226562 950.070313 -18.226562 950.070313 c
-20.0625 952.15625 -23.4375 952.859375 -23.4375 952.859375 c
-23.4375 953.046875 l
-19.3125 953.5625 -17.320312 955.671875 -17.320312 955.671875 c
-15.328125 957.78125 -15.328125 961.203125 -15.328125 961.203125 c
-15.328125 966.09375 -18.726562 968.734375 -18.726562 968.734375 c
-22.125 971.375 -28.390625 971.375 -28.390625 971.375 c
-31.109375 971.375 -33.367187 970.960938 -33.367187 970.960938 c
-35.625 970.546875 -37.765625 969.515625 -37.765625 969.515625 c
-37.765625 965.8125 l
-35.53125 966.921875 -33.015625 967.492188 -33.015625 967.492188 c
-30.5 968.0625 -28.25 968.0625 -28.25 968.0625 c
-19.359375 968.0625 -19.359375 961.109375 -19.359375 961.109375 c
-19.359375 954.875 -29.15625 954.875 -29.15625 954.875 c
-32.53125 954.875 l
-32.53125 951.515625 l
-29.109375 951.515625 l
-25.109375 951.515625 -22.765625 949.75 -22.765625 949.75 c
-20.421875 947.984375 -20.421875 944.84375 -20.421875 944.84375 c
-20.421875 942.328125 -22.140625 940.898438 -22.140625 940.898438 c
-23.859375 939.46875 -26.8125 939.46875 -26.8125 939.46875 c
-29.0625 939.46875 -31.054688 940.078125 -31.054688 940.078125 c
-33.046875 940.6875 -35.609375 942.328125 -35.609375 942.328125 c
-37.578125 939.703125 l
-35.46875 938.046875 -32.710938 937.09375 -32.710938 937.09375 c
-29.953125 936.140625 -26.90625 936.140625 -26.90625 936.140625 c
-21.921875 936.140625 -19.15625 938.429688 -19.15625 938.429688 c
-16.390625 940.71875 -16.390625 944.703125 -16.390625 944.703125 c
h
12.53125 953.71875 m
12.53125 962.609375 9.726563 966.992188 9.726563 966.992188 c
6.921875 971.375 1.15625 971.375 1.15625 971.375 c
-4.375 971.375 -7.257812 966.882813 -7.257812 966.882813 c
-10.140625 962.390625 -10.140625 953.71875 -10.140625 953.71875 c
-10.140625 944.765625 -7.351563 940.429688 -7.351563 940.429688 c
-4.5625 936.09375 1.15625 936.09375 1.15625 936.09375 c
6.734375 936.09375 9.632813 940.617188 9.632813 940.617188 c
12.53125 945.140625 12.53125 953.71875 12.53125 953.71875 c
h
-6.203125 953.71875 m
-6.203125 961.203125 -4.445313 964.609375 -4.445313 964.609375 c
-2.6875 968.015625 1.15625 968.015625 1.15625 968.015625 c
5.046875 968.015625 6.796875 964.5625 6.796875 964.5625 c
8.546875 961.109375 8.546875 953.71875 8.546875 953.71875 c
8.546875 946.34375 6.796875 942.90625 6.796875 942.90625 c
5.046875 939.46875 1.15625 939.46875 1.15625 939.46875 c
-2.6875 939.46875 -4.445313 942.859375 -4.445313 942.859375 c
-6.203125 946.25 -6.203125 953.71875 -6.203125 953.71875 c
h
39.96875 953.71875 m
39.96875 962.609375 37.164063 966.992188 37.164063 966.992188 c
34.359375 971.375 28.59375 971.375 28.59375 971.375 c
23.0625 971.375 20.179688 966.882813 20.179688 966.882813 c
17.296875 962.390625 17.296875 953.71875 17.296875 953.71875 c
17.296875 944.765625 20.085937 940.429688 20.085937 940.429688 c
22.875 936.09375 28.59375 936.09375 28.59375 936.09375 c
34.171875 936.09375 37.070313 940.617188 37.070313 940.617188 c
39.96875 945.140625 39.96875 953.71875 39.96875 953.71875 c
h
21.234375 953.71875 m
21.234375 961.203125 22.992187 964.609375 22.992187 964.609375 c
24.75 968.015625 28.59375 968.015625 28.59375 968.015625 c
32.484375 968.015625 34.234375 964.5625 34.234375 964.5625 c
35.984375 961.109375 35.984375 953.71875 35.984375 953.71875 c
35.984375 946.34375 34.234375 942.90625 34.234375 942.90625 c
32.484375 939.46875 28.59375 939.46875 28.59375 939.46875 c
24.75 939.46875 22.992187 942.859375 22.992187 942.859375 c
21.234375 946.25 21.234375 953.71875 21.234375 953.71875 c
h
f
Q
q
[1.909722 0 0 1.909722 333.333341 2079.166713] cm
-174.545451 -1088.727249 1309.090881 1309.090881 re
W
/DeviceGray {} CS
[0] SC
-83.671875 8.6875 m
-83.671875 5.453125 l
-61.140625 5.453125 l
-61.140625 8.6875 l
-83.671875 8.6875 l
h
-41.90625 24 m
-45.703125 24 l
-45.703125 -0.421875 l
-45.703125 -3.46875 -45.515625 -6.1875 -45.515625 -6.1875 c
-46.015625 -5.703125 -46.625 -5.164062 -46.625 -5.164062 c
-47.234375 -4.625 -52.203125 -0.59375 -52.203125 -0.59375 c
-54.265625 -3.265625 l
-45.1875 -10.265625 l
-41.90625 -10.265625 l
-41.90625 24 l
h
-18.15625 3.0625 m
-12.75 3.0625 -9.640625 5.75 -9.640625 5.75 c
-6.53125 8.4375 -6.53125 13.09375 -6.53125 13.09375 c
-6.53125 18.421875 -9.921875 21.445312 -9.921875 21.445312 c
-13.3125 24.46875 -19.265625 24.46875 -19.265625 24.46875 c
-25.046875 24.46875 -28.09375 22.609375 -28.09375 22.609375 c
-28.09375 18.859375 l
-26.453125 19.921875 -24.015625 20.515625 -24.015625 20.515625 c
-21.578125 21.109375 -19.21875 21.109375 -19.21875 21.109375 c
-15.09375 21.109375 -12.804688 19.164063 -12.804688 19.164063 c
-10.515625 17.21875 -10.515625 13.546875 -10.515625 13.546875 c
-10.515625 6.375 -19.3125 6.375 -19.3125 6.375 c
-21.53125 6.375 -25.265625 7.046875 -25.265625 7.046875 c
-27.28125 5.765625 l
-25.984375 -10.265625 l
-8.953125 -10.265625 l
-8.953125 -6.6875 l
-22.65625 -6.6875 l
-23.53125 3.609375 l
-20.828125 3.0625 -18.15625 3.0625 -18.15625 3.0625 c
h
f
Q
q
[1.909722 0 0 1.909722 333.333341 1896.041658] cm
-174.545451 -992.836315 1309.090881 1309.090881 re
W
/DeviceGray {} CS
[0] SC
-84.046875 8.6875 m
-84.046875 5.453125 l
-61.515625 5.453125 l
-61.515625 8.6875 l
-84.046875 8.6875 l
h
-42.28125 24 m
-46.078125 24 l
-46.078125 -0.421875 l
-46.078125 -3.46875 -45.890625 -6.1875 -45.890625 -6.1875 c
-46.390625 -5.703125 -47 -5.164062 -47 -5.164062 c
-47.609375 -4.625 -52.578125 -0.59375 -52.578125 -0.59375 c
-54.640625 -3.265625 l
-45.5625 -10.265625 l
-42.28125 -10.265625 l
-42.28125 24 l
h
-6.53125 6.8125 m
-6.53125 15.703125 -9.335938 20.085937 -9.335938 20.085937 c
-12.140625 24.46875 -17.90625 24.46875 -17.90625 24.46875 c
-23.4375 24.46875 -26.320312 19.976562 -26.320312 19.976562 c
-29.203125 15.484375 -29.203125 6.8125 -29.203125 6.8125 c
-29.203125 -2.140625 -26.414063 -6.476563 -26.414063 -6.476563 c
-23.625 -10.8125 -17.90625 -10.8125 -17.90625 -10.8125 c
-12.328125 -10.8125 -9.429688 -6.289063 -9.429688 -6.289063 c
-6.53125 -1.765625 -6.53125 6.8125 -6.53125 6.8125 c
h
-25.265625 6.8125 m
-25.265625 14.296875 -23.507813 17.703125 -23.507813 17.703125 c
-21.75 21.109375 -17.90625 21.109375 -17.90625 21.109375 c
-14.015625 21.109375 -12.265625 17.65625 -12.265625 17.65625 c
-10.515625 14.203125 -10.515625 6.8125 -10.515625 6.8125 c
-10.515625 -0.5625 -12.265625 -4 -12.265625 -4 c
-14.015625 -7.4375 -17.90625 -7.4375 -17.90625 -7.4375 c
-21.75 -7.4375 -23.507813 -4.046875 -23.507813 -4.046875 c
-25.265625 -0.65625 -25.265625 6.8125 -25.265625 6.8125 c
h
f
Q
q
[1.909722 0 0 1.909722 333.333341 1712.875023] cm
-174.545451 -896.923609 1309.090881 1309.090881 re
W
/DeviceGray {} CS
[0] SC
-56.234375 8.6875 m
-56.234375 5.453125 l
-33.703125 5.453125 l
-33.703125 8.6875 l
-56.234375 8.6875 l
h
-18.15625 3.0625 m
-12.75 3.0625 -9.640625 5.75 -9.640625 5.75 c
-6.53125 8.4375 -6.53125 13.09375 -6.53125 13.09375 c
-6.53125 18.421875 -9.921875 21.445312 -9.921875 21.445312 c
-13.3125 24.46875 -19.265625 24.46875 -19.265625 24.46875 c
-25.046875 24.46875 -28.09375 22.609375 -28.09375 22.609375 c
-28.09375 18.859375 l
-26.453125 19.921875 -24.015625 20.515625 -24.015625 20.515625 c
-21.578125 21.109375 -19.21875 21.109375 -19.21875 21.109375 c
-15.09375 21.109375 -12.804688 19.164063 -12.804688 19.164063 c
-10.515625 17.21875 -10.515625 13.546875 -10.515625 13.546875 c
-10.515625 6.375 -19.3125 6.375 -19.3125 6.375 c
-21.53125 6.375 -25.265625 7.046875 -25.265625 7.046875 c
-27.28125 5.765625 l
-25.984375 -10.265625 l
-8.953125 -10.265625 l
-8.953125 -6.6875 l
-22.65625 -6.6875 l
-23.53125 3.609375 l
-20.828125 3.0625 -18.15625 3.0625 -18.15625 3.0625 c
h
f
Q
q
[1.909722 0 0 1.909722 333.333341 1529.750095] cm
-174.545451 -801.032742 1309.090881 1309.090881 re
W
/DeviceGray {} CS
[0] SC
-6.53125 6.8125 m
-6.53125 15.703125 -9.335938 20.085937 -9.335938 20.085937 c
-12.140625 24.46875 -17.90625 24.46875 -17.90625 24.46875 c
-23.4375 24.46875 -26.320312 19.976562 -26.320312 19.976562 c
-29.203125 15.484375 -29.203125 6.8125 -29.203125 6.8125 c
-29.203125 -2.140625 -26.414063 -6.476563 -26.414063 -6.476563 c
-23.625 -10.8125 -17.90625 -10.8125 -17.90625 -10.8125 c
-12.328125 -10.8125 -9.429688 -6.289063 -9.429688 -6.289063 c
-6.53125 -1.765625 -6.53125 6.8125 -6.53125 6.8125 c
h
-25.265625 6.8125 m
-25.265625 14.296875 -23.507813 17.703125 -23.507813 17.703125 c
-21.75 21.109375 -17.90625 21.109375 -17.90625 21.109375 c
-14.015625 21.109375 -12.265625 17.65625 -12.265625 17.65625 c
-10.515625 14.203125 -10.515625 6.8125 -10.515625 6.8125 c
-10.515625 -0.5625 -12.265625 -4 -12.265625 -4 c
-14.015625 -7.4375 -17.90625 -7.4375 -17.90625 -7.4375 c
-21.75 -7.4375 -23.507813 -4.046875 -23.507813 -4.046875 c
-25.265625 -0.65625 -25.265625 6.8125 -25.265625 6.8125 c
h
f
Q
q
[1.909722 0 0 1.909722 333.333341 1346.62504] cm
-174.545451 -705.141808 1309.090881 1309.090881 re
W
/DeviceGray {} CS
[0] SC
-18.15625 3.0625 m
-12.75 3.0625 -9.640625 5.75 -9.640625 5.75 c
-6.53125 8.4375 -6.53125 13.09375 -6.53125 13.09375 c
-6.53125 18.421875 -9.921875 21.445312 -9.921875 21.445312 c
-13.3125 24.46875 -19.265625 24.46875 -19.265625 24.46875 c
-25.046875 24.46875 -28.09375 22.609375 -28.09375 22.609375 c
-28.09375 18.859375 l
-26.453125 19.921875 -24.015625 20.515625 -24.015625 20.515625 c
-21.578125 21.109375 -19.21875 21.109375 -19.21875 21.109375 c
-15.09375 21.109375 -12.804688 19.164063 -12.804688 19.164063 c
-10.515625 17.21875 -10.515625 13.546875 -10.515625 13.546875 c
-10.515625 6.375 -19.3125 6.375 -19.3125 6.375 c
-21.53125 6.375 -25.265625 7.046875 -25.265625 7.046875 c
-27.28125 5.765625 l
-25.984375 -10.265625 l
-8.953125 -10.265625 l
-8.953125 -6.6875 l
-22.65625 -6.6875 l
-23.53125 3.609375 l
-20.828125 3.0625 -18.15625 3.0625 -18.15625 3.0625 c
h
f
Q
q
[1.909722 0 0 1.909722 333.333341 1163.458342] cm
-174.545451 -609.229102 1309.090881 1309.090881 re
W
/DeviceGray {} CS
[0] SC
-42.28125 24 m
-46.078125 24 l
-46.078125 -0.421875 l
-46.078125 -3.46875 -45.890625 -6.1875 -45.890625 -6.1875 c
-46.390625 -5.703125 -47 -5.164062 -47 -5.164062 c
-47.609375 -4.625 -52.578125 -0.59375 -52.578125 -0.59375 c
-54.640625 -3.265625 l
-45.5625 -10.265625 l
-42.28125 -10.265625 l
-42.28125 24 l
h
-6.53125 6.8125 m
-6.53125 15.703125 -9.335938 20.085937 -9.335938 20.085937 c
-12.140625 24.46875 -17.90625 24.46875 -17.90625 24.46875 c
-23.4375 24.46875 -26.320312 19.976562 -26.320312 19.976562 c
-29.203125 15.484375 -29.203125 6.8125 -29.203125 6.8125 c
-29.203125 -2.140625 -26.414063 -6.476563 -26.414063 -6.476563 c
-23.625 -10.8125 -17.90625 -10.8125 -17.90625 -10.8125 c
-12.328125 -10.8125 -9.429688 -6.289063 -9.429688 -6.289063 c
-6.53125 -1.765625 -6.53125 6.8125 -6.53125 6.8125 c
h
-25.265625 6.8125 m
-25.265625 14.296875 -23.507813 17.703125 -23.507813 17.703125 c
-21.75 21.109375 -17.90625 21.109375 -17.90625 21.109375 c
-14.015625 21.109375 -12.265625 17.65625 -12.265625 17.65625 c
-10.515625 14.203125 -10.515625 6.8125 -10.515625 6.8125 c
-10.515625 -0.5625 -12.265625 -4 -12.265625 -4 c
-14.015625 -7.4375 -17.90625 -7.4375 -17.90625 -7.4375 c
-21.75 -7.4375 -23.507813 -4.046875 -23.507813 -4.046875 c
-25.265625 -0.65625 -25.265625 6.8125 -25.265625 6.8125 c
h
f
Q
q
[1.909722 0 0 1.909722 333.333341 980.33335] cm
-174.545451 -513.338201 1309.090881 1309.090847 re
W
/DeviceGray {} CS
[0] SC
-41.90625 24 m
-45.703125 24 l
-45.703125 -0.421875 l
-45.703125 -3.46875 -45.515625 -6.1875 -45.515625 -6.1875 c
-46.015625 -5.703125 -46.625 -5.164062 -46.625 -5.164062 c
-47.234375 -4.625 -52.203125 -0.59375 -52.203125 -0.59375 c
-54.265625 -3.265625 l
-45.1875 -10.265625 l
-41.90625 -10.265625 l
-41.90625 24 l
h
-18.15625 3.0625 m
-12.75 3.0625 -9.640625 5.75 -9.640625 5.75 c
-6.53125 8.4375 -6.53125 13.09375 -6.53125 13.09375 c
-6.53125 18.421875 -9.921875 21.445312 -9.921875 21.445312 c
-13.3125 24.46875 -19.265625 24.46875 -19.265625 24.46875 c
-25.046875 24.46875 -28.09375 22.609375 -28.09375 22.609375 c
-28.09375 18.859375 l
-26.453125 19.921875 -24.015625 20.515625 -24.015625 20.515625 c
-21.578125 21.109375 -19.21875 21.109375 -19.21875 21.109375 c
-15.09375 21.109375 -12.804688 19.164063 -12.804688 19.164063 c
-10.515625 17.21875 -10.515625 13.546875 -10.515625 13.546875 c
-10.515625 6.375 -19.3125 6.375 -19.3125 6.375 c
-21.53125 6.375 -25.265625 7.046875 -25.265625 7.046875 c
-27.28125 5.765625 l
-25.984375 -10.265625 l
-8.953125 -10.265625 l
-8.953125 -6.6875 l
-22.65625 -6.6875 l
-23.53125 3.609375 l
-20.828125 3.0625 -18.15625 3.0625 -18.15625 3.0625 c
h
f
Q
q
[1.909722 0 0 1.909722 333.333341 797.208359] cm
-174.545451 -417.447301 1309.090881 1309.090881 re
W
/DeviceGray {} CS
[0] SC
-34.171875 24 m
-56.703125 24 l
-56.703125 20.640625 l
-47.671875 11.578125 l
-43.546875 7.40625 -42.234375 5.625 -42.234375 5.625 c
-40.921875 3.84375 -40.265625 2.15625 -40.265625 2.15625 c
-39.609375 0.46875 -39.609375 -1.484375 -39.609375 -1.484375 c
-39.609375 -4.21875 -41.273438 -5.828125 -41.273438 -5.828125 c
-42.9375 -7.4375 -45.890625 -7.4375 -45.890625 -7.4375 c
-48.03125 -7.4375 -49.9375 -6.734375 -49.9375 -6.734375 c
-51.84375 -6.03125 -54.1875 -4.171875 -54.1875 -4.171875 c
-56.25 -6.828125 l
-51.515625 -10.765625 -45.9375 -10.765625 -45.9375 -10.765625 c
-41.109375 -10.765625 -38.367187 -8.289063 -38.367187 -8.289063 c
-35.625 -5.8125 -35.625 -1.640625 -35.625 -1.640625 c
-35.625 1.609375 -37.453125 4.796875 -37.453125 4.796875 c
-39.28125 7.984375 -44.296875 12.859375 -44.296875 12.859375 c
-51.796875 20.203125 l
-51.796875 20.390625 l
-34.171875 20.390625 l
-34.171875 24 l
h
-6.53125 6.8125 m
-6.53125 15.703125 -9.335938 20.085937 -9.335938 20.085937 c
-12.140625 24.46875 -17.90625 24.46875 -17.90625 24.46875 c
-23.4375 24.46875 -26.320312 19.976562 -26.320312 19.976562 c
-29.203125 15.484375 -29.203125 6.8125 -29.203125 6.8125 c
-29.203125 -2.140625 -26.414063 -6.476563 -26.414063 -6.476563 c
-23.625 -10.8125 -17.90625 -10.8125 -17.90625 -10.8125 c
-12.328125 -10.8125 -9.429688 -6.289063 -9.429688 -6.289063 c
-6.53125 -1.765625 -6.53125 6.8125 -6.53125 6.8125 c
h
-25.265625 6.8125 m
-25.265625 14.296875 -23.507813 17.703125 -23.507813 17.703125 c
-21.75 21.109375 -17.90625 21.109375 -17.90625 21.109375 c
-14.015625 21.109375 -12.265625 17.65625 -12.265625 17.65625 c
-10.515625 14.203125 -10.515625 6.8125 -10.515625 6.8125 c
-10.515625 -0.5625 -12.265625 -4 -12.265625 -4 c
-14.015625 -7.4375 -17.90625 -7.4375 -17.90625 -7.4375 c
-21.75 -7.4375 -23.507813 -4.046875 -23.507813 -4.046875 c
-25.265625 -0.65625 -25.265625 6.8125 -25.265625 6.8125 c
h
f
Q
q
[1.909722 0 0 1.909722 333.333341 614.041676] cm
-174.545451 -321.534561 1309.090881 1309.090847 re
W
/DeviceGray {} CS
[0] SC
-33.796875 24 m
-56.328125 24 l
-56.328125 20.640625 l
-47.296875 11.578125 l
-43.171875 7.40625 -41.859375 5.625 -41.859375 5.625 c
-40.546875 3.84375 -39.890625 2.15625 -39.890625 2.15625 c
-39.234375 0.46875 -39.234375 -1.484375 -39.234375 -1.484375 c
-39.234375 -4.21875 -40.898438 -5.828125 -40.898438 -5.828125 c
-42.5625 -7.4375 -45.515625 -7.4375 -45.515625 -7.4375 c
-47.65625 -7.4375 -49.5625 -6.734375 -49.5625 -6.734375 c
-51.46875 -6.03125 -53.8125 -4.171875 -53.8125 -4.171875 c
-55.875 -6.828125 l
-51.140625 -10.765625 -45.5625 -10.765625 -45.5625 -10.765625 c
-40.734375 -10.765625 -37.992188 -8.289063 -37.992188 -8.289063 c
-35.25 -5.8125 -35.25 -1.640625 -35.25 -1.640625 c
-35.25 1.609375 -37.078125 4.796875 -37.078125 4.796875 c
-38.90625 7.984375 -43.921875 12.859375 -43.921875 12.859375 c
-51.421875 20.203125 l
-51.421875 20.390625 l
-33.796875 20.390625 l
-33.796875 24 l
h
-18.15625 3.0625 m
-12.75 3.0625 -9.640625 5.75 -9.640625 5.75 c
-6.53125 8.4375 -6.53125 13.09375 -6.53125 13.09375 c
-6.53125 18.421875 -9.921875 21.445312 -9.921875 21.445312 c
-13.3125 24.46875 -19.265625 24.46875 -19.265625 24.46875 c
-25.046875 24.46875 -28.09375 22.609375 -28.09375 22.609375 c
-28.09375 18.859375 l
-26.453125 19.921875 -24.015625 20.515625 -24.015625 20.515625 c
-21.578125 21.109375 -19.21875 21.109375 -19.21875 21.109375 c
-15.09375 21.109375 -12.804688 19.164063 -12.804688 19.164063 c
-10.515625 17.21875 -10.515625 13.546875 -10.515625 13.546875 c
-10.515625 6.375 -19.3125 6.375 -19.3125 6.375 c
-21.53125 6.375 -25.265625 7.046875 -25.265625 7.046875 c
-27.28125 5.765625 l
-25.984375 -10.265625 l
-8.953125 -10.265625 l
-8.953125 -6.6875 l
-22.65625 -6.6875 l
-23.53125 3.609375 l
-20.828125 3.0625 -18.15625 3.0625 -18.15625 3.0625 c
h
f
Q
q
[1.909722 0 0 1.909722 333.333341 430.916677] cm
-174.545451 -225.643661 1309.090881 1309.090881 re
W
/DeviceGray {} CS
[0] SC
-35.46875 -2.203125 m
-35.46875 1.078125 -37.304687 3.164063 -37.304687 3.164063 c
-39.140625 5.25 -42.515625 5.953125 -42.515625 5.953125 c
-42.515625 6.140625 l
-38.390625 6.65625 -36.398438 8.765625 -36.398438 8.765625 c
-34.40625 10.875 -34.40625 14.296875 -34.40625 14.296875 c
-34.40625 19.1875 -37.804687 21.828125 -37.804687 21.828125 c
-41.203125 24.46875 -47.46875 24.46875 -47.46875 24.46875 c
-50.1875 24.46875 -52.445313 24.054688 -52.445313 24.054688 c
-54.703125 23.640625 -56.84375 22.609375 -56.84375 22.609375 c
-56.84375 18.90625 l
-54.609375 20.015625 -52.09375 20.585937 -52.09375 20.585937 c
-49.578125 21.15625 -47.328125 21.15625 -47.328125 21.15625 c
-38.4375 21.15625 -38.4375 14.203125 -38.4375 14.203125 c
-38.4375 7.96875 -48.234375 7.96875 -48.234375 7.96875 c
-51.609375 7.96875 l
-51.609375 4.609375 l
-48.1875 4.609375 l
-44.1875 4.609375 -41.84375 2.84375 -41.84375 2.84375 c
-39.5 1.078125 -39.5 -2.0625 -39.5 -2.0625 c
-39.5 -4.578125 -41.21875 -6.007812 -41.21875 -6.007812 c
-42.9375 -7.4375 -45.890625 -7.4375 -45.890625 -7.4375 c
-48.140625 -7.4375 -50.132813 -6.828125 -50.132813 -6.828125 c
-52.125 -6.21875 -54.6875 -4.578125 -54.6875 -4.578125 c
-56.65625 -7.203125 l
-54.546875 -8.859375 -51.789063 -9.8125 -51.789063 -9.8125 c
-49.03125 -10.765625 -45.984375 -10.765625 -45.984375 -10.765625 c
-41 -10.765625 -38.234375 -8.476563 -38.234375 -8.476563 c
-35.46875 -6.1875 -35.46875 -2.203125 -35.46875 -2.203125 c
h
-6.53125 6.8125 m
-6.53125 15.703125 -9.335938 20.085937 -9.335938 20.085937 c
-12.140625 24.46875 -17.90625 24.46875 -17.90625 24.46875 c
-23.4375 24.46875 -26.320312 19.976562 -26.320312 19.976562 c
-29.203125 15.484375 -29.203125 6.8125 -29.203125 6.8125 c
-29.203125 -2.140625 -26.414063 -6.476563 -26.414063 -6.476563 c
-23.625 -10.8125 -17.90625 -10.8125 -17.90625 -10.8125 c
-12.328125 -10.8125 -9.429688 -6.289063 -9.429688 -6.289063 c
-6.53125 -1.765625 -6.53125 6.8125 -6.53125 6.8125 c
h
-25.265625 6.8125 m
-25.265625 14.296875 -23.507813 17.703125 -23.507813 17.703125 c
-21.75 21.109375 -17.90625 21.109375 -17.90625 21.109375 c
-14.015625 21.109375 -12.265625 17.65625 -12.265625 17.65625 c
-10.515625 14.203125 -10.515625 6.8125 -10.515625 6.8125 c
-10.515625 -0.5625 -12.265625 -4 -12.265625 -4 c
-14.015625 -7.4375 -17.90625 -7.4375 -17.90625 -7.4375 c
-21.75 -7.4375 -23.507813 -4.046875 -23.507813 -4.046875 c
-25.265625 -0.65625 -25.265625 6.8125 -25.265625 6.8125 c
h
f
Q
q
[2.430556 0 0 2.430556 0 -91.666669] cm
0 37.714264 1028.571464 1028.571486 re
W
/DeviceGray {} CS
[0] SC
350.953125 1052.5625 m
339.328125 1022.1875 l
339.140625 1022.1875 l
339.46875 1025.796875 339.46875 1030.765625 339.46875 1030.765625 c
339.46875 1052.5625 l
335.796875 1052.5625 l
335.796875 1018.296875 l
341.796875 1018.296875 l
352.640625 1046.5625 l
352.828125 1046.5625 l
363.78125 1018.296875 l
369.734375 1018.296875 l
369.734375 1052.5625 l
365.75 1052.5625 l
365.75 1030.484375 l
365.75 1026.6875 366.078125 1022.234375 366.078125 1022.234375 c
365.890625 1022.234375 l
354.171875 1052.5625 l
350.953125 1052.5625 l
h
400.703125 1039.6875 m
400.703125 1045.96875 397.539063 1049.5 397.539063 1049.5 c
394.375 1053.03125 388.796875 1053.03125 388.796875 1053.03125 c
385.359375 1053.03125 382.6875 1051.414063 382.6875 1051.414063 c
380.015625 1049.796875 378.5625 1046.773437 378.5625 1046.773437 c
377.109375 1043.75 377.109375 1039.6875 377.109375 1039.6875 c
377.109375 1033.40625 380.25 1029.90625 380.25 1029.90625 c
383.390625 1026.40625 388.96875 1026.40625 388.96875 1026.40625 c
394.359375 1026.40625 397.53125 1029.992188 397.53125 1029.992188 c
400.703125 1033.578125 400.703125 1039.6875 400.703125 1039.6875 c
h
381.140625 1039.6875 m
381.140625 1044.609375 383.109375 1047.1875 383.109375 1047.1875 c
385.078125 1049.765625 388.890625 1049.765625 388.890625 1049.765625 c
392.71875 1049.765625 394.695312 1047.203125 394.695312 1047.203125 c
396.671875 1044.640625 396.671875 1039.6875 396.671875 1039.6875 c
396.671875 1034.796875 394.695312 1032.25 394.695312 1032.25 c
392.71875 1029.703125 388.84375 1029.703125 388.84375 1029.703125 c
385.03125 1029.703125 383.085937 1032.210938 383.085937 1032.210938 c
381.140625 1034.71875 381.140625 1039.6875 381.140625 1039.6875 c
h
425.109375 1052.5625 m
425.109375 1035.9375 l
425.109375 1032.796875 423.679688 1031.25 423.679688 1031.25 c
422.25 1029.703125 419.203125 1029.703125 419.203125 1029.703125 c
415.171875 1029.703125 413.296875 1031.882812 413.296875 1031.882812 c
411.421875 1034.0625 411.421875 1039.078125 411.421875 1039.078125 c
411.421875 1052.5625 l
407.53125 1052.5625 l
407.53125 1026.875 l
410.703125 1026.875 l
411.328125 1030.390625 l
411.515625 1030.390625 l
412.71875 1028.484375 414.875 1027.445313 414.875 1027.445313 c
417.03125 1026.40625 419.671875 1026.40625 419.671875 1026.40625 c
424.3125 1026.40625 426.65625 1028.640625 426.65625 1028.640625 c
429 1030.875 429 1035.796875 429 1035.796875 c
429 1052.5625 l
425.109375 1052.5625 l
h
440.875 1052.5625 m
436.984375 1052.5625 l
436.984375 1026.875 l
440.875 1026.875 l
440.875 1052.5625 l
h
436.65625 1019.90625 m
436.65625 1018.578125 437.3125 1017.953125 437.3125 1017.953125 c
437.96875 1017.328125 438.953125 1017.328125 438.953125 1017.328125 c
439.890625 1017.328125 440.570312 1017.960938 440.570312 1017.960938 c
441.25 1018.59375 441.25 1019.90625 441.25 1019.90625 c
441.25 1021.21875 440.570312 1021.867187 440.570312 1021.867187 c
439.890625 1022.515625 438.953125 1022.515625 438.953125 1022.515625 c
437.96875 1022.515625 437.3125 1021.867187 437.3125 1021.867187 c
436.65625 1021.21875 436.65625 1019.90625 436.65625 1019.90625 c
h
457.421875 1049.8125 m
458.453125 1049.8125 459.414063 1049.664062 459.414063 1049.664062 c
460.375 1049.515625 460.9375 1049.34375 460.9375 1049.34375 c
460.9375 1052.328125 l
460.3125 1052.640625 459.078125 1052.835938 459.078125 1052.835938 c
457.84375 1053.03125 456.859375 1053.03125 456.859375 1053.03125 c
449.40625 1053.03125 449.40625 1045.171875 449.40625 1045.171875 c
449.40625 1029.890625 l
445.734375 1029.890625 l
445.734375 1028.015625 l
449.40625 1026.40625 l
451.046875 1020.921875 l
453.296875 1020.921875 l
453.296875 1026.875 l
460.75 1026.875 l
460.75 1029.890625 l
453.296875 1029.890625 l
453.296875 1045.015625 l
453.296875 1047.328125 454.398437 1048.570312 454.398437 1048.570312 c
455.5 1049.8125 457.421875 1049.8125 457.421875 1049.8125 c
h
488.25 1039.6875 m
488.25 1045.96875 485.085937 1049.5 485.085937 1049.5 c
481.921875 1053.03125 476.34375 1053.03125 476.34375 1053.03125 c
472.90625 1053.03125 470.234375 1051.414063 470.234375 1051.414063 c
467.5625 1049.796875 466.109375 1046.773437 466.109375 1046.773437 c
464.65625 1043.75 464.65625 1039.6875 464.65625 1039.6875 c
464.65625 1033.40625 467.796875 1029.90625 467.796875 1029.90625 c
470.9375 1026.40625 476.515625 1026.40625 476.515625 1026.40625 c
481.90625 1026.40625 485.078125 1029.992188 485.078125 1029.992188 c
488.25 1033.578125 488.25 1039.6875 488.25 1039.6875 c
h
468.6875 1039.6875 m
468.6875 1044.609375 470.65625 1047.1875 470.65625 1047.1875 c
472.625 1049.765625 476.4375 1049.765625 476.4375 1049.765625 c
480.265625 1049.765625 482.242188 1047.203125 482.242188 1047.203125 c
484.21875 1044.640625 484.21875 1039.6875 484.21875 1039.6875 c
484.21875 1034.796875 482.242188 1032.25 482.242188 1032.25 c
480.265625 1029.703125 476.390625 1029.703125 476.390625 1029.703125 c
472.578125 1029.703125 470.632813 1032.210938 470.632813 1032.210938 c
468.6875 1034.71875 468.6875 1039.6875 468.6875 1039.6875 c
h
506.78125 1026.40625 m
508.5 1026.40625 509.859375 1026.6875 509.859375 1026.6875 c
509.3125 1030.296875 l
507.71875 1029.9375 506.5 1029.9375 506.5 1029.9375 c
503.390625 1029.9375 501.171875 1032.46875 501.171875 1032.46875 c
498.953125 1035 498.953125 1038.78125 498.953125 1038.78125 c
498.953125 1052.5625 l
495.0625 1052.5625 l
495.0625 1026.875 l
498.28125 1026.875 l
498.71875 1031.625 l
498.90625 1031.625 l
500.34375 1029.125 502.359375 1027.765625 502.359375 1027.765625 c
504.375 1026.40625 506.78125 1026.40625 506.78125 1026.40625 c
h
518.546875 1052.5625 m
514.65625 1052.5625 l
514.65625 1026.875 l
518.546875 1026.875 l
518.546875 1052.5625 l
h
514.328125 1019.90625 m
514.328125 1018.578125 514.984375 1017.953125 514.984375 1017.953125 c
515.640625 1017.328125 516.625 1017.328125 516.625 1017.328125 c
517.5625 1017.328125 518.242188 1017.960938 518.242188 1017.960938 c
518.921875 1018.59375 518.921875 1019.90625 518.921875 1019.90625 c
518.921875 1021.21875 518.242188 1021.867187 518.242188 1021.867187 c
517.5625 1022.515625 516.625 1022.515625 516.625 1022.515625 c
515.640625 1022.515625 514.984375 1021.867187 514.984375 1021.867187 c
514.328125 1021.21875 514.328125 1019.90625 514.328125 1019.90625 c
h
544.375 1052.5625 m
544.375 1035.9375 l
544.375 1032.796875 542.945313 1031.25 542.945313 1031.25 c
541.515625 1029.703125 538.46875 1029.703125 538.46875 1029.703125 c
534.4375 1029.703125 532.5625 1031.882812 532.5625 1031.882812 c
530.6875 1034.0625 530.6875 1039.078125 530.6875 1039.078125 c
530.6875 1052.5625 l
526.796875 1052.5625 l
526.796875 1026.875 l
529.96875 1026.875 l
530.59375 1030.390625 l
530.78125 1030.390625 l
531.984375 1028.484375 534.140625 1027.445313 534.140625 1027.445313 c
536.296875 1026.40625 538.9375 1026.40625 538.9375 1026.40625 c
543.578125 1026.40625 545.921875 1028.640625 545.921875 1028.640625 c
548.265625 1030.875 548.265625 1035.796875 548.265625 1035.796875 c
548.265625 1052.5625 l
544.375 1052.5625 l
h
577.296875 1026.875 m
577.296875 1029.328125 l
572.53125 1029.890625 l
573.1875 1030.71875 573.703125 1032.039063 573.703125 1032.039063 c
574.21875 1033.359375 574.21875 1035.03125 574.21875 1035.03125 c
574.21875 1038.796875 571.640625 1041.046875 571.640625 1041.046875 c
569.0625 1043.296875 564.5625 1043.296875 564.5625 1043.296875 c
563.421875 1043.296875 562.40625 1043.109375 562.40625 1043.109375 c
559.921875 1044.421875 559.921875 1046.421875 559.921875 1046.421875 c
559.921875 1047.46875 560.789063 1047.976563 560.789063 1047.976563 c
561.65625 1048.484375 563.765625 1048.484375 563.765625 1048.484375 c
568.3125 1048.484375 l
572.484375 1048.484375 574.726563 1050.242188 574.726563 1050.242188 c
576.96875 1052 576.96875 1055.359375 576.96875 1055.359375 c
576.96875 1059.625 573.546875 1061.859375 573.546875 1061.859375 c
570.125 1064.09375 563.5625 1064.09375 563.5625 1064.09375 c
558.515625 1064.09375 555.789063 1062.21875 555.789063 1062.21875 c
553.0625 1060.34375 553.0625 1056.921875 553.0625 1056.921875 c
553.0625 1054.578125 554.5625 1052.867188 554.5625 1052.867188 c
556.0625 1051.15625 558.78125 1050.546875 558.78125 1050.546875 c
557.796875 1050.09375 557.125 1049.15625 557.125 1049.15625 c
556.453125 1048.21875 556.453125 1046.984375 556.453125 1046.984375 c
556.453125 1045.578125 557.203125 1044.523437 557.203125 1044.523437 c
557.953125 1043.46875 559.578125 1042.484375 559.578125 1042.484375 c
557.578125 1041.65625 556.328125 1039.6875 556.328125 1039.6875 c
555.078125 1037.71875 555.078125 1035.1875 555.078125 1035.1875 c
555.078125 1030.96875 557.609375 1028.6875 557.609375 1028.6875 c
560.140625 1026.40625 564.78125 1026.40625 564.78125 1026.40625 c
566.796875 1026.40625 568.40625 1026.875 568.40625 1026.875 c
577.296875 1026.875 l
h
556.8125 1056.875 m
556.8125 1058.96875 558.570313 1060.046875 558.570313 1060.046875 c
560.328125 1061.125 563.609375 1061.125 563.609375 1061.125 c
568.5 1061.125 570.859375 1059.65625 570.859375 1059.65625 c
573.21875 1058.1875 573.21875 1055.6875 573.21875 1055.6875 c
573.21875 1053.59375 571.929688 1052.78125 571.929688 1052.78125 c
570.640625 1051.96875 567.078125 1051.96875 567.078125 1051.96875 c
562.40625 1051.96875 l
559.765625 1051.96875 558.289063 1053.242188 558.289063 1053.242188 c
556.8125 1054.515625 556.8125 1056.875 556.8125 1056.875 c
h
558.921875 1035.09375 m
558.921875 1037.796875 560.445313 1039.179688 560.445313 1039.179688 c
561.96875 1040.5625 564.6875 1040.5625 564.6875 1040.5625 c
570.375 1040.5625 570.375 1035.03125 570.375 1035.03125 c
570.375 1029.234375 564.609375 1029.234375 564.609375 1029.234375 c
561.875 1029.234375 560.398438 1030.710938 560.398438 1030.710938 c
558.921875 1032.1875 558.921875 1035.09375 558.921875 1035.09375 c
h
622.96875 1035.09375 m
622.96875 1043.578125 618.367187 1048.070312 618.367187 1048.070312 c
613.765625 1052.5625 605.109375 1052.5625 605.109375 1052.5625 c
595.625 1052.5625 l
595.625 1018.296875 l
606.125 1018.296875 l
614.109375 1018.296875 618.539063 1022.726563 618.539063 1022.726563 c
622.96875 1027.15625 622.96875 1035.09375 622.96875 1035.09375 c
h
618.75 1035.234375 m
618.75 1028.53125 615.390625 1025.132812 615.390625 1025.132812 c
612.03125 1021.734375 605.390625 1021.734375 605.390625 1021.734375 c
599.609375 1021.734375 l
599.609375 1049.109375 l
604.453125 1049.109375 l
611.578125 1049.109375 615.164063 1045.609375 615.164063 1045.609375 c
618.75 1042.109375 618.75 1035.234375 618.75 1035.234375 c
h
645.8125 1052.5625 m
645.046875 1048.90625 l
644.859375 1048.90625 l
642.9375 1051.3125 641.023438 1052.171875 641.023438 1052.171875 c
639.109375 1053.03125 636.25 1053.03125 636.25 1053.03125 c
632.4375 1053.03125 630.265625 1051.0625 630.265625 1051.0625 c
628.09375 1049.09375 628.09375 1045.453125 628.09375 1045.453125 c
628.09375 1037.671875 640.546875 1037.296875 640.546875 1037.296875 c
644.90625 1037.15625 l
644.90625 1035.5625 l
644.90625 1032.546875 643.601563 1031.101563 643.601563 1031.101563 c
642.296875 1029.65625 639.4375 1029.65625 639.4375 1029.65625 c
636.234375 1029.65625 632.171875 1031.625 632.171875 1031.625 c
630.984375 1028.65625 l
632.875 1027.625 635.140625 1027.039063 635.140625 1027.039063 c
637.40625 1026.453125 639.671875 1026.453125 639.671875 1026.453125 c
644.265625 1026.453125 646.484375 1028.492188 646.484375 1028.492188 c
648.703125 1030.53125 648.703125 1035.03125 648.703125 1035.03125 c
648.703125 1052.5625 l
645.8125 1052.5625 l
h
637.03125 1049.8125 m
640.65625 1049.8125 642.734375 1047.820312 642.734375 1047.820312 c
644.8125 1045.828125 644.8125 1042.25 644.8125 1042.25 c
644.8125 1039.921875 l
640.921875 1040.09375 l
636.28125 1040.25 634.226563 1041.53125 634.226563 1041.53125 c
632.171875 1042.8125 632.171875 1045.5 632.171875 1045.5 c
632.171875 1047.609375 633.453125 1048.710938 633.453125 1048.710938 c
634.734375 1049.8125 637.03125 1049.8125 637.03125 1049.8125 c
h
652.640625 1026.875 m
656.8125 1026.875 l
662.4375 1041.515625 l
664.296875 1046.53125 664.734375 1048.765625 664.734375 1048.765625 c
664.921875 1048.765625 l
665.234375 1047.5625 666.203125 1044.671875 666.203125 1044.671875 c
667.171875 1041.78125 672.5625 1026.875 672.5625 1026.875 c
676.734375 1026.875 l
665.703125 1056.125 l
664.0625 1060.46875 661.867187 1062.28125 661.867187 1062.28125 c
659.671875 1064.09375 656.484375 1064.09375 656.484375 1064.09375 c
654.703125 1064.09375 652.96875 1063.703125 652.96875 1063.703125 c
652.96875 1060.578125 l
654.265625 1060.859375 655.859375 1060.859375 655.859375 1060.859375 c
659.859375 1060.859375 661.578125 1056.359375 661.578125 1056.359375 c
663 1052.703125 l
652.640625 1026.875 l
h
697.484375 1045.546875 m
697.484375 1049.140625 694.8125 1051.085938 694.8125 1051.085938 c
692.140625 1053.03125 687.3125 1053.03125 687.3125 1053.03125 c
682.203125 1053.03125 679.34375 1051.40625 679.34375 1051.40625 c
679.34375 1047.796875 l
681.1875 1048.734375 683.3125 1049.273437 683.3125 1049.273437 c
685.4375 1049.8125 687.40625 1049.8125 687.40625 1049.8125 c
690.453125 1049.8125 692.09375 1048.84375 692.09375 1048.84375 c
693.734375 1047.875 693.734375 1045.875 693.734375 1045.875 c
693.734375 1044.375 692.429688 1043.3125 692.429688 1043.3125 c
691.125 1042.25 687.359375 1040.796875 687.359375 1040.796875 c
683.765625 1039.453125 682.257813 1038.460938 682.257813 1038.460938 c
680.75 1037.46875 680.007813 1036.203125 680.007813 1036.203125 c
679.265625 1034.9375 679.265625 1033.171875 679.265625 1033.171875 c
679.265625 1030.03125 681.820313 1028.21875 681.820313 1028.21875 c
684.375 1026.40625 688.828125 1026.40625 688.828125 1026.40625 c
692.984375 1026.40625 696.9375 1028.09375 696.9375 1028.09375 c
695.5625 1031.25 l
691.6875 1029.65625 688.546875 1029.65625 688.546875 1029.65625 c
685.78125 1029.65625 684.375 1030.523437 684.375 1030.523437 c
682.96875 1031.390625 682.96875 1032.921875 682.96875 1032.921875 c
682.96875 1033.953125 683.5 1034.679688 683.5 1034.679688 c
684.03125 1035.40625 685.203125 1036.0625 685.203125 1036.0625 c
686.375 1036.71875 689.703125 1037.953125 689.703125 1037.953125 c
694.265625 1039.625 695.875 1041.3125 695.875 1041.3125 c
697.484375 1043 697.484375 1045.546875 697.484375 1045.546875 c
h
f
Q
q
[0 -2.430556 2.430556 0 -1166.666693 1350.00003] cm
-473.142873 480.000016 1028.571464 1028.571464 re
W
/DeviceGray {} CS
[0] SC
-157.703125 531.421875 m
-157.703125 497.15625 l
-153.71875 497.15625 l
-153.71875 527.8125 l
-138.609375 527.8125 l
-138.609375 531.421875 l
-157.703125 531.421875 l
h
-122.515625 531.890625 m
-128.21875 531.890625 -131.507813 528.421875 -131.507813 528.421875 c
-134.796875 524.953125 -134.796875 518.78125 -134.796875 518.78125 c
-134.796875 512.578125 -131.742188 508.921875 -131.742188 508.921875 c
-128.6875 505.265625 -123.53125 505.265625 -123.53125 505.265625 c
-118.703125 505.265625 -115.890625 508.4375 -115.890625 508.4375 c
-113.078125 511.609375 -113.078125 516.8125 -113.078125 516.8125 c
-113.078125 519.28125 l
-130.765625 519.28125 l
-130.65625 523.796875 -128.484375 526.140625 -128.484375 526.140625 c
-126.3125 528.484375 -122.375 528.484375 -122.375 528.484375 c
-118.234375 528.484375 -114.171875 526.75 -114.171875 526.75 c
-114.171875 530.21875 l
-116.234375 531.109375 -118.078125 531.5 -118.078125 531.5 c
-119.921875 531.890625 -122.515625 531.890625 -122.515625 531.890625 c
h
-123.578125 508.515625 m
-126.671875 508.515625 -128.507813 510.53125 -128.507813 510.53125 c
-130.34375 512.546875 -130.671875 516.109375 -130.671875 516.109375 c
-117.25 516.109375 l
-117.25 512.4375 -118.890625 510.476562 -118.890625 510.476562 c
-120.53125 508.515625 -123.578125 508.515625 -123.578125 508.515625 c
h
-90.640625 531.421875 m
-91.40625 527.765625 l
-91.59375 527.765625 l
-93.515625 530.171875 -95.429688 531.03125 -95.429688 531.03125 c
-97.34375 531.890625 -100.203125 531.890625 -100.203125 531.890625 c
-104.015625 531.890625 -106.1875 529.921875 -106.1875 529.921875 c
-108.359375 527.953125 -108.359375 524.3125 -108.359375 524.3125 c
-108.359375 516.53125 -95.90625 516.15625 -95.90625 516.15625 c
-91.546875 516.015625 l
-91.546875 514.421875 l
-91.546875 511.40625 -92.851563 509.960937 -92.851563 509.960937 c
-94.15625 508.515625 -97.015625 508.515625 -97.015625 508.515625 c
-100.21875 508.515625 -104.28125 510.484375 -104.28125 510.484375 c
-105.46875 507.515625 l
-103.578125 506.484375 -101.3125 505.898437 -101.3125 505.898437 c
-99.046875 505.3125 -96.78125 505.3125 -96.78125 505.3125 c
-92.1875 505.3125 -89.96875 507.351563 -89.96875 507.351563 c
-87.75 509.390625 -87.75 513.890625 -87.75 513.890625 c
-87.75 531.421875 l
-90.640625 531.421875 l
h
-99.421875 528.671875 m
-95.796875 528.671875 -93.71875 526.679688 -93.71875 526.679688 c
-91.640625 524.6875 -91.640625 521.109375 -91.640625 521.109375 c
-91.640625 518.78125 l
-95.53125 518.953125 l
-100.171875 519.109375 -102.226563 520.390625 -102.226563 520.390625 c
-104.28125 521.671875 -104.28125 524.359375 -104.28125 524.359375 c
-104.28125 526.46875 -103 527.570313 -103 527.570313 c
-101.71875 528.671875 -99.421875 528.671875 -99.421875 528.671875 c
h
-62.265625 527.96875 m
-62.46875 527.96875 l
-65.171875 531.890625 -70.53125 531.890625 -70.53125 531.890625 c
-75.578125 531.890625 -78.375 528.445313 -78.375 528.445313 c
-81.171875 525 -81.171875 518.640625 -81.171875 518.640625 c
-81.171875 512.296875 -78.359375 508.78125 -78.359375 508.78125 c
-75.546875 505.265625 -70.53125 505.265625 -70.53125 505.265625 c
-65.3125 505.265625 -62.515625 509.0625 -62.515625 509.0625 c
-62.21875 509.0625 l
-62.375 507.203125 l
-62.46875 505.40625 l
-62.46875 494.953125 l
-58.578125 494.953125 l
-58.578125 531.421875 l
-61.75 531.421875 l
-62.265625 527.96875 l
h
-70.046875 528.625 m
-66.0625 528.625 -64.265625 526.460938 -64.265625 526.460938 c
-62.46875 524.296875 -62.46875 519.46875 -62.46875 519.46875 c
-62.46875 518.640625 l
-62.46875 513.1875 -64.289063 510.851563 -64.289063 510.851563 c
-66.109375 508.515625 -70.09375 508.515625 -70.09375 508.515625 c
-73.515625 508.515625 -75.328125 511.179688 -75.328125 511.179688 c
-77.140625 513.84375 -77.140625 518.6875 -77.140625 518.6875 c
-77.140625 523.609375 -75.335937 526.117188 -75.335937 526.117188 c
-73.53125 528.625 -70.046875 528.625 -70.046875 528.625 c
h
-26.734375 531.421875 m
-30.71875 531.421875 l
-30.71875 500.6875 l
-41.578125 500.6875 l
-41.578125 497.15625 l
-15.890625 497.15625 l
-15.890625 500.6875 l
-26.734375 500.6875 l
-26.734375 531.421875 l
h
-7.421875 531.421875 m
-11.3125 531.421875 l
-11.3125 505.734375 l
-7.421875 505.734375 l
-7.421875 531.421875 l
h
-11.640625 498.765625 m
-11.640625 497.4375 -10.984375 496.8125 -10.984375 496.8125 c
-10.328125 496.1875 -9.34375 496.1875 -9.34375 496.1875 c
-8.40625 496.1875 -7.726563 496.820312 -7.726563 496.820312 c
-7.046875 497.453125 -7.046875 498.765625 -7.046875 498.765625 c
-7.046875 500.078125 -7.726563 500.726562 -7.726563 500.726562 c
-8.40625 501.375 -9.34375 501.375 -9.34375 501.375 c
-10.328125 501.375 -10.984375 500.726562 -10.984375 500.726562 c
-11.640625 500.078125 -11.640625 498.765625 -11.640625 498.765625 c
h
33.578125 531.421875 m
33.578125 514.703125 l
33.578125 511.640625 32.265625 510.101563 32.265625 510.101563 c
30.953125 508.5625 28.1875 508.5625 28.1875 508.5625 c
24.546875 508.5625 22.8125 510.648438 22.8125 510.648438 c
21.078125 512.734375 21.078125 517.078125 21.078125 517.078125 c
21.078125 531.421875 l
17.1875 531.421875 l
17.1875 514.703125 l
17.1875 511.640625 15.875 510.101563 15.875 510.101563 c
14.5625 508.5625 11.78125 508.5625 11.78125 508.5625 c
8.125 508.5625 6.421875 510.757813 6.421875 510.757813 c
4.71875 512.953125 4.71875 517.9375 4.71875 517.9375 c
4.71875 531.421875 l
0.828125 531.421875 l
0.828125 505.734375 l
4 505.734375 l
4.625 509.25 l
4.8125 509.25 l
5.921875 507.375 7.921875 506.320312 7.921875 506.320312 c
9.921875 505.265625 12.40625 505.265625 12.40625 505.265625 c
18.4375 505.265625 20.28125 509.625 20.28125 509.625 c
20.46875 509.625 l
21.625 507.609375 23.804688 506.4375 23.804688 506.4375 c
25.984375 505.265625 28.765625 505.265625 28.765625 505.265625 c
33.125 505.265625 35.296875 507.5 35.296875 507.5 c
37.46875 509.734375 37.46875 514.65625 37.46875 514.65625 c
37.46875 531.421875 l
33.578125 531.421875 l
h
56.328125 531.890625 m
50.625 531.890625 47.335938 528.421875 47.335938 528.421875 c
44.046875 524.953125 44.046875 518.78125 44.046875 518.78125 c
44.046875 512.578125 47.101563 508.921875 47.101563 508.921875 c
50.15625 505.265625 55.3125 505.265625 55.3125 505.265625 c
60.140625 505.265625 62.953125 508.4375 62.953125 508.4375 c
65.765625 511.609375 65.765625 516.8125 65.765625 516.8125 c
65.765625 519.28125 l
48.078125 519.28125 l
48.1875 523.796875 50.359375 526.140625 50.359375 526.140625 c
52.53125 528.484375 56.46875 528.484375 56.46875 528.484375 c
60.609375 528.484375 64.671875 526.75 64.671875 526.75 c
64.671875 530.21875 l
62.609375 531.109375 60.765625 531.5 60.765625 531.5 c
58.921875 531.890625 56.328125 531.890625 56.328125 531.890625 c
h
55.265625 508.515625 m
52.171875 508.515625 50.335938 510.53125 50.335938 510.53125 c
48.5 512.546875 48.171875 516.109375 48.171875 516.109375 c
61.59375 516.109375 l
61.59375 512.4375 59.953125 510.476562 59.953125 510.476562 c
58.3125 508.515625 55.265625 508.515625 55.265625 508.515625 c
h
82.65625 518.265625 m
82.65625 512.0625 84.476563 506.648438 84.476563 506.648438 c
86.296875 501.234375 89.71875 497.15625 89.71875 497.15625 c
93.515625 497.15625 l
90.140625 501.671875 88.4375 507.085937 88.4375 507.085937 c
86.734375 512.5 86.734375 518.21875 86.734375 518.21875 c
86.734375 523.84375 88.46875 529.21875 88.46875 529.21875 c
90.203125 534.59375 93.46875 539.015625 93.46875 539.015625 c
89.71875 539.015625 l
86.265625 535.03125 84.460938 529.710938 84.460938 529.710938 c
82.65625 524.390625 82.65625 518.265625 82.65625 518.265625 c
h
116.546875 527.96875 m
116.34375 527.96875 l
113.640625 531.890625 108.28125 531.890625 108.28125 531.890625 c
103.234375 531.890625 100.4375 528.445313 100.4375 528.445313 c
97.640625 525 97.640625 518.640625 97.640625 518.640625 c
97.640625 512.296875 100.453125 508.78125 100.453125 508.78125 c
103.265625 505.265625 108.28125 505.265625 108.28125 505.265625 c
113.5 505.265625 116.296875 509.0625 116.296875 509.0625 c
116.59375 509.0625 l
116.4375 507.203125 l
116.34375 505.40625 l
116.34375 494.953125 l
120.234375 494.953125 l
120.234375 531.421875 l
117.0625 531.421875 l
116.546875 527.96875 l
h
108.765625 528.625 m
112.75 528.625 114.546875 526.460938 114.546875 526.460938 c
116.34375 524.296875 116.34375 519.46875 116.34375 519.46875 c
116.34375 518.640625 l
116.34375 513.1875 114.523437 510.851563 114.523437 510.851563 c
112.703125 508.515625 108.71875 508.515625 108.71875 508.515625 c
105.296875 508.515625 103.484375 511.179688 103.484375 511.179688 c
101.671875 513.84375 101.671875 518.6875 101.671875 518.6875 c
101.671875 523.609375 103.476563 526.117188 103.476563 526.117188 c
105.28125 528.625 108.765625 528.625 108.765625 528.625 c
h
144.265625 531.421875 m
143.5 527.765625 l
143.3125 527.765625 l
141.390625 530.171875 139.476562 531.03125 139.476562 531.03125 c
137.5625 531.890625 134.703125 531.890625 134.703125 531.890625 c
130.890625 531.890625 128.71875 529.921875 128.71875 529.921875 c
126.546875 527.953125 126.546875 524.3125 126.546875 524.3125 c
126.546875 516.53125 139 516.15625 139 516.15625 c
143.359375 516.015625 l
143.359375 514.421875 l
143.359375 511.40625 142.054688 509.960937 142.054688 509.960937 c
140.75 508.515625 137.890625 508.515625 137.890625 508.515625 c
134.6875 508.515625 130.625 510.484375 130.625 510.484375 c
129.4375 507.515625 l
131.328125 506.484375 133.59375 505.898437 133.59375 505.898437 c
135.859375 505.3125 138.125 505.3125 138.125 505.3125 c
142.71875 505.3125 144.9375 507.351563 144.9375 507.351563 c
147.15625 509.390625 147.15625 513.890625 147.15625 513.890625 c
147.15625 531.421875 l
144.265625 531.421875 l
h
135.484375 528.671875 m
139.109375 528.671875 141.1875 526.679688 141.1875 526.679688 c
143.265625 524.6875 143.265625 521.109375 143.265625 521.109375 c
143.265625 518.78125 l
139.375 518.953125 l
134.734375 519.109375 132.679687 520.390625 132.679687 520.390625 c
130.625 521.671875 130.625 524.359375 130.625 524.359375 c
130.625 526.46875 131.90625 527.570313 131.90625 527.570313 c
133.1875 528.671875 135.484375 528.671875 135.484375 528.671875 c
h
151.09375 505.734375 m
155.265625 505.734375 l
160.890625 520.375 l
162.75 525.390625 163.1875 527.625 163.1875 527.625 c
163.375 527.625 l
163.6875 526.421875 164.65625 523.53125 164.65625 523.53125 c
165.625 520.640625 171.015625 505.734375 171.015625 505.734375 c
175.1875 505.734375 l
164.15625 534.984375 l
162.515625 539.328125 160.320313 541.140625 160.320313 541.140625 c
158.125 542.953125 154.9375 542.953125 154.9375 542.953125 c
153.15625 542.953125 151.421875 542.5625 151.421875 542.5625 c
151.421875 539.4375 l
152.71875 539.71875 154.3125 539.71875 154.3125 539.71875 c
158.3125 539.71875 160.03125 535.21875 160.03125 535.21875 c
161.453125 531.5625 l
151.09375 505.734375 l
h
195.9375 524.40625 m
195.9375 528 193.265625 529.945313 193.265625 529.945313 c
190.59375 531.890625 185.765625 531.890625 185.765625 531.890625 c
180.65625 531.890625 177.796875 530.265625 177.796875 530.265625 c
177.796875 526.65625 l
179.640625 527.59375 181.765625 528.132813 181.765625 528.132813 c
183.890625 528.671875 185.859375 528.671875 185.859375 528.671875 c
188.90625 528.671875 190.546875 527.703125 190.546875 527.703125 c
192.1875 526.734375 192.1875 524.734375 192.1875 524.734375 c
192.1875 523.234375 190.882813 522.171875 190.882813 522.171875 c
189.578125 521.109375 185.8125 519.65625 185.8125 519.65625 c
182.21875 518.3125 180.710938 517.320313 180.710938 517.320313 c
179.203125 516.328125 178.460938 515.0625 178.460938 515.0625 c
177.71875 513.796875 177.71875 512.03125 177.71875 512.03125 c
177.71875 508.890625 180.273438 507.078125 180.273438 507.078125 c
182.828125 505.265625 187.28125 505.265625 187.28125 505.265625 c
191.4375 505.265625 195.390625 506.953125 195.390625 506.953125 c
194.015625 510.109375 l
190.140625 508.515625 187 508.515625 187 508.515625 c
184.234375 508.515625 182.828125 509.382813 182.828125 509.382813 c
181.421875 510.25 181.421875 511.78125 181.421875 511.78125 c
181.421875 512.8125 181.953125 513.539063 181.953125 513.539063 c
182.484375 514.265625 183.65625 514.921875 183.65625 514.921875 c
184.828125 515.578125 188.15625 516.8125 188.15625 516.8125 c
192.71875 518.484375 194.328125 520.171875 194.328125 520.171875 c
195.9375 521.859375 195.9375 524.40625 195.9375 524.40625 c
h
210.421875 518.265625 m
210.421875 524.4375 208.609375 529.757813 208.609375 529.757813 c
206.796875 535.078125 203.375 539.015625 203.375 539.015625 c
199.625 539.015625 l
202.875 534.609375 204.609375 529.226563 204.609375 529.226563 c
206.34375 523.84375 206.34375 518.21875 206.34375 518.21875 c
206.34375 512.5 204.648438 507.085937 204.648438 507.085937 c
202.953125 501.671875 199.578125 497.15625 199.578125 497.15625 c
203.375 497.15625 l
206.8125 501.25 208.617188 506.679688 208.617188 506.679688 c
210.421875 512.109375 210.421875 518.265625 210.421875 518.265625 c
h
f
Q
Q
showpage
%%PageTrailer
pdfEndPage
%%Trailer
end
%%DocumentSuppliedResources:
%%EOF
