%!PS-Adobe-3.0 EPSF-3.0
%%Creator: MATLAB, The MathWorks, Inc. Version 8.3.0.532 (R2014a). Operating System: Darwin 13.3.0 Darwin Kernel Version 13.3.0: Tue Jun  3 21:27:35 PDT 2014; root:xnu-2422.110.17~1/RELEASE_X86_64 x86_64.
%%Title: /Users/huijuans/2015Fall/GodBlessPLoSOne/MatLabFig_more/Fig1-3/oregonDist.eps
%%CreationDate: 09/28/2015  19:19:30
%%DocumentNeededFonts: Helvetica
%%DocumentProcessColors: Cyan Magenta Yellow Black
%%LanguageLevel: 2
%%Pages: 1
%%BoundingBox:   198   288   414   504
%%EndComments

%%BeginProlog
% MathWorks dictionary
/MathWorks 160 dict begin
% definition operators
/bdef {bind def} bind def
/ldef {load def} bind def
/xdef {exch def} bdef
/xstore {exch store} bdef
% operator abbreviations
/c  /clip ldef
/cc /concat ldef
/cp /closepath ldef
/gr /grestore ldef
/gs /gsave ldef
/mt /moveto ldef
/np /newpath ldef
/cm /currentmatrix ldef
/sm /setmatrix ldef
/rm /rmoveto ldef
/rl /rlineto ldef
/s {show newpath} bdef
/sc {setcmykcolor} bdef
/sr /setrgbcolor ldef
/sg /setgray ldef
/w /setlinewidth ldef
/j /setlinejoin ldef
/cap /setlinecap ldef
/rc {rectclip} bdef
/rf {rectfill} bdef
% page state control
/pgsv () def
/bpage {/pgsv save def} bdef
/epage {pgsv restore} bdef
/bplot /gsave ldef
/eplot {stroke grestore} bdef
% orientation switch
/portraitMode 0 def /landscapeMode 1 def /rotateMode 2 def
% coordinate system mappings
/dpi2point 0 def
% font control
/FontSize 0 def
/FMS {/FontSize xstore findfont [FontSize 0 0 FontSize neg 0 0]
  makefont setfont} bdef
/reencode {exch dup where {pop load} {pop StandardEncoding} ifelse
  exch dup 3 1 roll findfont dup length dict begin
  { 1 index /FID ne {def}{pop pop} ifelse } forall
  /Encoding exch def currentdict end definefont pop} bdef
/isroman {findfont /CharStrings get /Agrave known} bdef
/FMSR {3 1 roll 1 index dup isroman {reencode} {pop pop} ifelse
  exch FMS} bdef
/csm {1 dpi2point div -1 dpi2point div scale neg translate
 dup landscapeMode eq {pop -90 rotate}
  {rotateMode eq {90 rotate} if} ifelse} bdef
% line types: solid, dotted, dashed, dotdash
/SO { [] 0 setdash } bdef
/DO { [.5 dpi2point mul 4 dpi2point mul] 0 setdash } bdef
/DA { [6 dpi2point mul] 0 setdash } bdef
/DD { [.5 dpi2point mul 4 dpi2point mul 6 dpi2point mul 4
  dpi2point mul] 0 setdash } bdef
% macros for lines and objects
/L {lineto stroke} bdef
/MP {3 1 roll moveto 1 sub {rlineto} repeat} bdef
/AP {{rlineto} repeat} bdef
/PDlw -1 def
/W {/PDlw currentlinewidth def setlinewidth} def
/PP {closepath eofill} bdef
/DP {closepath stroke} bdef
/MR {4 -2 roll moveto dup  0 exch rlineto exch 0 rlineto
  neg 0 exch rlineto closepath} bdef
/FR {MR stroke} bdef
/PR {MR fill} bdef
/L1i {{currentfile picstr readhexstring pop} image} bdef
/tMatrix matrix def
/MakeOval {newpath tMatrix currentmatrix pop translate scale
0 0 1 0 360 arc tMatrix setmatrix} bdef
/FO {MakeOval stroke} bdef
/PO {MakeOval fill} bdef
/PD {currentlinewidth 2 div 0 360 arc fill
   PDlw -1 eq not {PDlw w /PDlw -1 def} if} def
/FA {newpath tMatrix currentmatrix pop translate scale
  0 0 1 5 -2 roll arc tMatrix setmatrix stroke} bdef
/PA {newpath tMatrix currentmatrix pop	translate 0 0 moveto scale
  0 0 1 5 -2 roll arc closepath tMatrix setmatrix fill} bdef
/FAn {newpath tMatrix currentmatrix pop translate scale
  0 0 1 5 -2 roll arcn tMatrix setmatrix stroke} bdef
/PAn {newpath tMatrix currentmatrix pop translate 0 0 moveto scale
  0 0 1 5 -2 roll arcn closepath tMatrix setmatrix fill} bdef
/vradius 0 def /hradius 0 def /lry 0 def
/lrx 0 def /uly 0 def /ulx 0 def /rad 0 def
/MRR {/vradius xdef /hradius xdef /lry xdef /lrx xdef /uly xdef
  /ulx xdef newpath tMatrix currentmatrix pop ulx hradius add uly
  vradius add translate hradius vradius scale 0 0 1 180 270 arc 
  tMatrix setmatrix lrx hradius sub uly vradius add translate
  hradius vradius scale 0 0 1 270 360 arc tMatrix setmatrix
  lrx hradius sub lry vradius sub translate hradius vradius scale
  0 0 1 0 90 arc tMatrix setmatrix ulx hradius add lry vradius sub
  translate hradius vradius scale 0 0 1 90 180 arc tMatrix setmatrix
  closepath} bdef
/FRR {MRR stroke } bdef
/PRR {MRR fill } bdef
/MlrRR {/lry xdef /lrx xdef /uly xdef /ulx xdef /rad lry uly sub 2 div def
  newpath tMatrix currentmatrix pop ulx rad add uly rad add translate
  rad rad scale 0 0 1 90 270 arc tMatrix setmatrix lrx rad sub lry rad
  sub translate rad rad scale 0 0 1 270 90 arc tMatrix setmatrix
  closepath} bdef
/FlrRR {MlrRR stroke } bdef
/PlrRR {MlrRR fill } bdef
/MtbRR {/lry xdef /lrx xdef /uly xdef /ulx xdef /rad lrx ulx sub 2 div def
  newpath tMatrix currentmatrix pop ulx rad add uly rad add translate
  rad rad scale 0 0 1 180 360 arc tMatrix setmatrix lrx rad sub lry rad
  sub translate rad rad scale 0 0 1 0 180 arc tMatrix setmatrix
  closepath} bdef
/FtbRR {MtbRR stroke } bdef
/PtbRR {MtbRR fill } bdef
/stri 6 array def /dtri 6 array def
/smat 6 array def /dmat 6 array def
/tmat1 6 array def /tmat2 6 array def /dif 3 array def
/asub {/ind2 exch def /ind1 exch def dup dup
  ind1 get exch ind2 get sub exch } bdef
/tri_to_matrix {
  2 0 asub 3 1 asub 4 0 asub 5 1 asub
  dup 0 get exch 1 get 7 -1 roll astore } bdef
/compute_transform {
  dmat dtri tri_to_matrix tmat1 invertmatrix 
  smat stri tri_to_matrix tmat2 concatmatrix } bdef
/ds {stri astore pop} bdef
/dt {dtri astore pop} bdef
/db {2 copy /cols xdef /rows xdef mul dup 3 mul string
  currentfile 
  3 index 0 eq {/ASCIIHexDecode filter}
  {/ASCII85Decode filter 3 index 2 eq {/RunLengthDecode filter} if }
  ifelse exch readstring pop
  dup 0 3 index getinterval /rbmap xdef
  dup 2 index dup getinterval /gbmap xdef
  1 index dup 2 mul exch getinterval /bbmap xdef pop pop}bdef
/it {gs np dtri aload pop moveto lineto lineto cp c
  cols rows 8 compute_transform 
  rbmap gbmap bbmap true 3 colorimage gr}bdef
/il {newpath moveto lineto stroke}bdef
currentdict end def
%%EndProlog

%%BeginSetup
MathWorks begin

0 cap

end
%%EndSetup

%%Page: 1 1
%%BeginPageSetup
%%PageBoundingBox:   198   288   414   504
MathWorks begin
bpage
%%EndPageSetup

%%BeginObject: obj1
bplot

/dpi2point 12 def
portraitMode 2376 6048 csm

    0     0  2592  2592 rc
85 dict begin %Colortable dictionary
/c0 { 0.000000 0.000000 0.000000 sr} bdef
/c1 { 1.000000 1.000000 1.000000 sr} bdef
/c2 { 0.900000 0.000000 0.000000 sr} bdef
/c3 { 0.000000 0.820000 0.000000 sr} bdef
/c4 { 0.000000 0.000000 0.800000 sr} bdef
/c5 { 0.910000 0.820000 0.320000 sr} bdef
/c6 { 1.000000 0.260000 0.820000 sr} bdef
/c7 { 0.000000 0.820000 0.820000 sr} bdef
c0
1 j
1 sg
   0    0 2593 2593 rf
6 w
0 1964 1768 0 0 -1964 605 2160 4 MP
PP
-1768 0 0 1964 1768 0 0 -1964 605 2160 5 MP stroke
4 w
DO
SO
6 w
0 sg
 605 2160 mt 2373 2160 L
 605  196 mt 2373  196 L
 605 2160 mt  605  196 L
2373 2160 mt 2373  196 L
 605 2160 mt 2373 2160 L
 605 2160 mt  605  196 L
 801 2160 mt  801 2140 L
 801  196 mt  801  215 L
%%IncludeResource: font Helvetica
/Helvetica /ISOLatin1Encoding 144 FMSR

 761 2328 mt 
(0) s
1194 2160 mt 1194 2140 L
1194  196 mt 1194  215 L
1154 2328 mt 
(2) s
1587 2160 mt 1587 2140 L
1587  196 mt 1587  215 L
1547 2328 mt 
(4) s
1980 2160 mt 1980 2140 L
1980  196 mt 1980  215 L
1940 2328 mt 
(6) s
2373 2160 mt 2373 2140 L
2373  196 mt 2373  215 L
2333 2328 mt 
(8) s
 605 2160 mt  624 2160 L
2373 2160 mt 2353 2160 L
 490 2213 mt 
(0) s
 605 1879 mt  624 1879 L
2373 1879 mt 2353 1879 L
 330 1932 mt 
(100) s
 605 1598 mt  624 1598 L
2373 1598 mt 2353 1598 L
 330 1651 mt 
(200) s
 605 1318 mt  624 1318 L
2373 1318 mt 2353 1318 L
 330 1371 mt 
(300) s
 605 1037 mt  624 1037 L
2373 1037 mt 2353 1037 L
 330 1090 mt 
(400) s
 605  757 mt  624  757 L
2373  757 mt 2353  757 L
 330  810 mt 
(500) s
 605  476 mt  624  476 L
2373  476 mt 2353  476 L
 330  529 mt 
(600) s
 605  196 mt  624  196 L
2373  196 mt 2353  196 L
 330  249 mt 
(700) s
 605 2160 mt 2373 2160 L
 605  196 mt 2373  196 L
 605 2160 mt  605  196 L
2373 2160 mt 2373  196 L
gs 605 196 1769 1965 rc
/c8 { 0.000000 0.000000 0.562500 sr} bdef
c8
0 9 159 0 0 -9 605 2160 4 MP
PP
0 sg
-159 0 0 9 159 0 0 -9 605 2160 5 MP stroke
c8
0 34 160 0 0 -34 764 2160 4 MP
PP
0 sg
-160 0 0 34 160 0 0 -34 764 2160 5 MP stroke
c8
0 23 159 0 0 -23 924 2160 4 MP
PP
0 sg
-159 0 0 23 159 0 0 -23 924 2160 5 MP stroke
c8
0 3 160 0 0 -3 1083 2160 4 MP
PP
0 sg
-160 0 0 3 160 0 0 -3 1083 2160 5 MP stroke
c8
0 6 159 0 0 -6 1243 2160 4 MP
PP
0 sg
-159 0 0 6 159 0 0 -6 1243 2160 5 MP stroke
c8
0 780 160 0 0 -780 1402 2160 4 MP
PP
0 sg
-160 0 0 780 160 0 0 -780 1402 2160 5 MP stroke
c8
0 1816 159 0 0 -1816 1562 2160 4 MP
PP
0 sg
-159 0 0 1816 159 0 0 -1816 1562 2160 5 MP stroke
c8
0 124 160 0 0 -124 1721 2160 4 MP
PP
0 sg
-160 0 0 124 160 0 0 -124 1721 2160 5 MP stroke
c8
0 9 160 0 0 -9 1881 2160 4 MP
PP
0 sg
-160 0 0 9 160 0 0 -9 1881 2160 5 MP stroke
c8
0 3 159 0 0 -3 2041 2160 4 MP
PP
0 sg
-159 0 0 3 159 0 0 -3 2041 2160 5 MP stroke
gr

 970 2489 mt 
(Lead Time \(day\)) s
 243 1516 mt  -90 rotate
(Frequency) s
90 rotate

end %%Color Dict

eplot
%%EndObject

epage
end

showpage

%%Trailer
%%EOF
