%!PS-Adobe-3.0 EPSF-3.0
%%Creator: MATLAB, The MathWorks, Inc. Version 8.3.0.532 (R2014a). Operating System: Darwin 13.3.0 Darwin Kernel Version 13.3.0: Tue Jun  3 21:27:35 PDT 2014; root:xnu-2422.110.17~1/RELEASE_X86_64 x86_64.
%%Title: /Users/huijuans/2015Fall/GodBlessPLoSOne/MatLabFig/OreganSIShift_08272015.eps
%%CreationDate: 08/31/2015  18:17:52
%%DocumentNeededFonts: Helvetica
%%DocumentProcessColors: Cyan Magenta Yellow Black
%%LanguageLevel: 2
%%Pages: 1
%%BoundingBox:   198   288   414   504
%%EndComments

%%BeginProlog
% MathWorks dictionary
/MathWorks 160 dict begin
% definition operators
/bdef {bind def} bind def
/ldef {load def} bind def
/xdef {exch def} bdef
/xstore {exch store} bdef
% operator abbreviations
/c  /clip ldef
/cc /concat ldef
/cp /closepath ldef
/gr /grestore ldef
/gs /gsave ldef
/mt /moveto ldef
/np /newpath ldef
/cm /currentmatrix ldef
/sm /setmatrix ldef
/rm /rmoveto ldef
/rl /rlineto ldef
/s {show newpath} bdef
/sc {setcmykcolor} bdef
/sr /setrgbcolor ldef
/sg /setgray ldef
/w /setlinewidth ldef
/j /setlinejoin ldef
/cap /setlinecap ldef
/rc {rectclip} bdef
/rf {rectfill} bdef
% page state control
/pgsv () def
/bpage {/pgsv save def} bdef
/epage {pgsv restore} bdef
/bplot /gsave ldef
/eplot {stroke grestore} bdef
% orientation switch
/portraitMode 0 def /landscapeMode 1 def /rotateMode 2 def
% coordinate system mappings
/dpi2point 0 def
% font control
/FontSize 0 def
/FMS {/FontSize xstore findfont [FontSize 0 0 FontSize neg 0 0]
  makefont setfont} bdef
/reencode {exch dup where {pop load} {pop StandardEncoding} ifelse
  exch dup 3 1 roll findfont dup length dict begin
  { 1 index /FID ne {def}{pop pop} ifelse } forall
  /Encoding exch def currentdict end definefont pop} bdef
/isroman {findfont /CharStrings get /Agrave known} bdef
/FMSR {3 1 roll 1 index dup isroman {reencode} {pop pop} ifelse
  exch FMS} bdef
/csm {1 dpi2point div -1 dpi2point div scale neg translate
 dup landscapeMode eq {pop -90 rotate}
  {rotateMode eq {90 rotate} if} ifelse} bdef
% line types: solid, dotted, dashed, dotdash
/SO { [] 0 setdash } bdef
/DO { [.5 dpi2point mul 4 dpi2point mul] 0 setdash } bdef
/DA { [6 dpi2point mul] 0 setdash } bdef
/DD { [.5 dpi2point mul 4 dpi2point mul 6 dpi2point mul 4
  dpi2point mul] 0 setdash } bdef
% macros for lines and objects
/L {lineto stroke} bdef
/MP {3 1 roll moveto 1 sub {rlineto} repeat} bdef
/AP {{rlineto} repeat} bdef
/PDlw -1 def
/W {/PDlw currentlinewidth def setlinewidth} def
/PP {closepath eofill} bdef
/DP {closepath stroke} bdef
/MR {4 -2 roll moveto dup  0 exch rlineto exch 0 rlineto
  neg 0 exch rlineto closepath} bdef
/FR {MR stroke} bdef
/PR {MR fill} bdef
/L1i {{currentfile picstr readhexstring pop} image} bdef
/tMatrix matrix def
/MakeOval {newpath tMatrix currentmatrix pop translate scale
0 0 1 0 360 arc tMatrix setmatrix} bdef
/FO {MakeOval stroke} bdef
/PO {MakeOval fill} bdef
/PD {currentlinewidth 2 div 0 360 arc fill
   PDlw -1 eq not {PDlw w /PDlw -1 def} if} def
/FA {newpath tMatrix currentmatrix pop translate scale
  0 0 1 5 -2 roll arc tMatrix setmatrix stroke} bdef
/PA {newpath tMatrix currentmatrix pop	translate 0 0 moveto scale
  0 0 1 5 -2 roll arc closepath tMatrix setmatrix fill} bdef
/FAn {newpath tMatrix currentmatrix pop translate scale
  0 0 1 5 -2 roll arcn tMatrix setmatrix stroke} bdef
/PAn {newpath tMatrix currentmatrix pop translate 0 0 moveto scale
  0 0 1 5 -2 roll arcn closepath tMatrix setmatrix fill} bdef
/vradius 0 def /hradius 0 def /lry 0 def
/lrx 0 def /uly 0 def /ulx 0 def /rad 0 def
/MRR {/vradius xdef /hradius xdef /lry xdef /lrx xdef /uly xdef
  /ulx xdef newpath tMatrix currentmatrix pop ulx hradius add uly
  vradius add translate hradius vradius scale 0 0 1 180 270 arc 
  tMatrix setmatrix lrx hradius sub uly vradius add translate
  hradius vradius scale 0 0 1 270 360 arc tMatrix setmatrix
  lrx hradius sub lry vradius sub translate hradius vradius scale
  0 0 1 0 90 arc tMatrix setmatrix ulx hradius add lry vradius sub
  translate hradius vradius scale 0 0 1 90 180 arc tMatrix setmatrix
  closepath} bdef
/FRR {MRR stroke } bdef
/PRR {MRR fill } bdef
/MlrRR {/lry xdef /lrx xdef /uly xdef /ulx xdef /rad lry uly sub 2 div def
  newpath tMatrix currentmatrix pop ulx rad add uly rad add translate
  rad rad scale 0 0 1 90 270 arc tMatrix setmatrix lrx rad sub lry rad
  sub translate rad rad scale 0 0 1 270 90 arc tMatrix setmatrix
  closepath} bdef
/FlrRR {MlrRR stroke } bdef
/PlrRR {MlrRR fill } bdef
/MtbRR {/lry xdef /lrx xdef /uly xdef /ulx xdef /rad lrx ulx sub 2 div def
  newpath tMatrix currentmatrix pop ulx rad add uly rad add translate
  rad rad scale 0 0 1 180 360 arc tMatrix setmatrix lrx rad sub lry rad
  sub translate rad rad scale 0 0 1 0 180 arc tMatrix setmatrix
  closepath} bdef
/FtbRR {MtbRR stroke } bdef
/PtbRR {MtbRR fill } bdef
/stri 6 array def /dtri 6 array def
/smat 6 array def /dmat 6 array def
/tmat1 6 array def /tmat2 6 array def /dif 3 array def
/asub {/ind2 exch def /ind1 exch def dup dup
  ind1 get exch ind2 get sub exch } bdef
/tri_to_matrix {
  2 0 asub 3 1 asub 4 0 asub 5 1 asub
  dup 0 get exch 1 get 7 -1 roll astore } bdef
/compute_transform {
  dmat dtri tri_to_matrix tmat1 invertmatrix 
  smat stri tri_to_matrix tmat2 concatmatrix } bdef
/ds {stri astore pop} bdef
/dt {dtri astore pop} bdef
/db {2 copy /cols xdef /rows xdef mul dup 3 mul string
  currentfile 
  3 index 0 eq {/ASCIIHexDecode filter}
  {/ASCII85Decode filter 3 index 2 eq {/RunLengthDecode filter} if }
  ifelse exch readstring pop
  dup 0 3 index getinterval /rbmap xdef
  dup 2 index dup getinterval /gbmap xdef
  1 index dup 2 mul exch getinterval /bbmap xdef pop pop}bdef
/it {gs np dtri aload pop moveto lineto lineto cp c
  cols rows 8 compute_transform 
  rbmap gbmap bbmap true 3 colorimage gr}bdef
/il {newpath moveto lineto stroke}bdef
currentdict end def
%%EndProlog

%%BeginSetup
MathWorks begin

0 cap

end
%%EndSetup

%%Page: 1 1
%%BeginPageSetup
%%PageBoundingBox:   198   288   414   504
MathWorks begin
bpage
%%EndPageSetup

%%BeginObject: obj1
bplot

/dpi2point 12 def
portraitMode 2376 6048 csm

    0     0  2592  2592 rc
85 dict begin %Colortable dictionary
/c0 { 0.000000 0.000000 0.000000 sr} bdef
/c1 { 1.000000 1.000000 1.000000 sr} bdef
/c2 { 0.900000 0.000000 0.000000 sr} bdef
/c3 { 0.000000 0.820000 0.000000 sr} bdef
/c4 { 0.000000 0.000000 0.800000 sr} bdef
/c5 { 0.910000 0.820000 0.320000 sr} bdef
/c6 { 1.000000 0.260000 0.820000 sr} bdef
/c7 { 0.000000 0.820000 0.820000 sr} bdef
c0
1 j
1 sg
   0    0 2593 2593 rf
6 w
0 1814 1814 0 0 -1814 605 2160 4 MP
PP
-1814 0 0 1814 1814 0 0 -1814 605 2160 5 MP stroke
4 w
DO
SO
6 w
0 sg
 605 2160 mt 2419 2160 L
 605  346 mt 2419  346 L
 605 2160 mt  605  346 L
2419 2160 mt 2419  346 L
 605 2160 mt 2419 2160 L
 605 2160 mt  605  346 L
 605 2160 mt  605 2141 L
 605  346 mt  605  364 L
%%IncludeResource: font Helvetica
/Helvetica /ISOLatin1Encoding 144 FMSR

 565 2328 mt 
(0) s
1209 2160 mt 1209 2141 L
1209  346 mt 1209  364 L
1089 2328 mt 
(100) s
1814 2160 mt 1814 2141 L
1814  346 mt 1814  364 L
1694 2328 mt 
(200) s
2419 2160 mt 2419 2141 L
2419  346 mt 2419  364 L
2299 2328 mt 
(300) s
 605 2160 mt  623 2160 L
2419 2160 mt 2400 2160 L
 490 2213 mt 
(0) s
 605 1857 mt  623 1857 L
2419 1857 mt 2400 1857 L
 210 1910 mt 
(0.005) s
 605 1555 mt  623 1555 L
2419 1555 mt 2400 1555 L
 290 1608 mt 
(0.01) s
 605 1253 mt  623 1253 L
2419 1253 mt 2400 1253 L
 210 1306 mt 
(0.015) s
 605  950 mt  623  950 L
2419  950 mt 2400  950 L
 290 1003 mt 
(0.02) s
 605  648 mt  623  648 L
2419  648 mt 2400  648 L
 210  701 mt 
(0.025) s
 605  346 mt  623  346 L
2419  346 mt 2400  346 L
 290  399 mt 
(0.03) s
 605 2160 mt 2419 2160 L
 605  346 mt 2419  346 L
 605 2160 mt  605  346 L
2419 2160 mt 2419  346 L
gs 605 346 1815 1815 rc
12 w
/c8 { 1.000000 0.000000 0.000000 sr} bdef
c8
7 0 6 0 6 0 6 0 6 0 6 0 6 0 6 0 
6 0 6 0 6 0 6 0 6 0 6 0 6 0 6 0 
6 0 6 0 6 0 6 0 6 0 7 0 6 0 6 0 
6 0 6 0 6 0 6 0 6 0 6 0 6 0 6 0 
6 0 6 0 6 0 6 0 6 0 6 0 6 0 6 0 
6 0 6 0 7 0 6 0 6 0 6 0 6 0 6 0 
6 1 6 -1 6 0 6 0 6 0 6 1 6 -1 6 0 
6 0 6 0 6 1 6 0 6 -1 6 0 6 0 6 1 
7 -1 6 1 6 0 6 -1 6 0 6 2 6 -1 6 0 
6 -1 6 0 6 2 6 0 6 1 6 -3 6 1 6 2 
6 -3 6 0 6 0 6 0 6 0 7 4 6 -1 6 -1 
6 1 6 1 6 0 6 1 6 -2 6 2 6 0 6 0 
6 6 6 -2 6 1 6 -1 6 -2 6 2 6 7 6 0 
6 -1 6 -1 6 5 7 -1 6 -1 6 10 6 0 6 -2 
6 6 6 0 6 7 6 8 6 -8 6 16 6 10 6 -14 
6 24 6 -6 6 5 6 1 6 1 6 26 6 7 6 6 
7 7 6 11 6 39 6 1 6 16 6 40 6 13 6 23 
6 56 6 -10 6 52 6 21 6 56 6 41 6 6 6 35 
6 93 6 3 6 66 6 90 6 47 6 59 7 -3 6 93 
6 44 6 -7 6 92 6 5 6 29 6 85 6 -23 6 78 
6 46 6 -25 6 -8 6 7 6 64 6 -78 6 24 6 -45 
6 89 6 -39 6 -101 7 64 6 -48 6 -57 6 -23 6 -70 
6 -65 6 40 6 -48 6 -84 6 -42 6 4 6 -43 6 -65 
6 -47 6 -29 6 -57 6 24 6 -59 6 -23 6 -63 6 -48 
7 -4 6 -23 6 -64 6 -23 6 4 6 -46 6 -3 6 -31 
6 -18 6 -4 6 -19 6 -14 6 -37 6 3 6 3 6 -32 
6 -7 6 -5 6 2 6 -18 6 -6 6 -15 7 16 6 -36 
6 10 6 -13 6 -10 6 -3 6 -10 6 10 6 -19 6 -6 
6 -9 6 -9 6 4 6 2 6 3 6 -24 6 10 6 -2 
6 4 6 -7 6 1 7 -6 6 4 6 2 6 -7 6 1 
6 3 6 0 6 -8 6 0 6 -2 6 8 6 -6 6 -2 
6 -6 6 6 6 -2 6 0 6 5 6 -8 6 3 6 2 
6 -4 7 -1 6 3 6 -6 6 5 6 0 6 -4 6 -2 
6 3 6 1 6 -1 6 -1 6 0 6 1 6 -3 6 2 
6 -2 6 0 6 0 6 3 6 -3 6 1 7 -1 6 1 
6 -1 6 0 6 0 6 0 6 0 6 0 6 1 6 0 
6 -1 6 0 6 1 6 -1 6 0 6 0 6 0 6 0 
6 0 6 0 6 0 611 2160 300 MP stroke
gr

12 w
c8
gs 562 755 1907 1455 rc
 587 2160 mt  635 2160 L
 611 2136 mt  611 2184 L
 593 2160 mt  641 2160 L
 617 2136 mt  617 2184 L
 599 2160 mt  647 2160 L
 623 2136 mt  623 2184 L
 605 2160 mt  653 2160 L
 629 2136 mt  629 2184 L
 611 2160 mt  659 2160 L
 635 2136 mt  635 2184 L
 617 2160 mt  665 2160 L
 641 2136 mt  641 2184 L
 623 2160 mt  671 2160 L
 647 2136 mt  647 2184 L
 629 2160 mt  677 2160 L
 653 2136 mt  653 2184 L
 635 2159 mt  683 2159 L
 659 2135 mt  659 2183 L
 641 2160 mt  689 2160 L
 665 2136 mt  665 2184 L
 647 2160 mt  695 2160 L
 671 2136 mt  671 2184 L
 653 2159 mt  701 2159 L
 677 2135 mt  677 2183 L
 659 2159 mt  707 2159 L
 683 2135 mt  683 2183 L
 665 2160 mt  713 2160 L
 689 2136 mt  689 2184 L
 671 2160 mt  719 2160 L
 695 2136 mt  695 2184 L
 677 2160 mt  725 2160 L
 701 2136 mt  701 2184 L
 683 2160 mt  731 2160 L
 707 2136 mt  707 2184 L
 689 2160 mt  737 2160 L
 713 2136 mt  713 2184 L
 695 2160 mt  743 2160 L
 719 2136 mt  719 2184 L
 701 2159 mt  749 2159 L
 725 2135 mt  725 2183 L
 707 2160 mt  755 2160 L
 731 2136 mt  731 2184 L
 714 2159 mt  762 2159 L
 738 2135 mt  738 2183 L
 720 2160 mt  768 2160 L
 744 2136 mt  744 2184 L
 726 2157 mt  774 2157 L
 750 2133 mt  750 2181 L
 732 2160 mt  780 2160 L
 756 2136 mt  756 2184 L
 738 2160 mt  786 2160 L
 762 2136 mt  762 2184 L
 744 2160 mt  792 2160 L
 768 2136 mt  768 2184 L
 750 2158 mt  798 2158 L
 774 2134 mt  774 2182 L
 756 2160 mt  804 2160 L
 780 2136 mt  780 2184 L
 762 2157 mt  810 2157 L
 786 2133 mt  786 2181 L
 768 2158 mt  816 2158 L
 792 2134 mt  792 2182 L
 774 2158 mt  822 2158 L
 798 2134 mt  798 2182 L
 780 2157 mt  828 2157 L
 804 2133 mt  804 2181 L
 786 2156 mt  834 2156 L
 810 2132 mt  810 2180 L
 792 2157 mt  840 2157 L
 816 2133 mt  816 2181 L
 798 2160 mt  846 2160 L
 822 2136 mt  822 2184 L
 804 2158 mt  852 2158 L
 828 2134 mt  828 2182 L
 810 2154 mt  858 2154 L
 834 2130 mt  834 2178 L
 816 2154 mt  864 2154 L
 840 2130 mt  840 2178 L
 822 2159 mt  870 2159 L
 846 2135 mt  846 2183 L
 828 2153 mt  876 2153 L
 852 2129 mt  852 2177 L
 834 2156 mt  882 2156 L
 858 2132 mt  858 2180 L
 841 2155 mt  889 2155 L
 865 2131 mt  865 2179 L
 847 2151 mt  895 2151 L
 871 2127 mt  871 2175 L
 853 2153 mt  901 2153 L
 877 2129 mt  877 2177 L
 859 2156 mt  907 2156 L
 883 2132 mt  883 2180 L
 865 2148 mt  913 2148 L
 889 2124 mt  889 2172 L
 871 2153 mt  919 2153 L
 895 2129 mt  895 2177 L
 877 2153 mt  925 2153 L
 901 2129 mt  901 2177 L
 883 2151 mt  931 2151 L
 907 2127 mt  907 2175 L
 889 2157 mt  937 2157 L
 913 2133 mt  913 2181 L
 895 2151 mt  943 2151 L
 919 2127 mt  919 2175 L
 901 2149 mt  949 2149 L
 925 2125 mt  925 2173 L
 907 2143 mt  955 2143 L
 931 2119 mt  931 2167 L
 913 2151 mt  961 2151 L
 937 2127 mt  937 2175 L
 919 2149 mt  967 2149 L
 943 2125 mt  943 2173 L
 925 2149 mt  973 2149 L
 949 2125 mt  949 2173 L
 931 2141 mt  979 2141 L
 955 2117 mt  955 2165 L
 937 2141 mt  985 2141 L
 961 2117 mt  961 2165 L
 943 2144 mt  991 2144 L
 967 2120 mt  967 2168 L
 949 2145 mt  997 2145 L
 973 2121 mt  973 2169 L
 955 2138 mt 1003 2138 L
 979 2114 mt  979 2162 L
 961 2140 mt 1009 2140 L
 985 2116 mt  985 2164 L
 967 2144 mt 1015 2144 L
 991 2120 mt  991 2168 L
 974 2138 mt 1022 2138 L
 998 2114 mt  998 2162 L
 980 2139 mt 1028 2139 L
1004 2115 mt 1004 2163 L
 986 2132 mt 1034 2132 L
1010 2108 mt 1010 2156 L
 992 2136 mt 1040 2136 L
1016 2112 mt 1016 2160 L
 998 2134 mt 1046 2134 L
1022 2110 mt 1022 2158 L
1004 2144 mt 1052 2144 L
1028 2120 mt 1028 2168 L
1010 2120 mt 1058 2120 L
1034 2096 mt 1034 2144 L
1016 2123 mt 1064 2123 L
1040 2099 mt 1040 2147 L
1022 2125 mt 1070 2125 L
1046 2101 mt 1046 2149 L
1028 2129 mt 1076 2129 L
1052 2105 mt 1052 2153 L
1034 2120 mt 1082 2120 L
1058 2096 mt 1058 2144 L
1040 2111 mt 1088 2111 L
1064 2087 mt 1064 2135 L
1046 2105 mt 1094 2105 L
1070 2081 mt 1070 2129 L
1052 2086 mt 1100 2086 L
1076 2062 mt 1076 2110 L
1058 2096 mt 1106 2096 L
1082 2072 mt 1082 2120 L
1064 2086 mt 1112 2086 L
1088 2062 mt 1088 2110 L
1070 2083 mt 1118 2083 L
1094 2059 mt 1094 2107 L
1076 2073 mt 1124 2073 L
1100 2049 mt 1100 2097 L
1082 2060 mt 1130 2060 L
1106 2036 mt 1106 2084 L
1088 2070 mt 1136 2070 L
1112 2046 mt 1112 2094 L
1094 2034 mt 1142 2034 L
1118 2010 mt 1118 2058 L
1101 2050 mt 1149 2050 L
1125 2026 mt 1125 2074 L
1107 2035 mt 1155 2035 L
1131 2011 mt 1131 2059 L
1113 2029 mt 1161 2029 L
1137 2005 mt 1137 2053 L
1119 2011 mt 1167 2011 L
1143 1987 mt 1143 2035 L
1125 2013 mt 1173 2013 L
1149 1989 mt 1149 2037 L
1131 2008 mt 1179 2008 L
1155 1984 mt 1155 2032 L
1137 2001 mt 1185 2001 L
1161 1977 mt 1161 2025 L
1143 1969 mt 1191 1969 L
1167 1945 mt 1167 1993 L
1149 1972 mt 1197 1972 L
1173 1948 mt 1173 1996 L
1155 1975 mt 1203 1975 L
1179 1951 mt 1179 1999 L
1161 1938 mt 1209 1938 L
1185 1914 mt 1185 1962 L
1167 1924 mt 1215 1924 L
1191 1900 mt 1191 1948 L
1173 1905 mt 1221 1905 L
1197 1881 mt 1197 1929 L
1179 1901 mt 1227 1901 L
1203 1877 mt 1203 1925 L
1185 1883 mt 1233 1883 L
1209 1859 mt 1209 1907 L
1191 1852 mt 1239 1852 L
1215 1828 mt 1215 1876 L
1197 1849 mt 1245 1849 L
1221 1825 mt 1221 1873 L
1203 1803 mt 1251 1803 L
1227 1779 mt 1227 1827 L
1209 1807 mt 1257 1807 L
1233 1783 mt 1233 1831 L
1215 1784 mt 1263 1784 L
1239 1760 mt 1239 1808 L
1221 1720 mt 1269 1720 L
1245 1696 mt 1245 1744 L
1227 1697 mt 1275 1697 L
1251 1673 mt 1251 1721 L
1234 1693 mt 1282 1693 L
1258 1669 mt 1258 1717 L
1240 1645 mt 1288 1645 L
1264 1621 mt 1264 1669 L
1246 1582 mt 1294 1582 L
1270 1558 mt 1270 1606 L
1252 1559 mt 1300 1559 L
1276 1535 mt 1276 1583 L
1258 1500 mt 1306 1500 L
1282 1476 mt 1282 1524 L
1264 1524 mt 1312 1524 L
1288 1500 mt 1288 1548 L
1270 1467 mt 1318 1467 L
1294 1443 mt 1294 1491 L
1276 1438 mt 1324 1438 L
1300 1414 mt 1300 1462 L
1282 1391 mt 1330 1391 L
1306 1367 mt 1306 1415 L
1288 1326 mt 1336 1326 L
1312 1302 mt 1312 1350 L
1294 1283 mt 1342 1283 L
1318 1259 mt 1318 1307 L
1300 1287 mt 1348 1287 L
1324 1263 mt 1324 1311 L
1306 1245 mt 1354 1245 L
1330 1221 mt 1330 1269 L
1312 1161 mt 1360 1161 L
1336 1137 mt 1336 1185 L
1318 1113 mt 1366 1113 L
1342 1089 mt 1342 1137 L
1324 1153 mt 1372 1153 L
1348 1129 mt 1348 1177 L
1330 1088 mt 1378 1088 L
1354 1064 mt 1354 1112 L
1336 1018 mt 1384 1018 L
1360  994 mt 1360 1042 L
1342  995 mt 1390  995 L
1366  971 mt 1366 1019 L
1348  938 mt 1396  938 L
1372  914 mt 1372  962 L
1354  890 mt 1402  890 L
1378  866 mt 1378  914 L
1361  954 mt 1409  954 L
1385  930 mt 1385  978 L
1367  853 mt 1415  853 L
1391  829 mt 1391  877 L
1373  814 mt 1421  814 L
1397  790 mt 1397  838 L
1379  903 mt 1427  903 L
1403  879 mt 1403  927 L
1385  858 mt 1433  858 L
1409  834 mt 1409  882 L
1391  882 mt 1439  882 L
1415  858 mt 1415  906 L
1397  804 mt 1445  804 L
1421  780 mt 1421  828 L
1403  868 mt 1451  868 L
1427  844 mt 1427  892 L
1409  875 mt 1457  875 L
1433  851 mt 1433  899 L
1415  867 mt 1463  867 L
1439  843 mt 1439  891 L
1421  842 mt 1469  842 L
1445  818 mt 1445  866 L
1427  888 mt 1475  888 L
1451  864 mt 1451  912 L
1433  966 mt 1481  966 L
1457  942 mt 1457  990 L
1439  943 mt 1487  943 L
1463  919 mt 1463  967 L
1445 1028 mt 1493 1028 L
1469 1004 mt 1469 1052 L
1451 1057 mt 1499 1057 L
1475 1033 mt 1475 1081 L
1457 1062 mt 1505 1062 L
1481 1038 mt 1481 1086 L
1463 1154 mt 1511 1154 L
1487 1130 mt 1487 1178 L
1469 1147 mt 1517 1147 L
1493 1123 mt 1493 1171 L
1475 1191 mt 1523 1191 L
1499 1167 mt 1499 1215 L
1481 1284 mt 1529 1284 L
1505 1260 mt 1505 1308 L
1488 1281 mt 1536 1281 L
1512 1257 mt 1512 1305 L
1494 1340 mt 1542 1340 L
1518 1316 mt 1518 1364 L
1500 1387 mt 1548 1387 L
1524 1363 mt 1524 1411 L
1506 1477 mt 1554 1477 L
1530 1453 mt 1530 1501 L
1512 1543 mt 1560 1543 L
1536 1519 mt 1536 1567 L
1518 1546 mt 1566 1546 L
1542 1522 mt 1542 1570 L
1524 1639 mt 1572 1639 L
1548 1615 mt 1548 1663 L
1530 1674 mt 1578 1674 L
1554 1650 mt 1554 1698 L
1536 1680 mt 1584 1680 L
1560 1656 mt 1560 1704 L
1542 1721 mt 1590 1721 L
1566 1697 mt 1566 1745 L
1548 1777 mt 1596 1777 L
1572 1753 mt 1572 1801 L
1554 1798 mt 1602 1798 L
1578 1774 mt 1578 1822 L
1560 1850 mt 1608 1850 L
1584 1826 mt 1584 1874 L
1566 1840 mt 1614 1840 L
1590 1816 mt 1590 1864 L
1572 1896 mt 1620 1896 L
1596 1872 mt 1596 1920 L
1578 1919 mt 1626 1919 L
1602 1895 mt 1602 1943 L
1584 1932 mt 1632 1932 L
1608 1908 mt 1608 1956 L
1590 1972 mt 1638 1972 L
1614 1948 mt 1614 1996 L
1596 1988 mt 1644 1988 L
1620 1964 mt 1620 2012 L
1602 1989 mt 1650 1989 L
1626 1965 mt 1626 2013 L
1608 2028 mt 1656 2028 L
1632 2004 mt 1632 2052 L
1614 2039 mt 1662 2039 L
1638 2015 mt 1638 2063 L
1621 2046 mt 1669 2046 L
1645 2022 mt 1645 2070 L
1627 2052 mt 1675 2052 L
1651 2028 mt 1651 2076 L
1633 2059 mt 1681 2059 L
1657 2035 mt 1657 2083 L
1639 2085 mt 1687 2085 L
1663 2061 mt 1663 2109 L
1645 2086 mt 1693 2086 L
1669 2062 mt 1669 2110 L
1651 2087 mt 1699 2087 L
1675 2063 mt 1675 2111 L
1657 2092 mt 1705 2092 L
1681 2068 mt 1681 2116 L
1663 2086 mt 1711 2086 L
1687 2062 mt 1687 2110 L
1669 2110 mt 1717 2110 L
1693 2086 mt 1693 2134 L
1675 2096 mt 1723 2096 L
1699 2072 mt 1699 2120 L
1681 2106 mt 1729 2106 L
1705 2082 mt 1705 2130 L
1687 2122 mt 1735 2122 L
1711 2098 mt 1711 2146 L
1693 2114 mt 1741 2114 L
1717 2090 mt 1717 2138 L
1699 2122 mt 1747 2122 L
1723 2098 mt 1723 2146 L
1705 2129 mt 1753 2129 L
1729 2105 mt 1729 2153 L
1711 2129 mt 1759 2129 L
1735 2105 mt 1735 2153 L
1717 2135 mt 1765 2135 L
1741 2111 mt 1741 2159 L
1723 2133 mt 1771 2133 L
1747 2109 mt 1747 2157 L
1729 2133 mt 1777 2133 L
1753 2109 mt 1753 2157 L
1735 2143 mt 1783 2143 L
1759 2119 mt 1759 2167 L
1741 2142 mt 1789 2142 L
1765 2118 mt 1765 2166 L
1748 2141 mt 1796 2141 L
1772 2117 mt 1772 2165 L
1754 2146 mt 1802 2146 L
1778 2122 mt 1778 2170 L
1760 2145 mt 1808 2145 L
1784 2121 mt 1784 2169 L
1766 2144 mt 1814 2144 L
1790 2120 mt 1790 2168 L
1772 2144 mt 1820 2144 L
1796 2120 mt 1796 2168 L
1778 2151 mt 1826 2151 L
1802 2127 mt 1802 2175 L
1784 2153 mt 1832 2153 L
1808 2129 mt 1808 2177 L
1790 2151 mt 1838 2151 L
1814 2127 mt 1814 2175 L
1796 2150 mt 1844 2150 L
1820 2126 mt 1820 2174 L
1802 2151 mt 1850 2151 L
1826 2127 mt 1826 2175 L
1808 2149 mt 1856 2149 L
1832 2125 mt 1832 2173 L
1814 2155 mt 1862 2155 L
1838 2131 mt 1838 2179 L
1820 2155 mt 1868 2155 L
1844 2131 mt 1844 2179 L
1826 2155 mt 1874 2155 L
1850 2131 mt 1850 2179 L
1832 2157 mt 1880 2157 L
1856 2133 mt 1856 2181 L
1838 2155 mt 1886 2155 L
1862 2131 mt 1862 2179 L
1844 2156 mt 1892 2156 L
1868 2132 mt 1868 2180 L
1850 2156 mt 1898 2156 L
1874 2132 mt 1874 2180 L
1856 2157 mt 1904 2157 L
1880 2133 mt 1880 2181 L
1862 2158 mt 1910 2158 L
1886 2134 mt 1886 2182 L
1868 2157 mt 1916 2157 L
1892 2133 mt 1892 2181 L
1874 2156 mt 1922 2156 L
1898 2132 mt 1898 2180 L
1881 2160 mt 1929 2160 L
1905 2136 mt 1905 2184 L
1887 2160 mt 1935 2160 L
1911 2136 mt 1911 2184 L
1893 2160 mt 1941 2160 L
1917 2136 mt 1917 2184 L
1899 2160 mt 1947 2160 L
1923 2136 mt 1923 2184 L
1905 2160 mt 1953 2160 L
1929 2136 mt 1929 2184 L
1911 2157 mt 1959 2157 L
1935 2133 mt 1935 2181 L
1917 2159 mt 1965 2159 L
1941 2135 mt 1941 2183 L
1923 2160 mt 1971 2160 L
1947 2136 mt 1947 2184 L
1929 2157 mt 1977 2157 L
1953 2133 mt 1953 2181 L
1935 2158 mt 1983 2158 L
1959 2134 mt 1959 2182 L
1941 2158 mt 1989 2158 L
1965 2134 mt 1965 2182 L
1947 2160 mt 1995 2160 L
1971 2136 mt 1971 2184 L
1953 2160 mt 2001 2160 L
1977 2136 mt 1977 2184 L
1959 2159 mt 2007 2159 L
1983 2135 mt 1983 2183 L
1965 2159 mt 2013 2159 L
1989 2135 mt 1989 2183 L
1971 2158 mt 2019 2158 L
1995 2134 mt 1995 2182 L
1977 2160 mt 2025 2160 L
2001 2136 mt 2001 2184 L
1983 2160 mt 2031 2160 L
2007 2136 mt 2007 2184 L
1989 2159 mt 2037 2159 L
2013 2135 mt 2013 2183 L
1995 2159 mt 2043 2159 L
2019 2135 mt 2019 2183 L
2001 2160 mt 2049 2160 L
2025 2136 mt 2025 2184 L
2008 2159 mt 2056 2159 L
2032 2135 mt 2032 2183 L
2014 2160 mt 2062 2160 L
2038 2136 mt 2038 2184 L
2020 2160 mt 2068 2160 L
2044 2136 mt 2044 2184 L
2026 2160 mt 2074 2160 L
2050 2136 mt 2050 2184 L
2032 2159 mt 2080 2159 L
2056 2135 mt 2056 2183 L
2038 2159 mt 2086 2159 L
2062 2135 mt 2062 2183 L
2044 2160 mt 2092 2160 L
2068 2136 mt 2068 2184 L
2050 2160 mt 2098 2160 L
2074 2136 mt 2074 2184 L
2056 2160 mt 2104 2160 L
2080 2136 mt 2080 2184 L
2062 2160 mt 2110 2160 L
2086 2136 mt 2086 2184 L
2068 2159 mt 2116 2159 L
2092 2135 mt 2092 2183 L
2074 2160 mt 2122 2160 L
2098 2136 mt 2098 2184 L
2080 2160 mt 2128 2160 L
2104 2136 mt 2104 2184 L
2086 2160 mt 2134 2160 L
2110 2136 mt 2110 2184 L
2092 2160 mt 2140 2160 L
2116 2136 mt 2116 2184 L
2098 2159 mt 2146 2159 L
2122 2135 mt 2122 2183 L
2104 2160 mt 2152 2160 L
2128 2136 mt 2128 2184 L
2110 2160 mt 2158 2160 L
2134 2136 mt 2134 2184 L
2116 2160 mt 2164 2160 L
2140 2136 mt 2140 2184 L
2122 2160 mt 2170 2160 L
2146 2136 mt 2146 2184 L
2128 2160 mt 2176 2160 L
2152 2136 mt 2152 2184 L
2134 2160 mt 2182 2160 L
2158 2136 mt 2158 2184 L
2141 2160 mt 2189 2160 L
2165 2136 mt 2165 2184 L
2147 2160 mt 2195 2160 L
2171 2136 mt 2171 2184 L
2153 2160 mt 2201 2160 L
2177 2136 mt 2177 2184 L
2159 2160 mt 2207 2160 L
2183 2136 mt 2183 2184 L
2165 2160 mt 2213 2160 L
2189 2136 mt 2189 2184 L
2171 2160 mt 2219 2160 L
2195 2136 mt 2195 2184 L
2177 2160 mt 2225 2160 L
2201 2136 mt 2201 2184 L
2183 2160 mt 2231 2160 L
2207 2136 mt 2207 2184 L
2189 2160 mt 2237 2160 L
2213 2136 mt 2213 2184 L
2195 2160 mt 2243 2160 L
2219 2136 mt 2219 2184 L
2201 2160 mt 2249 2160 L
2225 2136 mt 2225 2184 L
2207 2160 mt 2255 2160 L
2231 2136 mt 2231 2184 L
2213 2160 mt 2261 2160 L
2237 2136 mt 2237 2184 L
2219 2160 mt 2267 2160 L
2243 2136 mt 2243 2184 L
2225 2160 mt 2273 2160 L
2249 2136 mt 2249 2184 L
2231 2160 mt 2279 2160 L
2255 2136 mt 2255 2184 L
2237 2160 mt 2285 2160 L
2261 2136 mt 2261 2184 L
2243 2160 mt 2291 2160 L
2267 2136 mt 2267 2184 L
2249 2160 mt 2297 2160 L
2273 2136 mt 2273 2184 L
2255 2160 mt 2303 2160 L
2279 2136 mt 2279 2184 L
2261 2160 mt 2309 2160 L
2285 2136 mt 2285 2184 L
2268 2160 mt 2316 2160 L
2292 2136 mt 2292 2184 L
2274 2160 mt 2322 2160 L
2298 2136 mt 2298 2184 L
2280 2160 mt 2328 2160 L
2304 2136 mt 2304 2184 L
2286 2160 mt 2334 2160 L
2310 2136 mt 2310 2184 L
2292 2160 mt 2340 2160 L
2316 2136 mt 2316 2184 L
2298 2160 mt 2346 2160 L
2322 2136 mt 2322 2184 L
2304 2160 mt 2352 2160 L
2328 2136 mt 2328 2184 L
2310 2160 mt 2358 2160 L
2334 2136 mt 2334 2184 L
2316 2160 mt 2364 2160 L
2340 2136 mt 2340 2184 L
2322 2160 mt 2370 2160 L
2346 2136 mt 2346 2184 L
2328 2160 mt 2376 2160 L
2352 2136 mt 2352 2184 L
2334 2160 mt 2382 2160 L
2358 2136 mt 2358 2184 L
2340 2160 mt 2388 2160 L
2364 2136 mt 2364 2184 L
2346 2160 mt 2394 2160 L
2370 2136 mt 2370 2184 L
2352 2160 mt 2400 2160 L
2376 2136 mt 2376 2184 L
2358 2160 mt 2406 2160 L
2382 2136 mt 2382 2184 L
2364 2160 mt 2412 2160 L
2388 2136 mt 2388 2184 L
2370 2160 mt 2418 2160 L
2394 2136 mt 2394 2184 L
2376 2160 mt 2424 2160 L
2400 2136 mt 2400 2184 L
2382 2160 mt 2430 2160 L
2406 2136 mt 2406 2184 L
2388 2160 mt 2436 2160 L
2412 2136 mt 2412 2184 L
2395 2160 mt 2443 2160 L
2419 2136 mt 2419 2184 L
 595 2144 mt  627 2176 L
 627 2144 mt  595 2176 L
 601 2144 mt  633 2176 L
 633 2144 mt  601 2176 L
 607 2144 mt  639 2176 L
 639 2144 mt  607 2176 L
 613 2144 mt  645 2176 L
 645 2144 mt  613 2176 L
 619 2144 mt  651 2176 L
 651 2144 mt  619 2176 L
 625 2144 mt  657 2176 L
 657 2144 mt  625 2176 L
 631 2144 mt  663 2176 L
 663 2144 mt  631 2176 L
 637 2144 mt  669 2176 L
 669 2144 mt  637 2176 L
 643 2143 mt  675 2175 L
 675 2143 mt  643 2175 L
 649 2144 mt  681 2176 L
 681 2144 mt  649 2176 L
 655 2144 mt  687 2176 L
 687 2144 mt  655 2176 L
 661 2143 mt  693 2175 L
 693 2143 mt  661 2175 L
 667 2143 mt  699 2175 L
 699 2143 mt  667 2175 L
 673 2144 mt  705 2176 L
 705 2144 mt  673 2176 L
 679 2144 mt  711 2176 L
 711 2144 mt  679 2176 L
 685 2144 mt  717 2176 L
 717 2144 mt  685 2176 L
 691 2144 mt  723 2176 L
 723 2144 mt  691 2176 L
 697 2144 mt  729 2176 L
 729 2144 mt  697 2176 L
 703 2144 mt  735 2176 L
 735 2144 mt  703 2176 L
 709 2143 mt  741 2175 L
 741 2143 mt  709 2175 L
 715 2144 mt  747 2176 L
 747 2144 mt  715 2176 L
 722 2143 mt  754 2175 L
 754 2143 mt  722 2175 L
 728 2144 mt  760 2176 L
 760 2144 mt  728 2176 L
 734 2141 mt  766 2173 L
 766 2141 mt  734 2173 L
 740 2144 mt  772 2176 L
 772 2144 mt  740 2176 L
 746 2144 mt  778 2176 L
 778 2144 mt  746 2176 L
 752 2144 mt  784 2176 L
 784 2144 mt  752 2176 L
 758 2142 mt  790 2174 L
 790 2142 mt  758 2174 L
 764 2144 mt  796 2176 L
 796 2144 mt  764 2176 L
 770 2141 mt  802 2173 L
 802 2141 mt  770 2173 L
 776 2142 mt  808 2174 L
 808 2142 mt  776 2174 L
 782 2142 mt  814 2174 L
 814 2142 mt  782 2174 L
 788 2141 mt  820 2173 L
 820 2141 mt  788 2173 L
 794 2140 mt  826 2172 L
 826 2140 mt  794 2172 L
 800 2141 mt  832 2173 L
 832 2141 mt  800 2173 L
 806 2144 mt  838 2176 L
 838 2144 mt  806 2176 L
 812 2142 mt  844 2174 L
 844 2142 mt  812 2174 L
 818 2138 mt  850 2170 L
 850 2138 mt  818 2170 L
 824 2138 mt  856 2170 L
 856 2138 mt  824 2170 L
 830 2143 mt  862 2175 L
 862 2143 mt  830 2175 L
 836 2137 mt  868 2169 L
 868 2137 mt  836 2169 L
 842 2140 mt  874 2172 L
 874 2140 mt  842 2172 L
 849 2139 mt  881 2171 L
 881 2139 mt  849 2171 L
 855 2135 mt  887 2167 L
 887 2135 mt  855 2167 L
 861 2137 mt  893 2169 L
 893 2137 mt  861 2169 L
 867 2140 mt  899 2172 L
 899 2140 mt  867 2172 L
 873 2132 mt  905 2164 L
 905 2132 mt  873 2164 L
 879 2137 mt  911 2169 L
 911 2137 mt  879 2169 L
 885 2137 mt  917 2169 L
 917 2137 mt  885 2169 L
 891 2135 mt  923 2167 L
 923 2135 mt  891 2167 L
 897 2141 mt  929 2173 L
 929 2141 mt  897 2173 L
 903 2135 mt  935 2167 L
 935 2135 mt  903 2167 L
 909 2133 mt  941 2165 L
 941 2133 mt  909 2165 L
 915 2127 mt  947 2159 L
 947 2127 mt  915 2159 L
 921 2135 mt  953 2167 L
 953 2135 mt  921 2167 L
 927 2133 mt  959 2165 L
 959 2133 mt  927 2165 L
 933 2133 mt  965 2165 L
 965 2133 mt  933 2165 L
 939 2125 mt  971 2157 L
 971 2125 mt  939 2157 L
 945 2125 mt  977 2157 L
 977 2125 mt  945 2157 L
 951 2128 mt  983 2160 L
 983 2128 mt  951 2160 L
 957 2129 mt  989 2161 L
 989 2129 mt  957 2161 L
 963 2122 mt  995 2154 L
 995 2122 mt  963 2154 L
 969 2124 mt 1001 2156 L
1001 2124 mt  969 2156 L
 975 2128 mt 1007 2160 L
1007 2128 mt  975 2160 L
 982 2122 mt 1014 2154 L
1014 2122 mt  982 2154 L
 988 2123 mt 1020 2155 L
1020 2123 mt  988 2155 L
 994 2116 mt 1026 2148 L
1026 2116 mt  994 2148 L
1000 2120 mt 1032 2152 L
1032 2120 mt 1000 2152 L
1006 2118 mt 1038 2150 L
1038 2118 mt 1006 2150 L
1012 2128 mt 1044 2160 L
1044 2128 mt 1012 2160 L
1018 2104 mt 1050 2136 L
1050 2104 mt 1018 2136 L
1024 2107 mt 1056 2139 L
1056 2107 mt 1024 2139 L
1030 2109 mt 1062 2141 L
1062 2109 mt 1030 2141 L
1036 2113 mt 1068 2145 L
1068 2113 mt 1036 2145 L
1042 2104 mt 1074 2136 L
1074 2104 mt 1042 2136 L
1048 2095 mt 1080 2127 L
1080 2095 mt 1048 2127 L
1054 2089 mt 1086 2121 L
1086 2089 mt 1054 2121 L
1060 2070 mt 1092 2102 L
1092 2070 mt 1060 2102 L
1066 2080 mt 1098 2112 L
1098 2080 mt 1066 2112 L
1072 2070 mt 1104 2102 L
1104 2070 mt 1072 2102 L
1078 2067 mt 1110 2099 L
1110 2067 mt 1078 2099 L
1084 2057 mt 1116 2089 L
1116 2057 mt 1084 2089 L
1090 2044 mt 1122 2076 L
1122 2044 mt 1090 2076 L
1096 2054 mt 1128 2086 L
1128 2054 mt 1096 2086 L
1102 2018 mt 1134 2050 L
1134 2018 mt 1102 2050 L
1109 2034 mt 1141 2066 L
1141 2034 mt 1109 2066 L
1115 2019 mt 1147 2051 L
1147 2019 mt 1115 2051 L
1121 2013 mt 1153 2045 L
1153 2013 mt 1121 2045 L
1127 1995 mt 1159 2027 L
1159 1995 mt 1127 2027 L
1133 1997 mt 1165 2029 L
1165 1997 mt 1133 2029 L
1139 1992 mt 1171 2024 L
1171 1992 mt 1139 2024 L
1145 1985 mt 1177 2017 L
1177 1985 mt 1145 2017 L
1151 1953 mt 1183 1985 L
1183 1953 mt 1151 1985 L
1157 1956 mt 1189 1988 L
1189 1956 mt 1157 1988 L
1163 1959 mt 1195 1991 L
1195 1959 mt 1163 1991 L
1169 1922 mt 1201 1954 L
1201 1922 mt 1169 1954 L
1175 1908 mt 1207 1940 L
1207 1908 mt 1175 1940 L
1181 1889 mt 1213 1921 L
1213 1889 mt 1181 1921 L
1187 1885 mt 1219 1917 L
1219 1885 mt 1187 1917 L
1193 1867 mt 1225 1899 L
1225 1867 mt 1193 1899 L
1199 1836 mt 1231 1868 L
1231 1836 mt 1199 1868 L
1205 1833 mt 1237 1865 L
1237 1833 mt 1205 1865 L
1211 1787 mt 1243 1819 L
1243 1787 mt 1211 1819 L
1217 1791 mt 1249 1823 L
1249 1791 mt 1217 1823 L
1223 1768 mt 1255 1800 L
1255 1768 mt 1223 1800 L
1229 1704 mt 1261 1736 L
1261 1704 mt 1229 1736 L
1235 1681 mt 1267 1713 L
1267 1681 mt 1235 1713 L
1242 1677 mt 1274 1709 L
1274 1677 mt 1242 1709 L
1248 1629 mt 1280 1661 L
1280 1629 mt 1248 1661 L
1254 1566 mt 1286 1598 L
1286 1566 mt 1254 1598 L
1260 1543 mt 1292 1575 L
1292 1543 mt 1260 1575 L
1266 1484 mt 1298 1516 L
1298 1484 mt 1266 1516 L
1272 1508 mt 1304 1540 L
1304 1508 mt 1272 1540 L
1278 1451 mt 1310 1483 L
1310 1451 mt 1278 1483 L
1284 1422 mt 1316 1454 L
1316 1422 mt 1284 1454 L
1290 1375 mt 1322 1407 L
1322 1375 mt 1290 1407 L
1296 1310 mt 1328 1342 L
1328 1310 mt 1296 1342 L
1302 1267 mt 1334 1299 L
1334 1267 mt 1302 1299 L
1308 1271 mt 1340 1303 L
1340 1271 mt 1308 1303 L
1314 1229 mt 1346 1261 L
1346 1229 mt 1314 1261 L
1320 1145 mt 1352 1177 L
1352 1145 mt 1320 1177 L
1326 1097 mt 1358 1129 L
1358 1097 mt 1326 1129 L
1332 1137 mt 1364 1169 L
1364 1137 mt 1332 1169 L
1338 1072 mt 1370 1104 L
1370 1072 mt 1338 1104 L
1344 1002 mt 1376 1034 L
1376 1002 mt 1344 1034 L
1350  979 mt 1382 1011 L
1382  979 mt 1350 1011 L
1356  922 mt 1388  954 L
1388  922 mt 1356  954 L
1362  874 mt 1394  906 L
1394  874 mt 1362  906 L
1369  938 mt 1401  970 L
1401  938 mt 1369  970 L
1375  837 mt 1407  869 L
1407  837 mt 1375  869 L
1381  798 mt 1413  830 L
1413  798 mt 1381  830 L
1387  887 mt 1419  919 L
1419  887 mt 1387  919 L
1393  842 mt 1425  874 L
1425  842 mt 1393  874 L
1399  866 mt 1431  898 L
1431  866 mt 1399  898 L
1405  788 mt 1437  820 L
1437  788 mt 1405  820 L
1411  852 mt 1443  884 L
1443  852 mt 1411  884 L
1417  859 mt 1449  891 L
1449  859 mt 1417  891 L
1423  851 mt 1455  883 L
1455  851 mt 1423  883 L
1429  826 mt 1461  858 L
1461  826 mt 1429  858 L
1435  872 mt 1467  904 L
1467  872 mt 1435  904 L
1441  950 mt 1473  982 L
1473  950 mt 1441  982 L
1447  927 mt 1479  959 L
1479  927 mt 1447  959 L
1453 1012 mt 1485 1044 L
1485 1012 mt 1453 1044 L
1459 1041 mt 1491 1073 L
1491 1041 mt 1459 1073 L
1465 1046 mt 1497 1078 L
1497 1046 mt 1465 1078 L
1471 1138 mt 1503 1170 L
1503 1138 mt 1471 1170 L
1477 1131 mt 1509 1163 L
1509 1131 mt 1477 1163 L
1483 1175 mt 1515 1207 L
1515 1175 mt 1483 1207 L
1489 1268 mt 1521 1300 L
1521 1268 mt 1489 1300 L
1496 1265 mt 1528 1297 L
1528 1265 mt 1496 1297 L
1502 1324 mt 1534 1356 L
1534 1324 mt 1502 1356 L
1508 1371 mt 1540 1403 L
1540 1371 mt 1508 1403 L
1514 1461 mt 1546 1493 L
1546 1461 mt 1514 1493 L
1520 1527 mt 1552 1559 L
1552 1527 mt 1520 1559 L
1526 1530 mt 1558 1562 L
1558 1530 mt 1526 1562 L
1532 1623 mt 1564 1655 L
1564 1623 mt 1532 1655 L
1538 1658 mt 1570 1690 L
1570 1658 mt 1538 1690 L
1544 1664 mt 1576 1696 L
1576 1664 mt 1544 1696 L
1550 1705 mt 1582 1737 L
1582 1705 mt 1550 1737 L
1556 1761 mt 1588 1793 L
1588 1761 mt 1556 1793 L
1562 1782 mt 1594 1814 L
1594 1782 mt 1562 1814 L
1568 1834 mt 1600 1866 L
1600 1834 mt 1568 1866 L
1574 1824 mt 1606 1856 L
1606 1824 mt 1574 1856 L
1580 1880 mt 1612 1912 L
1612 1880 mt 1580 1912 L
1586 1903 mt 1618 1935 L
1618 1903 mt 1586 1935 L
1592 1916 mt 1624 1948 L
1624 1916 mt 1592 1948 L
1598 1956 mt 1630 1988 L
1630 1956 mt 1598 1988 L
1604 1972 mt 1636 2004 L
1636 1972 mt 1604 2004 L
1610 1973 mt 1642 2005 L
1642 1973 mt 1610 2005 L
1616 2012 mt 1648 2044 L
1648 2012 mt 1616 2044 L
1622 2023 mt 1654 2055 L
1654 2023 mt 1622 2055 L
1629 2030 mt 1661 2062 L
1661 2030 mt 1629 2062 L
1635 2036 mt 1667 2068 L
1667 2036 mt 1635 2068 L
1641 2043 mt 1673 2075 L
1673 2043 mt 1641 2075 L
1647 2069 mt 1679 2101 L
1679 2069 mt 1647 2101 L
1653 2070 mt 1685 2102 L
1685 2070 mt 1653 2102 L
1659 2071 mt 1691 2103 L
1691 2071 mt 1659 2103 L
1665 2076 mt 1697 2108 L
1697 2076 mt 1665 2108 L
1671 2070 mt 1703 2102 L
1703 2070 mt 1671 2102 L
1677 2094 mt 1709 2126 L
1709 2094 mt 1677 2126 L
1683 2080 mt 1715 2112 L
1715 2080 mt 1683 2112 L
1689 2090 mt 1721 2122 L
1721 2090 mt 1689 2122 L
1695 2106 mt 1727 2138 L
1727 2106 mt 1695 2138 L
1701 2098 mt 1733 2130 L
1733 2098 mt 1701 2130 L
1707 2106 mt 1739 2138 L
1739 2106 mt 1707 2138 L
1713 2113 mt 1745 2145 L
1745 2113 mt 1713 2145 L
1719 2113 mt 1751 2145 L
1751 2113 mt 1719 2145 L
1725 2119 mt 1757 2151 L
1757 2119 mt 1725 2151 L
1731 2117 mt 1763 2149 L
1763 2117 mt 1731 2149 L
1737 2117 mt 1769 2149 L
1769 2117 mt 1737 2149 L
1743 2127 mt 1775 2159 L
1775 2127 mt 1743 2159 L
1749 2126 mt 1781 2158 L
1781 2126 mt 1749 2158 L
1756 2125 mt 1788 2157 L
1788 2125 mt 1756 2157 L
1762 2130 mt 1794 2162 L
1794 2130 mt 1762 2162 L
1768 2129 mt 1800 2161 L
1800 2129 mt 1768 2161 L
1774 2128 mt 1806 2160 L
1806 2128 mt 1774 2160 L
1780 2128 mt 1812 2160 L
1812 2128 mt 1780 2160 L
1786 2135 mt 1818 2167 L
1818 2135 mt 1786 2167 L
1792 2137 mt 1824 2169 L
1824 2137 mt 1792 2169 L
1798 2135 mt 1830 2167 L
1830 2135 mt 1798 2167 L
1804 2134 mt 1836 2166 L
1836 2134 mt 1804 2166 L
1810 2135 mt 1842 2167 L
1842 2135 mt 1810 2167 L
1816 2133 mt 1848 2165 L
1848 2133 mt 1816 2165 L
1822 2139 mt 1854 2171 L
1854 2139 mt 1822 2171 L
1828 2139 mt 1860 2171 L
1860 2139 mt 1828 2171 L
1834 2139 mt 1866 2171 L
1866 2139 mt 1834 2171 L
1840 2141 mt 1872 2173 L
1872 2141 mt 1840 2173 L
1846 2139 mt 1878 2171 L
1878 2139 mt 1846 2171 L
1852 2140 mt 1884 2172 L
1884 2140 mt 1852 2172 L
1858 2140 mt 1890 2172 L
1890 2140 mt 1858 2172 L
1864 2141 mt 1896 2173 L
1896 2141 mt 1864 2173 L
1870 2142 mt 1902 2174 L
1902 2142 mt 1870 2174 L
1876 2141 mt 1908 2173 L
1908 2141 mt 1876 2173 L
1882 2140 mt 1914 2172 L
1914 2140 mt 1882 2172 L
1889 2144 mt 1921 2176 L
1921 2144 mt 1889 2176 L
1895 2144 mt 1927 2176 L
1927 2144 mt 1895 2176 L
1901 2144 mt 1933 2176 L
1933 2144 mt 1901 2176 L
1907 2144 mt 1939 2176 L
1939 2144 mt 1907 2176 L
1913 2144 mt 1945 2176 L
1945 2144 mt 1913 2176 L
1919 2141 mt 1951 2173 L
1951 2141 mt 1919 2173 L
1925 2143 mt 1957 2175 L
1957 2143 mt 1925 2175 L
1931 2144 mt 1963 2176 L
1963 2144 mt 1931 2176 L
1937 2141 mt 1969 2173 L
1969 2141 mt 1937 2173 L
1943 2142 mt 1975 2174 L
1975 2142 mt 1943 2174 L
1949 2142 mt 1981 2174 L
1981 2142 mt 1949 2174 L
1955 2144 mt 1987 2176 L
1987 2144 mt 1955 2176 L
1961 2144 mt 1993 2176 L
1993 2144 mt 1961 2176 L
1967 2143 mt 1999 2175 L
1999 2143 mt 1967 2175 L
1973 2143 mt 2005 2175 L
2005 2143 mt 1973 2175 L
1979 2142 mt 2011 2174 L
2011 2142 mt 1979 2174 L
1985 2144 mt 2017 2176 L
2017 2144 mt 1985 2176 L
1991 2144 mt 2023 2176 L
2023 2144 mt 1991 2176 L
1997 2143 mt 2029 2175 L
2029 2143 mt 1997 2175 L
2003 2143 mt 2035 2175 L
2035 2143 mt 2003 2175 L
2009 2144 mt 2041 2176 L
2041 2144 mt 2009 2176 L
2016 2143 mt 2048 2175 L
2048 2143 mt 2016 2175 L
2022 2144 mt 2054 2176 L
2054 2144 mt 2022 2176 L
2028 2144 mt 2060 2176 L
2060 2144 mt 2028 2176 L
2034 2144 mt 2066 2176 L
2066 2144 mt 2034 2176 L
2040 2143 mt 2072 2175 L
2072 2143 mt 2040 2175 L
2046 2143 mt 2078 2175 L
2078 2143 mt 2046 2175 L
2052 2144 mt 2084 2176 L
2084 2144 mt 2052 2176 L
2058 2144 mt 2090 2176 L
2090 2144 mt 2058 2176 L
2064 2144 mt 2096 2176 L
2096 2144 mt 2064 2176 L
2070 2144 mt 2102 2176 L
2102 2144 mt 2070 2176 L
2076 2143 mt 2108 2175 L
2108 2143 mt 2076 2175 L
2082 2144 mt 2114 2176 L
2114 2144 mt 2082 2176 L
2088 2144 mt 2120 2176 L
2120 2144 mt 2088 2176 L
2094 2144 mt 2126 2176 L
2126 2144 mt 2094 2176 L
2100 2144 mt 2132 2176 L
2132 2144 mt 2100 2176 L
2106 2143 mt 2138 2175 L
2138 2143 mt 2106 2175 L
2112 2144 mt 2144 2176 L
2144 2144 mt 2112 2176 L
2118 2144 mt 2150 2176 L
2150 2144 mt 2118 2176 L
2124 2144 mt 2156 2176 L
2156 2144 mt 2124 2176 L
2130 2144 mt 2162 2176 L
2162 2144 mt 2130 2176 L
2136 2144 mt 2168 2176 L
2168 2144 mt 2136 2176 L
2142 2144 mt 2174 2176 L
2174 2144 mt 2142 2176 L
2149 2144 mt 2181 2176 L
2181 2144 mt 2149 2176 L
2155 2144 mt 2187 2176 L
2187 2144 mt 2155 2176 L
2161 2144 mt 2193 2176 L
2193 2144 mt 2161 2176 L
2167 2144 mt 2199 2176 L
2199 2144 mt 2167 2176 L
2173 2144 mt 2205 2176 L
2205 2144 mt 2173 2176 L
2179 2144 mt 2211 2176 L
2211 2144 mt 2179 2176 L
2185 2144 mt 2217 2176 L
2217 2144 mt 2185 2176 L
2191 2144 mt 2223 2176 L
2223 2144 mt 2191 2176 L
2197 2144 mt 2229 2176 L
2229 2144 mt 2197 2176 L
2203 2144 mt 2235 2176 L
2235 2144 mt 2203 2176 L
2209 2144 mt 2241 2176 L
2241 2144 mt 2209 2176 L
2215 2144 mt 2247 2176 L
2247 2144 mt 2215 2176 L
2221 2144 mt 2253 2176 L
2253 2144 mt 2221 2176 L
2227 2144 mt 2259 2176 L
2259 2144 mt 2227 2176 L
2233 2144 mt 2265 2176 L
2265 2144 mt 2233 2176 L
2239 2144 mt 2271 2176 L
2271 2144 mt 2239 2176 L
2245 2144 mt 2277 2176 L
2277 2144 mt 2245 2176 L
2251 2144 mt 2283 2176 L
2283 2144 mt 2251 2176 L
2257 2144 mt 2289 2176 L
2289 2144 mt 2257 2176 L
2263 2144 mt 2295 2176 L
2295 2144 mt 2263 2176 L
2269 2144 mt 2301 2176 L
2301 2144 mt 2269 2176 L
2276 2144 mt 2308 2176 L
2308 2144 mt 2276 2176 L
2282 2144 mt 2314 2176 L
2314 2144 mt 2282 2176 L
2288 2144 mt 2320 2176 L
2320 2144 mt 2288 2176 L
2294 2144 mt 2326 2176 L
2326 2144 mt 2294 2176 L
2300 2144 mt 2332 2176 L
2332 2144 mt 2300 2176 L
2306 2144 mt 2338 2176 L
2338 2144 mt 2306 2176 L
2312 2144 mt 2344 2176 L
2344 2144 mt 2312 2176 L
2318 2144 mt 2350 2176 L
2350 2144 mt 2318 2176 L
2324 2144 mt 2356 2176 L
2356 2144 mt 2324 2176 L
2330 2144 mt 2362 2176 L
2362 2144 mt 2330 2176 L
2336 2144 mt 2368 2176 L
2368 2144 mt 2336 2176 L
2342 2144 mt 2374 2176 L
2374 2144 mt 2342 2176 L
2348 2144 mt 2380 2176 L
2380 2144 mt 2348 2176 L
2354 2144 mt 2386 2176 L
2386 2144 mt 2354 2176 L
2360 2144 mt 2392 2176 L
2392 2144 mt 2360 2176 L
2366 2144 mt 2398 2176 L
2398 2144 mt 2366 2176 L
2372 2144 mt 2404 2176 L
2404 2144 mt 2372 2176 L
2378 2144 mt 2410 2176 L
2410 2144 mt 2378 2176 L
2384 2144 mt 2416 2176 L
2416 2144 mt 2384 2176 L
2390 2144 mt 2422 2176 L
2422 2144 mt 2390 2176 L
2396 2144 mt 2428 2176 L
2428 2144 mt 2396 2176 L
2403 2144 mt 2435 2176 L
2435 2144 mt 2403 2176 L
gr

gs 605 346 1815 1815 rc
/c9 { 0.000000 0.000000 1.000000 sr} bdef
c9
7 0 6 0 6 0 6 0 6 0 6 0 6 0 6 0 
6 0 6 0 6 0 6 0 6 0 6 0 6 0 6 0 
6 0 6 0 6 0 6 0 6 0 7 0 6 0 6 0 
6 0 6 0 6 0 6 3 6 -3 6 0 6 0 6 0 
6 0 6 0 6 0 6 0 6 0 6 0 6 0 6 0 
6 0 6 0 7 5 6 -5 6 0 6 3 6 -3 6 5 
6 -2 6 0 6 0 6 2 6 -5 6 3 6 2 6 -5 
6 0 6 0 6 3 6 0 6 -3 6 0 6 0 6 5 
7 2 6 -2 6 -2 6 2 6 2 6 -2 6 0 6 0 
6 6 6 2 6 -2 6 0 6 7 6 10 6 -19 6 4 
6 11 6 -11 6 2 6 0 6 0 7 9 6 -2 6 0 
6 0 6 15 6 4 6 -4 6 0 6 2 6 0 6 -9 
6 15 6 13 6 4 6 -4 6 19 6 -8 6 17 6 4 
6 2 6 2 6 19 7 -10 6 -5 6 24 6 74 6 -27 
6 2 6 -4 6 49 6 12 6 -15 6 47 6 -4 6 -43 
6 71 6 -4 6 -9 6 64 6 0 6 79 6 -15 6 19 
7 40 6 -6 6 87 6 64 6 -64 6 41 6 130 6 -17 
6 -2 6 134 6 -32 6 8 6 51 6 111 6 -89 6 21 
6 49 6 141 6 -20 6 -68 6 96 6 -4 7 -17 6 123 
6 -64 6 20 6 47 6 -147 6 132 6 -83 6 108 6 -108 
6 -20 6 -68 6 79 6 -23 6 -77 6 25 6 -21 6 -108 
6 -73 6 -17 6 9 7 -17 6 -32 6 -54 6 -17 6 -2 
6 -6 6 -64 6 -34 6 -4 6 -69 6 -17 6 -55 6 43 
6 -41 6 -17 6 -74 6 -9 6 -11 6 -51 6 22 6 -15 
7 -28 6 -15 6 -23 6 -3 6 -21 6 -23 6 -4 6 -15 
6 8 6 -17 6 -8 6 -15 6 -32 6 21 6 -9 6 -6 
6 0 6 -8 6 -9 6 -32 6 47 6 -19 7 -22 6 13 
6 -19 6 -8 6 -5 6 9 6 -2 6 -7 6 -4 6 0 
6 -13 6 11 6 6 6 -10 6 4 6 -11 6 5 6 -3 
6 0 6 -2 6 -4 7 0 6 -2 6 6 6 5 6 -3 
6 -2 6 -8 6 6 6 -2 6 6 6 -6 6 -2 6 2 
6 -6 6 0 6 0 6 -3 6 7 6 0 6 -4 6 2 
6 -5 7 0 6 5 6 -5 6 3 6 2 6 -2 6 -3 
6 9 6 -9 6 0 6 0 6 0 6 0 6 3 6 -3 
6 0 6 0 6 0 6 0 6 0 6 3 7 -3 6 3 
6 -3 6 0 6 3 6 -3 6 3 6 -3 6 0 6 0 
6 0 6 0 6 3 6 -3 6 0 6 0 6 0 6 0 
6 0 6 0 6 0 611 2160 300 MP stroke
gr

c9
gs 562 903 1907 1307 rc
 587 2160 mt  635 2160 L
 611 2136 mt  611 2184 L
 593 2160 mt  641 2160 L
 617 2136 mt  617 2184 L
 599 2160 mt  647 2160 L
 623 2136 mt  623 2184 L
 605 2160 mt  653 2160 L
 629 2136 mt  629 2184 L
 611 2160 mt  659 2160 L
 635 2136 mt  635 2184 L
 617 2160 mt  665 2160 L
 641 2136 mt  641 2184 L
 623 2160 mt  671 2160 L
 647 2136 mt  647 2184 L
 629 2160 mt  677 2160 L
 653 2136 mt  653 2184 L
 635 2157 mt  683 2157 L
 659 2133 mt  659 2181 L
 641 2160 mt  689 2160 L
 665 2136 mt  665 2184 L
 647 2160 mt  695 2160 L
 671 2136 mt  671 2184 L
 653 2160 mt  701 2160 L
 677 2136 mt  677 2184 L
 659 2160 mt  707 2160 L
 683 2136 mt  683 2184 L
 665 2160 mt  713 2160 L
 689 2136 mt  689 2184 L
 671 2157 mt  719 2157 L
 695 2133 mt  695 2181 L
 677 2160 mt  725 2160 L
 701 2136 mt  701 2184 L
 683 2157 mt  731 2157 L
 707 2133 mt  707 2181 L
 689 2160 mt  737 2160 L
 713 2136 mt  713 2184 L
 695 2160 mt  743 2160 L
 719 2136 mt  719 2184 L
 701 2157 mt  749 2157 L
 725 2133 mt  725 2181 L
 707 2160 mt  755 2160 L
 731 2136 mt  731 2184 L
 714 2157 mt  762 2157 L
 738 2133 mt  738 2181 L
 720 2160 mt  768 2160 L
 744 2136 mt  744 2184 L
 726 2160 mt  774 2160 L
 750 2136 mt  750 2184 L
 732 2160 mt  780 2160 L
 756 2136 mt  756 2184 L
 738 2160 mt  786 2160 L
 762 2136 mt  762 2184 L
 744 2160 mt  792 2160 L
 768 2136 mt  768 2184 L
 750 2160 mt  798 2160 L
 774 2136 mt  774 2184 L
 756 2157 mt  804 2157 L
 780 2133 mt  780 2181 L
 762 2160 mt  810 2160 L
 786 2136 mt  786 2184 L
 768 2160 mt  816 2160 L
 792 2136 mt  792 2184 L
 774 2160 mt  822 2160 L
 798 2136 mt  798 2184 L
 780 2160 mt  828 2160 L
 804 2136 mt  804 2184 L
 786 2160 mt  834 2160 L
 810 2136 mt  810 2184 L
 792 2151 mt  840 2151 L
 816 2127 mt  816 2175 L
 798 2160 mt  846 2160 L
 822 2136 mt  822 2184 L
 804 2157 mt  852 2157 L
 828 2133 mt  828 2181 L
 810 2155 mt  858 2155 L
 834 2131 mt  834 2179 L
 816 2157 mt  864 2157 L
 840 2133 mt  840 2181 L
 822 2160 mt  870 2160 L
 846 2136 mt  846 2184 L
 828 2155 mt  876 2155 L
 852 2131 mt  852 2179 L
 834 2160 mt  882 2160 L
 858 2136 mt  858 2184 L
 841 2160 mt  889 2160 L
 865 2136 mt  865 2184 L
 847 2155 mt  895 2155 L
 871 2131 mt  871 2179 L
 853 2157 mt  901 2157 L
 877 2133 mt  877 2181 L
 859 2153 mt  907 2153 L
 883 2129 mt  883 2177 L
 865 2153 mt  913 2153 L
 889 2129 mt  889 2177 L
 871 2160 mt  919 2160 L
 895 2136 mt  895 2184 L
 877 2157 mt  925 2157 L
 901 2133 mt  901 2181 L
 883 2157 mt  931 2157 L
 907 2133 mt  907 2181 L
 889 2157 mt  937 2157 L
 913 2133 mt  913 2181 L
 895 2151 mt  943 2151 L
 919 2127 mt  919 2175 L
 901 2153 mt  949 2153 L
 925 2129 mt  925 2177 L
 907 2151 mt  955 2151 L
 931 2127 mt  931 2175 L
 913 2145 mt  961 2145 L
 937 2121 mt  937 2169 L
 919 2151 mt  967 2151 L
 943 2127 mt  943 2175 L
 925 2149 mt  973 2149 L
 949 2125 mt  949 2173 L
 931 2155 mt  979 2155 L
 955 2131 mt  955 2179 L
 937 2147 mt  985 2147 L
 961 2123 mt  961 2171 L
 943 2145 mt  991 2145 L
 967 2121 mt  967 2169 L
 949 2142 mt  997 2142 L
 973 2118 mt  973 2166 L
 955 2147 mt 1003 2147 L
 979 2123 mt  979 2171 L
 961 2153 mt 1009 2153 L
 985 2129 mt  985 2177 L
 967 2151 mt 1015 2151 L
 991 2127 mt  991 2175 L
 974 2151 mt 1022 2151 L
 998 2127 mt  998 2175 L
 980 2147 mt 1028 2147 L
1004 2123 mt 1004 2171 L
 986 2145 mt 1034 2145 L
1010 2121 mt 1010 2169 L
 992 2145 mt 1040 2145 L
1016 2121 mt 1016 2169 L
 998 2142 mt 1046 2142 L
1022 2118 mt 1022 2166 L
1004 2147 mt 1052 2147 L
1028 2123 mt 1028 2171 L
1010 2136 mt 1058 2136 L
1034 2112 mt 1034 2160 L
1016 2140 mt 1064 2140 L
1040 2116 mt 1040 2164 L
1022 2130 mt 1070 2130 L
1046 2106 mt 1046 2154 L
1028 2136 mt 1076 2136 L
1052 2112 mt 1052 2160 L
1034 2147 mt 1082 2147 L
1058 2123 mt 1058 2171 L
1040 2134 mt 1088 2134 L
1064 2110 mt 1064 2158 L
1046 2134 mt 1094 2134 L
1070 2110 mt 1070 2158 L
1052 2130 mt 1100 2130 L
1076 2106 mt 1076 2154 L
1058 2123 mt 1106 2123 L
1082 2099 mt 1082 2147 L
1064 2121 mt 1112 2121 L
1088 2097 mt 1088 2145 L
1070 2130 mt 1118 2130 L
1094 2106 mt 1094 2154 L
1076 2125 mt 1124 2125 L
1100 2101 mt 1100 2149 L
1082 2117 mt 1130 2117 L
1106 2093 mt 1106 2141 L
1088 2098 mt 1136 2098 L
1112 2074 mt 1112 2122 L
1094 2111 mt 1142 2111 L
1118 2087 mt 1118 2135 L
1101 2089 mt 1149 2089 L
1125 2065 mt 1125 2113 L
1107 2070 mt 1155 2070 L
1131 2046 mt 1131 2094 L
1113 2117 mt 1161 2117 L
1137 2093 mt 1137 2141 L
1119 2085 mt 1167 2085 L
1143 2061 mt 1143 2109 L
1125 2076 mt 1173 2076 L
1149 2052 mt 1149 2100 L
1131 2068 mt 1179 2068 L
1155 2044 mt 1155 2092 L
1137 2068 mt 1185 2068 L
1161 2044 mt 1161 2092 L
1143 2062 mt 1191 2062 L
1167 2038 mt 1167 2086 L
1149 2053 mt 1197 2053 L
1173 2029 mt 1173 2077 L
1155 2074 mt 1203 2074 L
1179 2050 mt 1179 2098 L
1161 2042 mt 1209 2042 L
1185 2018 mt 1185 2066 L
1167 2027 mt 1215 2027 L
1191 2003 mt 1191 2051 L
1173 2019 mt 1221 2019 L
1197 1995 mt 1197 2043 L
1179 2002 mt 1227 2002 L
1203 1978 mt 1203 2026 L
1185 2010 mt 1233 2010 L
1209 1986 mt 1209 2034 L
1191 1995 mt 1239 1995 L
1215 1971 mt 1215 2019 L
1197 1991 mt 1245 1991 L
1221 1967 mt 1221 2015 L
1203 1968 mt 1251 1968 L
1227 1944 mt 1227 1992 L
1209 1947 mt 1257 1947 L
1233 1923 mt 1233 1971 L
1215 1944 mt 1263 1944 L
1239 1920 mt 1239 1968 L
1221 1921 mt 1269 1921 L
1245 1897 mt 1245 1945 L
1227 1906 mt 1275 1906 L
1251 1882 mt 1251 1930 L
1234 1878 mt 1282 1878 L
1258 1854 mt 1258 1902 L
1240 1863 mt 1288 1863 L
1264 1839 mt 1264 1887 L
1246 1885 mt 1294 1885 L
1270 1861 mt 1270 1909 L
1252 1834 mt 1300 1834 L
1276 1810 mt 1276 1858 L
1258 1823 mt 1306 1823 L
1282 1799 mt 1282 1847 L
1264 1814 mt 1312 1814 L
1288 1790 mt 1288 1838 L
1270 1740 mt 1318 1740 L
1294 1716 mt 1294 1764 L
1276 1723 mt 1324 1723 L
1300 1699 mt 1300 1747 L
1282 1682 mt 1330 1682 L
1306 1658 mt 1306 1706 L
1288 1725 mt 1336 1725 L
1312 1701 mt 1312 1749 L
1294 1670 mt 1342 1670 L
1318 1646 mt 1318 1694 L
1300 1653 mt 1348 1653 L
1324 1629 mt 1324 1677 L
1306 1584 mt 1354 1584 L
1330 1560 mt 1330 1608 L
1312 1580 mt 1360 1580 L
1336 1556 mt 1336 1604 L
1318 1546 mt 1366 1546 L
1342 1522 mt 1342 1570 L
1324 1482 mt 1372 1482 L
1348 1458 mt 1348 1506 L
1330 1476 mt 1378 1476 L
1354 1452 mt 1354 1500 L
1336 1474 mt 1384 1474 L
1360 1450 mt 1360 1498 L
1342 1457 mt 1390 1457 L
1366 1433 mt 1366 1481 L
1348 1403 mt 1396 1403 L
1372 1379 mt 1372 1427 L
1354 1371 mt 1402 1371 L
1378 1347 mt 1378 1395 L
1361 1354 mt 1409 1354 L
1385 1330 mt 1385 1378 L
1367 1363 mt 1415 1363 L
1391 1339 mt 1391 1387 L
1373 1346 mt 1421 1346 L
1397 1322 mt 1397 1370 L
1379 1273 mt 1427 1273 L
1403 1249 mt 1403 1297 L
1385 1165 mt 1433 1165 L
1409 1141 mt 1409 1189 L
1391 1144 mt 1439 1144 L
1415 1120 mt 1415 1168 L
1397 1169 mt 1445 1169 L
1421 1145 mt 1421 1193 L
1403 1092 mt 1451 1092 L
1427 1068 mt 1427 1116 L
1409 1069 mt 1457 1069 L
1433 1045 mt 1433 1093 L
1415 1148 mt 1463 1148 L
1439 1124 mt 1439 1172 L
1421 1080 mt 1469 1080 L
1445 1056 mt 1445 1104 L
1427 1060 mt 1475 1060 L
1451 1036 mt 1451 1084 L
1433  952 mt 1481  952 L
1457  928 mt 1457  976 L
1439 1060 mt 1487 1060 L
1463 1036 mt 1463 1084 L
1445  977 mt 1493  977 L
1469  953 mt 1469 1001 L
1451 1109 mt 1499 1109 L
1475 1085 mt 1475 1133 L
1457  962 mt 1505  962 L
1481  938 mt 1481  986 L
1463 1009 mt 1511 1009 L
1487  985 mt 1487 1033 L
1469 1029 mt 1517 1029 L
1493 1005 mt 1493 1053 L
1475  965 mt 1523  965 L
1499  941 mt 1499  989 L
1481 1088 mt 1529 1088 L
1505 1064 mt 1505 1112 L
1488 1071 mt 1536 1071 L
1512 1047 mt 1512 1095 L
1494 1067 mt 1542 1067 L
1518 1043 mt 1518 1091 L
1500 1163 mt 1548 1163 L
1524 1139 mt 1524 1187 L
1506 1095 mt 1554 1095 L
1530 1071 mt 1530 1119 L
1512 1075 mt 1560 1075 L
1536 1051 mt 1536 1099 L
1518 1216 mt 1566 1216 L
1542 1192 mt 1542 1240 L
1524 1265 mt 1572 1265 L
1548 1241 mt 1548 1289 L
1530 1286 mt 1578 1286 L
1554 1262 mt 1554 1310 L
1536 1197 mt 1584 1197 L
1560 1173 mt 1560 1221 L
1542 1308 mt 1590 1308 L
1566 1284 mt 1566 1332 L
1548 1359 mt 1596 1359 L
1572 1335 mt 1572 1383 L
1554 1367 mt 1602 1367 L
1578 1343 mt 1578 1391 L
1560 1335 mt 1608 1335 L
1584 1311 mt 1584 1359 L
1566 1469 mt 1614 1469 L
1590 1445 mt 1590 1493 L
1572 1467 mt 1620 1467 L
1596 1443 mt 1596 1491 L
1578 1450 mt 1626 1450 L
1602 1426 mt 1602 1474 L
1584 1580 mt 1632 1580 L
1608 1556 mt 1608 1604 L
1590 1621 mt 1638 1621 L
1614 1597 mt 1614 1645 L
1596 1557 mt 1644 1557 L
1620 1533 mt 1620 1581 L
1602 1621 mt 1650 1621 L
1626 1597 mt 1626 1645 L
1608 1708 mt 1656 1708 L
1632 1684 mt 1632 1732 L
1614 1702 mt 1662 1702 L
1638 1678 mt 1638 1726 L
1621 1742 mt 1669 1742 L
1645 1718 mt 1645 1766 L
1627 1761 mt 1675 1761 L
1651 1737 mt 1651 1785 L
1633 1746 mt 1681 1746 L
1657 1722 mt 1657 1770 L
1639 1825 mt 1687 1825 L
1663 1801 mt 1663 1849 L
1645 1825 mt 1693 1825 L
1669 1801 mt 1669 1849 L
1651 1889 mt 1699 1889 L
1675 1865 mt 1675 1913 L
1657 1880 mt 1705 1880 L
1681 1856 mt 1681 1904 L
1663 1876 mt 1711 1876 L
1687 1852 mt 1687 1900 L
1669 1947 mt 1717 1947 L
1693 1923 mt 1693 1971 L
1675 1904 mt 1723 1904 L
1699 1880 mt 1699 1928 L
1681 1900 mt 1729 1900 L
1705 1876 mt 1705 1924 L
1687 1947 mt 1735 1947 L
1711 1923 mt 1711 1971 L
1693 1932 mt 1741 1932 L
1717 1908 mt 1717 1956 L
1699 1944 mt 1747 1944 L
1723 1920 mt 1723 1968 L
1705 1993 mt 1753 1993 L
1729 1969 mt 1729 2017 L
1711 1989 mt 1759 1989 L
1735 1965 mt 1735 2013 L
1717 1991 mt 1765 1991 L
1741 1967 mt 1741 2015 L
1723 1964 mt 1771 1964 L
1747 1940 mt 1747 1988 L
1729 2038 mt 1777 2038 L
1753 2014 mt 1753 2062 L
1735 2062 mt 1783 2062 L
1759 2038 mt 1759 2086 L
1741 2057 mt 1789 2057 L
1765 2033 mt 1765 2081 L
1748 2047 mt 1796 2047 L
1772 2023 mt 1772 2071 L
1754 2066 mt 1802 2066 L
1778 2042 mt 1778 2090 L
1760 2068 mt 1808 2068 L
1784 2044 mt 1784 2092 L
1766 2070 mt 1814 2070 L
1790 2046 mt 1790 2094 L
1772 2074 mt 1820 2074 L
1796 2050 mt 1796 2098 L
1778 2091 mt 1826 2091 L
1802 2067 mt 1802 2115 L
1784 2083 mt 1832 2083 L
1808 2059 mt 1808 2107 L
1790 2102 mt 1838 2102 L
1814 2078 mt 1814 2126 L
1796 2098 mt 1844 2098 L
1820 2074 mt 1820 2122 L
1802 2102 mt 1850 2102 L
1826 2078 mt 1826 2126 L
1808 2115 mt 1856 2115 L
1832 2091 mt 1832 2139 L
1814 2130 mt 1862 2130 L
1838 2106 mt 1838 2154 L
1820 2121 mt 1868 2121 L
1844 2097 mt 1844 2145 L
1826 2121 mt 1874 2121 L
1850 2097 mt 1850 2145 L
1832 2123 mt 1880 2123 L
1856 2099 mt 1856 2147 L
1838 2123 mt 1886 2123 L
1862 2099 mt 1862 2147 L
1844 2119 mt 1892 2119 L
1868 2095 mt 1868 2143 L
1850 2123 mt 1898 2123 L
1874 2099 mt 1874 2147 L
1856 2138 mt 1904 2138 L
1880 2114 mt 1880 2162 L
1862 2138 mt 1910 2138 L
1886 2114 mt 1886 2162 L
1868 2138 mt 1916 2138 L
1892 2114 mt 1892 2162 L
1874 2136 mt 1922 2136 L
1898 2112 mt 1898 2160 L
1881 2145 mt 1929 2145 L
1905 2121 mt 1905 2169 L
1887 2145 mt 1935 2145 L
1911 2121 mt 1911 2169 L
1893 2145 mt 1941 2145 L
1917 2121 mt 1917 2169 L
1899 2147 mt 1947 2147 L
1923 2123 mt 1923 2171 L
1905 2136 mt 1953 2136 L
1929 2112 mt 1929 2160 L
1911 2147 mt 1959 2147 L
1935 2123 mt 1935 2171 L
1917 2151 mt 1965 2151 L
1941 2127 mt 1941 2175 L
1923 2132 mt 1971 2132 L
1947 2108 mt 1947 2156 L
1929 2142 mt 1977 2142 L
1953 2118 mt 1953 2166 L
1935 2149 mt 1983 2149 L
1959 2125 mt 1959 2173 L
1941 2149 mt 1989 2149 L
1965 2125 mt 1965 2173 L
1947 2147 mt 1995 2147 L
1971 2123 mt 1971 2171 L
1953 2149 mt 2001 2149 L
1977 2125 mt 1977 2173 L
1959 2155 mt 2007 2155 L
1983 2131 mt 1983 2179 L
1965 2155 mt 2013 2155 L
1989 2131 mt 1989 2179 L
1971 2155 mt 2019 2155 L
1995 2131 mt 1995 2179 L
1977 2153 mt 2025 2153 L
2001 2129 mt 2001 2177 L
1983 2155 mt 2031 2155 L
2007 2131 mt 2007 2179 L
1989 2157 mt 2037 2157 L
2013 2133 mt 2013 2181 L
1995 2155 mt 2043 2155 L
2019 2131 mt 2019 2179 L
2001 2153 mt 2049 2153 L
2025 2129 mt 2025 2177 L
2008 2155 mt 2056 2155 L
2032 2131 mt 2032 2179 L
2014 2160 mt 2062 2160 L
2038 2136 mt 2038 2184 L
2020 2160 mt 2068 2160 L
2044 2136 mt 2044 2184 L
2026 2160 mt 2074 2160 L
2050 2136 mt 2050 2184 L
2032 2157 mt 2080 2157 L
2056 2133 mt 2056 2181 L
2038 2157 mt 2086 2157 L
2062 2133 mt 2062 2181 L
2044 2160 mt 2092 2160 L
2068 2136 mt 2068 2184 L
2050 2160 mt 2098 2160 L
2074 2136 mt 2074 2184 L
2056 2160 mt 2104 2160 L
2080 2136 mt 2080 2184 L
2062 2155 mt 2110 2155 L
2086 2131 mt 2086 2179 L
2068 2157 mt 2116 2157 L
2092 2133 mt 2092 2181 L
2074 2160 mt 2122 2160 L
2098 2136 mt 2098 2184 L
2080 2155 mt 2128 2155 L
2104 2131 mt 2104 2179 L
2086 2157 mt 2134 2157 L
2110 2133 mt 2110 2181 L
2092 2157 mt 2140 2157 L
2116 2133 mt 2116 2181 L
2098 2157 mt 2146 2157 L
2122 2133 mt 2122 2181 L
2104 2155 mt 2152 2155 L
2128 2131 mt 2128 2179 L
2110 2160 mt 2158 2160 L
2134 2136 mt 2134 2184 L
2116 2157 mt 2164 2157 L
2140 2133 mt 2140 2181 L
2122 2160 mt 2170 2160 L
2146 2136 mt 2146 2184 L
2128 2160 mt 2176 2160 L
2152 2136 mt 2152 2184 L
2134 2155 mt 2182 2155 L
2158 2131 mt 2158 2179 L
2141 2160 mt 2189 2160 L
2165 2136 mt 2165 2184 L
2147 2160 mt 2195 2160 L
2171 2136 mt 2171 2184 L
2153 2160 mt 2201 2160 L
2177 2136 mt 2177 2184 L
2159 2160 mt 2207 2160 L
2183 2136 mt 2183 2184 L
2165 2160 mt 2213 2160 L
2189 2136 mt 2189 2184 L
2171 2160 mt 2219 2160 L
2195 2136 mt 2195 2184 L
2177 2160 mt 2225 2160 L
2201 2136 mt 2201 2184 L
2183 2160 mt 2231 2160 L
2207 2136 mt 2207 2184 L
2189 2160 mt 2237 2160 L
2213 2136 mt 2213 2184 L
2195 2160 mt 2243 2160 L
2219 2136 mt 2219 2184 L
2201 2160 mt 2249 2160 L
2225 2136 mt 2225 2184 L
2207 2160 mt 2255 2160 L
2231 2136 mt 2231 2184 L
2213 2160 mt 2261 2160 L
2237 2136 mt 2237 2184 L
2219 2160 mt 2267 2160 L
2243 2136 mt 2243 2184 L
2225 2157 mt 2273 2157 L
2249 2133 mt 2249 2181 L
2231 2160 mt 2279 2160 L
2255 2136 mt 2255 2184 L
2237 2160 mt 2285 2160 L
2261 2136 mt 2261 2184 L
2243 2160 mt 2291 2160 L
2267 2136 mt 2267 2184 L
2249 2160 mt 2297 2160 L
2273 2136 mt 2273 2184 L
2255 2160 mt 2303 2160 L
2279 2136 mt 2279 2184 L
2261 2160 mt 2309 2160 L
2285 2136 mt 2285 2184 L
2268 2160 mt 2316 2160 L
2292 2136 mt 2292 2184 L
2274 2160 mt 2322 2160 L
2298 2136 mt 2298 2184 L
2280 2160 mt 2328 2160 L
2304 2136 mt 2304 2184 L
2286 2160 mt 2334 2160 L
2310 2136 mt 2310 2184 L
2292 2160 mt 2340 2160 L
2316 2136 mt 2316 2184 L
2298 2160 mt 2346 2160 L
2322 2136 mt 2322 2184 L
2304 2160 mt 2352 2160 L
2328 2136 mt 2328 2184 L
2310 2160 mt 2358 2160 L
2334 2136 mt 2334 2184 L
2316 2160 mt 2364 2160 L
2340 2136 mt 2340 2184 L
2322 2160 mt 2370 2160 L
2346 2136 mt 2346 2184 L
2328 2160 mt 2376 2160 L
2352 2136 mt 2352 2184 L
2334 2160 mt 2382 2160 L
2358 2136 mt 2358 2184 L
2340 2160 mt 2388 2160 L
2364 2136 mt 2364 2184 L
2346 2160 mt 2394 2160 L
2370 2136 mt 2370 2184 L
2352 2160 mt 2400 2160 L
2376 2136 mt 2376 2184 L
2358 2160 mt 2406 2160 L
2382 2136 mt 2382 2184 L
2364 2160 mt 2412 2160 L
2388 2136 mt 2388 2184 L
2370 2160 mt 2418 2160 L
2394 2136 mt 2394 2184 L
2376 2160 mt 2424 2160 L
2400 2136 mt 2400 2184 L
2382 2160 mt 2430 2160 L
2406 2136 mt 2406 2184 L
2388 2160 mt 2436 2160 L
2412 2136 mt 2412 2184 L
2395 2160 mt 2443 2160 L
2419 2136 mt 2419 2184 L
gr

gs 605 346 1815 1815 rc
gr

0 sg
1380 2488 mt 
(Day) s
 169 1684 mt  -90 rotate
(Daily Incident) s
90 rotate
%%IncludeResource: font Helvetica
/Helvetica /ISOLatin1Encoding 96 FMSR

 592 2195 mt 
( ) s
2407  380 mt 
( ) s
6 w
1 sg
0 389 1361 0 0 -389 1067 733 4 MP
PP
-1361 0 0 389 1361 0 0 -389 1067 733 5 MP stroke
4 w
DO
SO
6 w
0 sg
1067  733 mt 2428  733 L
1067  344 mt 2428  344 L
1067  733 mt 1067  344 L
2428  733 mt 2428  344 L
1067  733 mt 2428  733 L
1067  733 mt 1067  344 L
1067  733 mt 2428  733 L
1067  344 mt 2428  344 L
1067  733 mt 1067  344 L
2428  733 mt 2428  344 L
%%IncludeResource: font Helvetica
/Helvetica /ISOLatin1Encoding 132 FMSR

1510  498 mt 
(Sensor Group) s
gs 1067 344 1362 390 rc
12 w
c8
340 0 1135 450 2 MP stroke
gs 1256 401 99 99 rc
1281  450 mt 1329  450 L
1305  426 mt 1305  474 L
1289  434 mt 1321  466 L
1321  434 mt 1289  466 L
gr

gr

12 w
c8
0 sg
1510  674 mt 
(Random Group) s
gs 1067 344 1362 390 rc
c9
340 0 1135 626 2 MP stroke
gs 1256 577 99 99 rc
1281  626 mt 1329  626 L
1305  602 mt 1305  650 L
gr

6 w
gr

6 w
c9

end %%Color Dict

eplot
%%EndObject

epage
end

showpage

%%Trailer
%%EOF
