%!PS-Adobe-3.0 EPSF-3.0
%%Creator: MATLAB, The MathWorks, Inc. Version 8.3.0.532 (R2014a). Operating System: Darwin 13.3.0 Darwin Kernel Version 13.3.0: Tue Jun  3 21:27:35 PDT 2014; root:xnu-2422.110.17~1/RELEASE_X86_64 x86_64.
%%Title: /Users/huijuans/2015Fall/GodBlessPLoSOne/MatLabFig/oregonSIShift2_08272015.eps
%%CreationDate: 08/31/2015  18:23:14
%%DocumentNeededFonts: Helvetica
%%DocumentProcessColors: Cyan Magenta Yellow Black
%%LanguageLevel: 2
%%Pages: 1
%%BoundingBox:   198   288   414   504
%%EndComments

%%BeginProlog
% MathWorks dictionary
/MathWorks 160 dict begin
% definition operators
/bdef {bind def} bind def
/ldef {load def} bind def
/xdef {exch def} bdef
/xstore {exch store} bdef
% operator abbreviations
/c  /clip ldef
/cc /concat ldef
/cp /closepath ldef
/gr /grestore ldef
/gs /gsave ldef
/mt /moveto ldef
/np /newpath ldef
/cm /currentmatrix ldef
/sm /setmatrix ldef
/rm /rmoveto ldef
/rl /rlineto ldef
/s {show newpath} bdef
/sc {setcmykcolor} bdef
/sr /setrgbcolor ldef
/sg /setgray ldef
/w /setlinewidth ldef
/j /setlinejoin ldef
/cap /setlinecap ldef
/rc {rectclip} bdef
/rf {rectfill} bdef
% page state control
/pgsv () def
/bpage {/pgsv save def} bdef
/epage {pgsv restore} bdef
/bplot /gsave ldef
/eplot {stroke grestore} bdef
% orientation switch
/portraitMode 0 def /landscapeMode 1 def /rotateMode 2 def
% coordinate system mappings
/dpi2point 0 def
% font control
/FontSize 0 def
/FMS {/FontSize xstore findfont [FontSize 0 0 FontSize neg 0 0]
  makefont setfont} bdef
/reencode {exch dup where {pop load} {pop StandardEncoding} ifelse
  exch dup 3 1 roll findfont dup length dict begin
  { 1 index /FID ne {def}{pop pop} ifelse } forall
  /Encoding exch def currentdict end definefont pop} bdef
/isroman {findfont /CharStrings get /Agrave known} bdef
/FMSR {3 1 roll 1 index dup isroman {reencode} {pop pop} ifelse
  exch FMS} bdef
/csm {1 dpi2point div -1 dpi2point div scale neg translate
 dup landscapeMode eq {pop -90 rotate}
  {rotateMode eq {90 rotate} if} ifelse} bdef
% line types: solid, dotted, dashed, dotdash
/SO { [] 0 setdash } bdef
/DO { [.5 dpi2point mul 4 dpi2point mul] 0 setdash } bdef
/DA { [6 dpi2point mul] 0 setdash } bdef
/DD { [.5 dpi2point mul 4 dpi2point mul 6 dpi2point mul 4
  dpi2point mul] 0 setdash } bdef
% macros for lines and objects
/L {lineto stroke} bdef
/MP {3 1 roll moveto 1 sub {rlineto} repeat} bdef
/AP {{rlineto} repeat} bdef
/PDlw -1 def
/W {/PDlw currentlinewidth def setlinewidth} def
/PP {closepath eofill} bdef
/DP {closepath stroke} bdef
/MR {4 -2 roll moveto dup  0 exch rlineto exch 0 rlineto
  neg 0 exch rlineto closepath} bdef
/FR {MR stroke} bdef
/PR {MR fill} bdef
/L1i {{currentfile picstr readhexstring pop} image} bdef
/tMatrix matrix def
/MakeOval {newpath tMatrix currentmatrix pop translate scale
0 0 1 0 360 arc tMatrix setmatrix} bdef
/FO {MakeOval stroke} bdef
/PO {MakeOval fill} bdef
/PD {currentlinewidth 2 div 0 360 arc fill
   PDlw -1 eq not {PDlw w /PDlw -1 def} if} def
/FA {newpath tMatrix currentmatrix pop translate scale
  0 0 1 5 -2 roll arc tMatrix setmatrix stroke} bdef
/PA {newpath tMatrix currentmatrix pop	translate 0 0 moveto scale
  0 0 1 5 -2 roll arc closepath tMatrix setmatrix fill} bdef
/FAn {newpath tMatrix currentmatrix pop translate scale
  0 0 1 5 -2 roll arcn tMatrix setmatrix stroke} bdef
/PAn {newpath tMatrix currentmatrix pop translate 0 0 moveto scale
  0 0 1 5 -2 roll arcn closepath tMatrix setmatrix fill} bdef
/vradius 0 def /hradius 0 def /lry 0 def
/lrx 0 def /uly 0 def /ulx 0 def /rad 0 def
/MRR {/vradius xdef /hradius xdef /lry xdef /lrx xdef /uly xdef
  /ulx xdef newpath tMatrix currentmatrix pop ulx hradius add uly
  vradius add translate hradius vradius scale 0 0 1 180 270 arc 
  tMatrix setmatrix lrx hradius sub uly vradius add translate
  hradius vradius scale 0 0 1 270 360 arc tMatrix setmatrix
  lrx hradius sub lry vradius sub translate hradius vradius scale
  0 0 1 0 90 arc tMatrix setmatrix ulx hradius add lry vradius sub
  translate hradius vradius scale 0 0 1 90 180 arc tMatrix setmatrix
  closepath} bdef
/FRR {MRR stroke } bdef
/PRR {MRR fill } bdef
/MlrRR {/lry xdef /lrx xdef /uly xdef /ulx xdef /rad lry uly sub 2 div def
  newpath tMatrix currentmatrix pop ulx rad add uly rad add translate
  rad rad scale 0 0 1 90 270 arc tMatrix setmatrix lrx rad sub lry rad
  sub translate rad rad scale 0 0 1 270 90 arc tMatrix setmatrix
  closepath} bdef
/FlrRR {MlrRR stroke } bdef
/PlrRR {MlrRR fill } bdef
/MtbRR {/lry xdef /lrx xdef /uly xdef /ulx xdef /rad lrx ulx sub 2 div def
  newpath tMatrix currentmatrix pop ulx rad add uly rad add translate
  rad rad scale 0 0 1 180 360 arc tMatrix setmatrix lrx rad sub lry rad
  sub translate rad rad scale 0 0 1 0 180 arc tMatrix setmatrix
  closepath} bdef
/FtbRR {MtbRR stroke } bdef
/PtbRR {MtbRR fill } bdef
/stri 6 array def /dtri 6 array def
/smat 6 array def /dmat 6 array def
/tmat1 6 array def /tmat2 6 array def /dif 3 array def
/asub {/ind2 exch def /ind1 exch def dup dup
  ind1 get exch ind2 get sub exch } bdef
/tri_to_matrix {
  2 0 asub 3 1 asub 4 0 asub 5 1 asub
  dup 0 get exch 1 get 7 -1 roll astore } bdef
/compute_transform {
  dmat dtri tri_to_matrix tmat1 invertmatrix 
  smat stri tri_to_matrix tmat2 concatmatrix } bdef
/ds {stri astore pop} bdef
/dt {dtri astore pop} bdef
/db {2 copy /cols xdef /rows xdef mul dup 3 mul string
  currentfile 
  3 index 0 eq {/ASCIIHexDecode filter}
  {/ASCII85Decode filter 3 index 2 eq {/RunLengthDecode filter} if }
  ifelse exch readstring pop
  dup 0 3 index getinterval /rbmap xdef
  dup 2 index dup getinterval /gbmap xdef
  1 index dup 2 mul exch getinterval /bbmap xdef pop pop}bdef
/it {gs np dtri aload pop moveto lineto lineto cp c
  cols rows 8 compute_transform 
  rbmap gbmap bbmap true 3 colorimage gr}bdef
/il {newpath moveto lineto stroke}bdef
currentdict end def
%%EndProlog

%%BeginSetup
MathWorks begin

0 cap

end
%%EndSetup

%%Page: 1 1
%%BeginPageSetup
%%PageBoundingBox:   198   288   414   504
MathWorks begin
bpage
%%EndPageSetup

%%BeginObject: obj1
bplot

/dpi2point 12 def
portraitMode 2376 6048 csm

    0     0  2592  2592 rc
85 dict begin %Colortable dictionary
/c0 { 0.000000 0.000000 0.000000 sr} bdef
/c1 { 1.000000 1.000000 1.000000 sr} bdef
/c2 { 0.900000 0.000000 0.000000 sr} bdef
/c3 { 0.000000 0.820000 0.000000 sr} bdef
/c4 { 0.000000 0.000000 0.800000 sr} bdef
/c5 { 0.910000 0.820000 0.320000 sr} bdef
/c6 { 1.000000 0.260000 0.820000 sr} bdef
/c7 { 0.000000 0.820000 0.820000 sr} bdef
c0
1 j
1 sg
   0    0 2593 2593 rf
6 w
0 1814 1814 0 0 -1814 605 2160 4 MP
PP
-1814 0 0 1814 1814 0 0 -1814 605 2160 5 MP stroke
4 w
DO
SO
6 w
0 sg
 605 2160 mt 2419 2160 L
 605  346 mt 2419  346 L
 605 2160 mt  605  346 L
2419 2160 mt 2419  346 L
 605 2160 mt 2419 2160 L
 605 2160 mt  605  346 L
 605 2160 mt  605 2141 L
 605  346 mt  605  364 L
%%IncludeResource: font Helvetica
/Helvetica /ISOLatin1Encoding 144 FMSR

 565 2328 mt 
(0) s
1209 2160 mt 1209 2141 L
1209  346 mt 1209  364 L
1089 2328 mt 
(100) s
1814 2160 mt 1814 2141 L
1814  346 mt 1814  364 L
1694 2328 mt 
(200) s
2419 2160 mt 2419 2141 L
2419  346 mt 2419  364 L
2299 2328 mt 
(300) s
 605 2160 mt  623 2160 L
2419 2160 mt 2400 2160 L
 490 2213 mt 
(0) s
 605 1857 mt  623 1857 L
2419 1857 mt 2400 1857 L
 210 1910 mt 
(0.005) s
 605 1555 mt  623 1555 L
2419 1555 mt 2400 1555 L
 290 1608 mt 
(0.01) s
 605 1253 mt  623 1253 L
2419 1253 mt 2400 1253 L
 210 1306 mt 
(0.015) s
 605  950 mt  623  950 L
2419  950 mt 2400  950 L
 290 1003 mt 
(0.02) s
 605  648 mt  623  648 L
2419  648 mt 2400  648 L
 210  701 mt 
(0.025) s
 605  346 mt  623  346 L
2419  346 mt 2400  346 L
 290  399 mt 
(0.03) s
 605 2160 mt 2419 2160 L
 605  346 mt 2419  346 L
 605 2160 mt  605  346 L
2419 2160 mt 2419  346 L
gs 605 346 1815 1815 rc
12 w
/c8 { 1.000000 0.000000 0.000000 sr} bdef
c8
7 0 6 0 6 0 6 0 6 0 6 0 6 0 6 0 
6 0 6 0 6 0 6 0 6 0 6 0 6 0 6 0 
6 0 6 0 6 0 6 0 6 0 7 0 6 0 6 0 
6 0 6 0 6 0 6 0 6 0 6 0 6 0 6 0 
6 0 6 0 6 0 6 0 6 0 6 0 6 0 6 0 
6 0 6 0 7 0 6 0 6 0 6 0 6 0 6 0 
6 0 6 0 6 0 6 0 6 0 6 0 6 0 6 0 
6 0 6 0 6 0 6 0 6 0 6 0 6 0 6 0 
7 0 6 0 6 0 6 0 6 0 6 0 6 0 6 1 
6 0 6 0 6 0 6 0 6 0 6 0 6 0 6 1 
6 0 6 0 6 0 6 0 6 1 7 0 6 0 6 1 
6 0 6 0 6 1 6 0 6 1 6 0 6 1 6 1 
6 1 6 0 6 1 6 1 6 1 6 1 6 2 6 1 
6 2 6 1 6 2 7 2 6 2 6 2 6 3 6 3 
6 3 6 3 6 3 6 4 6 4 6 5 6 5 6 5 
6 6 6 6 6 7 6 8 6 8 6 9 6 9 6 11 
7 11 6 12 6 13 6 14 6 15 6 16 6 18 6 19 
6 20 6 21 6 23 6 25 6 26 6 28 6 30 6 31 
6 33 6 34 6 36 6 38 6 39 6 41 7 41 6 43 
6 44 6 44 6 44 6 45 6 44 6 43 6 42 6 40 
6 38 6 36 6 32 6 29 6 25 6 21 6 17 6 12 
6 7 6 2 6 -3 7 -8 6 -13 6 -18 6 -22 6 -26 
6 -30 6 -33 6 -36 6 -39 6 -41 6 -42 6 -43 6 -44 
6 -45 6 -44 6 -44 6 -44 6 -42 6 -42 6 -40 6 -39 
7 -37 6 -36 6 -34 6 -32 6 -31 6 -29 6 -28 6 -26 
6 -24 6 -23 6 -21 6 -20 6 -18 6 -18 6 -16 6 -14 
6 -14 6 -13 6 -12 6 -11 6 -10 6 -9 7 -9 6 -8 
6 -7 6 -7 6 -6 6 -6 6 -5 6 -5 6 -5 6 -4 
6 -3 6 -4 6 -3 6 -3 6 -3 6 -2 6 -2 6 -3 
6 -1 6 -2 6 -2 7 -1 6 -2 6 -1 6 -1 6 -1 
6 -1 6 -1 6 -1 6 0 6 -1 6 -1 6 0 6 -1 
6 0 6 -1 6 0 6 0 6 -1 6 0 6 0 6 -1 
6 0 7 0 6 0 6 0 6 -1 6 0 6 0 6 0 
6 0 6 0 6 0 6 -1 6 0 6 0 6 0 6 0 
6 0 6 0 6 0 6 0 6 0 6 0 7 0 6 0 
6 0 6 0 6 0 6 0 6 0 6 0 6 0 6 0 
6 0 6 0 6 0 6 0 6 0 6 0 6 0 6 0 
6 0 6 0 6 0 611 2159 300 MP stroke
gr

12 w
c8
gs 562 789 1907 1420 rc
 587 2159 mt  635 2159 L
 611 2135 mt  611 2183 L
 593 2159 mt  641 2159 L
 617 2135 mt  617 2183 L
 599 2159 mt  647 2159 L
 623 2135 mt  623 2183 L
 605 2159 mt  653 2159 L
 629 2135 mt  629 2183 L
 611 2159 mt  659 2159 L
 635 2135 mt  635 2183 L
 617 2159 mt  665 2159 L
 641 2135 mt  641 2183 L
 623 2159 mt  671 2159 L
 647 2135 mt  647 2183 L
 629 2159 mt  677 2159 L
 653 2135 mt  653 2183 L
 635 2159 mt  683 2159 L
 659 2135 mt  659 2183 L
 641 2159 mt  689 2159 L
 665 2135 mt  665 2183 L
 647 2159 mt  695 2159 L
 671 2135 mt  671 2183 L
 653 2159 mt  701 2159 L
 677 2135 mt  677 2183 L
 659 2159 mt  707 2159 L
 683 2135 mt  683 2183 L
 665 2159 mt  713 2159 L
 689 2135 mt  689 2183 L
 671 2159 mt  719 2159 L
 695 2135 mt  695 2183 L
 677 2159 mt  725 2159 L
 701 2135 mt  701 2183 L
 683 2159 mt  731 2159 L
 707 2135 mt  707 2183 L
 689 2159 mt  737 2159 L
 713 2135 mt  713 2183 L
 695 2159 mt  743 2159 L
 719 2135 mt  719 2183 L
 701 2159 mt  749 2159 L
 725 2135 mt  725 2183 L
 707 2159 mt  755 2159 L
 731 2135 mt  731 2183 L
 714 2159 mt  762 2159 L
 738 2135 mt  738 2183 L
 720 2159 mt  768 2159 L
 744 2135 mt  744 2183 L
 726 2159 mt  774 2159 L
 750 2135 mt  750 2183 L
 732 2159 mt  780 2159 L
 756 2135 mt  756 2183 L
 738 2159 mt  786 2159 L
 762 2135 mt  762 2183 L
 744 2159 mt  792 2159 L
 768 2135 mt  768 2183 L
 750 2159 mt  798 2159 L
 774 2135 mt  774 2183 L
 756 2159 mt  804 2159 L
 780 2135 mt  780 2183 L
 762 2159 mt  810 2159 L
 786 2135 mt  786 2183 L
 768 2159 mt  816 2159 L
 792 2135 mt  792 2183 L
 774 2159 mt  822 2159 L
 798 2135 mt  798 2183 L
 780 2158 mt  828 2158 L
 804 2134 mt  804 2182 L
 786 2158 mt  834 2158 L
 810 2134 mt  810 2182 L
 792 2158 mt  840 2158 L
 816 2134 mt  816 2182 L
 798 2158 mt  846 2158 L
 822 2134 mt  822 2182 L
 804 2158 mt  852 2158 L
 828 2134 mt  828 2182 L
 810 2158 mt  858 2158 L
 834 2134 mt  834 2182 L
 816 2158 mt  864 2158 L
 840 2134 mt  840 2182 L
 822 2157 mt  870 2157 L
 846 2133 mt  846 2181 L
 828 2157 mt  876 2157 L
 852 2133 mt  852 2181 L
 834 2157 mt  882 2157 L
 858 2133 mt  858 2181 L
 841 2157 mt  889 2157 L
 865 2133 mt  865 2181 L
 847 2157 mt  895 2157 L
 871 2133 mt  871 2181 L
 853 2156 mt  901 2156 L
 877 2132 mt  877 2180 L
 859 2156 mt  907 2156 L
 883 2132 mt  883 2180 L
 865 2156 mt  913 2156 L
 889 2132 mt  889 2180 L
 871 2155 mt  919 2155 L
 895 2131 mt  895 2179 L
 877 2155 mt  925 2155 L
 901 2131 mt  901 2179 L
 883 2155 mt  931 2155 L
 907 2131 mt  907 2179 L
 889 2154 mt  937 2154 L
 913 2130 mt  913 2178 L
 895 2154 mt  943 2154 L
 919 2130 mt  919 2178 L
 901 2153 mt  949 2153 L
 925 2129 mt  925 2177 L
 907 2153 mt  955 2153 L
 931 2129 mt  931 2177 L
 913 2152 mt  961 2152 L
 937 2128 mt  937 2176 L
 919 2151 mt  967 2151 L
 943 2127 mt  943 2175 L
 925 2151 mt  973 2151 L
 949 2127 mt  949 2175 L
 931 2150 mt  979 2150 L
 955 2126 mt  955 2174 L
 937 2149 mt  985 2149 L
 961 2125 mt  961 2173 L
 943 2148 mt  991 2148 L
 967 2124 mt  967 2172 L
 949 2147 mt  997 2147 L
 973 2123 mt  973 2171 L
 955 2146 mt 1003 2146 L
 979 2122 mt  979 2170 L
 961 2145 mt 1009 2145 L
 985 2121 mt  985 2169 L
 967 2143 mt 1015 2143 L
 991 2119 mt  991 2167 L
 974 2142 mt 1022 2142 L
 998 2118 mt  998 2166 L
 980 2140 mt 1028 2140 L
1004 2116 mt 1004 2164 L
 986 2138 mt 1034 2138 L
1010 2114 mt 1010 2162 L
 992 2137 mt 1040 2137 L
1016 2113 mt 1016 2161 L
 998 2134 mt 1046 2134 L
1022 2110 mt 1022 2158 L
1004 2132 mt 1052 2132 L
1028 2108 mt 1028 2156 L
1010 2130 mt 1058 2130 L
1034 2106 mt 1034 2154 L
1016 2127 mt 1064 2127 L
1040 2103 mt 1040 2151 L
1022 2124 mt 1070 2124 L
1046 2100 mt 1046 2148 L
1028 2121 mt 1076 2121 L
1052 2097 mt 1052 2145 L
1034 2117 mt 1082 2117 L
1058 2093 mt 1058 2141 L
1040 2114 mt 1088 2114 L
1064 2090 mt 1064 2138 L
1046 2110 mt 1094 2110 L
1070 2086 mt 1070 2134 L
1052 2105 mt 1100 2105 L
1076 2081 mt 1076 2129 L
1058 2100 mt 1106 2100 L
1082 2076 mt 1082 2124 L
1064 2095 mt 1112 2095 L
1088 2071 mt 1088 2119 L
1070 2089 mt 1118 2089 L
1094 2065 mt 1094 2113 L
1076 2083 mt 1124 2083 L
1100 2059 mt 1100 2107 L
1082 2076 mt 1130 2076 L
1106 2052 mt 1106 2100 L
1088 2069 mt 1136 2069 L
1112 2045 mt 1112 2093 L
1094 2061 mt 1142 2061 L
1118 2037 mt 1118 2085 L
1101 2052 mt 1149 2052 L
1125 2028 mt 1125 2076 L
1107 2043 mt 1155 2043 L
1131 2019 mt 1131 2067 L
1113 2033 mt 1161 2033 L
1137 2009 mt 1137 2057 L
1119 2022 mt 1167 2022 L
1143 1998 mt 1143 2046 L
1125 2010 mt 1173 2010 L
1149 1986 mt 1149 2034 L
1131 1997 mt 1179 1997 L
1155 1973 mt 1155 2021 L
1137 1983 mt 1185 1983 L
1161 1959 mt 1161 2007 L
1143 1969 mt 1191 1969 L
1167 1945 mt 1167 1993 L
1149 1953 mt 1197 1953 L
1173 1929 mt 1173 1977 L
1155 1935 mt 1203 1935 L
1179 1911 mt 1179 1959 L
1161 1917 mt 1209 1917 L
1185 1893 mt 1185 1941 L
1167 1897 mt 1215 1897 L
1191 1873 mt 1191 1921 L
1173 1876 mt 1221 1876 L
1197 1852 mt 1197 1900 L
1179 1853 mt 1227 1853 L
1203 1829 mt 1203 1877 L
1185 1829 mt 1233 1829 L
1209 1805 mt 1209 1853 L
1191 1803 mt 1239 1803 L
1215 1779 mt 1215 1827 L
1197 1775 mt 1245 1775 L
1221 1751 mt 1221 1799 L
1203 1746 mt 1251 1746 L
1227 1722 mt 1227 1770 L
1209 1715 mt 1257 1715 L
1233 1691 mt 1233 1739 L
1215 1683 mt 1263 1683 L
1239 1659 mt 1239 1707 L
1221 1649 mt 1269 1649 L
1245 1625 mt 1245 1673 L
1227 1613 mt 1275 1613 L
1251 1589 mt 1251 1637 L
1234 1576 mt 1282 1576 L
1258 1552 mt 1258 1600 L
1240 1537 mt 1288 1537 L
1264 1513 mt 1264 1561 L
1246 1497 mt 1294 1497 L
1270 1473 mt 1270 1521 L
1252 1455 mt 1300 1455 L
1276 1431 mt 1276 1479 L
1258 1413 mt 1306 1413 L
1282 1389 mt 1282 1437 L
1264 1369 mt 1312 1369 L
1288 1345 mt 1288 1393 L
1270 1325 mt 1318 1325 L
1294 1301 mt 1294 1349 L
1276 1281 mt 1324 1281 L
1300 1257 mt 1300 1305 L
1282 1236 mt 1330 1236 L
1306 1212 mt 1306 1260 L
1288 1192 mt 1336 1192 L
1312 1168 mt 1312 1216 L
1294 1149 mt 1342 1149 L
1318 1125 mt 1318 1173 L
1300 1107 mt 1348 1107 L
1324 1083 mt 1324 1131 L
1306 1066 mt 1354 1066 L
1330 1042 mt 1330 1090 L
1312 1027 mt 1360 1027 L
1336 1003 mt 1336 1051 L
1318  991 mt 1366  991 L
1342  967 mt 1342 1015 L
1324  958 mt 1372  958 L
1348  934 mt 1348  982 L
1330  928 mt 1378  928 L
1354  904 mt 1354  952 L
1336  902 mt 1384  902 L
1360  878 mt 1360  926 L
1342  880 mt 1390  880 L
1366  856 mt 1366  904 L
1348  862 mt 1396  862 L
1372  838 mt 1372  886 L
1354  849 mt 1402  849 L
1378  825 mt 1378  873 L
1361  841 mt 1409  841 L
1385  817 mt 1385  865 L
1367  838 mt 1415  838 L
1391  814 mt 1391  862 L
1373  840 mt 1421  840 L
1397  816 mt 1397  864 L
1379  847 mt 1427  847 L
1403  823 mt 1403  871 L
1385  859 mt 1433  859 L
1409  835 mt 1409  883 L
1391  876 mt 1439  876 L
1415  852 mt 1415  900 L
1397  897 mt 1445  897 L
1421  873 mt 1421  921 L
1403  922 mt 1451  922 L
1427  898 mt 1427  946 L
1409  951 mt 1457  951 L
1433  927 mt 1433  975 L
1415  983 mt 1463  983 L
1439  959 mt 1439 1007 L
1421 1019 mt 1469 1019 L
1445  995 mt 1445 1043 L
1427 1057 mt 1475 1057 L
1451 1033 mt 1451 1081 L
1433 1097 mt 1481 1097 L
1457 1073 mt 1457 1121 L
1439 1139 mt 1487 1139 L
1463 1115 mt 1463 1163 L
1445 1182 mt 1493 1182 L
1469 1158 mt 1469 1206 L
1451 1226 mt 1499 1226 L
1475 1202 mt 1475 1250 L
1457 1271 mt 1505 1271 L
1481 1247 mt 1481 1295 L
1463 1315 mt 1511 1315 L
1487 1291 mt 1487 1339 L
1469 1359 mt 1517 1359 L
1493 1335 mt 1493 1383 L
1475 1403 mt 1523 1403 L
1499 1379 mt 1499 1427 L
1481 1446 mt 1529 1446 L
1505 1422 mt 1505 1470 L
1488 1487 mt 1536 1487 L
1512 1463 mt 1512 1511 L
1494 1528 mt 1542 1528 L
1518 1504 mt 1518 1552 L
1500 1567 mt 1548 1567 L
1524 1543 mt 1524 1591 L
1506 1605 mt 1554 1605 L
1530 1581 mt 1530 1629 L
1512 1641 mt 1560 1641 L
1536 1617 mt 1536 1665 L
1518 1675 mt 1566 1675 L
1542 1651 mt 1542 1699 L
1524 1708 mt 1572 1708 L
1548 1684 mt 1548 1732 L
1530 1739 mt 1578 1739 L
1554 1715 mt 1554 1763 L
1536 1769 mt 1584 1769 L
1560 1745 mt 1560 1793 L
1542 1797 mt 1590 1797 L
1566 1773 mt 1566 1821 L
1548 1823 mt 1596 1823 L
1572 1799 mt 1572 1847 L
1554 1848 mt 1602 1848 L
1578 1824 mt 1578 1872 L
1560 1871 mt 1608 1871 L
1584 1847 mt 1584 1895 L
1566 1892 mt 1614 1892 L
1590 1868 mt 1590 1916 L
1572 1912 mt 1620 1912 L
1596 1888 mt 1596 1936 L
1578 1931 mt 1626 1931 L
1602 1907 mt 1602 1955 L
1584 1949 mt 1632 1949 L
1608 1925 mt 1608 1973 L
1590 1965 mt 1638 1965 L
1614 1941 mt 1614 1989 L
1596 1980 mt 1644 1980 L
1620 1956 mt 1620 2004 L
1602 1994 mt 1650 1994 L
1626 1970 mt 1626 2018 L
1608 2007 mt 1656 2007 L
1632 1983 mt 1632 2031 L
1614 2019 mt 1662 2019 L
1638 1995 mt 1638 2043 L
1621 2030 mt 1669 2030 L
1645 2006 mt 1645 2054 L
1627 2041 mt 1675 2041 L
1651 2017 mt 1651 2065 L
1633 2050 mt 1681 2050 L
1657 2026 mt 1657 2074 L
1639 2059 mt 1687 2059 L
1663 2035 mt 1663 2083 L
1645 2067 mt 1693 2067 L
1669 2043 mt 1669 2091 L
1651 2075 mt 1699 2075 L
1675 2051 mt 1675 2099 L
1657 2082 mt 1705 2082 L
1681 2058 mt 1681 2106 L
1663 2088 mt 1711 2088 L
1687 2064 mt 1687 2112 L
1669 2094 mt 1717 2094 L
1693 2070 mt 1693 2118 L
1675 2099 mt 1723 2099 L
1699 2075 mt 1699 2123 L
1681 2104 mt 1729 2104 L
1705 2080 mt 1705 2128 L
1687 2109 mt 1735 2109 L
1711 2085 mt 1711 2133 L
1693 2113 mt 1741 2113 L
1717 2089 mt 1717 2137 L
1699 2117 mt 1747 2117 L
1723 2093 mt 1723 2141 L
1705 2120 mt 1753 2120 L
1729 2096 mt 1729 2144 L
1711 2123 mt 1759 2123 L
1735 2099 mt 1735 2147 L
1717 2126 mt 1765 2126 L
1741 2102 mt 1741 2150 L
1723 2129 mt 1771 2129 L
1747 2105 mt 1747 2153 L
1729 2132 mt 1777 2132 L
1753 2108 mt 1753 2156 L
1735 2134 mt 1783 2134 L
1759 2110 mt 1759 2158 L
1741 2136 mt 1789 2136 L
1765 2112 mt 1765 2160 L
1748 2138 mt 1796 2138 L
1772 2114 mt 1772 2162 L
1754 2140 mt 1802 2140 L
1778 2116 mt 1778 2164 L
1760 2141 mt 1808 2141 L
1784 2117 mt 1784 2165 L
1766 2143 mt 1814 2143 L
1790 2119 mt 1790 2167 L
1772 2144 mt 1820 2144 L
1796 2120 mt 1796 2168 L
1778 2146 mt 1826 2146 L
1802 2122 mt 1802 2170 L
1784 2147 mt 1832 2147 L
1808 2123 mt 1808 2171 L
1790 2148 mt 1838 2148 L
1814 2124 mt 1814 2172 L
1796 2149 mt 1844 2149 L
1820 2125 mt 1820 2173 L
1802 2150 mt 1850 2150 L
1826 2126 mt 1826 2174 L
1808 2150 mt 1856 2150 L
1832 2126 mt 1832 2174 L
1814 2151 mt 1862 2151 L
1838 2127 mt 1838 2175 L
1820 2152 mt 1868 2152 L
1844 2128 mt 1844 2176 L
1826 2153 mt 1874 2153 L
1850 2129 mt 1850 2177 L
1832 2153 mt 1880 2153 L
1856 2129 mt 1856 2177 L
1838 2154 mt 1886 2154 L
1862 2130 mt 1862 2178 L
1844 2154 mt 1892 2154 L
1868 2130 mt 1868 2178 L
1850 2155 mt 1898 2155 L
1874 2131 mt 1874 2179 L
1856 2155 mt 1904 2155 L
1880 2131 mt 1880 2179 L
1862 2155 mt 1910 2155 L
1886 2131 mt 1886 2179 L
1868 2156 mt 1916 2156 L
1892 2132 mt 1892 2180 L
1874 2156 mt 1922 2156 L
1898 2132 mt 1898 2180 L
1881 2156 mt 1929 2156 L
1905 2132 mt 1905 2180 L
1887 2157 mt 1935 2157 L
1911 2133 mt 1911 2181 L
1893 2157 mt 1941 2157 L
1917 2133 mt 1917 2181 L
1899 2157 mt 1947 2157 L
1923 2133 mt 1923 2181 L
1905 2157 mt 1953 2157 L
1929 2133 mt 1929 2181 L
1911 2157 mt 1959 2157 L
1935 2133 mt 1935 2181 L
1917 2158 mt 1965 2158 L
1941 2134 mt 1941 2182 L
1923 2158 mt 1971 2158 L
1947 2134 mt 1947 2182 L
1929 2158 mt 1977 2158 L
1953 2134 mt 1953 2182 L
1935 2158 mt 1983 2158 L
1959 2134 mt 1959 2182 L
1941 2158 mt 1989 2158 L
1965 2134 mt 1965 2182 L
1947 2158 mt 1995 2158 L
1971 2134 mt 1971 2182 L
1953 2158 mt 2001 2158 L
1977 2134 mt 1977 2182 L
1959 2158 mt 2007 2158 L
1983 2134 mt 1983 2182 L
1965 2159 mt 2013 2159 L
1989 2135 mt 1989 2183 L
1971 2159 mt 2019 2159 L
1995 2135 mt 1995 2183 L
1977 2159 mt 2025 2159 L
2001 2135 mt 2001 2183 L
1983 2159 mt 2031 2159 L
2007 2135 mt 2007 2183 L
1989 2159 mt 2037 2159 L
2013 2135 mt 2013 2183 L
1995 2159 mt 2043 2159 L
2019 2135 mt 2019 2183 L
2001 2159 mt 2049 2159 L
2025 2135 mt 2025 2183 L
2008 2159 mt 2056 2159 L
2032 2135 mt 2032 2183 L
2014 2159 mt 2062 2159 L
2038 2135 mt 2038 2183 L
2020 2159 mt 2068 2159 L
2044 2135 mt 2044 2183 L
2026 2159 mt 2074 2159 L
2050 2135 mt 2050 2183 L
2032 2159 mt 2080 2159 L
2056 2135 mt 2056 2183 L
2038 2159 mt 2086 2159 L
2062 2135 mt 2062 2183 L
2044 2159 mt 2092 2159 L
2068 2135 mt 2068 2183 L
2050 2159 mt 2098 2159 L
2074 2135 mt 2074 2183 L
2056 2159 mt 2104 2159 L
2080 2135 mt 2080 2183 L
2062 2159 mt 2110 2159 L
2086 2135 mt 2086 2183 L
2068 2159 mt 2116 2159 L
2092 2135 mt 2092 2183 L
2074 2159 mt 2122 2159 L
2098 2135 mt 2098 2183 L
2080 2159 mt 2128 2159 L
2104 2135 mt 2104 2183 L
2086 2159 mt 2134 2159 L
2110 2135 mt 2110 2183 L
2092 2159 mt 2140 2159 L
2116 2135 mt 2116 2183 L
2098 2159 mt 2146 2159 L
2122 2135 mt 2122 2183 L
2104 2159 mt 2152 2159 L
2128 2135 mt 2128 2183 L
2110 2159 mt 2158 2159 L
2134 2135 mt 2134 2183 L
2116 2159 mt 2164 2159 L
2140 2135 mt 2140 2183 L
2122 2159 mt 2170 2159 L
2146 2135 mt 2146 2183 L
2128 2159 mt 2176 2159 L
2152 2135 mt 2152 2183 L
2134 2159 mt 2182 2159 L
2158 2135 mt 2158 2183 L
2141 2159 mt 2189 2159 L
2165 2135 mt 2165 2183 L
2147 2159 mt 2195 2159 L
2171 2135 mt 2171 2183 L
2153 2159 mt 2201 2159 L
2177 2135 mt 2177 2183 L
2159 2159 mt 2207 2159 L
2183 2135 mt 2183 2183 L
2165 2159 mt 2213 2159 L
2189 2135 mt 2189 2183 L
2171 2159 mt 2219 2159 L
2195 2135 mt 2195 2183 L
2177 2159 mt 2225 2159 L
2201 2135 mt 2201 2183 L
2183 2159 mt 2231 2159 L
2207 2135 mt 2207 2183 L
2189 2159 mt 2237 2159 L
2213 2135 mt 2213 2183 L
2195 2159 mt 2243 2159 L
2219 2135 mt 2219 2183 L
2201 2159 mt 2249 2159 L
2225 2135 mt 2225 2183 L
2207 2159 mt 2255 2159 L
2231 2135 mt 2231 2183 L
2213 2159 mt 2261 2159 L
2237 2135 mt 2237 2183 L
2219 2159 mt 2267 2159 L
2243 2135 mt 2243 2183 L
2225 2159 mt 2273 2159 L
2249 2135 mt 2249 2183 L
2231 2159 mt 2279 2159 L
2255 2135 mt 2255 2183 L
2237 2159 mt 2285 2159 L
2261 2135 mt 2261 2183 L
2243 2159 mt 2291 2159 L
2267 2135 mt 2267 2183 L
2249 2159 mt 2297 2159 L
2273 2135 mt 2273 2183 L
2255 2159 mt 2303 2159 L
2279 2135 mt 2279 2183 L
2261 2159 mt 2309 2159 L
2285 2135 mt 2285 2183 L
2268 2159 mt 2316 2159 L
2292 2135 mt 2292 2183 L
2274 2159 mt 2322 2159 L
2298 2135 mt 2298 2183 L
2280 2159 mt 2328 2159 L
2304 2135 mt 2304 2183 L
2286 2159 mt 2334 2159 L
2310 2135 mt 2310 2183 L
2292 2159 mt 2340 2159 L
2316 2135 mt 2316 2183 L
2298 2159 mt 2346 2159 L
2322 2135 mt 2322 2183 L
2304 2159 mt 2352 2159 L
2328 2135 mt 2328 2183 L
2310 2159 mt 2358 2159 L
2334 2135 mt 2334 2183 L
2316 2159 mt 2364 2159 L
2340 2135 mt 2340 2183 L
2322 2159 mt 2370 2159 L
2346 2135 mt 2346 2183 L
2328 2159 mt 2376 2159 L
2352 2135 mt 2352 2183 L
2334 2159 mt 2382 2159 L
2358 2135 mt 2358 2183 L
2340 2159 mt 2388 2159 L
2364 2135 mt 2364 2183 L
2346 2159 mt 2394 2159 L
2370 2135 mt 2370 2183 L
2352 2159 mt 2400 2159 L
2376 2135 mt 2376 2183 L
2358 2159 mt 2406 2159 L
2382 2135 mt 2382 2183 L
2364 2159 mt 2412 2159 L
2388 2135 mt 2388 2183 L
2370 2159 mt 2418 2159 L
2394 2135 mt 2394 2183 L
2376 2159 mt 2424 2159 L
2400 2135 mt 2400 2183 L
2382 2159 mt 2430 2159 L
2406 2135 mt 2406 2183 L
2388 2159 mt 2436 2159 L
2412 2135 mt 2412 2183 L
2395 2159 mt 2443 2159 L
2419 2135 mt 2419 2183 L
 595 2143 mt  627 2175 L
 627 2143 mt  595 2175 L
 601 2143 mt  633 2175 L
 633 2143 mt  601 2175 L
 607 2143 mt  639 2175 L
 639 2143 mt  607 2175 L
 613 2143 mt  645 2175 L
 645 2143 mt  613 2175 L
 619 2143 mt  651 2175 L
 651 2143 mt  619 2175 L
 625 2143 mt  657 2175 L
 657 2143 mt  625 2175 L
 631 2143 mt  663 2175 L
 663 2143 mt  631 2175 L
 637 2143 mt  669 2175 L
 669 2143 mt  637 2175 L
 643 2143 mt  675 2175 L
 675 2143 mt  643 2175 L
 649 2143 mt  681 2175 L
 681 2143 mt  649 2175 L
 655 2143 mt  687 2175 L
 687 2143 mt  655 2175 L
 661 2143 mt  693 2175 L
 693 2143 mt  661 2175 L
 667 2143 mt  699 2175 L
 699 2143 mt  667 2175 L
 673 2143 mt  705 2175 L
 705 2143 mt  673 2175 L
 679 2143 mt  711 2175 L
 711 2143 mt  679 2175 L
 685 2143 mt  717 2175 L
 717 2143 mt  685 2175 L
 691 2143 mt  723 2175 L
 723 2143 mt  691 2175 L
 697 2143 mt  729 2175 L
 729 2143 mt  697 2175 L
 703 2143 mt  735 2175 L
 735 2143 mt  703 2175 L
 709 2143 mt  741 2175 L
 741 2143 mt  709 2175 L
 715 2143 mt  747 2175 L
 747 2143 mt  715 2175 L
 722 2143 mt  754 2175 L
 754 2143 mt  722 2175 L
 728 2143 mt  760 2175 L
 760 2143 mt  728 2175 L
 734 2143 mt  766 2175 L
 766 2143 mt  734 2175 L
 740 2143 mt  772 2175 L
 772 2143 mt  740 2175 L
 746 2143 mt  778 2175 L
 778 2143 mt  746 2175 L
 752 2143 mt  784 2175 L
 784 2143 mt  752 2175 L
 758 2143 mt  790 2175 L
 790 2143 mt  758 2175 L
 764 2143 mt  796 2175 L
 796 2143 mt  764 2175 L
 770 2143 mt  802 2175 L
 802 2143 mt  770 2175 L
 776 2143 mt  808 2175 L
 808 2143 mt  776 2175 L
 782 2143 mt  814 2175 L
 814 2143 mt  782 2175 L
 788 2142 mt  820 2174 L
 820 2142 mt  788 2174 L
 794 2142 mt  826 2174 L
 826 2142 mt  794 2174 L
 800 2142 mt  832 2174 L
 832 2142 mt  800 2174 L
 806 2142 mt  838 2174 L
 838 2142 mt  806 2174 L
 812 2142 mt  844 2174 L
 844 2142 mt  812 2174 L
 818 2142 mt  850 2174 L
 850 2142 mt  818 2174 L
 824 2142 mt  856 2174 L
 856 2142 mt  824 2174 L
 830 2141 mt  862 2173 L
 862 2141 mt  830 2173 L
 836 2141 mt  868 2173 L
 868 2141 mt  836 2173 L
 842 2141 mt  874 2173 L
 874 2141 mt  842 2173 L
 849 2141 mt  881 2173 L
 881 2141 mt  849 2173 L
 855 2141 mt  887 2173 L
 887 2141 mt  855 2173 L
 861 2140 mt  893 2172 L
 893 2140 mt  861 2172 L
 867 2140 mt  899 2172 L
 899 2140 mt  867 2172 L
 873 2140 mt  905 2172 L
 905 2140 mt  873 2172 L
 879 2139 mt  911 2171 L
 911 2139 mt  879 2171 L
 885 2139 mt  917 2171 L
 917 2139 mt  885 2171 L
 891 2139 mt  923 2171 L
 923 2139 mt  891 2171 L
 897 2138 mt  929 2170 L
 929 2138 mt  897 2170 L
 903 2138 mt  935 2170 L
 935 2138 mt  903 2170 L
 909 2137 mt  941 2169 L
 941 2137 mt  909 2169 L
 915 2137 mt  947 2169 L
 947 2137 mt  915 2169 L
 921 2136 mt  953 2168 L
 953 2136 mt  921 2168 L
 927 2135 mt  959 2167 L
 959 2135 mt  927 2167 L
 933 2135 mt  965 2167 L
 965 2135 mt  933 2167 L
 939 2134 mt  971 2166 L
 971 2134 mt  939 2166 L
 945 2133 mt  977 2165 L
 977 2133 mt  945 2165 L
 951 2132 mt  983 2164 L
 983 2132 mt  951 2164 L
 957 2131 mt  989 2163 L
 989 2131 mt  957 2163 L
 963 2130 mt  995 2162 L
 995 2130 mt  963 2162 L
 969 2129 mt 1001 2161 L
1001 2129 mt  969 2161 L
 975 2127 mt 1007 2159 L
1007 2127 mt  975 2159 L
 982 2126 mt 1014 2158 L
1014 2126 mt  982 2158 L
 988 2124 mt 1020 2156 L
1020 2124 mt  988 2156 L
 994 2122 mt 1026 2154 L
1026 2122 mt  994 2154 L
1000 2121 mt 1032 2153 L
1032 2121 mt 1000 2153 L
1006 2118 mt 1038 2150 L
1038 2118 mt 1006 2150 L
1012 2116 mt 1044 2148 L
1044 2116 mt 1012 2148 L
1018 2114 mt 1050 2146 L
1050 2114 mt 1018 2146 L
1024 2111 mt 1056 2143 L
1056 2111 mt 1024 2143 L
1030 2108 mt 1062 2140 L
1062 2108 mt 1030 2140 L
1036 2105 mt 1068 2137 L
1068 2105 mt 1036 2137 L
1042 2101 mt 1074 2133 L
1074 2101 mt 1042 2133 L
1048 2098 mt 1080 2130 L
1080 2098 mt 1048 2130 L
1054 2094 mt 1086 2126 L
1086 2094 mt 1054 2126 L
1060 2089 mt 1092 2121 L
1092 2089 mt 1060 2121 L
1066 2084 mt 1098 2116 L
1098 2084 mt 1066 2116 L
1072 2079 mt 1104 2111 L
1104 2079 mt 1072 2111 L
1078 2073 mt 1110 2105 L
1110 2073 mt 1078 2105 L
1084 2067 mt 1116 2099 L
1116 2067 mt 1084 2099 L
1090 2060 mt 1122 2092 L
1122 2060 mt 1090 2092 L
1096 2053 mt 1128 2085 L
1128 2053 mt 1096 2085 L
1102 2045 mt 1134 2077 L
1134 2045 mt 1102 2077 L
1109 2036 mt 1141 2068 L
1141 2036 mt 1109 2068 L
1115 2027 mt 1147 2059 L
1147 2027 mt 1115 2059 L
1121 2017 mt 1153 2049 L
1153 2017 mt 1121 2049 L
1127 2006 mt 1159 2038 L
1159 2006 mt 1127 2038 L
1133 1994 mt 1165 2026 L
1165 1994 mt 1133 2026 L
1139 1981 mt 1171 2013 L
1171 1981 mt 1139 2013 L
1145 1967 mt 1177 1999 L
1177 1967 mt 1145 1999 L
1151 1953 mt 1183 1985 L
1183 1953 mt 1151 1985 L
1157 1937 mt 1189 1969 L
1189 1937 mt 1157 1969 L
1163 1919 mt 1195 1951 L
1195 1919 mt 1163 1951 L
1169 1901 mt 1201 1933 L
1201 1901 mt 1169 1933 L
1175 1881 mt 1207 1913 L
1207 1881 mt 1175 1913 L
1181 1860 mt 1213 1892 L
1213 1860 mt 1181 1892 L
1187 1837 mt 1219 1869 L
1219 1837 mt 1187 1869 L
1193 1813 mt 1225 1845 L
1225 1813 mt 1193 1845 L
1199 1787 mt 1231 1819 L
1231 1787 mt 1199 1819 L
1205 1759 mt 1237 1791 L
1237 1759 mt 1205 1791 L
1211 1730 mt 1243 1762 L
1243 1730 mt 1211 1762 L
1217 1699 mt 1249 1731 L
1249 1699 mt 1217 1731 L
1223 1667 mt 1255 1699 L
1255 1667 mt 1223 1699 L
1229 1633 mt 1261 1665 L
1261 1633 mt 1229 1665 L
1235 1597 mt 1267 1629 L
1267 1597 mt 1235 1629 L
1242 1560 mt 1274 1592 L
1274 1560 mt 1242 1592 L
1248 1521 mt 1280 1553 L
1280 1521 mt 1248 1553 L
1254 1481 mt 1286 1513 L
1286 1481 mt 1254 1513 L
1260 1439 mt 1292 1471 L
1292 1439 mt 1260 1471 L
1266 1397 mt 1298 1429 L
1298 1397 mt 1266 1429 L
1272 1353 mt 1304 1385 L
1304 1353 mt 1272 1385 L
1278 1309 mt 1310 1341 L
1310 1309 mt 1278 1341 L
1284 1265 mt 1316 1297 L
1316 1265 mt 1284 1297 L
1290 1220 mt 1322 1252 L
1322 1220 mt 1290 1252 L
1296 1176 mt 1328 1208 L
1328 1176 mt 1296 1208 L
1302 1133 mt 1334 1165 L
1334 1133 mt 1302 1165 L
1308 1091 mt 1340 1123 L
1340 1091 mt 1308 1123 L
1314 1050 mt 1346 1082 L
1346 1050 mt 1314 1082 L
1320 1011 mt 1352 1043 L
1352 1011 mt 1320 1043 L
1326  975 mt 1358 1007 L
1358  975 mt 1326 1007 L
1332  942 mt 1364  974 L
1364  942 mt 1332  974 L
1338  912 mt 1370  944 L
1370  912 mt 1338  944 L
1344  886 mt 1376  918 L
1376  886 mt 1344  918 L
1350  864 mt 1382  896 L
1382  864 mt 1350  896 L
1356  846 mt 1388  878 L
1388  846 mt 1356  878 L
1362  833 mt 1394  865 L
1394  833 mt 1362  865 L
1369  825 mt 1401  857 L
1401  825 mt 1369  857 L
1375  822 mt 1407  854 L
1407  822 mt 1375  854 L
1381  824 mt 1413  856 L
1413  824 mt 1381  856 L
1387  831 mt 1419  863 L
1419  831 mt 1387  863 L
1393  843 mt 1425  875 L
1425  843 mt 1393  875 L
1399  860 mt 1431  892 L
1431  860 mt 1399  892 L
1405  881 mt 1437  913 L
1437  881 mt 1405  913 L
1411  906 mt 1443  938 L
1443  906 mt 1411  938 L
1417  935 mt 1449  967 L
1449  935 mt 1417  967 L
1423  967 mt 1455  999 L
1455  967 mt 1423  999 L
1429 1003 mt 1461 1035 L
1461 1003 mt 1429 1035 L
1435 1041 mt 1467 1073 L
1467 1041 mt 1435 1073 L
1441 1081 mt 1473 1113 L
1473 1081 mt 1441 1113 L
1447 1123 mt 1479 1155 L
1479 1123 mt 1447 1155 L
1453 1166 mt 1485 1198 L
1485 1166 mt 1453 1198 L
1459 1210 mt 1491 1242 L
1491 1210 mt 1459 1242 L
1465 1255 mt 1497 1287 L
1497 1255 mt 1465 1287 L
1471 1299 mt 1503 1331 L
1503 1299 mt 1471 1331 L
1477 1343 mt 1509 1375 L
1509 1343 mt 1477 1375 L
1483 1387 mt 1515 1419 L
1515 1387 mt 1483 1419 L
1489 1430 mt 1521 1462 L
1521 1430 mt 1489 1462 L
1496 1471 mt 1528 1503 L
1528 1471 mt 1496 1503 L
1502 1512 mt 1534 1544 L
1534 1512 mt 1502 1544 L
1508 1551 mt 1540 1583 L
1540 1551 mt 1508 1583 L
1514 1589 mt 1546 1621 L
1546 1589 mt 1514 1621 L
1520 1625 mt 1552 1657 L
1552 1625 mt 1520 1657 L
1526 1659 mt 1558 1691 L
1558 1659 mt 1526 1691 L
1532 1692 mt 1564 1724 L
1564 1692 mt 1532 1724 L
1538 1723 mt 1570 1755 L
1570 1723 mt 1538 1755 L
1544 1753 mt 1576 1785 L
1576 1753 mt 1544 1785 L
1550 1781 mt 1582 1813 L
1582 1781 mt 1550 1813 L
1556 1807 mt 1588 1839 L
1588 1807 mt 1556 1839 L
1562 1832 mt 1594 1864 L
1594 1832 mt 1562 1864 L
1568 1855 mt 1600 1887 L
1600 1855 mt 1568 1887 L
1574 1876 mt 1606 1908 L
1606 1876 mt 1574 1908 L
1580 1896 mt 1612 1928 L
1612 1896 mt 1580 1928 L
1586 1915 mt 1618 1947 L
1618 1915 mt 1586 1947 L
1592 1933 mt 1624 1965 L
1624 1933 mt 1592 1965 L
1598 1949 mt 1630 1981 L
1630 1949 mt 1598 1981 L
1604 1964 mt 1636 1996 L
1636 1964 mt 1604 1996 L
1610 1978 mt 1642 2010 L
1642 1978 mt 1610 2010 L
1616 1991 mt 1648 2023 L
1648 1991 mt 1616 2023 L
1622 2003 mt 1654 2035 L
1654 2003 mt 1622 2035 L
1629 2014 mt 1661 2046 L
1661 2014 mt 1629 2046 L
1635 2025 mt 1667 2057 L
1667 2025 mt 1635 2057 L
1641 2034 mt 1673 2066 L
1673 2034 mt 1641 2066 L
1647 2043 mt 1679 2075 L
1679 2043 mt 1647 2075 L
1653 2051 mt 1685 2083 L
1685 2051 mt 1653 2083 L
1659 2059 mt 1691 2091 L
1691 2059 mt 1659 2091 L
1665 2066 mt 1697 2098 L
1697 2066 mt 1665 2098 L
1671 2072 mt 1703 2104 L
1703 2072 mt 1671 2104 L
1677 2078 mt 1709 2110 L
1709 2078 mt 1677 2110 L
1683 2083 mt 1715 2115 L
1715 2083 mt 1683 2115 L
1689 2088 mt 1721 2120 L
1721 2088 mt 1689 2120 L
1695 2093 mt 1727 2125 L
1727 2093 mt 1695 2125 L
1701 2097 mt 1733 2129 L
1733 2097 mt 1701 2129 L
1707 2101 mt 1739 2133 L
1739 2101 mt 1707 2133 L
1713 2104 mt 1745 2136 L
1745 2104 mt 1713 2136 L
1719 2107 mt 1751 2139 L
1751 2107 mt 1719 2139 L
1725 2110 mt 1757 2142 L
1757 2110 mt 1725 2142 L
1731 2113 mt 1763 2145 L
1763 2113 mt 1731 2145 L
1737 2116 mt 1769 2148 L
1769 2116 mt 1737 2148 L
1743 2118 mt 1775 2150 L
1775 2118 mt 1743 2150 L
1749 2120 mt 1781 2152 L
1781 2120 mt 1749 2152 L
1756 2122 mt 1788 2154 L
1788 2122 mt 1756 2154 L
1762 2124 mt 1794 2156 L
1794 2124 mt 1762 2156 L
1768 2125 mt 1800 2157 L
1800 2125 mt 1768 2157 L
1774 2127 mt 1806 2159 L
1806 2127 mt 1774 2159 L
1780 2128 mt 1812 2160 L
1812 2128 mt 1780 2160 L
1786 2130 mt 1818 2162 L
1818 2130 mt 1786 2162 L
1792 2131 mt 1824 2163 L
1824 2131 mt 1792 2163 L
1798 2132 mt 1830 2164 L
1830 2132 mt 1798 2164 L
1804 2133 mt 1836 2165 L
1836 2133 mt 1804 2165 L
1810 2134 mt 1842 2166 L
1842 2134 mt 1810 2166 L
1816 2134 mt 1848 2166 L
1848 2134 mt 1816 2166 L
1822 2135 mt 1854 2167 L
1854 2135 mt 1822 2167 L
1828 2136 mt 1860 2168 L
1860 2136 mt 1828 2168 L
1834 2137 mt 1866 2169 L
1866 2137 mt 1834 2169 L
1840 2137 mt 1872 2169 L
1872 2137 mt 1840 2169 L
1846 2138 mt 1878 2170 L
1878 2138 mt 1846 2170 L
1852 2138 mt 1884 2170 L
1884 2138 mt 1852 2170 L
1858 2139 mt 1890 2171 L
1890 2139 mt 1858 2171 L
1864 2139 mt 1896 2171 L
1896 2139 mt 1864 2171 L
1870 2139 mt 1902 2171 L
1902 2139 mt 1870 2171 L
1876 2140 mt 1908 2172 L
1908 2140 mt 1876 2172 L
1882 2140 mt 1914 2172 L
1914 2140 mt 1882 2172 L
1889 2140 mt 1921 2172 L
1921 2140 mt 1889 2172 L
1895 2141 mt 1927 2173 L
1927 2141 mt 1895 2173 L
1901 2141 mt 1933 2173 L
1933 2141 mt 1901 2173 L
1907 2141 mt 1939 2173 L
1939 2141 mt 1907 2173 L
1913 2141 mt 1945 2173 L
1945 2141 mt 1913 2173 L
1919 2141 mt 1951 2173 L
1951 2141 mt 1919 2173 L
1925 2142 mt 1957 2174 L
1957 2142 mt 1925 2174 L
1931 2142 mt 1963 2174 L
1963 2142 mt 1931 2174 L
1937 2142 mt 1969 2174 L
1969 2142 mt 1937 2174 L
1943 2142 mt 1975 2174 L
1975 2142 mt 1943 2174 L
1949 2142 mt 1981 2174 L
1981 2142 mt 1949 2174 L
1955 2142 mt 1987 2174 L
1987 2142 mt 1955 2174 L
1961 2142 mt 1993 2174 L
1993 2142 mt 1961 2174 L
1967 2142 mt 1999 2174 L
1999 2142 mt 1967 2174 L
1973 2143 mt 2005 2175 L
2005 2143 mt 1973 2175 L
1979 2143 mt 2011 2175 L
2011 2143 mt 1979 2175 L
1985 2143 mt 2017 2175 L
2017 2143 mt 1985 2175 L
1991 2143 mt 2023 2175 L
2023 2143 mt 1991 2175 L
1997 2143 mt 2029 2175 L
2029 2143 mt 1997 2175 L
2003 2143 mt 2035 2175 L
2035 2143 mt 2003 2175 L
2009 2143 mt 2041 2175 L
2041 2143 mt 2009 2175 L
2016 2143 mt 2048 2175 L
2048 2143 mt 2016 2175 L
2022 2143 mt 2054 2175 L
2054 2143 mt 2022 2175 L
2028 2143 mt 2060 2175 L
2060 2143 mt 2028 2175 L
2034 2143 mt 2066 2175 L
2066 2143 mt 2034 2175 L
2040 2143 mt 2072 2175 L
2072 2143 mt 2040 2175 L
2046 2143 mt 2078 2175 L
2078 2143 mt 2046 2175 L
2052 2143 mt 2084 2175 L
2084 2143 mt 2052 2175 L
2058 2143 mt 2090 2175 L
2090 2143 mt 2058 2175 L
2064 2143 mt 2096 2175 L
2096 2143 mt 2064 2175 L
2070 2143 mt 2102 2175 L
2102 2143 mt 2070 2175 L
2076 2143 mt 2108 2175 L
2108 2143 mt 2076 2175 L
2082 2143 mt 2114 2175 L
2114 2143 mt 2082 2175 L
2088 2143 mt 2120 2175 L
2120 2143 mt 2088 2175 L
2094 2143 mt 2126 2175 L
2126 2143 mt 2094 2175 L
2100 2143 mt 2132 2175 L
2132 2143 mt 2100 2175 L
2106 2143 mt 2138 2175 L
2138 2143 mt 2106 2175 L
2112 2143 mt 2144 2175 L
2144 2143 mt 2112 2175 L
2118 2143 mt 2150 2175 L
2150 2143 mt 2118 2175 L
2124 2143 mt 2156 2175 L
2156 2143 mt 2124 2175 L
2130 2143 mt 2162 2175 L
2162 2143 mt 2130 2175 L
2136 2143 mt 2168 2175 L
2168 2143 mt 2136 2175 L
2142 2143 mt 2174 2175 L
2174 2143 mt 2142 2175 L
2149 2143 mt 2181 2175 L
2181 2143 mt 2149 2175 L
2155 2143 mt 2187 2175 L
2187 2143 mt 2155 2175 L
2161 2143 mt 2193 2175 L
2193 2143 mt 2161 2175 L
2167 2143 mt 2199 2175 L
2199 2143 mt 2167 2175 L
2173 2143 mt 2205 2175 L
2205 2143 mt 2173 2175 L
2179 2143 mt 2211 2175 L
2211 2143 mt 2179 2175 L
2185 2143 mt 2217 2175 L
2217 2143 mt 2185 2175 L
2191 2143 mt 2223 2175 L
2223 2143 mt 2191 2175 L
2197 2143 mt 2229 2175 L
2229 2143 mt 2197 2175 L
2203 2143 mt 2235 2175 L
2235 2143 mt 2203 2175 L
2209 2143 mt 2241 2175 L
2241 2143 mt 2209 2175 L
2215 2143 mt 2247 2175 L
2247 2143 mt 2215 2175 L
2221 2143 mt 2253 2175 L
2253 2143 mt 2221 2175 L
2227 2143 mt 2259 2175 L
2259 2143 mt 2227 2175 L
2233 2143 mt 2265 2175 L
2265 2143 mt 2233 2175 L
2239 2143 mt 2271 2175 L
2271 2143 mt 2239 2175 L
2245 2143 mt 2277 2175 L
2277 2143 mt 2245 2175 L
2251 2143 mt 2283 2175 L
2283 2143 mt 2251 2175 L
2257 2143 mt 2289 2175 L
2289 2143 mt 2257 2175 L
2263 2143 mt 2295 2175 L
2295 2143 mt 2263 2175 L
2269 2143 mt 2301 2175 L
2301 2143 mt 2269 2175 L
2276 2143 mt 2308 2175 L
2308 2143 mt 2276 2175 L
2282 2143 mt 2314 2175 L
2314 2143 mt 2282 2175 L
2288 2143 mt 2320 2175 L
2320 2143 mt 2288 2175 L
2294 2143 mt 2326 2175 L
2326 2143 mt 2294 2175 L
2300 2143 mt 2332 2175 L
2332 2143 mt 2300 2175 L
2306 2143 mt 2338 2175 L
2338 2143 mt 2306 2175 L
2312 2143 mt 2344 2175 L
2344 2143 mt 2312 2175 L
2318 2143 mt 2350 2175 L
2350 2143 mt 2318 2175 L
2324 2143 mt 2356 2175 L
2356 2143 mt 2324 2175 L
2330 2143 mt 2362 2175 L
2362 2143 mt 2330 2175 L
2336 2143 mt 2368 2175 L
2368 2143 mt 2336 2175 L
2342 2143 mt 2374 2175 L
2374 2143 mt 2342 2175 L
2348 2143 mt 2380 2175 L
2380 2143 mt 2348 2175 L
2354 2143 mt 2386 2175 L
2386 2143 mt 2354 2175 L
2360 2143 mt 2392 2175 L
2392 2143 mt 2360 2175 L
2366 2143 mt 2398 2175 L
2398 2143 mt 2366 2175 L
2372 2143 mt 2404 2175 L
2404 2143 mt 2372 2175 L
2378 2143 mt 2410 2175 L
2410 2143 mt 2378 2175 L
2384 2143 mt 2416 2175 L
2416 2143 mt 2384 2175 L
2390 2143 mt 2422 2175 L
2422 2143 mt 2390 2175 L
2396 2143 mt 2428 2175 L
2428 2143 mt 2396 2175 L
2403 2143 mt 2435 2175 L
2435 2143 mt 2403 2175 L
gr

gs 605 346 1815 1815 rc
/c9 { 0.000000 0.000000 1.000000 sr} bdef
c9
7 0 6 0 6 0 6 0 6 0 6 0 6 0 6 0 
6 0 6 0 6 0 6 0 6 0 6 0 6 0 6 0 
6 0 6 0 6 0 6 0 6 0 7 0 6 0 6 0 
6 0 6 0 6 0 6 0 6 0 6 0 6 0 6 0 
6 0 6 0 6 0 6 0 6 0 6 0 6 0 6 0 
6 0 6 0 7 0 6 0 6 0 6 0 6 0 6 0 
6 1 6 0 6 0 6 0 6 0 6 0 6 0 6 0 
6 0 6 1 6 0 6 0 6 0 6 0 6 0 6 1 
7 0 6 0 6 0 6 1 6 0 6 1 6 0 6 0 
6 1 6 0 6 1 6 0 6 1 6 1 6 1 6 0 
6 1 6 1 6 1 6 1 6 1 7 2 6 1 6 1 
6 2 6 2 6 2 6 2 6 2 6 2 6 2 6 3 
6 3 6 3 6 3 6 4 6 4 6 4 6 5 6 4 
6 6 6 5 6 6 7 7 6 6 6 8 6 8 6 8 
6 9 6 10 6 11 6 11 6 12 6 12 6 14 6 14 
6 15 6 17 6 17 6 18 6 20 6 20 6 22 6 22 
7 24 6 25 6 26 6 27 6 29 6 29 6 31 6 31 
6 32 6 33 6 33 6 34 6 35 6 34 6 35 6 34 
6 33 6 33 6 32 6 30 6 29 6 27 7 25 6 22 
6 20 6 17 6 14 6 11 6 8 6 4 6 1 6 -2 
6 -6 6 -10 6 -12 6 -16 6 -18 6 -21 6 -24 6 -26 
6 -28 6 -30 6 -31 7 -32 6 -33 6 -34 6 -34 6 -34 
6 -35 6 -34 6 -34 6 -33 6 -33 6 -31 6 -31 6 -30 
6 -29 6 -28 6 -27 6 -25 6 -24 6 -24 6 -22 6 -21 
7 -20 6 -19 6 -17 6 -17 6 -16 6 -15 6 -14 6 -13 
6 -12 6 -12 6 -11 6 -10 6 -9 6 -9 6 -8 6 -8 
6 -7 6 -7 6 -6 6 -6 6 -5 6 -5 7 -5 6 -4 
6 -4 6 -4 6 -3 6 -3 6 -3 6 -3 6 -3 6 -2 
6 -2 6 -2 6 -2 6 -2 6 -2 6 -1 6 -2 6 -1 
6 -1 6 -1 6 -1 7 -1 6 -1 6 -1 6 -1 6 -1 
6 0 6 -1 6 0 6 -1 6 0 6 -1 6 0 6 -1 
6 0 6 0 6 -1 6 0 6 0 6 0 6 -1 6 0 
6 0 7 0 6 0 6 -1 6 0 6 0 6 0 6 0 
6 0 6 0 6 0 6 0 6 -1 6 0 6 0 6 0 
6 0 6 0 6 0 6 0 6 0 6 0 7 0 6 0 
6 0 6 0 6 0 6 0 6 0 6 0 6 0 6 0 
6 0 6 0 6 0 6 0 6 0 6 0 6 0 6 0 
6 0 6 0 6 0 611 2159 300 MP stroke
gr

c9
gs 562 948 1907 1261 rc
 587 2159 mt  635 2159 L
 611 2135 mt  611 2183 L
 593 2159 mt  641 2159 L
 617 2135 mt  617 2183 L
 599 2159 mt  647 2159 L
 623 2135 mt  623 2183 L
 605 2159 mt  653 2159 L
 629 2135 mt  629 2183 L
 611 2159 mt  659 2159 L
 635 2135 mt  635 2183 L
 617 2159 mt  665 2159 L
 641 2135 mt  641 2183 L
 623 2159 mt  671 2159 L
 647 2135 mt  647 2183 L
 629 2159 mt  677 2159 L
 653 2135 mt  653 2183 L
 635 2159 mt  683 2159 L
 659 2135 mt  659 2183 L
 641 2159 mt  689 2159 L
 665 2135 mt  665 2183 L
 647 2159 mt  695 2159 L
 671 2135 mt  671 2183 L
 653 2159 mt  701 2159 L
 677 2135 mt  677 2183 L
 659 2159 mt  707 2159 L
 683 2135 mt  683 2183 L
 665 2159 mt  713 2159 L
 689 2135 mt  689 2183 L
 671 2159 mt  719 2159 L
 695 2135 mt  695 2183 L
 677 2159 mt  725 2159 L
 701 2135 mt  701 2183 L
 683 2159 mt  731 2159 L
 707 2135 mt  707 2183 L
 689 2159 mt  737 2159 L
 713 2135 mt  713 2183 L
 695 2159 mt  743 2159 L
 719 2135 mt  719 2183 L
 701 2159 mt  749 2159 L
 725 2135 mt  725 2183 L
 707 2159 mt  755 2159 L
 731 2135 mt  731 2183 L
 714 2159 mt  762 2159 L
 738 2135 mt  738 2183 L
 720 2159 mt  768 2159 L
 744 2135 mt  744 2183 L
 726 2159 mt  774 2159 L
 750 2135 mt  750 2183 L
 732 2159 mt  780 2159 L
 756 2135 mt  756 2183 L
 738 2159 mt  786 2159 L
 762 2135 mt  762 2183 L
 744 2159 mt  792 2159 L
 768 2135 mt  768 2183 L
 750 2159 mt  798 2159 L
 774 2135 mt  774 2183 L
 756 2159 mt  804 2159 L
 780 2135 mt  780 2183 L
 762 2159 mt  810 2159 L
 786 2135 mt  786 2183 L
 768 2159 mt  816 2159 L
 792 2135 mt  792 2183 L
 774 2158 mt  822 2158 L
 798 2134 mt  798 2182 L
 780 2158 mt  828 2158 L
 804 2134 mt  804 2182 L
 786 2158 mt  834 2158 L
 810 2134 mt  810 2182 L
 792 2158 mt  840 2158 L
 816 2134 mt  816 2182 L
 798 2158 mt  846 2158 L
 822 2134 mt  822 2182 L
 804 2158 mt  852 2158 L
 828 2134 mt  828 2182 L
 810 2158 mt  858 2158 L
 834 2134 mt  834 2182 L
 816 2158 mt  864 2158 L
 840 2134 mt  840 2182 L
 822 2158 mt  870 2158 L
 846 2134 mt  846 2182 L
 828 2157 mt  876 2157 L
 852 2133 mt  852 2181 L
 834 2157 mt  882 2157 L
 858 2133 mt  858 2181 L
 841 2157 mt  889 2157 L
 865 2133 mt  865 2181 L
 847 2157 mt  895 2157 L
 871 2133 mt  871 2181 L
 853 2157 mt  901 2157 L
 877 2133 mt  877 2181 L
 859 2156 mt  907 2156 L
 883 2132 mt  883 2180 L
 865 2156 mt  913 2156 L
 889 2132 mt  889 2180 L
 871 2156 mt  919 2156 L
 895 2132 mt  895 2180 L
 877 2156 mt  925 2156 L
 901 2132 mt  901 2180 L
 883 2155 mt  931 2155 L
 907 2131 mt  907 2179 L
 889 2155 mt  937 2155 L
 913 2131 mt  913 2179 L
 895 2155 mt  943 2155 L
 919 2131 mt  919 2179 L
 901 2154 mt  949 2154 L
 925 2130 mt  925 2178 L
 907 2154 mt  955 2154 L
 931 2130 mt  931 2178 L
 913 2153 mt  961 2153 L
 937 2129 mt  937 2177 L
 919 2153 mt  967 2153 L
 943 2129 mt  943 2177 L
 925 2152 mt  973 2152 L
 949 2128 mt  949 2176 L
 931 2152 mt  979 2152 L
 955 2128 mt  955 2176 L
 937 2151 mt  985 2151 L
 961 2127 mt  961 2175 L
 943 2151 mt  991 2151 L
 967 2127 mt  967 2175 L
 949 2150 mt  997 2150 L
 973 2126 mt  973 2174 L
 955 2149 mt 1003 2149 L
 979 2125 mt  979 2173 L
 961 2148 mt 1009 2148 L
 985 2124 mt  985 2172 L
 967 2147 mt 1015 2147 L
 991 2123 mt  991 2171 L
 974 2146 mt 1022 2146 L
 998 2122 mt  998 2170 L
 980 2145 mt 1028 2145 L
1004 2121 mt 1004 2169 L
 986 2144 mt 1034 2144 L
1010 2120 mt 1010 2168 L
 992 2143 mt 1040 2143 L
1016 2119 mt 1016 2167 L
 998 2142 mt 1046 2142 L
1022 2118 mt 1022 2166 L
1004 2140 mt 1052 2140 L
1028 2116 mt 1028 2164 L
1010 2139 mt 1058 2139 L
1034 2115 mt 1034 2163 L
1016 2137 mt 1064 2137 L
1040 2113 mt 1040 2161 L
1022 2135 mt 1070 2135 L
1046 2111 mt 1046 2159 L
1028 2133 mt 1076 2133 L
1052 2109 mt 1052 2157 L
1034 2131 mt 1082 2131 L
1058 2107 mt 1058 2155 L
1040 2129 mt 1088 2129 L
1064 2105 mt 1064 2153 L
1046 2127 mt 1094 2127 L
1070 2103 mt 1070 2151 L
1052 2124 mt 1100 2124 L
1076 2100 mt 1076 2148 L
1058 2121 mt 1106 2121 L
1082 2097 mt 1082 2145 L
1064 2118 mt 1112 2118 L
1088 2094 mt 1088 2142 L
1070 2115 mt 1118 2115 L
1094 2091 mt 1094 2139 L
1076 2112 mt 1124 2112 L
1100 2088 mt 1100 2136 L
1082 2108 mt 1130 2108 L
1106 2084 mt 1106 2132 L
1088 2104 mt 1136 2104 L
1112 2080 mt 1112 2128 L
1094 2100 mt 1142 2100 L
1118 2076 mt 1118 2124 L
1101 2095 mt 1149 2095 L
1125 2071 mt 1125 2119 L
1107 2090 mt 1155 2090 L
1131 2066 mt 1131 2114 L
1113 2085 mt 1161 2085 L
1137 2061 mt 1137 2109 L
1119 2079 mt 1167 2079 L
1143 2055 mt 1143 2103 L
1125 2073 mt 1173 2073 L
1149 2049 mt 1149 2097 L
1131 2066 mt 1179 2066 L
1155 2042 mt 1155 2090 L
1137 2059 mt 1185 2059 L
1161 2035 mt 1161 2083 L
1143 2051 mt 1191 2051 L
1167 2027 mt 1167 2075 L
1149 2043 mt 1197 2043 L
1173 2019 mt 1173 2067 L
1155 2034 mt 1203 2034 L
1179 2010 mt 1179 2058 L
1161 2025 mt 1209 2025 L
1185 2001 mt 1185 2049 L
1167 2015 mt 1215 2015 L
1191 1991 mt 1191 2039 L
1173 2004 mt 1221 2004 L
1197 1980 mt 1197 2028 L
1179 1992 mt 1227 1992 L
1203 1968 mt 1203 2016 L
1185 1980 mt 1233 1980 L
1209 1956 mt 1209 2004 L
1191 1967 mt 1239 1967 L
1215 1943 mt 1215 1991 L
1197 1953 mt 1245 1953 L
1221 1929 mt 1221 1977 L
1203 1938 mt 1251 1938 L
1227 1914 mt 1227 1962 L
1209 1922 mt 1257 1922 L
1233 1898 mt 1233 1946 L
1215 1905 mt 1263 1905 L
1239 1881 mt 1239 1929 L
1221 1888 mt 1269 1888 L
1245 1864 mt 1245 1912 L
1227 1869 mt 1275 1869 L
1251 1845 mt 1251 1893 L
1234 1849 mt 1282 1849 L
1258 1825 mt 1258 1873 L
1240 1828 mt 1288 1828 L
1264 1804 mt 1264 1852 L
1246 1806 mt 1294 1806 L
1270 1782 mt 1270 1830 L
1252 1782 mt 1300 1782 L
1276 1758 mt 1276 1806 L
1258 1758 mt 1306 1758 L
1282 1734 mt 1282 1782 L
1264 1733 mt 1312 1733 L
1288 1709 mt 1288 1757 L
1270 1706 mt 1318 1706 L
1294 1682 mt 1294 1730 L
1276 1678 mt 1324 1678 L
1300 1654 mt 1300 1702 L
1282 1649 mt 1330 1649 L
1306 1625 mt 1306 1673 L
1288 1619 mt 1336 1619 L
1312 1595 mt 1312 1643 L
1294 1588 mt 1342 1588 L
1318 1564 mt 1318 1612 L
1300 1557 mt 1348 1557 L
1324 1533 mt 1324 1581 L
1306 1524 mt 1354 1524 L
1330 1500 mt 1330 1548 L
1312 1491 mt 1360 1491 L
1336 1467 mt 1336 1515 L
1318 1457 mt 1366 1457 L
1342 1433 mt 1342 1481 L
1324 1423 mt 1372 1423 L
1348 1399 mt 1348 1447 L
1330 1388 mt 1378 1388 L
1354 1364 mt 1354 1412 L
1336 1354 mt 1384 1354 L
1360 1330 mt 1360 1378 L
1342 1320 mt 1390 1320 L
1366 1296 mt 1366 1344 L
1348 1286 mt 1396 1286 L
1372 1262 mt 1372 1310 L
1354 1253 mt 1402 1253 L
1378 1229 mt 1378 1277 L
1361 1221 mt 1409 1221 L
1385 1197 mt 1385 1245 L
1367 1190 mt 1415 1190 L
1391 1166 mt 1391 1214 L
1373 1160 mt 1421 1160 L
1397 1136 mt 1397 1184 L
1379 1132 mt 1427 1132 L
1403 1108 mt 1403 1156 L
1385 1106 mt 1433 1106 L
1409 1082 mt 1409 1130 L
1391 1082 mt 1439 1082 L
1415 1058 mt 1415 1106 L
1397 1061 mt 1445 1061 L
1421 1037 mt 1421 1085 L
1403 1043 mt 1451 1043 L
1427 1019 mt 1427 1067 L
1409 1027 mt 1457 1027 L
1433 1003 mt 1433 1051 L
1415 1015 mt 1463 1015 L
1439  991 mt 1439 1039 L
1421 1005 mt 1469 1005 L
1445  981 mt 1445 1029 L
1427  999 mt 1475  999 L
1451  975 mt 1451 1023 L
1433  997 mt 1481  997 L
1457  973 mt 1457 1021 L
1439  998 mt 1487  998 L
1463  974 mt 1463 1022 L
1445 1002 mt 1493 1002 L
1469  978 mt 1469 1026 L
1451 1010 mt 1499 1010 L
1475  986 mt 1475 1034 L
1457 1021 mt 1505 1021 L
1481  997 mt 1481 1045 L
1463 1035 mt 1511 1035 L
1487 1011 mt 1487 1059 L
1469 1052 mt 1517 1052 L
1493 1028 mt 1493 1076 L
1475 1072 mt 1523 1072 L
1499 1048 mt 1499 1096 L
1481 1094 mt 1529 1094 L
1505 1070 mt 1505 1118 L
1488 1119 mt 1536 1119 L
1512 1095 mt 1512 1143 L
1494 1146 mt 1542 1146 L
1518 1122 mt 1518 1170 L
1500 1175 mt 1548 1175 L
1524 1151 mt 1524 1199 L
1506 1205 mt 1554 1205 L
1530 1181 mt 1530 1229 L
1512 1237 mt 1560 1237 L
1536 1213 mt 1536 1261 L
1518 1270 mt 1566 1270 L
1542 1246 mt 1542 1294 L
1524 1303 mt 1572 1303 L
1548 1279 mt 1548 1327 L
1530 1337 mt 1578 1337 L
1554 1313 mt 1554 1361 L
1536 1372 mt 1584 1372 L
1560 1348 mt 1560 1396 L
1542 1406 mt 1590 1406 L
1566 1382 mt 1566 1430 L
1548 1441 mt 1596 1441 L
1572 1417 mt 1572 1465 L
1554 1475 mt 1602 1475 L
1578 1451 mt 1578 1499 L
1560 1508 mt 1608 1508 L
1584 1484 mt 1584 1532 L
1566 1541 mt 1614 1541 L
1590 1517 mt 1590 1565 L
1572 1573 mt 1620 1573 L
1596 1549 mt 1596 1597 L
1578 1604 mt 1626 1604 L
1602 1580 mt 1602 1628 L
1584 1635 mt 1632 1635 L
1608 1611 mt 1608 1659 L
1590 1664 mt 1638 1664 L
1614 1640 mt 1614 1688 L
1596 1693 mt 1644 1693 L
1620 1669 mt 1620 1717 L
1602 1720 mt 1650 1720 L
1626 1696 mt 1626 1744 L
1608 1746 mt 1656 1746 L
1632 1722 mt 1632 1770 L
1614 1771 mt 1662 1771 L
1638 1747 mt 1638 1795 L
1621 1795 mt 1669 1795 L
1645 1771 mt 1645 1819 L
1627 1817 mt 1675 1817 L
1651 1793 mt 1651 1841 L
1633 1839 mt 1681 1839 L
1657 1815 mt 1657 1863 L
1639 1859 mt 1687 1859 L
1663 1835 mt 1663 1883 L
1645 1879 mt 1693 1879 L
1669 1855 mt 1669 1903 L
1651 1897 mt 1699 1897 L
1675 1873 mt 1675 1921 L
1657 1914 mt 1705 1914 L
1681 1890 mt 1681 1938 L
1663 1931 mt 1711 1931 L
1687 1907 mt 1687 1955 L
1669 1946 mt 1717 1946 L
1693 1922 mt 1693 1970 L
1675 1960 mt 1723 1960 L
1699 1936 mt 1699 1984 L
1681 1974 mt 1729 1974 L
1705 1950 mt 1705 1998 L
1687 1986 mt 1735 1986 L
1711 1962 mt 1711 2010 L
1693 1998 mt 1741 1998 L
1717 1974 mt 1717 2022 L
1699 2009 mt 1747 2009 L
1723 1985 mt 1723 2033 L
1705 2020 mt 1753 2020 L
1729 1996 mt 1729 2044 L
1711 2030 mt 1759 2030 L
1735 2006 mt 1735 2054 L
1717 2039 mt 1765 2039 L
1741 2015 mt 1741 2063 L
1723 2047 mt 1771 2047 L
1747 2023 mt 1747 2071 L
1729 2055 mt 1777 2055 L
1753 2031 mt 1753 2079 L
1735 2063 mt 1783 2063 L
1759 2039 mt 1759 2087 L
1741 2069 mt 1789 2069 L
1765 2045 mt 1765 2093 L
1748 2076 mt 1796 2076 L
1772 2052 mt 1772 2100 L
1754 2082 mt 1802 2082 L
1778 2058 mt 1778 2106 L
1760 2087 mt 1808 2087 L
1784 2063 mt 1784 2111 L
1766 2093 mt 1814 2093 L
1790 2069 mt 1790 2117 L
1772 2097 mt 1820 2097 L
1796 2073 mt 1796 2121 L
1778 2102 mt 1826 2102 L
1802 2078 mt 1802 2126 L
1784 2106 mt 1832 2106 L
1808 2082 mt 1808 2130 L
1790 2110 mt 1838 2110 L
1814 2086 mt 1814 2134 L
1796 2114 mt 1844 2114 L
1820 2090 mt 1820 2138 L
1802 2117 mt 1850 2117 L
1826 2093 mt 1826 2141 L
1808 2120 mt 1856 2120 L
1832 2096 mt 1832 2144 L
1814 2123 mt 1862 2123 L
1838 2099 mt 1838 2147 L
1820 2126 mt 1868 2126 L
1844 2102 mt 1844 2150 L
1826 2128 mt 1874 2128 L
1850 2104 mt 1850 2152 L
1832 2130 mt 1880 2130 L
1856 2106 mt 1856 2154 L
1838 2132 mt 1886 2132 L
1862 2108 mt 1862 2156 L
1844 2134 mt 1892 2134 L
1868 2110 mt 1868 2158 L
1850 2136 mt 1898 2136 L
1874 2112 mt 1874 2160 L
1856 2138 mt 1904 2138 L
1880 2114 mt 1880 2162 L
1862 2140 mt 1910 2140 L
1886 2116 mt 1886 2164 L
1868 2141 mt 1916 2141 L
1892 2117 mt 1892 2165 L
1874 2142 mt 1922 2142 L
1898 2118 mt 1898 2166 L
1881 2144 mt 1929 2144 L
1905 2120 mt 1905 2168 L
1887 2145 mt 1935 2145 L
1911 2121 mt 1911 2169 L
1893 2146 mt 1941 2146 L
1917 2122 mt 1917 2170 L
1899 2147 mt 1947 2147 L
1923 2123 mt 1923 2171 L
1905 2148 mt 1953 2148 L
1929 2124 mt 1929 2172 L
1911 2149 mt 1959 2149 L
1935 2125 mt 1935 2173 L
1917 2149 mt 1965 2149 L
1941 2125 mt 1941 2173 L
1923 2150 mt 1971 2150 L
1947 2126 mt 1947 2174 L
1929 2151 mt 1977 2151 L
1953 2127 mt 1953 2175 L
1935 2152 mt 1983 2152 L
1959 2128 mt 1959 2176 L
1941 2152 mt 1989 2152 L
1965 2128 mt 1965 2176 L
1947 2153 mt 1995 2153 L
1971 2129 mt 1971 2177 L
1953 2153 mt 2001 2153 L
1977 2129 mt 1977 2177 L
1959 2154 mt 2007 2154 L
1983 2130 mt 1983 2178 L
1965 2154 mt 2013 2154 L
1989 2130 mt 1989 2178 L
1971 2154 mt 2019 2154 L
1995 2130 mt 1995 2178 L
1977 2155 mt 2025 2155 L
2001 2131 mt 2001 2179 L
1983 2155 mt 2031 2155 L
2007 2131 mt 2007 2179 L
1989 2156 mt 2037 2156 L
2013 2132 mt 2013 2180 L
1995 2156 mt 2043 2156 L
2019 2132 mt 2019 2180 L
2001 2156 mt 2049 2156 L
2025 2132 mt 2025 2180 L
2008 2156 mt 2056 2156 L
2032 2132 mt 2032 2180 L
2014 2157 mt 2062 2157 L
2038 2133 mt 2038 2181 L
2020 2157 mt 2068 2157 L
2044 2133 mt 2044 2181 L
2026 2157 mt 2074 2157 L
2050 2133 mt 2050 2181 L
2032 2157 mt 2080 2157 L
2056 2133 mt 2056 2181 L
2038 2157 mt 2086 2157 L
2062 2133 mt 2062 2181 L
2044 2157 mt 2092 2157 L
2068 2133 mt 2068 2181 L
2050 2158 mt 2098 2158 L
2074 2134 mt 2074 2182 L
2056 2158 mt 2104 2158 L
2080 2134 mt 2080 2182 L
2062 2158 mt 2110 2158 L
2086 2134 mt 2086 2182 L
2068 2158 mt 2116 2158 L
2092 2134 mt 2092 2182 L
2074 2158 mt 2122 2158 L
2098 2134 mt 2098 2182 L
2080 2158 mt 2128 2158 L
2104 2134 mt 2104 2182 L
2086 2158 mt 2134 2158 L
2110 2134 mt 2110 2182 L
2092 2158 mt 2140 2158 L
2116 2134 mt 2116 2182 L
2098 2158 mt 2146 2158 L
2122 2134 mt 2122 2182 L
2104 2159 mt 2152 2159 L
2128 2135 mt 2128 2183 L
2110 2159 mt 2158 2159 L
2134 2135 mt 2134 2183 L
2116 2159 mt 2164 2159 L
2140 2135 mt 2140 2183 L
2122 2159 mt 2170 2159 L
2146 2135 mt 2146 2183 L
2128 2159 mt 2176 2159 L
2152 2135 mt 2152 2183 L
2134 2159 mt 2182 2159 L
2158 2135 mt 2158 2183 L
2141 2159 mt 2189 2159 L
2165 2135 mt 2165 2183 L
2147 2159 mt 2195 2159 L
2171 2135 mt 2171 2183 L
2153 2159 mt 2201 2159 L
2177 2135 mt 2177 2183 L
2159 2159 mt 2207 2159 L
2183 2135 mt 2183 2183 L
2165 2159 mt 2213 2159 L
2189 2135 mt 2189 2183 L
2171 2159 mt 2219 2159 L
2195 2135 mt 2195 2183 L
2177 2159 mt 2225 2159 L
2201 2135 mt 2201 2183 L
2183 2159 mt 2231 2159 L
2207 2135 mt 2207 2183 L
2189 2159 mt 2237 2159 L
2213 2135 mt 2213 2183 L
2195 2159 mt 2243 2159 L
2219 2135 mt 2219 2183 L
2201 2159 mt 2249 2159 L
2225 2135 mt 2225 2183 L
2207 2159 mt 2255 2159 L
2231 2135 mt 2231 2183 L
2213 2159 mt 2261 2159 L
2237 2135 mt 2237 2183 L
2219 2159 mt 2267 2159 L
2243 2135 mt 2243 2183 L
2225 2159 mt 2273 2159 L
2249 2135 mt 2249 2183 L
2231 2159 mt 2279 2159 L
2255 2135 mt 2255 2183 L
2237 2159 mt 2285 2159 L
2261 2135 mt 2261 2183 L
2243 2159 mt 2291 2159 L
2267 2135 mt 2267 2183 L
2249 2159 mt 2297 2159 L
2273 2135 mt 2273 2183 L
2255 2159 mt 2303 2159 L
2279 2135 mt 2279 2183 L
2261 2159 mt 2309 2159 L
2285 2135 mt 2285 2183 L
2268 2159 mt 2316 2159 L
2292 2135 mt 2292 2183 L
2274 2159 mt 2322 2159 L
2298 2135 mt 2298 2183 L
2280 2159 mt 2328 2159 L
2304 2135 mt 2304 2183 L
2286 2159 mt 2334 2159 L
2310 2135 mt 2310 2183 L
2292 2159 mt 2340 2159 L
2316 2135 mt 2316 2183 L
2298 2159 mt 2346 2159 L
2322 2135 mt 2322 2183 L
2304 2159 mt 2352 2159 L
2328 2135 mt 2328 2183 L
2310 2159 mt 2358 2159 L
2334 2135 mt 2334 2183 L
2316 2159 mt 2364 2159 L
2340 2135 mt 2340 2183 L
2322 2159 mt 2370 2159 L
2346 2135 mt 2346 2183 L
2328 2159 mt 2376 2159 L
2352 2135 mt 2352 2183 L
2334 2159 mt 2382 2159 L
2358 2135 mt 2358 2183 L
2340 2159 mt 2388 2159 L
2364 2135 mt 2364 2183 L
2346 2159 mt 2394 2159 L
2370 2135 mt 2370 2183 L
2352 2159 mt 2400 2159 L
2376 2135 mt 2376 2183 L
2358 2159 mt 2406 2159 L
2382 2135 mt 2382 2183 L
2364 2159 mt 2412 2159 L
2388 2135 mt 2388 2183 L
2370 2159 mt 2418 2159 L
2394 2135 mt 2394 2183 L
2376 2159 mt 2424 2159 L
2400 2135 mt 2400 2183 L
2382 2159 mt 2430 2159 L
2406 2135 mt 2406 2183 L
2388 2159 mt 2436 2159 L
2412 2135 mt 2412 2183 L
2395 2159 mt 2443 2159 L
2419 2135 mt 2419 2183 L
gr

gs 605 346 1815 1815 rc
gr

0 sg
1380 2488 mt 
(Day) s
 123 1686 mt  -90 rotate
(Daily Incident) s
90 rotate
%%IncludeResource: font Helvetica
/Helvetica /ISOLatin1Encoding 96 FMSR

 592 2195 mt 
( ) s
2407  380 mt 
( ) s
6 w
1 sg
0 437 1439 0 0 -437 987 787 4 MP
PP
-1439 0 0 437 1439 0 0 -437 987 787 5 MP stroke
4 w
DO
SO
6 w
0 sg
 987  787 mt 2426  787 L
 987  350 mt 2426  350 L
 987  787 mt  987  350 L
2426  787 mt 2426  350 L
 987  787 mt 2426  787 L
 987  787 mt  987  350 L
 987  787 mt 2426  787 L
 987  350 mt 2426  350 L
 987  787 mt  987  350 L
2426  787 mt 2426  350 L
%%IncludeResource: font Helvetica
/Helvetica /ISOLatin1Encoding 132 FMSR

1455  517 mt 
(Sensor Group) s
gs 987 350 1440 438 rc
12 w
c8
360 0 1058 469 2 MP stroke
gs 1189 420 99 99 rc
1214  469 mt 1262  469 L
1238  445 mt 1238  493 L
1222  453 mt 1254  485 L
1254  453 mt 1222  485 L
gr

gr

12 w
c8
0 sg
1455  715 mt 
(Random Group) s
gs 987 350 1440 438 rc
c9
360 0 1058 667 2 MP stroke
gs 1189 618 99 99 rc
1214  667 mt 1262  667 L
1238  643 mt 1238  691 L
gr

6 w
gr

6 w
c9

end %%Color Dict

eplot
%%EndObject

epage
end

showpage

%%Trailer
%%EOF
