%!PS-Adobe-3.0 EPSF-3.0
%%Creator: MATLAB, The MathWorks, Inc. Version 8.3.0.532 (R2014a). Operating System: Darwin 13.3.0 Darwin Kernel Version 13.3.0: Tue Jun  3 21:27:35 PDT 2014; root:xnu-2422.110.17~1/RELEASE_X86_64 x86_64.
%%Title: /Users/huijuans/2015Fall/PLoSOne/MatLabFig/4methodsComparison_simplify_08272015.eps
%%CreationDate: 08/28/2015  16:29:57
%%DocumentNeededFonts: Helvetica
%%DocumentProcessColors: Cyan Magenta Yellow Black
%%LanguageLevel: 2
%%Pages: 1
%%BoundingBox:   728   729   943   945
%%EndComments

%%BeginProlog
% MathWorks dictionary
/MathWorks 160 dict begin
% definition operators
/bdef {bind def} bind def
/ldef {load def} bind def
/xdef {exch def} bdef
/xstore {exch store} bdef
% operator abbreviations
/c  /clip ldef
/cc /concat ldef
/cp /closepath ldef
/gr /grestore ldef
/gs /gsave ldef
/mt /moveto ldef
/np /newpath ldef
/cm /currentmatrix ldef
/sm /setmatrix ldef
/rm /rmoveto ldef
/rl /rlineto ldef
/s {show newpath} bdef
/sc {setcmykcolor} bdef
/sr /setrgbcolor ldef
/sg /setgray ldef
/w /setlinewidth ldef
/j /setlinejoin ldef
/cap /setlinecap ldef
/rc {rectclip} bdef
/rf {rectfill} bdef
% page state control
/pgsv () def
/bpage {/pgsv save def} bdef
/epage {pgsv restore} bdef
/bplot /gsave ldef
/eplot {stroke grestore} bdef
% orientation switch
/portraitMode 0 def /landscapeMode 1 def /rotateMode 2 def
% coordinate system mappings
/dpi2point 0 def
% font control
/FontSize 0 def
/FMS {/FontSize xstore findfont [FontSize 0 0 FontSize neg 0 0]
  makefont setfont} bdef
/reencode {exch dup where {pop load} {pop StandardEncoding} ifelse
  exch dup 3 1 roll findfont dup length dict begin
  { 1 index /FID ne {def}{pop pop} ifelse } forall
  /Encoding exch def currentdict end definefont pop} bdef
/isroman {findfont /CharStrings get /Agrave known} bdef
/FMSR {3 1 roll 1 index dup isroman {reencode} {pop pop} ifelse
  exch FMS} bdef
/csm {1 dpi2point div -1 dpi2point div scale neg translate
 dup landscapeMode eq {pop -90 rotate}
  {rotateMode eq {90 rotate} if} ifelse} bdef
% line types: solid, dotted, dashed, dotdash
/SO { [] 0 setdash } bdef
/DO { [.5 dpi2point mul 4 dpi2point mul] 0 setdash } bdef
/DA { [6 dpi2point mul] 0 setdash } bdef
/DD { [.5 dpi2point mul 4 dpi2point mul 6 dpi2point mul 4
  dpi2point mul] 0 setdash } bdef
% macros for lines and objects
/L {lineto stroke} bdef
/MP {3 1 roll moveto 1 sub {rlineto} repeat} bdef
/AP {{rlineto} repeat} bdef
/PDlw -1 def
/W {/PDlw currentlinewidth def setlinewidth} def
/PP {closepath eofill} bdef
/DP {closepath stroke} bdef
/MR {4 -2 roll moveto dup  0 exch rlineto exch 0 rlineto
  neg 0 exch rlineto closepath} bdef
/FR {MR stroke} bdef
/PR {MR fill} bdef
/L1i {{currentfile picstr readhexstring pop} image} bdef
/tMatrix matrix def
/MakeOval {newpath tMatrix currentmatrix pop translate scale
0 0 1 0 360 arc tMatrix setmatrix} bdef
/FO {MakeOval stroke} bdef
/PO {MakeOval fill} bdef
/PD {currentlinewidth 2 div 0 360 arc fill
   PDlw -1 eq not {PDlw w /PDlw -1 def} if} def
/FA {newpath tMatrix currentmatrix pop translate scale
  0 0 1 5 -2 roll arc tMatrix setmatrix stroke} bdef
/PA {newpath tMatrix currentmatrix pop	translate 0 0 moveto scale
  0 0 1 5 -2 roll arc closepath tMatrix setmatrix fill} bdef
/FAn {newpath tMatrix currentmatrix pop translate scale
  0 0 1 5 -2 roll arcn tMatrix setmatrix stroke} bdef
/PAn {newpath tMatrix currentmatrix pop translate 0 0 moveto scale
  0 0 1 5 -2 roll arcn closepath tMatrix setmatrix fill} bdef
/vradius 0 def /hradius 0 def /lry 0 def
/lrx 0 def /uly 0 def /ulx 0 def /rad 0 def
/MRR {/vradius xdef /hradius xdef /lry xdef /lrx xdef /uly xdef
  /ulx xdef newpath tMatrix currentmatrix pop ulx hradius add uly
  vradius add translate hradius vradius scale 0 0 1 180 270 arc 
  tMatrix setmatrix lrx hradius sub uly vradius add translate
  hradius vradius scale 0 0 1 270 360 arc tMatrix setmatrix
  lrx hradius sub lry vradius sub translate hradius vradius scale
  0 0 1 0 90 arc tMatrix setmatrix ulx hradius add lry vradius sub
  translate hradius vradius scale 0 0 1 90 180 arc tMatrix setmatrix
  closepath} bdef
/FRR {MRR stroke } bdef
/PRR {MRR fill } bdef
/MlrRR {/lry xdef /lrx xdef /uly xdef /ulx xdef /rad lry uly sub 2 div def
  newpath tMatrix currentmatrix pop ulx rad add uly rad add translate
  rad rad scale 0 0 1 90 270 arc tMatrix setmatrix lrx rad sub lry rad
  sub translate rad rad scale 0 0 1 270 90 arc tMatrix setmatrix
  closepath} bdef
/FlrRR {MlrRR stroke } bdef
/PlrRR {MlrRR fill } bdef
/MtbRR {/lry xdef /lrx xdef /uly xdef /ulx xdef /rad lrx ulx sub 2 div def
  newpath tMatrix currentmatrix pop ulx rad add uly rad add translate
  rad rad scale 0 0 1 180 360 arc tMatrix setmatrix lrx rad sub lry rad
  sub translate rad rad scale 0 0 1 0 180 arc tMatrix setmatrix
  closepath} bdef
/FtbRR {MtbRR stroke } bdef
/PtbRR {MtbRR fill } bdef
/stri 6 array def /dtri 6 array def
/smat 6 array def /dmat 6 array def
/tmat1 6 array def /tmat2 6 array def /dif 3 array def
/asub {/ind2 exch def /ind1 exch def dup dup
  ind1 get exch ind2 get sub exch } bdef
/tri_to_matrix {
  2 0 asub 3 1 asub 4 0 asub 5 1 asub
  dup 0 get exch 1 get 7 -1 roll astore } bdef
/compute_transform {
  dmat dtri tri_to_matrix tmat1 invertmatrix 
  smat stri tri_to_matrix tmat2 concatmatrix } bdef
/ds {stri astore pop} bdef
/dt {dtri astore pop} bdef
/db {2 copy /cols xdef /rows xdef mul dup 3 mul string
  currentfile 
  3 index 0 eq {/ASCIIHexDecode filter}
  {/ASCII85Decode filter 3 index 2 eq {/RunLengthDecode filter} if }
  ifelse exch readstring pop
  dup 0 3 index getinterval /rbmap xdef
  dup 2 index dup getinterval /gbmap xdef
  1 index dup 2 mul exch getinterval /bbmap xdef pop pop}bdef
/it {gs np dtri aload pop moveto lineto lineto cp c
  cols rows 8 compute_transform 
  rbmap gbmap bbmap true 3 colorimage gr}bdef
/il {newpath moveto lineto stroke}bdef
currentdict end def
%%EndProlog

%%BeginSetup
MathWorks begin

0 cap

end
%%EndSetup

%%Page: 1 1
%%BeginPageSetup
%%PageBoundingBox:   728   729   943   945
MathWorks begin
bpage
%%EndPageSetup

%%BeginObject: obj1
bplot

/dpi2point 12 def
portraitMode 8736 11340 csm

    0     0  2590  2590 rc
85 dict begin %Colortable dictionary
/c0 { 0.000000 0.000000 0.000000 sr} bdef
/c1 { 1.000000 1.000000 1.000000 sr} bdef
/c2 { 0.900000 0.000000 0.000000 sr} bdef
/c3 { 0.000000 0.820000 0.000000 sr} bdef
/c4 { 0.000000 0.000000 0.800000 sr} bdef
/c5 { 0.910000 0.820000 0.320000 sr} bdef
/c6 { 1.000000 0.260000 0.820000 sr} bdef
/c7 { 0.000000 0.820000 0.820000 sr} bdef
c0
1 j
1 sg
   0    0 2591 2591 rf
6 w
0 1815 1814 0 0 -1815 605 2158 4 MP
PP
-1814 0 0 1815 1814 0 0 -1815 605 2158 5 MP stroke
4 w
DO
SO
6 w
0 sg
 605 2158 mt 2419 2158 L
 605  343 mt 2419  343 L
 605 2158 mt  605  343 L
2419 2158 mt 2419  343 L
 605 2158 mt 2419 2158 L
 605 2158 mt  605  343 L
 605 2158 mt  605 2139 L
 605  344 mt  605  362 L
%%IncludeResource: font Helvetica
/Helvetica /ISOLatin1Encoding 144 FMSR

 525 2326 mt 
(50) s
1171 2158 mt 1171 2139 L
1171  344 mt 1171  362 L
1051 2326 mt 
(100) s
1738 2158 mt 1738 2139 L
1738  344 mt 1738  362 L
1618 2326 mt 
(150) s
2305 2158 mt 2305 2139 L
2305  344 mt 2305  362 L
2185 2326 mt 
(200) s
 605 2158 mt  623 2158 L
2419 2158 mt 2400 2158 L
 490 2211 mt 
(0) s
 605 1639 mt  623 1639 L
2419 1639 mt 2400 1639 L
 290 1692 mt 
(0.01) s
 605 1121 mt  623 1121 L
2419 1121 mt 2400 1121 L
 290 1174 mt 
(0.02) s
 605  603 mt  623  603 L
2419  603 mt 2400  603 L
 290  656 mt 
(0.03) s
 605 2158 mt 2419 2158 L
 605  343 mt 2419  343 L
 605 2158 mt  605  343 L
2419 2158 mt 2419  343 L
gs 605 344 1815 1815 rc
12 w
/c8 { 0.000000 0.000000 1.000000 sr} bdef
c8
11 -2 12 -6 11 -2 11 4 12 2 11 4 11 4 12 -6 
11 4 11 6 12 8 11 -14 11 4 12 10 11 -2 11 7 
12 -7 11 7 11 0 12 8 11 -11 11 25 12 8 11 -24 
11 0 12 16 11 13 11 2 12 -9 11 19 11 17 12 -19 
11 25 11 -17 12 15 11 6 11 12 12 -6 11 33 11 42 
12 -52 11 78 11 -47 12 8 11 13 11 66 12 14 11 -47 
11 78 12 4 11 25 11 19 12 28 11 7 11 49 12 42 
11 -13 11 -20 12 6 11 87 11 -1 12 56 11 56 11 8 
12 46 11 33 11 -21 12 56 11 -8 11 53 12 -10 11 21 
11 62 12 6 11 -35 11 62 12 20 11 -68 11 83 12 -10 
11 43 12 -8 11 -87 11 74 12 -14 11 -4 11 -58 12 -66 
11 111 11 -78 12 -46 11 25 11 -91 12 46 11 -124 11 -42 
12 44 11 -2 11 -48 12 -27 11 4 11 -47 12 -21 11 -12 
11 29 12 -58 11 -17 11 -51 12 -11 11 23 11 -58 12 -51 
11 0 11 33 12 -35 11 -50 11 -12 12 24 11 -33 11 -49 
12 25 11 -31 11 -4 12 -23 11 31 11 -39 12 -19 11 41 
11 -51 12 10 11 -29 11 -6 12 14 11 -25 11 3 12 6 
11 -17 11 15 12 -25 11 -15 11 9 12 -11 11 -10 11 16 
12 -14 11 -6 11 2 12 -2 11 -10 11 -9 12 0 11 2 
11 7 12 2 11 -11 11 -16 12 8 11 -8 11 2 605 2148 160 MP stroke
/c9 { 1.000000 0.000000 0.000000 sr} bdef
c9
11 2 12 -1 11 1 11 -1 12 1 11 0 11 1 12 0 
11 0 11 0 12 3 11 -3 11 0 12 4 11 -2 11 6 
12 -3 11 0 11 -2 12 5 11 -2 11 4 12 -7 11 2 
11 5 12 4 11 -1 11 -2 12 -2 11 5 11 4 12 -4 
11 5 11 1 12 8 11 -5 11 8 12 -4 11 4 11 2 
12 -7 11 20 11 -1 12 6 11 2 11 12 12 6 11 1 
11 2 12 17 11 14 11 7 12 16 11 15 11 14 12 17 
11 -2 11 48 12 9 11 23 11 23 12 20 11 6 11 48 
12 52 11 26 11 31 12 38 11 57 11 25 12 19 11 62 
11 3 12 75 11 15 11 37 12 71 11 6 11 19 12 19 
11 44 12 17 11 1 11 21 12 6 11 36 11 -1 12 -21 
11 30 11 -25 12 -22 11 -23 11 20 12 -52 11 -15 11 -13 
12 -53 11 -11 11 -14 12 -31 11 -30 11 -16 12 -21 11 -45 
11 -18 12 -5 11 0 11 -39 12 -10 11 -51 11 -30 12 -3 
11 -1 11 -48 12 -8 11 -32 11 19 12 -56 11 9 11 -24 
12 -8 11 -6 11 -45 12 -23 11 20 11 -21 12 -14 11 -14 
11 -49 12 19 11 -25 11 -2 12 -33 11 10 11 -31 12 -11 
11 1 11 -22 12 3 11 -4 11 -10 12 -10 11 -19 11 -6 
12 12 11 -12 11 -17 12 -1 11 -2 11 10 12 -18 11 7 
11 -6 12 -8 11 -7 11 -10 12 -6 11 14 11 -7 605 2117 160 MP stroke
gr

12 w
c9
0 sg
1308 2510 mt 
(Day) s
 203 1740 mt  -90 rotate
(Daily Incidence) s
90 rotate
%%IncludeResource: font Helvetica
/Helvetica /ISOLatin1Encoding 96 FMSR

 592 2193 mt 
( ) s
2407  378 mt 
( ) s
6 w
1 sg
0 491 1559 0 0 -491 855 839 4 MP
PP
-1559 0 0 491 1559 0 0 -491 855 839 5 MP stroke
4 w
DO
SO
6 w
0 sg
 855  839 mt 2414  839 L
 855  348 mt 2414  348 L
 855  839 mt  855  348 L
2414  839 mt 2414  348 L
 855  839 mt 2414  839 L
 855  839 mt  855  348 L
 855  839 mt 2414  839 L
 855  348 mt 2414  348 L
 855  839 mt  855  348 L
2414  839 mt 2414  348 L
%%IncludeResource: font Helvetica
/Helvetica /ISOLatin1Encoding 144 FMSR

1323  533 mt 
(Ground Truth) s
gs 855 348 1560 492 rc
12 w
c8
360 0 926 481 2 MP stroke
gr

12 w
c8
0 sg
1323  757 mt 
(Dominator Tree) s
gs 855 348 1560 492 rc
c9
360 0 926 705 2 MP stroke
6 w
gr

6 w
c9

end %%Color Dict

eplot
%%EndObject

epage
end

showpage

%%Trailer
%%EOF
