%!PS-Adobe-3.0 EPSF-3.0
%%Creator: MATLAB, The MathWorks, Inc. Version 8.3.0.532 (R2014a). Operating System: Darwin 13.3.0 Darwin Kernel Version 13.3.0: Tue Jun  3 21:27:35 PDT 2014; root:xnu-2422.110.17~1/RELEASE_X86_64 x86_64.
%%Title: /Users/huijuans/2015Fall/PLoSOne/MatLabFig/boston_08272015.eps
%%CreationDate: 08/27/2015  18:45:13
%%DocumentNeededFonts: Helvetica
%%DocumentProcessColors: Cyan Magenta Yellow Black
%%LanguageLevel: 2
%%Pages: 1
%%BoundingBox:   -74   108   687   684
%%EndComments

%%BeginProlog
% MathWorks dictionary
/MathWorks 160 dict begin
% definition operators
/bdef {bind def} bind def
/ldef {load def} bind def
/xdef {exch def} bdef
/xstore {exch store} bdef
% operator abbreviations
/c  /clip ldef
/cc /concat ldef
/cp /closepath ldef
/gr /grestore ldef
/gs /gsave ldef
/mt /moveto ldef
/np /newpath ldef
/cm /currentmatrix ldef
/sm /setmatrix ldef
/rm /rmoveto ldef
/rl /rlineto ldef
/s {show newpath} bdef
/sc {setcmykcolor} bdef
/sr /setrgbcolor ldef
/sg /setgray ldef
/w /setlinewidth ldef
/j /setlinejoin ldef
/cap /setlinecap ldef
/rc {rectclip} bdef
/rf {rectfill} bdef
% page state control
/pgsv () def
/bpage {/pgsv save def} bdef
/epage {pgsv restore} bdef
/bplot /gsave ldef
/eplot {stroke grestore} bdef
% orientation switch
/portraitMode 0 def /landscapeMode 1 def /rotateMode 2 def
% coordinate system mappings
/dpi2point 0 def
% font control
/FontSize 0 def
/FMS {/FontSize xstore findfont [FontSize 0 0 FontSize neg 0 0]
  makefont setfont} bdef
/reencode {exch dup where {pop load} {pop StandardEncoding} ifelse
  exch dup 3 1 roll findfont dup length dict begin
  { 1 index /FID ne {def}{pop pop} ifelse } forall
  /Encoding exch def currentdict end definefont pop} bdef
/isroman {findfont /CharStrings get /Agrave known} bdef
/FMSR {3 1 roll 1 index dup isroman {reencode} {pop pop} ifelse
  exch FMS} bdef
/csm {1 dpi2point div -1 dpi2point div scale neg translate
 dup landscapeMode eq {pop -90 rotate}
  {rotateMode eq {90 rotate} if} ifelse} bdef
% line types: solid, dotted, dashed, dotdash
/SO { [] 0 setdash } bdef
/DO { [.5 dpi2point mul 4 dpi2point mul] 0 setdash } bdef
/DA { [6 dpi2point mul] 0 setdash } bdef
/DD { [.5 dpi2point mul 4 dpi2point mul 6 dpi2point mul 4
  dpi2point mul] 0 setdash } bdef
% macros for lines and objects
/L {lineto stroke} bdef
/MP {3 1 roll moveto 1 sub {rlineto} repeat} bdef
/AP {{rlineto} repeat} bdef
/PDlw -1 def
/W {/PDlw currentlinewidth def setlinewidth} def
/PP {closepath eofill} bdef
/DP {closepath stroke} bdef
/MR {4 -2 roll moveto dup  0 exch rlineto exch 0 rlineto
  neg 0 exch rlineto closepath} bdef
/FR {MR stroke} bdef
/PR {MR fill} bdef
/L1i {{currentfile picstr readhexstring pop} image} bdef
/tMatrix matrix def
/MakeOval {newpath tMatrix currentmatrix pop translate scale
0 0 1 0 360 arc tMatrix setmatrix} bdef
/FO {MakeOval stroke} bdef
/PO {MakeOval fill} bdef
/PD {currentlinewidth 2 div 0 360 arc fill
   PDlw -1 eq not {PDlw w /PDlw -1 def} if} def
/FA {newpath tMatrix currentmatrix pop translate scale
  0 0 1 5 -2 roll arc tMatrix setmatrix stroke} bdef
/PA {newpath tMatrix currentmatrix pop	translate 0 0 moveto scale
  0 0 1 5 -2 roll arc closepath tMatrix setmatrix fill} bdef
/FAn {newpath tMatrix currentmatrix pop translate scale
  0 0 1 5 -2 roll arcn tMatrix setmatrix stroke} bdef
/PAn {newpath tMatrix currentmatrix pop translate 0 0 moveto scale
  0 0 1 5 -2 roll arcn closepath tMatrix setmatrix fill} bdef
/vradius 0 def /hradius 0 def /lry 0 def
/lrx 0 def /uly 0 def /ulx 0 def /rad 0 def
/MRR {/vradius xdef /hradius xdef /lry xdef /lrx xdef /uly xdef
  /ulx xdef newpath tMatrix currentmatrix pop ulx hradius add uly
  vradius add translate hradius vradius scale 0 0 1 180 270 arc 
  tMatrix setmatrix lrx hradius sub uly vradius add translate
  hradius vradius scale 0 0 1 270 360 arc tMatrix setmatrix
  lrx hradius sub lry vradius sub translate hradius vradius scale
  0 0 1 0 90 arc tMatrix setmatrix ulx hradius add lry vradius sub
  translate hradius vradius scale 0 0 1 90 180 arc tMatrix setmatrix
  closepath} bdef
/FRR {MRR stroke } bdef
/PRR {MRR fill } bdef
/MlrRR {/lry xdef /lrx xdef /uly xdef /ulx xdef /rad lry uly sub 2 div def
  newpath tMatrix currentmatrix pop ulx rad add uly rad add translate
  rad rad scale 0 0 1 90 270 arc tMatrix setmatrix lrx rad sub lry rad
  sub translate rad rad scale 0 0 1 270 90 arc tMatrix setmatrix
  closepath} bdef
/FlrRR {MlrRR stroke } bdef
/PlrRR {MlrRR fill } bdef
/MtbRR {/lry xdef /lrx xdef /uly xdef /ulx xdef /rad lrx ulx sub 2 div def
  newpath tMatrix currentmatrix pop ulx rad add uly rad add translate
  rad rad scale 0 0 1 180 360 arc tMatrix setmatrix lrx rad sub lry rad
  sub translate rad rad scale 0 0 1 0 180 arc tMatrix setmatrix
  closepath} bdef
/FtbRR {MtbRR stroke } bdef
/PtbRR {MtbRR fill } bdef
/stri 6 array def /dtri 6 array def
/smat 6 array def /dmat 6 array def
/tmat1 6 array def /tmat2 6 array def /dif 3 array def
/asub {/ind2 exch def /ind1 exch def dup dup
  ind1 get exch ind2 get sub exch } bdef
/tri_to_matrix {
  2 0 asub 3 1 asub 4 0 asub 5 1 asub
  dup 0 get exch 1 get 7 -1 roll astore } bdef
/compute_transform {
  dmat dtri tri_to_matrix tmat1 invertmatrix 
  smat stri tri_to_matrix tmat2 concatmatrix } bdef
/ds {stri astore pop} bdef
/dt {dtri astore pop} bdef
/db {2 copy /cols xdef /rows xdef mul dup 3 mul string
  currentfile 
  3 index 0 eq {/ASCIIHexDecode filter}
  {/ASCII85Decode filter 3 index 2 eq {/RunLengthDecode filter} if }
  ifelse exch readstring pop
  dup 0 3 index getinterval /rbmap xdef
  dup 2 index dup getinterval /gbmap xdef
  1 index dup 2 mul exch getinterval /bbmap xdef pop pop}bdef
/it {gs np dtri aload pop moveto lineto lineto cp c
  cols rows 8 compute_transform 
  rbmap gbmap bbmap true 3 colorimage gr}bdef
/il {newpath moveto lineto stroke}bdef
currentdict end def
%%EndProlog

%%BeginSetup
MathWorks begin

0 cap

end
%%EndSetup

%%Page: 1 1
%%BeginPageSetup
%%PageBoundingBox:   -74   108   687   684
MathWorks begin
bpage
%%EndPageSetup

%%BeginObject: obj1
bplot

/dpi2point 12 def
portraitMode -0888 8208 csm

    0     0  9143  6912 rc
85 dict begin %Colortable dictionary
/c0 { 0.000000 0.000000 0.000000 sr} bdef
/c1 { 1.000000 1.000000 1.000000 sr} bdef
/c2 { 0.900000 0.000000 0.000000 sr} bdef
/c3 { 0.000000 0.820000 0.000000 sr} bdef
/c4 { 0.000000 0.000000 0.800000 sr} bdef
/c5 { 0.910000 0.820000 0.320000 sr} bdef
/c6 { 1.000000 0.260000 0.820000 sr} bdef
/c7 { 0.000000 0.820000 0.820000 sr} bdef
c0
1 j
1 sg
   0    0 9144 6913 rf
6 w
0 5466 7085 0 0 -5466 1465 5805 4 MP
PP
-7085 0 0 5466 7085 0 0 -5466 1465 5805 5 MP stroke
4 w
DO
SO
6 w
0 sg
1465 5805 mt 8550 5805 L
1465  339 mt 8550  339 L
1465 5805 mt 1465  339 L
8550 5805 mt 8550  339 L
1465 5805 mt 8550 5805 L
1465 5805 mt 1465  339 L
1465 5662 mt 1535 5662 L
8550 5662 mt 8479 5662 L
%%IncludeResource: font Helvetica
/Helvetica /ISOLatin1Encoding 360 FMSR

 820 5796 mt 
(-15) s
1465 4605 mt 1535 4605 L
8550 4605 mt 8479 4605 L
1020 4739 mt 
(-5) s
1465 3547 mt 1535 3547 L
8550 3547 mt 8479 3547 L
1230 3681 mt 
(5) s
1465 2490 mt 1535 2490 L
8550 2490 mt 8479 2490 L
1030 2624 mt 
(15) s
1465 1433 mt 1535 1433 L
8550 1433 mt 8479 1433 L
1030 1567 mt 
(25) s
1465  376 mt 1535  376 L
8550  376 mt 8479  376 L
1030  510 mt 
(35) s
1465 5805 mt 8550 5805 L
1465  339 mt 8550  339 L
1465 5805 mt 1465  339 L
8550 5805 mt 8550  339 L
 730 4373 mt  -90 rotate
(Lead Time \(day\)) s
90 rotate
 292 6505 mt  -16 rotate
(distr demogr) s
16 rotate
2020 6378 mt  -16 rotate
(distr inter) s
16 rotate
2465 6592 mt  -16 rotate
(CART demogr) s
16 rotate
4254 6472 mt  -16 rotate
(CART inter) s
16 rotate
4330 6841 mt  -16 rotate
(CART demogr+inter) s
16 rotate
7551 6158 mt  -16 rotate
(trans) s
16 rotate
gs 1465 339 7086 5467 rc
DA
24 w
0 -1163 2055 3336 2 MP stroke
0 -1031 3236 3204 2 MP stroke
0 -1030 4417 3309 2 MP stroke
0 -952 5597 2913 2 MP stroke
0 -1057 6778 2913 2 MP stroke
0 -1058 7959 2279 2 MP stroke
0 -1163 2055 5450 2 MP stroke
0 -1374 3236 5556 2 MP stroke
0 -1137 4417 5239 2 MP stroke
0 -1057 5597 5027 2 MP stroke
0 -846 6778 4710 2 MP stroke
0 -1269 7959 4393 2 MP stroke
SO
296 0 1907 2173 2 MP stroke
295 0 3088 2173 2 MP stroke
295 0 4269 2279 2 MP stroke
295 0 5450 1961 2 MP stroke
295 0 6631 1856 2 MP stroke
296 0 7811 1221 2 MP stroke
296 0 1907 5450 2 MP stroke
295 0 3088 5556 2 MP stroke
295 0 4269 5239 2 MP stroke
295 0 5450 5027 2 MP stroke
295 0 6631 4710 2 MP stroke
296 0 7811 4393 2 MP stroke
/c8 { 0.000000 0.000000 1.000000 sr} bdef
c8
147 -166 0 -362 -590 0 0 362 147 166 -147 166 0 257 590 0 
0 -257 -147 -166 1907 3759 11 MP stroke
147 -170 0 -253 -590 0 0 253 148 170 -148 171 0 384 590 0 
0 -384 -147 -171 3088 3759 11 MP stroke
148 -138 0 -205 -591 0 0 205 148 138 -148 139 0 311 591 0 
0 -311 -148 -139 4269 3759 11 MP stroke
148 -185 0 -238 -591 0 0 238 148 185 -148 184 0 450 591 0 
0 -450 -148 -184 5450 3547 11 MP stroke
148 -166 0 -256 -590 0 0 256 147 166 -147 166 0 363 590 0 
0 -363 -148 -166 6631 3442 11 MP stroke
147 -151 0 -377 -590 0 0 377 147 151 -147 152 0 165 590 0 
0 -165 -147 -152 7811 2596 11 MP stroke
/c9 { 1.000000 0.000000 0.000000 sr} bdef
c9
296 0 1907 3759 2 MP stroke
295 0 3088 3759 2 MP stroke
295 0 4269 3759 2 MP stroke
295 0 5450 3547 2 MP stroke
295 0 6631 3442 2 MP stroke
296 0 7811 2596 2 MP stroke
gs 4319 1546 197 197 rc
4381 1644 mt 4453 1644 L
4417 1608 mt 4417 1680 L
gr

gs 6680 5247 197 197 rc
6742 5345 mt 6814 5345 L
6778 5309 mt 6778 5381 L
gr

gs 7861 489 197 197 rc
7923  587 mt 7995  587 L
7959  551 mt 7959  623 L
gr

gr

24 w
c9
0 sg
%%IncludeResource: font Helvetica
/Helvetica /ISOLatin1Encoding 96 FMSR

2028 5953 mt 
(1) s
3208 5953 mt 
(2) s
4388 5953 mt 
(3) s
5569 5953 mt 
(4) s
6749 5953 mt 
(5) s
7929 5953 mt 
(6) s
6 w

end %%Color Dict

eplot
%%EndObject

epage
end

showpage

%%Trailer
%%EOF
