%!PS-Adobe-3.0 EPSF-3.0
%%Creator: MATLAB, The MathWorks, Inc. Version 8.3.0.532 (R2014a). Operating System: Darwin 13.3.0 Darwin Kernel Version 13.3.0: Tue Jun  3 21:27:35 PDT 2014; root:xnu-2422.110.17~1/RELEASE_X86_64 x86_64.
%%Title: /Users/huijuans/2015Fall/PLoSOne/MatLabFig/chicago.eps
%%CreationDate: 08/27/2015  18:51:56
%%DocumentNeededFonts: Helvetica
%%DocumentProcessColors: Cyan Magenta Yellow Black
%%LanguageLevel: 2
%%Pages: 1
%%BoundingBox:   -74   108   687   684
%%EndComments

%%BeginProlog
% MathWorks dictionary
/MathWorks 160 dict begin
% definition operators
/bdef {bind def} bind def
/ldef {load def} bind def
/xdef {exch def} bdef
/xstore {exch store} bdef
% operator abbreviations
/c  /clip ldef
/cc /concat ldef
/cp /closepath ldef
/gr /grestore ldef
/gs /gsave ldef
/mt /moveto ldef
/np /newpath ldef
/cm /currentmatrix ldef
/sm /setmatrix ldef
/rm /rmoveto ldef
/rl /rlineto ldef
/s {show newpath} bdef
/sc {setcmykcolor} bdef
/sr /setrgbcolor ldef
/sg /setgray ldef
/w /setlinewidth ldef
/j /setlinejoin ldef
/cap /setlinecap ldef
/rc {rectclip} bdef
/rf {rectfill} bdef
% page state control
/pgsv () def
/bpage {/pgsv save def} bdef
/epage {pgsv restore} bdef
/bplot /gsave ldef
/eplot {stroke grestore} bdef
% orientation switch
/portraitMode 0 def /landscapeMode 1 def /rotateMode 2 def
% coordinate system mappings
/dpi2point 0 def
% font control
/FontSize 0 def
/FMS {/FontSize xstore findfont [FontSize 0 0 FontSize neg 0 0]
  makefont setfont} bdef
/reencode {exch dup where {pop load} {pop StandardEncoding} ifelse
  exch dup 3 1 roll findfont dup length dict begin
  { 1 index /FID ne {def}{pop pop} ifelse } forall
  /Encoding exch def currentdict end definefont pop} bdef
/isroman {findfont /CharStrings get /Agrave known} bdef
/FMSR {3 1 roll 1 index dup isroman {reencode} {pop pop} ifelse
  exch FMS} bdef
/csm {1 dpi2point div -1 dpi2point div scale neg translate
 dup landscapeMode eq {pop -90 rotate}
  {rotateMode eq {90 rotate} if} ifelse} bdef
% line types: solid, dotted, dashed, dotdash
/SO { [] 0 setdash } bdef
/DO { [.5 dpi2point mul 4 dpi2point mul] 0 setdash } bdef
/DA { [6 dpi2point mul] 0 setdash } bdef
/DD { [.5 dpi2point mul 4 dpi2point mul 6 dpi2point mul 4
  dpi2point mul] 0 setdash } bdef
% macros for lines and objects
/L {lineto stroke} bdef
/MP {3 1 roll moveto 1 sub {rlineto} repeat} bdef
/AP {{rlineto} repeat} bdef
/PDlw -1 def
/W {/PDlw currentlinewidth def setlinewidth} def
/PP {closepath eofill} bdef
/DP {closepath stroke} bdef
/MR {4 -2 roll moveto dup  0 exch rlineto exch 0 rlineto
  neg 0 exch rlineto closepath} bdef
/FR {MR stroke} bdef
/PR {MR fill} bdef
/L1i {{currentfile picstr readhexstring pop} image} bdef
/tMatrix matrix def
/MakeOval {newpath tMatrix currentmatrix pop translate scale
0 0 1 0 360 arc tMatrix setmatrix} bdef
/FO {MakeOval stroke} bdef
/PO {MakeOval fill} bdef
/PD {currentlinewidth 2 div 0 360 arc fill
   PDlw -1 eq not {PDlw w /PDlw -1 def} if} def
/FA {newpath tMatrix currentmatrix pop translate scale
  0 0 1 5 -2 roll arc tMatrix setmatrix stroke} bdef
/PA {newpath tMatrix currentmatrix pop	translate 0 0 moveto scale
  0 0 1 5 -2 roll arc closepath tMatrix setmatrix fill} bdef
/FAn {newpath tMatrix currentmatrix pop translate scale
  0 0 1 5 -2 roll arcn tMatrix setmatrix stroke} bdef
/PAn {newpath tMatrix currentmatrix pop translate 0 0 moveto scale
  0 0 1 5 -2 roll arcn closepath tMatrix setmatrix fill} bdef
/vradius 0 def /hradius 0 def /lry 0 def
/lrx 0 def /uly 0 def /ulx 0 def /rad 0 def
/MRR {/vradius xdef /hradius xdef /lry xdef /lrx xdef /uly xdef
  /ulx xdef newpath tMatrix currentmatrix pop ulx hradius add uly
  vradius add translate hradius vradius scale 0 0 1 180 270 arc 
  tMatrix setmatrix lrx hradius sub uly vradius add translate
  hradius vradius scale 0 0 1 270 360 arc tMatrix setmatrix
  lrx hradius sub lry vradius sub translate hradius vradius scale
  0 0 1 0 90 arc tMatrix setmatrix ulx hradius add lry vradius sub
  translate hradius vradius scale 0 0 1 90 180 arc tMatrix setmatrix
  closepath} bdef
/FRR {MRR stroke } bdef
/PRR {MRR fill } bdef
/MlrRR {/lry xdef /lrx xdef /uly xdef /ulx xdef /rad lry uly sub 2 div def
  newpath tMatrix currentmatrix pop ulx rad add uly rad add translate
  rad rad scale 0 0 1 90 270 arc tMatrix setmatrix lrx rad sub lry rad
  sub translate rad rad scale 0 0 1 270 90 arc tMatrix setmatrix
  closepath} bdef
/FlrRR {MlrRR stroke } bdef
/PlrRR {MlrRR fill } bdef
/MtbRR {/lry xdef /lrx xdef /uly xdef /ulx xdef /rad lrx ulx sub 2 div def
  newpath tMatrix currentmatrix pop ulx rad add uly rad add translate
  rad rad scale 0 0 1 180 360 arc tMatrix setmatrix lrx rad sub lry rad
  sub translate rad rad scale 0 0 1 0 180 arc tMatrix setmatrix
  closepath} bdef
/FtbRR {MtbRR stroke } bdef
/PtbRR {MtbRR fill } bdef
/stri 6 array def /dtri 6 array def
/smat 6 array def /dmat 6 array def
/tmat1 6 array def /tmat2 6 array def /dif 3 array def
/asub {/ind2 exch def /ind1 exch def dup dup
  ind1 get exch ind2 get sub exch } bdef
/tri_to_matrix {
  2 0 asub 3 1 asub 4 0 asub 5 1 asub
  dup 0 get exch 1 get 7 -1 roll astore } bdef
/compute_transform {
  dmat dtri tri_to_matrix tmat1 invertmatrix 
  smat stri tri_to_matrix tmat2 concatmatrix } bdef
/ds {stri astore pop} bdef
/dt {dtri astore pop} bdef
/db {2 copy /cols xdef /rows xdef mul dup 3 mul string
  currentfile 
  3 index 0 eq {/ASCIIHexDecode filter}
  {/ASCII85Decode filter 3 index 2 eq {/RunLengthDecode filter} if }
  ifelse exch readstring pop
  dup 0 3 index getinterval /rbmap xdef
  dup 2 index dup getinterval /gbmap xdef
  1 index dup 2 mul exch getinterval /bbmap xdef pop pop}bdef
/it {gs np dtri aload pop moveto lineto lineto cp c
  cols rows 8 compute_transform 
  rbmap gbmap bbmap true 3 colorimage gr}bdef
/il {newpath moveto lineto stroke}bdef
currentdict end def
%%EndProlog

%%BeginSetup
MathWorks begin

0 cap

end
%%EndSetup

%%Page: 1 1
%%BeginPageSetup
%%PageBoundingBox:   -74   108   687   684
MathWorks begin
bpage
%%EndPageSetup

%%BeginObject: obj1
bplot

/dpi2point 12 def
portraitMode -0888 8208 csm

    0     0  9143  6912 rc
85 dict begin %Colortable dictionary
/c0 { 0.000000 0.000000 0.000000 sr} bdef
/c1 { 1.000000 1.000000 1.000000 sr} bdef
/c2 { 0.900000 0.000000 0.000000 sr} bdef
/c3 { 0.000000 0.820000 0.000000 sr} bdef
/c4 { 0.000000 0.000000 0.800000 sr} bdef
/c5 { 0.910000 0.820000 0.320000 sr} bdef
/c6 { 1.000000 0.260000 0.820000 sr} bdef
/c7 { 0.000000 0.820000 0.820000 sr} bdef
c0
1 j
1 sg
   0    0 9144 6913 rf
6 w
0 5466 7085 0 0 -5466 1357 5816 4 MP
PP
-7085 0 0 5466 7085 0 0 -5466 1357 5816 5 MP stroke
4 w
DO
SO
6 w
0 sg
1357 5816 mt 8442 5816 L
1357  350 mt 8442  350 L
1357 5816 mt 1357  350 L
8442 5816 mt 8442  350 L
1357 5816 mt 8442 5816 L
1357 5816 mt 1357  350 L
1947 5816 mt 1947 5745 L
1947  350 mt 1947  420 L
3128 5816 mt 3128 5745 L
3128  350 mt 3128  420 L
4309 5816 mt 4309 5745 L
4309  350 mt 4309  420 L
5489 5816 mt 5489 5745 L
5489  350 mt 5489  420 L
6670 5816 mt 6670 5745 L
6670  350 mt 6670  420 L
7851 5816 mt 7851 5745 L
7851  350 mt 7851  420 L
1357 5153 mt 1427 5153 L
8442 5153 mt 8371 5153 L
%%IncludeResource: font Helvetica
/Helvetica /ISOLatin1Encoding 360 FMSR

 912 5287 mt 
(-5) s
1357 3773 mt 1427 3773 L
8442 3773 mt 8371 3773 L
1122 3907 mt 
(5) s
1357 2392 mt 1427 2392 L
8442 2392 mt 8371 2392 L
 922 2526 mt 
(15) s
1357 1012 mt 1427 1012 L
8442 1012 mt 8371 1012 L
 922 1146 mt 
(25) s
1357 5816 mt 8442 5816 L
1357  350 mt 8442  350 L
1357 5816 mt 1357  350 L
8442 5816 mt 8442  350 L
gs 1357 350 7086 5467 rc
DA
24 w
0 -932 1947 3738 2 MP stroke
0 -1105 3128 3773 2 MP stroke
0 -932 4309 3048 2 MP stroke
0 -1381 5489 3083 2 MP stroke
0 -1105 6670 3221 2 MP stroke
0 -1104 7851 1702 2 MP stroke
0 -690 1947 5291 2 MP stroke
0 -1035 3128 5567 2 MP stroke
0 -1104 4309 5015 2 MP stroke
0 -1104 5489 5153 2 MP stroke
0 -966 6670 5015 2 MP stroke
0 -967 7851 3497 2 MP stroke
SO
296 0 1799 2806 2 MP stroke
295 0 2980 2668 2 MP stroke
295 0 4161 2116 2 MP stroke
295 0 5342 1702 2 MP stroke
295 0 6523 2116 2 MP stroke
296 0 7703 598 2 MP stroke
296 0 1799 5291 2 MP stroke
295 0 2980 5567 2 MP stroke
295 0 4161 5015 2 MP stroke
295 0 5342 5153 2 MP stroke
295 0 6523 5015 2 MP stroke
296 0 7703 3497 2 MP stroke
/c8 { 0.000000 0.000000 1.000000 sr} bdef
c8
147 -147 0 -267 -590 0 0 267 147 147 -147 147 0 302 590 0 
0 -302 -147 -147 1799 4187 11 MP stroke
147 -129 0 -354 -590 0 0 354 148 129 -148 130 0 146 590 0 
0 -146 -147 -130 2980 4049 11 MP stroke
148 -146 0 -406 -591 0 0 406 148 146 -148 147 0 164 591 0 
0 -164 -148 -147 4161 3359 11 MP stroke
148 -164 0 -250 -591 0 0 250 148 164 -148 165 0 387 591 0 
0 -387 -148 -165 5342 3635 11 MP stroke
148 -141 0 -411 -590 0 0 411 147 141 -147 141 0 135 590 0 
0 -135 -148 -141 6523 3497 11 MP stroke
147 -141 0 -135 -590 0 0 135 147 141 -147 141 0 411 590 0 
0 -411 -147 -141 7703 2254 11 MP stroke
/c9 { 1.000000 0.000000 0.000000 sr} bdef
c9
296 0 1799 4187 2 MP stroke
295 0 2980 4049 2 MP stroke
295 0 4161 3359 2 MP stroke
295 0 5342 3635 2 MP stroke
295 0 6523 3497 2 MP stroke
296 0 7703 2254 2 MP stroke
gs 1849 1880 197 335 rc
1911 2116 mt 1983 2116 L
1947 2080 mt 1947 2152 L
1911 1978 mt 1983 1978 L
1947 1942 mt 1947 2014 L
gr

gs 4211 1052 197 197 rc
4273 1150 mt 4345 1150 L
4309 1114 mt 4309 1186 L
gr

gs 6572 1328 197 197 rc
6634 1426 mt 6706 1426 L
6670 1390 mt 6670 1462 L
gr

gs 7753 3813 197 197 rc
7815 3911 mt 7887 3911 L
7851 3875 mt 7851 3947 L
gr

gr

24 w
c9
0 sg
%%IncludeResource: font Helvetica
/Helvetica /ISOLatin1Encoding 96 FMSR

1920 5964 mt 
(1) s
3101 5964 mt 
(2) s
4282 5964 mt 
(3) s
5463 5964 mt 
(4) s
6644 5964 mt 
(5) s
7825 5964 mt 
(6) s
%%IncludeResource: font Helvetica
/Helvetica /ISOLatin1Encoding 360 FMSR

 776 4380 mt  -90 rotate
(Lead Time \(day\)) s
90 rotate
  88 6510 mt  -16 rotate
(distr demogr) s
16 rotate
1780 6379 mt  -16 rotate
(distr inter) s
16 rotate
2178 6610 mt  -16 rotate
(CART demogr) s
16 rotate
3846 6479 mt  -16 rotate
(CART inter) s
16 rotate
3863 6856 mt  -16 rotate
(CART demogr+inter) s
16 rotate
7191 6178 mt  -16 rotate
(trans) s
16 rotate
6 w

end %%Color Dict

eplot
%%EndObject

epage
end

showpage

%%Trailer
%%EOF
