%!PS-Adobe-3.0 EPSF-3.0
%%Creator: MATLAB, The MathWorks, Inc. Version 8.3.0.532 (R2014a). Operating System: Darwin 13.3.0 Darwin Kernel Version 13.3.0: Tue Jun  3 21:27:35 PDT 2014; root:xnu-2422.110.17~1/RELEASE_X86_64 x86_64.
%%Title: /Users/huijuans/2015Fall/PLoSOne/MatLabFig/chicago_08272015.eps
%%CreationDate: 08/27/2015  18:52:43
%%DocumentNeededFonts: Helvetica
%%DocumentProcessColors: Cyan Magenta Yellow Black
%%LanguageLevel: 2
%%Pages: 1
%%BoundingBox:   -74   204   687   589
%%EndComments

%%BeginProlog
% MathWorks dictionary
/MathWorks 160 dict begin
% definition operators
/bdef {bind def} bind def
/ldef {load def} bind def
/xdef {exch def} bdef
/xstore {exch store} bdef
% operator abbreviations
/c  /clip ldef
/cc /concat ldef
/cp /closepath ldef
/gr /grestore ldef
/gs /gsave ldef
/mt /moveto ldef
/np /newpath ldef
/cm /currentmatrix ldef
/sm /setmatrix ldef
/rm /rmoveto ldef
/rl /rlineto ldef
/s {show newpath} bdef
/sc {setcmykcolor} bdef
/sr /setrgbcolor ldef
/sg /setgray ldef
/w /setlinewidth ldef
/j /setlinejoin ldef
/cap /setlinecap ldef
/rc {rectclip} bdef
/rf {rectfill} bdef
% page state control
/pgsv () def
/bpage {/pgsv save def} bdef
/epage {pgsv restore} bdef
/bplot /gsave ldef
/eplot {stroke grestore} bdef
% orientation switch
/portraitMode 0 def /landscapeMode 1 def /rotateMode 2 def
% coordinate system mappings
/dpi2point 0 def
% font control
/FontSize 0 def
/FMS {/FontSize xstore findfont [FontSize 0 0 FontSize neg 0 0]
  makefont setfont} bdef
/reencode {exch dup where {pop load} {pop StandardEncoding} ifelse
  exch dup 3 1 roll findfont dup length dict begin
  { 1 index /FID ne {def}{pop pop} ifelse } forall
  /Encoding exch def currentdict end definefont pop} bdef
/isroman {findfont /CharStrings get /Agrave known} bdef
/FMSR {3 1 roll 1 index dup isroman {reencode} {pop pop} ifelse
  exch FMS} bdef
/csm {1 dpi2point div -1 dpi2point div scale neg translate
 dup landscapeMode eq {pop -90 rotate}
  {rotateMode eq {90 rotate} if} ifelse} bdef
% line types: solid, dotted, dashed, dotdash
/SO { [] 0 setdash } bdef
/DO { [.5 dpi2point mul 4 dpi2point mul] 0 setdash } bdef
/DA { [6 dpi2point mul] 0 setdash } bdef
/DD { [.5 dpi2point mul 4 dpi2point mul 6 dpi2point mul 4
  dpi2point mul] 0 setdash } bdef
% macros for lines and objects
/L {lineto stroke} bdef
/MP {3 1 roll moveto 1 sub {rlineto} repeat} bdef
/AP {{rlineto} repeat} bdef
/PDlw -1 def
/W {/PDlw currentlinewidth def setlinewidth} def
/PP {closepath eofill} bdef
/DP {closepath stroke} bdef
/MR {4 -2 roll moveto dup  0 exch rlineto exch 0 rlineto
  neg 0 exch rlineto closepath} bdef
/FR {MR stroke} bdef
/PR {MR fill} bdef
/L1i {{currentfile picstr readhexstring pop} image} bdef
/tMatrix matrix def
/MakeOval {newpath tMatrix currentmatrix pop translate scale
0 0 1 0 360 arc tMatrix setmatrix} bdef
/FO {MakeOval stroke} bdef
/PO {MakeOval fill} bdef
/PD {currentlinewidth 2 div 0 360 arc fill
   PDlw -1 eq not {PDlw w /PDlw -1 def} if} def
/FA {newpath tMatrix currentmatrix pop translate scale
  0 0 1 5 -2 roll arc tMatrix setmatrix stroke} bdef
/PA {newpath tMatrix currentmatrix pop	translate 0 0 moveto scale
  0 0 1 5 -2 roll arc closepath tMatrix setmatrix fill} bdef
/FAn {newpath tMatrix currentmatrix pop translate scale
  0 0 1 5 -2 roll arcn tMatrix setmatrix stroke} bdef
/PAn {newpath tMatrix currentmatrix pop translate 0 0 moveto scale
  0 0 1 5 -2 roll arcn closepath tMatrix setmatrix fill} bdef
/vradius 0 def /hradius 0 def /lry 0 def
/lrx 0 def /uly 0 def /ulx 0 def /rad 0 def
/MRR {/vradius xdef /hradius xdef /lry xdef /lrx xdef /uly xdef
  /ulx xdef newpath tMatrix currentmatrix pop ulx hradius add uly
  vradius add translate hradius vradius scale 0 0 1 180 270 arc 
  tMatrix setmatrix lrx hradius sub uly vradius add translate
  hradius vradius scale 0 0 1 270 360 arc tMatrix setmatrix
  lrx hradius sub lry vradius sub translate hradius vradius scale
  0 0 1 0 90 arc tMatrix setmatrix ulx hradius add lry vradius sub
  translate hradius vradius scale 0 0 1 90 180 arc tMatrix setmatrix
  closepath} bdef
/FRR {MRR stroke } bdef
/PRR {MRR fill } bdef
/MlrRR {/lry xdef /lrx xdef /uly xdef /ulx xdef /rad lry uly sub 2 div def
  newpath tMatrix currentmatrix pop ulx rad add uly rad add translate
  rad rad scale 0 0 1 90 270 arc tMatrix setmatrix lrx rad sub lry rad
  sub translate rad rad scale 0 0 1 270 90 arc tMatrix setmatrix
  closepath} bdef
/FlrRR {MlrRR stroke } bdef
/PlrRR {MlrRR fill } bdef
/MtbRR {/lry xdef /lrx xdef /uly xdef /ulx xdef /rad lrx ulx sub 2 div def
  newpath tMatrix currentmatrix pop ulx rad add uly rad add translate
  rad rad scale 0 0 1 180 360 arc tMatrix setmatrix lrx rad sub lry rad
  sub translate rad rad scale 0 0 1 0 180 arc tMatrix setmatrix
  closepath} bdef
/FtbRR {MtbRR stroke } bdef
/PtbRR {MtbRR fill } bdef
/stri 6 array def /dtri 6 array def
/smat 6 array def /dmat 6 array def
/tmat1 6 array def /tmat2 6 array def /dif 3 array def
/asub {/ind2 exch def /ind1 exch def dup dup
  ind1 get exch ind2 get sub exch } bdef
/tri_to_matrix {
  2 0 asub 3 1 asub 4 0 asub 5 1 asub
  dup 0 get exch 1 get 7 -1 roll astore } bdef
/compute_transform {
  dmat dtri tri_to_matrix tmat1 invertmatrix 
  smat stri tri_to_matrix tmat2 concatmatrix } bdef
/ds {stri astore pop} bdef
/dt {dtri astore pop} bdef
/db {2 copy /cols xdef /rows xdef mul dup 3 mul string
  currentfile 
  3 index 0 eq {/ASCIIHexDecode filter}
  {/ASCII85Decode filter 3 index 2 eq {/RunLengthDecode filter} if }
  ifelse exch readstring pop
  dup 0 3 index getinterval /rbmap xdef
  dup 2 index dup getinterval /gbmap xdef
  1 index dup 2 mul exch getinterval /bbmap xdef pop pop}bdef
/it {gs np dtri aload pop moveto lineto lineto cp c
  cols rows 8 compute_transform 
  rbmap gbmap bbmap true 3 colorimage gr}bdef
/il {newpath moveto lineto stroke}bdef
currentdict end def
%%EndProlog

%%BeginSetup
MathWorks begin

0 cap

end
%%EndSetup

%%Page: 1 1
%%BeginPageSetup
%%PageBoundingBox:   -74   204   687   589
MathWorks begin
bpage
%%EndPageSetup

%%BeginObject: obj1
bplot

/dpi2point 12 def
portraitMode -0888 7068 csm

    0     0  9143  4619 rc
85 dict begin %Colortable dictionary
/c0 { 0.000000 0.000000 0.000000 sr} bdef
/c1 { 1.000000 1.000000 1.000000 sr} bdef
/c2 { 0.900000 0.000000 0.000000 sr} bdef
/c3 { 0.000000 0.820000 0.000000 sr} bdef
/c4 { 0.000000 0.000000 0.800000 sr} bdef
/c5 { 0.910000 0.820000 0.320000 sr} bdef
/c6 { 1.000000 0.260000 0.820000 sr} bdef
/c7 { 0.000000 0.820000 0.820000 sr} bdef
c0
1 j
1 sg
   0    0 9144 4620 rf
6 w
0 3652 7085 0 0 -3652 1357 3886 4 MP
PP
-7085 0 0 3652 7085 0 0 -3652 1357 3886 5 MP stroke
4 w
DO
SO
6 w
0 sg
1357 3886 mt 8442 3886 L
1357  234 mt 8442  234 L
1357 3886 mt 1357  234 L
8442 3886 mt 8442  234 L
1357 3886 mt 8442 3886 L
1357 3886 mt 1357  234 L
1947 3886 mt 1947 3815 L
1947  234 mt 1947  304 L
3128 3886 mt 3128 3815 L
3128  234 mt 3128  304 L
4309 3886 mt 4309 3815 L
4309  234 mt 4309  304 L
5489 3886 mt 5489 3815 L
5489  234 mt 5489  304 L
6670 3886 mt 6670 3815 L
6670  234 mt 6670  304 L
7851 3886 mt 7851 3815 L
7851  234 mt 7851  304 L
1357 3443 mt 1427 3443 L
8442 3443 mt 8371 3443 L
%%IncludeResource: font Helvetica
/Helvetica /ISOLatin1Encoding 360 FMSR

 912 3577 mt 
(-5) s
1357 2521 mt 1427 2521 L
8442 2521 mt 8371 2521 L
1122 2655 mt 
(5) s
1357 1598 mt 1427 1598 L
8442 1598 mt 8371 1598 L
 922 1732 mt 
(15) s
1357  676 mt 1427  676 L
8442  676 mt 8371  676 L
 922  810 mt 
(25) s
1357 3886 mt 8442 3886 L
1357  234 mt 8442  234 L
1357 3886 mt 1357  234 L
8442 3886 mt 8442  234 L
gs 1357 234 7086 3653 rc
DA
24 w
0 -623 1947 2498 2 MP stroke
0 -738 3128 2521 2 MP stroke
0 -622 4309 2036 2 MP stroke
0 -923 5489 2060 2 MP stroke
0 -738 6670 2152 2 MP stroke
0 -737 7851 1137 2 MP stroke
0 -461 1947 3535 2 MP stroke
0 -692 3128 3720 2 MP stroke
0 -738 4309 3351 2 MP stroke
0 -738 5489 3443 2 MP stroke
0 -646 6670 3351 2 MP stroke
0 -645 7851 2336 2 MP stroke
SO
296 0 1799 1875 2 MP stroke
295 0 2980 1783 2 MP stroke
295 0 4161 1414 2 MP stroke
295 0 5342 1137 2 MP stroke
295 0 6523 1414 2 MP stroke
296 0 7703 400 2 MP stroke
296 0 1799 3535 2 MP stroke
295 0 2980 3720 2 MP stroke
295 0 4161 3351 2 MP stroke
295 0 5342 3443 2 MP stroke
295 0 6523 3351 2 MP stroke
296 0 7703 2336 2 MP stroke
/c8 { 0.000000 0.000000 1.000000 sr} bdef
c8
147 -98 0 -179 -590 0 0 179 147 98 -147 98 0 201 590 0 
0 -201 -147 -98 1799 2797 11 MP stroke
147 -86 0 -237 -590 0 0 237 148 86 -148 86 0 98 590 0 
0 -98 -147 -86 2980 2705 11 MP stroke
148 -98 0 -271 -591 0 0 271 148 98 -148 98 0 110 591 0 
0 -110 -148 -98 4161 2244 11 MP stroke
148 -110 0 -167 -591 0 0 167 148 110 -148 110 0 258 591 0 
0 -258 -148 -110 5342 2428 11 MP stroke
148 -94 0 -275 -590 0 0 275 147 94 -147 94 0 90 590 0 
0 -90 -148 -94 6523 2336 11 MP stroke
147 -94 0 -91 -590 0 0 91 147 94 -147 94 0 275 590 0 
0 -275 -147 -94 7703 1506 11 MP stroke
/c9 { 1.000000 0.000000 0.000000 sr} bdef
c9
296 0 1799 2797 2 MP stroke
295 0 2980 2705 2 MP stroke
295 0 4161 2244 2 MP stroke
295 0 5342 2428 2 MP stroke
295 0 6523 2336 2 MP stroke
296 0 7703 1506 2 MP stroke
gs 1849 1224 197 289 rc
1911 1414 mt 1983 1414 L
1947 1378 mt 1947 1450 L
1911 1322 mt 1983 1322 L
1947 1286 mt 1947 1358 L
gr

gs 4211 670 197 197 rc
4273  768 mt 4345  768 L
4309  732 mt 4309  804 L
gr

gs 6572 855 197 197 rc
6634  953 mt 6706  953 L
6670  917 mt 6670  989 L
gr

gs 7753 2515 197 197 rc
7815 2613 mt 7887 2613 L
7851 2577 mt 7851 2649 L
gr

gr

24 w
c9
0 sg
%%IncludeResource: font Helvetica
/Helvetica /ISOLatin1Encoding 96 FMSR

1920 4034 mt 
(1) s
3101 4034 mt 
(2) s
4282 4034 mt 
(3) s
5463 4034 mt 
(4) s
6644 4034 mt 
(5) s
7825 4034 mt 
(6) s
%%IncludeResource: font Helvetica
/Helvetica /ISOLatin1Encoding 360 FMSR

 776 3357 mt  -90 rotate
(Lead Time \(day\)) s
90 rotate
  88 4482 mt  -16 rotate
(distr demogr) s
16 rotate
1780 4370 mt  -16 rotate
(distr inter) s
16 rotate
2178 4562 mt  -16 rotate
(CART demogr) s
16 rotate
3846 4451 mt  -16 rotate
(CART inter) s
16 rotate
3863 4768 mt  -16 rotate
(CART demogr+inter) s
16 rotate
7191 4204 mt  -16 rotate
(trans) s
16 rotate
6 w

end %%Color Dict

eplot
%%EndObject

epage
end

showpage

%%Trailer
%%EOF
