%!PS-Adobe-3.0 EPSF-3.0
%%Creator: MATLAB, The MathWorks, Inc. Version 8.3.0.532 (R2014a). Operating System: Darwin 13.3.0 Darwin Kernel Version 13.3.0: Tue Jun  3 21:27:35 PDT 2014; root:xnu-2422.110.17~1/RELEASE_X86_64 x86_64.
%%Title: /Users/huijuans/2015Fall/PLoSOne/MatLabFig/dallas_08272015.eps
%%CreationDate: 08/27/2015  19:10:52
%%DocumentNeededFonts: Helvetica
%%DocumentProcessColors: Cyan Magenta Yellow Black
%%LanguageLevel: 2
%%Pages: 1
%%BoundingBox:   -74   108   687   684
%%EndComments

%%BeginProlog
% MathWorks dictionary
/MathWorks 160 dict begin
% definition operators
/bdef {bind def} bind def
/ldef {load def} bind def
/xdef {exch def} bdef
/xstore {exch store} bdef
% operator abbreviations
/c  /clip ldef
/cc /concat ldef
/cp /closepath ldef
/gr /grestore ldef
/gs /gsave ldef
/mt /moveto ldef
/np /newpath ldef
/cm /currentmatrix ldef
/sm /setmatrix ldef
/rm /rmoveto ldef
/rl /rlineto ldef
/s {show newpath} bdef
/sc {setcmykcolor} bdef
/sr /setrgbcolor ldef
/sg /setgray ldef
/w /setlinewidth ldef
/j /setlinejoin ldef
/cap /setlinecap ldef
/rc {rectclip} bdef
/rf {rectfill} bdef
% page state control
/pgsv () def
/bpage {/pgsv save def} bdef
/epage {pgsv restore} bdef
/bplot /gsave ldef
/eplot {stroke grestore} bdef
% orientation switch
/portraitMode 0 def /landscapeMode 1 def /rotateMode 2 def
% coordinate system mappings
/dpi2point 0 def
% font control
/FontSize 0 def
/FMS {/FontSize xstore findfont [FontSize 0 0 FontSize neg 0 0]
  makefont setfont} bdef
/reencode {exch dup where {pop load} {pop StandardEncoding} ifelse
  exch dup 3 1 roll findfont dup length dict begin
  { 1 index /FID ne {def}{pop pop} ifelse } forall
  /Encoding exch def currentdict end definefont pop} bdef
/isroman {findfont /CharStrings get /Agrave known} bdef
/FMSR {3 1 roll 1 index dup isroman {reencode} {pop pop} ifelse
  exch FMS} bdef
/csm {1 dpi2point div -1 dpi2point div scale neg translate
 dup landscapeMode eq {pop -90 rotate}
  {rotateMode eq {90 rotate} if} ifelse} bdef
% line types: solid, dotted, dashed, dotdash
/SO { [] 0 setdash } bdef
/DO { [.5 dpi2point mul 4 dpi2point mul] 0 setdash } bdef
/DA { [6 dpi2point mul] 0 setdash } bdef
/DD { [.5 dpi2point mul 4 dpi2point mul 6 dpi2point mul 4
  dpi2point mul] 0 setdash } bdef
% macros for lines and objects
/L {lineto stroke} bdef
/MP {3 1 roll moveto 1 sub {rlineto} repeat} bdef
/AP {{rlineto} repeat} bdef
/PDlw -1 def
/W {/PDlw currentlinewidth def setlinewidth} def
/PP {closepath eofill} bdef
/DP {closepath stroke} bdef
/MR {4 -2 roll moveto dup  0 exch rlineto exch 0 rlineto
  neg 0 exch rlineto closepath} bdef
/FR {MR stroke} bdef
/PR {MR fill} bdef
/L1i {{currentfile picstr readhexstring pop} image} bdef
/tMatrix matrix def
/MakeOval {newpath tMatrix currentmatrix pop translate scale
0 0 1 0 360 arc tMatrix setmatrix} bdef
/FO {MakeOval stroke} bdef
/PO {MakeOval fill} bdef
/PD {currentlinewidth 2 div 0 360 arc fill
   PDlw -1 eq not {PDlw w /PDlw -1 def} if} def
/FA {newpath tMatrix currentmatrix pop translate scale
  0 0 1 5 -2 roll arc tMatrix setmatrix stroke} bdef
/PA {newpath tMatrix currentmatrix pop	translate 0 0 moveto scale
  0 0 1 5 -2 roll arc closepath tMatrix setmatrix fill} bdef
/FAn {newpath tMatrix currentmatrix pop translate scale
  0 0 1 5 -2 roll arcn tMatrix setmatrix stroke} bdef
/PAn {newpath tMatrix currentmatrix pop translate 0 0 moveto scale
  0 0 1 5 -2 roll arcn closepath tMatrix setmatrix fill} bdef
/vradius 0 def /hradius 0 def /lry 0 def
/lrx 0 def /uly 0 def /ulx 0 def /rad 0 def
/MRR {/vradius xdef /hradius xdef /lry xdef /lrx xdef /uly xdef
  /ulx xdef newpath tMatrix currentmatrix pop ulx hradius add uly
  vradius add translate hradius vradius scale 0 0 1 180 270 arc 
  tMatrix setmatrix lrx hradius sub uly vradius add translate
  hradius vradius scale 0 0 1 270 360 arc tMatrix setmatrix
  lrx hradius sub lry vradius sub translate hradius vradius scale
  0 0 1 0 90 arc tMatrix setmatrix ulx hradius add lry vradius sub
  translate hradius vradius scale 0 0 1 90 180 arc tMatrix setmatrix
  closepath} bdef
/FRR {MRR stroke } bdef
/PRR {MRR fill } bdef
/MlrRR {/lry xdef /lrx xdef /uly xdef /ulx xdef /rad lry uly sub 2 div def
  newpath tMatrix currentmatrix pop ulx rad add uly rad add translate
  rad rad scale 0 0 1 90 270 arc tMatrix setmatrix lrx rad sub lry rad
  sub translate rad rad scale 0 0 1 270 90 arc tMatrix setmatrix
  closepath} bdef
/FlrRR {MlrRR stroke } bdef
/PlrRR {MlrRR fill } bdef
/MtbRR {/lry xdef /lrx xdef /uly xdef /ulx xdef /rad lrx ulx sub 2 div def
  newpath tMatrix currentmatrix pop ulx rad add uly rad add translate
  rad rad scale 0 0 1 180 360 arc tMatrix setmatrix lrx rad sub lry rad
  sub translate rad rad scale 0 0 1 0 180 arc tMatrix setmatrix
  closepath} bdef
/FtbRR {MtbRR stroke } bdef
/PtbRR {MtbRR fill } bdef
/stri 6 array def /dtri 6 array def
/smat 6 array def /dmat 6 array def
/tmat1 6 array def /tmat2 6 array def /dif 3 array def
/asub {/ind2 exch def /ind1 exch def dup dup
  ind1 get exch ind2 get sub exch } bdef
/tri_to_matrix {
  2 0 asub 3 1 asub 4 0 asub 5 1 asub
  dup 0 get exch 1 get 7 -1 roll astore } bdef
/compute_transform {
  dmat dtri tri_to_matrix tmat1 invertmatrix 
  smat stri tri_to_matrix tmat2 concatmatrix } bdef
/ds {stri astore pop} bdef
/dt {dtri astore pop} bdef
/db {2 copy /cols xdef /rows xdef mul dup 3 mul string
  currentfile 
  3 index 0 eq {/ASCIIHexDecode filter}
  {/ASCII85Decode filter 3 index 2 eq {/RunLengthDecode filter} if }
  ifelse exch readstring pop
  dup 0 3 index getinterval /rbmap xdef
  dup 2 index dup getinterval /gbmap xdef
  1 index dup 2 mul exch getinterval /bbmap xdef pop pop}bdef
/it {gs np dtri aload pop moveto lineto lineto cp c
  cols rows 8 compute_transform 
  rbmap gbmap bbmap true 3 colorimage gr}bdef
/il {newpath moveto lineto stroke}bdef
currentdict end def
%%EndProlog

%%BeginSetup
MathWorks begin

0 cap

end
%%EndSetup

%%Page: 1 1
%%BeginPageSetup
%%PageBoundingBox:   -74   108   687   684
MathWorks begin
bpage
%%EndPageSetup

%%BeginObject: obj1
bplot

/dpi2point 12 def
portraitMode -0888 8208 csm

    0     0  9143  6912 rc
85 dict begin %Colortable dictionary
/c0 { 0.000000 0.000000 0.000000 sr} bdef
/c1 { 1.000000 1.000000 1.000000 sr} bdef
/c2 { 0.900000 0.000000 0.000000 sr} bdef
/c3 { 0.000000 0.820000 0.000000 sr} bdef
/c4 { 0.000000 0.000000 0.800000 sr} bdef
/c5 { 0.910000 0.820000 0.320000 sr} bdef
/c6 { 1.000000 0.260000 0.820000 sr} bdef
/c7 { 0.000000 0.820000 0.820000 sr} bdef
c0
1 j
1 sg
   0    0 9144 6913 rf
6 w
0 5466 7085 0 0 -5466 1357 5768 4 MP
PP
-7085 0 0 5466 7085 0 0 -5466 1357 5768 5 MP stroke
4 w
DO
SO
6 w
0 sg
1357 5768 mt 8442 5768 L
1357  302 mt 8442  302 L
1357 5768 mt 1357  302 L
8442 5768 mt 8442  302 L
1357 5768 mt 8442 5768 L
1357 5768 mt 1357  302 L
1947 5768 mt 1947 5697 L
1947  302 mt 1947  372 L
3128 5768 mt 3128 5697 L
3128  302 mt 3128  372 L
4309 5768 mt 4309 5697 L
4309  302 mt 4309  372 L
5489 5768 mt 5489 5697 L
5489  302 mt 5489  372 L
6670 5768 mt 6670 5697 L
6670  302 mt 6670  372 L
7851 5768 mt 7851 5697 L
7851  302 mt 7851  372 L
1357 4898 mt 1427 4898 L
8442 4898 mt 8371 4898 L
%%IncludeResource: font Helvetica
/Helvetica /ISOLatin1Encoding 102.128 FMSR

1206 4936 mt 
(-5) s
1357 3656 mt 1427 3656 L
8442 3656 mt 8371 3656 L
1266 3694 mt 
(5) s
1357 2413 mt 1427 2413 L
8442 2413 mt 8371 2413 L
1209 2451 mt 
(15) s
1357 1171 mt 1427 1171 L
8442 1171 mt 8371 1171 L
1209 1209 mt 
(25) s
1357 5768 mt 8442 5768 L
1357  302 mt 8442  302 L
1357 5768 mt 1357  302 L
8442 5768 mt 8442  302 L
gs 1357 302 7086 5467 rc
DA
24 w
0 -1118 1947 3531 2 MP stroke
0 -1118 3128 3407 2 MP stroke
0 -1149 4309 2941 2 MP stroke
0 -1025 5489 2817 2 MP stroke
0 -1273 6670 2941 2 MP stroke
0 -1242 7851 1916 2 MP stroke
0 -745 1947 5146 2 MP stroke
0 -1118 3128 5519 2 MP stroke
0 -1118 4309 4898 2 MP stroke
0 -994 5489 4898 2 MP stroke
0 -1118 6670 5022 2 MP stroke
0 -1242 7851 4028 2 MP stroke
SO
296 0 1799 2413 2 MP stroke
295 0 2980 2289 2 MP stroke
295 0 4161 1792 2 MP stroke
295 0 5342 1792 2 MP stroke
295 0 6523 1668 2 MP stroke
296 0 7703 674 2 MP stroke
296 0 1799 5146 2 MP stroke
295 0 2980 5519 2 MP stroke
295 0 4161 4898 2 MP stroke
295 0 5342 4898 2 MP stroke
295 0 6523 5022 2 MP stroke
296 0 7703 4028 2 MP stroke
/c8 { 0.000000 0.000000 1.000000 sr} bdef
c8
147 -147 0 -226 -590 0 0 226 147 147 -147 146 0 351 590 0 
0 -351 -147 -146 1799 4028 11 MP stroke
147 -167 0 -454 -590 0 0 454 148 167 -148 167 0 206 590 0 
0 -206 -147 -167 2980 3780 11 MP stroke
148 -141 0 -232 -591 0 0 232 148 141 -148 141 0 325 591 0 
0 -325 -148 -141 4161 3407 11 MP stroke
148 -183 0 -438 -591 0 0 438 148 183 -148 183 0 283 591 0 
0 -283 -148 -183 5342 3283 11 MP stroke
148 -162 0 -335 -590 0 0 335 147 162 -147 162 0 304 590 0 
0 -304 -148 -162 6523 3407 11 MP stroke
147 -147 0 -226 -590 0 0 226 147 147 -147 146 0 351 590 0 
0 -351 -147 -146 7703 2413 11 MP stroke
/c9 { 1.000000 0.000000 0.000000 sr} bdef
c9
296 0 1799 4028 2 MP stroke
295 0 2980 3780 2 MP stroke
295 0 4161 3407 2 MP stroke
295 0 5342 3283 2 MP stroke
295 0 6523 3407 2 MP stroke
296 0 7703 2413 2 MP stroke
gs 1849 1818 197 197 rc
1911 1916 mt 1983 1916 L
1947 1880 mt 1947 1952 L
gr

gs 7753 452 197 197 rc
7815  550 mt 7887  550 L
7851  514 mt 7851  586 L
gr

gr

24 w
c9
0 sg
%%IncludeResource: font Helvetica
/Helvetica /ISOLatin1Encoding 96 FMSR

1920 5916 mt 
(1) s
3101 5916 mt 
(2) s
4282 5916 mt 
(3) s
5463 5916 mt 
(4) s
6644 5916 mt 
(5) s
7825 5916 mt 
(6) s
%%IncludeResource: font Helvetica
/Helvetica /ISOLatin1Encoding 360 FMSR

 610 4339 mt  -90 rotate
(Lead Time \(day\)) s
90 rotate
  88 6449 mt  -16 rotate
(distr demogr) s
16 rotate
1792 6319 mt  -16 rotate
(distr inter) s
16 rotate
2190 6567 mt  -16 rotate
(CART demogr) s
16 rotate
3894 6448 mt  -16 rotate
(CART inter) s
16 rotate
3719 6825 mt  -16 rotate
(CART demogr+inter) s
16 rotate
7203 6135 mt  -16 rotate
(trans) s
16 rotate
6 w

end %%Color Dict

eplot
%%EndObject

epage
end

showpage

%%Trailer
%%EOF
