%!PS-Adobe-3.0 EPSF-3.0
%%Creator: MATLAB, The MathWorks, Inc. Version 8.3.0.532 (R2014a). Operating System: Darwin 13.3.0 Darwin Kernel Version 13.3.0: Tue Jun  3 21:27:35 PDT 2014; root:xnu-2422.110.17~1/RELEASE_X86_64 x86_64.
%%Title: /Users/huijuans/2015Fall/PLoSOne/MatLabFig/dom6cities_08272015.eps
%%CreationDate: 08/28/2015  16:50:52
%%DocumentNeededFonts: Helvetica
%%DocumentProcessColors: Cyan Magenta Yellow Black
%%LanguageLevel: 2
%%Pages: 1
%%BoundingBox:   198   288   414   504
%%EndComments

%%BeginProlog
% MathWorks dictionary
/MathWorks 160 dict begin
% definition operators
/bdef {bind def} bind def
/ldef {load def} bind def
/xdef {exch def} bdef
/xstore {exch store} bdef
% operator abbreviations
/c  /clip ldef
/cc /concat ldef
/cp /closepath ldef
/gr /grestore ldef
/gs /gsave ldef
/mt /moveto ldef
/np /newpath ldef
/cm /currentmatrix ldef
/sm /setmatrix ldef
/rm /rmoveto ldef
/rl /rlineto ldef
/s {show newpath} bdef
/sc {setcmykcolor} bdef
/sr /setrgbcolor ldef
/sg /setgray ldef
/w /setlinewidth ldef
/j /setlinejoin ldef
/cap /setlinecap ldef
/rc {rectclip} bdef
/rf {rectfill} bdef
% page state control
/pgsv () def
/bpage {/pgsv save def} bdef
/epage {pgsv restore} bdef
/bplot /gsave ldef
/eplot {stroke grestore} bdef
% orientation switch
/portraitMode 0 def /landscapeMode 1 def /rotateMode 2 def
% coordinate system mappings
/dpi2point 0 def
% font control
/FontSize 0 def
/FMS {/FontSize xstore findfont [FontSize 0 0 FontSize neg 0 0]
  makefont setfont} bdef
/reencode {exch dup where {pop load} {pop StandardEncoding} ifelse
  exch dup 3 1 roll findfont dup length dict begin
  { 1 index /FID ne {def}{pop pop} ifelse } forall
  /Encoding exch def currentdict end definefont pop} bdef
/isroman {findfont /CharStrings get /Agrave known} bdef
/FMSR {3 1 roll 1 index dup isroman {reencode} {pop pop} ifelse
  exch FMS} bdef
/csm {1 dpi2point div -1 dpi2point div scale neg translate
 dup landscapeMode eq {pop -90 rotate}
  {rotateMode eq {90 rotate} if} ifelse} bdef
% line types: solid, dotted, dashed, dotdash
/SO { [] 0 setdash } bdef
/DO { [.5 dpi2point mul 4 dpi2point mul] 0 setdash } bdef
/DA { [6 dpi2point mul] 0 setdash } bdef
/DD { [.5 dpi2point mul 4 dpi2point mul 6 dpi2point mul 4
  dpi2point mul] 0 setdash } bdef
% macros for lines and objects
/L {lineto stroke} bdef
/MP {3 1 roll moveto 1 sub {rlineto} repeat} bdef
/AP {{rlineto} repeat} bdef
/PDlw -1 def
/W {/PDlw currentlinewidth def setlinewidth} def
/PP {closepath eofill} bdef
/DP {closepath stroke} bdef
/MR {4 -2 roll moveto dup  0 exch rlineto exch 0 rlineto
  neg 0 exch rlineto closepath} bdef
/FR {MR stroke} bdef
/PR {MR fill} bdef
/L1i {{currentfile picstr readhexstring pop} image} bdef
/tMatrix matrix def
/MakeOval {newpath tMatrix currentmatrix pop translate scale
0 0 1 0 360 arc tMatrix setmatrix} bdef
/FO {MakeOval stroke} bdef
/PO {MakeOval fill} bdef
/PD {currentlinewidth 2 div 0 360 arc fill
   PDlw -1 eq not {PDlw w /PDlw -1 def} if} def
/FA {newpath tMatrix currentmatrix pop translate scale
  0 0 1 5 -2 roll arc tMatrix setmatrix stroke} bdef
/PA {newpath tMatrix currentmatrix pop	translate 0 0 moveto scale
  0 0 1 5 -2 roll arc closepath tMatrix setmatrix fill} bdef
/FAn {newpath tMatrix currentmatrix pop translate scale
  0 0 1 5 -2 roll arcn tMatrix setmatrix stroke} bdef
/PAn {newpath tMatrix currentmatrix pop translate 0 0 moveto scale
  0 0 1 5 -2 roll arcn closepath tMatrix setmatrix fill} bdef
/vradius 0 def /hradius 0 def /lry 0 def
/lrx 0 def /uly 0 def /ulx 0 def /rad 0 def
/MRR {/vradius xdef /hradius xdef /lry xdef /lrx xdef /uly xdef
  /ulx xdef newpath tMatrix currentmatrix pop ulx hradius add uly
  vradius add translate hradius vradius scale 0 0 1 180 270 arc 
  tMatrix setmatrix lrx hradius sub uly vradius add translate
  hradius vradius scale 0 0 1 270 360 arc tMatrix setmatrix
  lrx hradius sub lry vradius sub translate hradius vradius scale
  0 0 1 0 90 arc tMatrix setmatrix ulx hradius add lry vradius sub
  translate hradius vradius scale 0 0 1 90 180 arc tMatrix setmatrix
  closepath} bdef
/FRR {MRR stroke } bdef
/PRR {MRR fill } bdef
/MlrRR {/lry xdef /lrx xdef /uly xdef /ulx xdef /rad lry uly sub 2 div def
  newpath tMatrix currentmatrix pop ulx rad add uly rad add translate
  rad rad scale 0 0 1 90 270 arc tMatrix setmatrix lrx rad sub lry rad
  sub translate rad rad scale 0 0 1 270 90 arc tMatrix setmatrix
  closepath} bdef
/FlrRR {MlrRR stroke } bdef
/PlrRR {MlrRR fill } bdef
/MtbRR {/lry xdef /lrx xdef /uly xdef /ulx xdef /rad lrx ulx sub 2 div def
  newpath tMatrix currentmatrix pop ulx rad add uly rad add translate
  rad rad scale 0 0 1 180 360 arc tMatrix setmatrix lrx rad sub lry rad
  sub translate rad rad scale 0 0 1 0 180 arc tMatrix setmatrix
  closepath} bdef
/FtbRR {MtbRR stroke } bdef
/PtbRR {MtbRR fill } bdef
/stri 6 array def /dtri 6 array def
/smat 6 array def /dmat 6 array def
/tmat1 6 array def /tmat2 6 array def /dif 3 array def
/asub {/ind2 exch def /ind1 exch def dup dup
  ind1 get exch ind2 get sub exch } bdef
/tri_to_matrix {
  2 0 asub 3 1 asub 4 0 asub 5 1 asub
  dup 0 get exch 1 get 7 -1 roll astore } bdef
/compute_transform {
  dmat dtri tri_to_matrix tmat1 invertmatrix 
  smat stri tri_to_matrix tmat2 concatmatrix } bdef
/ds {stri astore pop} bdef
/dt {dtri astore pop} bdef
/db {2 copy /cols xdef /rows xdef mul dup 3 mul string
  currentfile 
  3 index 0 eq {/ASCIIHexDecode filter}
  {/ASCII85Decode filter 3 index 2 eq {/RunLengthDecode filter} if }
  ifelse exch readstring pop
  dup 0 3 index getinterval /rbmap xdef
  dup 2 index dup getinterval /gbmap xdef
  1 index dup 2 mul exch getinterval /bbmap xdef pop pop}bdef
/it {gs np dtri aload pop moveto lineto lineto cp c
  cols rows 8 compute_transform 
  rbmap gbmap bbmap true 3 colorimage gr}bdef
/il {newpath moveto lineto stroke}bdef
currentdict end def
%%EndProlog

%%BeginSetup
MathWorks begin

0 cap

end
%%EndSetup

%%Page: 1 1
%%BeginPageSetup
%%PageBoundingBox:   198   288   414   504
MathWorks begin
bpage
%%EndPageSetup

%%BeginObject: obj1
bplot

/dpi2point 12 def
portraitMode 2376 6048 csm

    0     0  2592  2592 rc
90 dict begin %Colortable dictionary
/c0 { 0.000000 0.000000 0.000000 sr} bdef
/c1 { 1.000000 1.000000 1.000000 sr} bdef
/c2 { 0.900000 0.000000 0.000000 sr} bdef
/c3 { 0.000000 0.820000 0.000000 sr} bdef
/c4 { 0.000000 0.000000 0.800000 sr} bdef
/c5 { 0.910000 0.820000 0.320000 sr} bdef
/c6 { 1.000000 0.260000 0.820000 sr} bdef
/c7 { 0.000000 0.820000 0.820000 sr} bdef
c0
1 j
1 sg
   0    0 2593 2593 rf
6 w
0 1901 1901 0 0 -1901 617 1968 4 MP
PP
-1901 0 0 1901 1901 0 0 -1901 617 1968 5 MP stroke
4 w
DO
SO
6 w
0 sg
 617 1968 mt 2518 1968 L
 617   67 mt 2518   67 L
 617 1968 mt  617   67 L
2518 1968 mt 2518   67 L
 617 1968 mt 2518 1968 L
 617 1968 mt  617   67 L
 687 1968 mt  687 1948 L
 687   67 mt  687   86 L
1039 1968 mt 1039 1948 L
1039   67 mt 1039   86 L
1391 1968 mt 1391 1948 L
1391   67 mt 1391   86 L
1743 1968 mt 1743 1948 L
1743   67 mt 1743   86 L
2095 1968 mt 2095 1948 L
2095   67 mt 2095   86 L
2447 1968 mt 2447 1948 L
2447   67 mt 2447   86 L
 617 1968 mt  636 1968 L
2518 1968 mt 2498 1968 L
%%IncludeResource: font Helvetica
/Helvetica /ISOLatin1Encoding 144 FMSR

 502 2021 mt 
(0) s
 617 1651 mt  636 1651 L
2518 1651 mt 2498 1651 L
 502 1704 mt 
(5) s
 617 1334 mt  636 1334 L
2518 1334 mt 2498 1334 L
 422 1387 mt 
(10) s
 617 1017 mt  636 1017 L
2518 1017 mt 2498 1017 L
 422 1070 mt 
(15) s
 617  700 mt  636  700 L
2518  700 mt 2498  700 L
 422  753 mt 
(20) s
 617  383 mt  636  383 L
2518  383 mt 2498  383 L
 422  436 mt 
(25) s
 617   67 mt  636   67 L
2518   67 mt 2498   67 L
 422  120 mt 
(30) s
 617 1968 mt 2518 1968 L
 617   67 mt 2518   67 L
 617 1968 mt  617   67 L
2518 1968 mt 2518   67 L
gs 617 67 1902 1902 rc
12 w
/c8 { 0.933333 0.050704 0.537255 sr} bdef
c8
0 127 687 1671 2 MP stroke
36 0 669 1671 2 MP stroke
36 0 669 1798 2 MP stroke
0 231 1039 1556 2 MP stroke
36 0 1021 1556 2 MP stroke
36 0 1021 1787 2 MP stroke
0 216 1391 1519 2 MP stroke
36 0 1373 1519 2 MP stroke
36 0 1373 1735 2 MP stroke
0 229 1743 1541 2 MP stroke
36 0 1725 1541 2 MP stroke
36 0 1725 1770 2 MP stroke
0 236 2095 1172 2 MP stroke
36 0 2077 1172 2 MP stroke
36 0 2077 1408 2 MP stroke
0 345 2447 670 2 MP stroke
36 0 2429 670 2 MP stroke
36 0 2429 1015 2 MP stroke
352 -447 352 -366 352 29 352 -45 352 -62 687 1734 6 MP stroke
gr

12 w
c8
gs 614 770 1907 1038 rc
0 j
-41 71 -41 -71 82 0 646 1758 4 MP
gs
PP
gr
DP
-41 71 -41 -71 82 0 998 1696 4 MP
gs
PP
gr
DP
-41 71 -41 -71 82 0 1350 1651 4 MP
gs
PP
gr
DP
-41 71 -41 -71 82 0 1702 1680 4 MP
gs
PP
gr
DP
-41 71 -41 -71 82 0 2054 1314 4 MP
gs
PP
gr
DP
-41 71 -41 -71 82 0 2406 867 4 MP
gs
PP
gr
DP
gr

gs 617 67 1902 1902 rc
/c9 { 0.333333 0.101961 0.545098 sr} bdef
c9
0 217 687 1672 2 MP stroke
36 0 669 1672 2 MP stroke
36 0 669 1889 2 MP stroke
0 252 1039 1551 2 MP stroke
36 0 1021 1551 2 MP stroke
36 0 1021 1803 2 MP stroke
0 238 1391 1310 2 MP stroke
36 0 1373 1310 2 MP stroke
36 0 1373 1548 2 MP stroke
0 177 1743 1343 2 MP stroke
36 0 1725 1343 2 MP stroke
36 0 1725 1520 2 MP stroke
0 142 2095 1355 2 MP stroke
36 0 2077 1355 2 MP stroke
36 0 2077 1497 2 MP stroke
0 307 2447 882 2 MP stroke
36 0 2429 882 2 MP stroke
36 0 2429 1189 2 MP stroke
352 -391 352 -5 352 2 352 -248 352 -104 687 1781 6 MP stroke
gr

c9
gs 614 962 1907 893 rc
0 j
-41 71 -41 -71 82 0 646 1805 4 MP
gs
PP
gr
DP
-41 71 -41 -71 82 0 998 1701 4 MP
gs
PP
gr
DP
-41 71 -41 -71 82 0 1350 1453 4 MP
gs
PP
gr
DP
-41 71 -41 -71 82 0 1702 1455 4 MP
gs
PP
gr
DP
-41 71 -41 -71 82 0 2054 1450 4 MP
gs
PP
gr
DP
-41 71 -41 -71 82 0 2406 1059 4 MP
gs
PP
gr
DP
gr

gs 617 67 1902 1902 rc
/c10 { 0.098039 0.098039 0.439216 sr} bdef
c10
0 222 687 1715 2 MP stroke
36 0 669 1715 2 MP stroke
36 0 669 1937 2 MP stroke
0 300 1039 1614 2 MP stroke
36 0 1021 1614 2 MP stroke
36 0 1021 1914 2 MP stroke
0 177 1391 1343 2 MP stroke
36 0 1373 1343 2 MP stroke
36 0 1373 1520 2 MP stroke
0 199 1743 1291 2 MP stroke
36 0 1725 1291 2 MP stroke
36 0 1725 1490 2 MP stroke
0 127 2095 1360 2 MP stroke
36 0 2077 1360 2 MP stroke
36 0 2077 1487 2 MP stroke
0 320 2447 596 2 MP stroke
36 0 2429 596 2 MP stroke
36 0 2429 916 2 MP stroke
352 -667 352 33 352 -41 352 -333 352 -62 687 1826 6 MP stroke
gr

c10
gs 614 683 1907 1217 rc
0 j
-41 71 -41 -71 82 0 646 1850 4 MP
gs
PP
gr
DP
-41 71 -41 -71 82 0 998 1788 4 MP
gs
PP
gr
DP
-41 71 -41 -71 82 0 1350 1455 4 MP
gs
PP
gr
DP
-41 71 -41 -71 82 0 1702 1414 4 MP
gs
PP
gr
DP
-41 71 -41 -71 82 0 2054 1447 4 MP
gs
PP
gr
DP
-41 71 -41 -71 82 0 2406 780 4 MP
gs
PP
gr
DP
gr

gs 617 67 1902 1902 rc
/c11 { 0.000000 1.000000 1.000000 sr} bdef
c11
0 200 687 1705 2 MP stroke
36 0 669 1705 2 MP stroke
36 0 669 1905 2 MP stroke
0 200 1039 1653 2 MP stroke
36 0 1021 1653 2 MP stroke
36 0 1021 1853 2 MP stroke
0 77 1391 1366 2 MP stroke
36 0 1373 1366 2 MP stroke
36 0 1373 1443 2 MP stroke
0 327 1743 1265 2 MP stroke
36 0 1725 1265 2 MP stroke
36 0 1725 1592 2 MP stroke
0 60 2095 1364 2 MP stroke
36 0 2077 1364 2 MP stroke
36 0 2077 1424 2 MP stroke
0 380 2447 479 2 MP stroke
36 0 2429 479 2 MP stroke
36 0 2429 859 2 MP stroke
352 -725 352 -35 352 25 352 -349 352 -52 687 1805 6 MP stroke
gr

c11
gs 614 596 1907 1283 rc
0 j
-41 71 -41 -71 82 0 646 1829 4 MP
gs
PP
gr
DP
-41 71 -41 -71 82 0 998 1777 4 MP
gs
PP
gr
DP
-41 71 -41 -71 82 0 1350 1428 4 MP
gs
PP
gr
DP
-41 71 -41 -71 82 0 1702 1453 4 MP
gs
PP
gr
DP
-41 71 -41 -71 82 0 2054 1418 4 MP
gs
PP
gr
DP
-41 71 -41 -71 82 0 2406 693 4 MP
gs
PP
gr
DP
gr

gs 617 67 1902 1902 rc
/c12 { 0.000000 0.803922 0.000000 sr} bdef
c12
0 247 687 1722 2 MP stroke
36 0 669 1722 2 MP stroke
0 263 1039 1670 2 MP stroke
36 0 1021 1670 2 MP stroke
36 0 1021 1933 2 MP stroke
0 78 1391 1717 2 MP stroke
36 0 1373 1717 2 MP stroke
36 0 1373 1795 2 MP stroke
0 327 1743 1460 2 MP stroke
36 0 1725 1460 2 MP stroke
36 0 1725 1787 2 MP stroke
0 65 2095 1435 2 MP stroke
36 0 2077 1435 2 MP stroke
36 0 2077 1500 2 MP stroke
0 478 2447 316 2 MP stroke
36 0 2429 316 2 MP stroke
36 0 2429 794 2 MP stroke
352 -913 352 -155 352 -133 352 -45 352 -55 687 1856 6 MP stroke
gr

c12
gs 614 482 1907 1448 rc
0 j
-41 71 -41 -71 82 0 646 1880 4 MP
gs
PP
gr
DP
-41 71 -41 -71 82 0 998 1825 4 MP
gs
PP
gr
DP
-41 71 -41 -71 82 0 1350 1780 4 MP
gs
PP
gr
DP
-41 71 -41 -71 82 0 1702 1647 4 MP
gs
PP
gr
DP
-41 71 -41 -71 82 0 2054 1492 4 MP
gs
PP
gr
DP
-41 71 -41 -71 82 0 2406 579 4 MP
gs
PP
gr
DP
gr

gs 617 67 1902 1902 rc
/c13 { 1.000000 0.000000 0.000000 sr} bdef
c13
0 203 687 1764 2 MP stroke
36 0 669 1764 2 MP stroke
36 0 669 1967 2 MP stroke
0 224 1039 1742 2 MP stroke
36 0 1021 1742 2 MP stroke
36 0 1021 1966 2 MP stroke
0 65 1391 1435 2 MP stroke
36 0 1373 1435 2 MP stroke
36 0 1373 1500 2 MP stroke
0 327 1743 1460 2 MP stroke
36 0 1725 1460 2 MP stroke
36 0 1725 1787 2 MP stroke
0 106 2095 1394 2 MP stroke
36 0 2077 1394 2 MP stroke
36 0 2077 1500 2 MP stroke
0 521 2447 324 2 MP stroke
36 0 2429 324 2 MP stroke
36 0 2429 845 2 MP stroke
352 -862 352 -176 352 155 352 -386 352 -11 687 1865 6 MP stroke
gr

c13
gs 614 512 1907 1427 rc
0 j
-41 71 -41 -71 82 0 646 1889 4 MP
gs
PP
gr
DP
-41 71 -41 -71 82 0 998 1878 4 MP
gs
PP
gr
DP
-41 71 -41 -71 82 0 1350 1492 4 MP
gs
PP
gr
DP
-41 71 -41 -71 82 0 1702 1647 4 MP
gs
PP
gr
DP
-41 71 -41 -71 82 0 2054 1471 4 MP
gs
PP
gr
DP
-41 71 -41 -71 82 0 2406 609 4 MP
gs
PP
gr
DP
gr

gs 617 67 1902 1902 rc
gr

0 sg
 327 1547 mt  -90 rotate
(Lead Time \(day\)) s
90 rotate
%%IncludeResource: font Helvetica
/Helvetica /ISOLatin1Encoding 96 FMSR

 604 2003 mt 
( ) s
2506  101 mt 
( ) s
%%IncludeResource: font Helvetica
/Helvetica /ISOLatin1Encoding 144 FMSR

  47 2359 mt  -25 rotate
(distr demogr) s
25 rotate
 558 2274 mt  -25 rotate
(distr inter) s
25 rotate
 632 2402 mt  -25 rotate
(CART demogr) s
25 rotate
1176 2308 mt  -25 rotate
(CART inter) s
25 rotate
1039 2553 mt  -25 rotate
(CART demogr+inter) s
25 rotate
2278 2119 mt  -25 rotate
(dom) s
25 rotate
6 w
12 w
1 sg
0 1301 1055 0 0 -1301 618 1364 4 MP
PP
-1055 0 0 1301 1055 0 0 -1301 618 1364 5 MP stroke
8 w
DO
SO
12 w
0 sg
 618 1364 mt 1673 1364 L
 618   63 mt 1673   63 L
 618 1364 mt  618   63 L
1673 1364 mt 1673   63 L
 618 1364 mt 1673 1364 L
 618 1364 mt  618   63 L
 618 1364 mt 1673 1364 L
 618   63 mt 1673   63 L
 618 1364 mt  618   63 L
1673 1364 mt 1673   63 L
1086  240 mt 
(miami) s
gs 618 63 1056 1302 rc
c8
360 0 689 188 2 MP stroke
6 w
gs 796 115 147 147 rc
0 j
-41 71 -41 -71 82 0 828 212 4 MP
gs
PP
gr
DP
gr

gr

6 w
c8
0 sg
1086  450 mt 
(boston) s
gs 618 63 1056 1302 rc
12 w
c9
360 0 689 398 2 MP stroke
6 w
gs 796 325 147 147 rc
0 j
-41 71 -41 -71 82 0 828 422 4 MP
gs
PP
gr
DP
gr

gr

c9
0 sg
1086  660 mt 
(dallas) s
gs 618 63 1056 1302 rc
12 w
c10
360 0 689 608 2 MP stroke
6 w
gs 796 535 147 147 rc
0 j
-41 71 -41 -71 82 0 828 632 4 MP
gs
PP
gr
DP
gr

gr

c10
0 sg
1086  870 mt 
(chicago) s
gs 618 63 1056 1302 rc
12 w
c11
360 0 689 818 2 MP stroke
6 w
gs 796 745 147 147 rc
0 j
-41 71 -41 -71 82 0 828 842 4 MP
gs
PP
gr
DP
gr

gr

c11
0 sg
1086 1080 mt 
(la) s
gs 618 63 1056 1302 rc
12 w
c12
360 0 689 1028 2 MP stroke
6 w
gs 796 955 147 147 rc
0 j
-41 71 -41 -71 82 0 828 1052 4 MP
gs
PP
gr
DP
gr

gr

c12
0 sg
1086 1290 mt 
(nyc) s
gs 618 63 1056 1302 rc
12 w
c13
360 0 689 1238 2 MP stroke
6 w
gs 796 1165 147 147 rc
0 j
-41 71 -41 -71 82 0 828 1262 4 MP
gs
PP
gr
DP
gr

12 w
gr

12 w
c13
6 w

end %%Color Dict

eplot
%%EndObject

epage
end

showpage

%%Trailer
%%EOF
