%!PS-Adobe-3.0 EPSF-3.0
%%Creator: MATLAB, The MathWorks, Inc. Version 8.3.0.532 (R2014a). Operating System: Darwin 13.3.0 Darwin Kernel Version 13.3.0: Tue Jun  3 21:27:35 PDT 2014; root:xnu-2422.110.17~1/RELEASE_X86_64 x86_64.
%%Title: /Users/huijuans/2015Fall/PLoSOne/MatLabFig/fig2b_08272015.eps
%%CreationDate: 08/27/2015  20:06:46
%%DocumentNeededFonts: Helvetica
%%DocumentProcessColors: Cyan Magenta Yellow Black
%%LanguageLevel: 2
%%Pages: 1
%%BoundingBox:   -74   108   687   684
%%EndComments

%%BeginProlog
% MathWorks dictionary
/MathWorks 160 dict begin
% definition operators
/bdef {bind def} bind def
/ldef {load def} bind def
/xdef {exch def} bdef
/xstore {exch store} bdef
% operator abbreviations
/c  /clip ldef
/cc /concat ldef
/cp /closepath ldef
/gr /grestore ldef
/gs /gsave ldef
/mt /moveto ldef
/np /newpath ldef
/cm /currentmatrix ldef
/sm /setmatrix ldef
/rm /rmoveto ldef
/rl /rlineto ldef
/s {show newpath} bdef
/sc {setcmykcolor} bdef
/sr /setrgbcolor ldef
/sg /setgray ldef
/w /setlinewidth ldef
/j /setlinejoin ldef
/cap /setlinecap ldef
/rc {rectclip} bdef
/rf {rectfill} bdef
% page state control
/pgsv () def
/bpage {/pgsv save def} bdef
/epage {pgsv restore} bdef
/bplot /gsave ldef
/eplot {stroke grestore} bdef
% orientation switch
/portraitMode 0 def /landscapeMode 1 def /rotateMode 2 def
% coordinate system mappings
/dpi2point 0 def
% font control
/FontSize 0 def
/FMS {/FontSize xstore findfont [FontSize 0 0 FontSize neg 0 0]
  makefont setfont} bdef
/reencode {exch dup where {pop load} {pop StandardEncoding} ifelse
  exch dup 3 1 roll findfont dup length dict begin
  { 1 index /FID ne {def}{pop pop} ifelse } forall
  /Encoding exch def currentdict end definefont pop} bdef
/isroman {findfont /CharStrings get /Agrave known} bdef
/FMSR {3 1 roll 1 index dup isroman {reencode} {pop pop} ifelse
  exch FMS} bdef
/csm {1 dpi2point div -1 dpi2point div scale neg translate
 dup landscapeMode eq {pop -90 rotate}
  {rotateMode eq {90 rotate} if} ifelse} bdef
% line types: solid, dotted, dashed, dotdash
/SO { [] 0 setdash } bdef
/DO { [.5 dpi2point mul 4 dpi2point mul] 0 setdash } bdef
/DA { [6 dpi2point mul] 0 setdash } bdef
/DD { [.5 dpi2point mul 4 dpi2point mul 6 dpi2point mul 4
  dpi2point mul] 0 setdash } bdef
% macros for lines and objects
/L {lineto stroke} bdef
/MP {3 1 roll moveto 1 sub {rlineto} repeat} bdef
/AP {{rlineto} repeat} bdef
/PDlw -1 def
/W {/PDlw currentlinewidth def setlinewidth} def
/PP {closepath eofill} bdef
/DP {closepath stroke} bdef
/MR {4 -2 roll moveto dup  0 exch rlineto exch 0 rlineto
  neg 0 exch rlineto closepath} bdef
/FR {MR stroke} bdef
/PR {MR fill} bdef
/L1i {{currentfile picstr readhexstring pop} image} bdef
/tMatrix matrix def
/MakeOval {newpath tMatrix currentmatrix pop translate scale
0 0 1 0 360 arc tMatrix setmatrix} bdef
/FO {MakeOval stroke} bdef
/PO {MakeOval fill} bdef
/PD {currentlinewidth 2 div 0 360 arc fill
   PDlw -1 eq not {PDlw w /PDlw -1 def} if} def
/FA {newpath tMatrix currentmatrix pop translate scale
  0 0 1 5 -2 roll arc tMatrix setmatrix stroke} bdef
/PA {newpath tMatrix currentmatrix pop	translate 0 0 moveto scale
  0 0 1 5 -2 roll arc closepath tMatrix setmatrix fill} bdef
/FAn {newpath tMatrix currentmatrix pop translate scale
  0 0 1 5 -2 roll arcn tMatrix setmatrix stroke} bdef
/PAn {newpath tMatrix currentmatrix pop translate 0 0 moveto scale
  0 0 1 5 -2 roll arcn closepath tMatrix setmatrix fill} bdef
/vradius 0 def /hradius 0 def /lry 0 def
/lrx 0 def /uly 0 def /ulx 0 def /rad 0 def
/MRR {/vradius xdef /hradius xdef /lry xdef /lrx xdef /uly xdef
  /ulx xdef newpath tMatrix currentmatrix pop ulx hradius add uly
  vradius add translate hradius vradius scale 0 0 1 180 270 arc 
  tMatrix setmatrix lrx hradius sub uly vradius add translate
  hradius vradius scale 0 0 1 270 360 arc tMatrix setmatrix
  lrx hradius sub lry vradius sub translate hradius vradius scale
  0 0 1 0 90 arc tMatrix setmatrix ulx hradius add lry vradius sub
  translate hradius vradius scale 0 0 1 90 180 arc tMatrix setmatrix
  closepath} bdef
/FRR {MRR stroke } bdef
/PRR {MRR fill } bdef
/MlrRR {/lry xdef /lrx xdef /uly xdef /ulx xdef /rad lry uly sub 2 div def
  newpath tMatrix currentmatrix pop ulx rad add uly rad add translate
  rad rad scale 0 0 1 90 270 arc tMatrix setmatrix lrx rad sub lry rad
  sub translate rad rad scale 0 0 1 270 90 arc tMatrix setmatrix
  closepath} bdef
/FlrRR {MlrRR stroke } bdef
/PlrRR {MlrRR fill } bdef
/MtbRR {/lry xdef /lrx xdef /uly xdef /ulx xdef /rad lrx ulx sub 2 div def
  newpath tMatrix currentmatrix pop ulx rad add uly rad add translate
  rad rad scale 0 0 1 180 360 arc tMatrix setmatrix lrx rad sub lry rad
  sub translate rad rad scale 0 0 1 0 180 arc tMatrix setmatrix
  closepath} bdef
/FtbRR {MtbRR stroke } bdef
/PtbRR {MtbRR fill } bdef
/stri 6 array def /dtri 6 array def
/smat 6 array def /dmat 6 array def
/tmat1 6 array def /tmat2 6 array def /dif 3 array def
/asub {/ind2 exch def /ind1 exch def dup dup
  ind1 get exch ind2 get sub exch } bdef
/tri_to_matrix {
  2 0 asub 3 1 asub 4 0 asub 5 1 asub
  dup 0 get exch 1 get 7 -1 roll astore } bdef
/compute_transform {
  dmat dtri tri_to_matrix tmat1 invertmatrix 
  smat stri tri_to_matrix tmat2 concatmatrix } bdef
/ds {stri astore pop} bdef
/dt {dtri astore pop} bdef
/db {2 copy /cols xdef /rows xdef mul dup 3 mul string
  currentfile 
  3 index 0 eq {/ASCIIHexDecode filter}
  {/ASCII85Decode filter 3 index 2 eq {/RunLengthDecode filter} if }
  ifelse exch readstring pop
  dup 0 3 index getinterval /rbmap xdef
  dup 2 index dup getinterval /gbmap xdef
  1 index dup 2 mul exch getinterval /bbmap xdef pop pop}bdef
/it {gs np dtri aload pop moveto lineto lineto cp c
  cols rows 8 compute_transform 
  rbmap gbmap bbmap true 3 colorimage gr}bdef
/il {newpath moveto lineto stroke}bdef
currentdict end def
%%EndProlog

%%BeginSetup
MathWorks begin

0 cap

end
%%EndSetup

%%Page: 1 1
%%BeginPageSetup
%%PageBoundingBox:   -74   108   687   684
MathWorks begin
bpage
%%EndPageSetup

%%BeginObject: obj1
bplot

/dpi2point 12 def
portraitMode -0888 8208 csm

    0     0  9143  6912 rc
85 dict begin %Colortable dictionary
/c0 { 0.000000 0.000000 0.000000 sr} bdef
/c1 { 1.000000 1.000000 1.000000 sr} bdef
/c2 { 0.900000 0.000000 0.000000 sr} bdef
/c3 { 0.000000 0.820000 0.000000 sr} bdef
/c4 { 0.000000 0.000000 0.800000 sr} bdef
/c5 { 0.910000 0.820000 0.320000 sr} bdef
/c6 { 1.000000 0.260000 0.820000 sr} bdef
/c7 { 0.000000 0.820000 0.820000 sr} bdef
c0
1 j
1 sg
   0    0 9144 6913 rf
6 w
0 5622 6865 0 0 -5622 1409 6140 4 MP
PP
-6865 0 0 5622 6865 0 0 -5622 1409 6140 5 MP stroke
4 w
DO
SO
6 w
0 sg
1409 6140 mt 8274 6140 L
1409  518 mt 8274  518 L
1409 6140 mt 1409  518 L
8274 6140 mt 8274  518 L
1409 6140 mt 8274 6140 L
1409 6140 mt 1409  518 L
1409 6140 mt 1409 6071 L
1409  518 mt 1409  586 L
%%IncludeResource: font Helvetica
/Helvetica /ISOLatin1Encoding 360 FMSR

1309 6509 mt 
(0) s
3697 6140 mt 3697 6071 L
3697  518 mt 3697  586 L
3397 6509 mt 
(100) s
5985 6140 mt 5985 6071 L
5985  518 mt 5985  586 L
5685 6509 mt 
(200) s
8274 6140 mt 8274 6071 L
8274  518 mt 8274  586 L
7974 6509 mt 
(300) s
1409 6140 mt 1477 6140 L
8274 6140 mt 8205 6140 L
1174 6274 mt 
(0) s
1409 5203 mt 1477 5203 L
8274 5203 mt 8205 5203 L
 474 5337 mt 
(0.005) s
1409 4266 mt 1477 4266 L
8274 4266 mt 8205 4266 L
 674 4400 mt 
(0.01) s
1409 3329 mt 1477 3329 L
8274 3329 mt 8205 3329 L
 474 3463 mt 
(0.015) s
1409 2391 mt 1477 2391 L
8274 2391 mt 8205 2391 L
 674 2525 mt 
(0.02) s
1409 1455 mt 1477 1455 L
8274 1455 mt 8205 1455 L
 474 1589 mt 
(0.025) s
1409  518 mt 1477  518 L
8274  518 mt 8205  518 L
 674  652 mt 
(0.03) s
1409 6140 mt 8274 6140 L
1409  518 mt 8274  518 L
1409 6140 mt 1409  518 L
8274 6140 mt 8274  518 L
gs 1409 518 6866 5623 rc
24 w
/c8 { 1.000000 0.000000 0.000000 sr} bdef
c8
23 0 23 0 23 0 23 0 23 0 23 0 23 0 23 0 
22 0 23 0 23 0 23 0 23 0 23 0 23 0 23 0 
23 0 22 0 23 0 23 0 23 0 23 0 23 0 23 0 
23 0 22 0 23 0 23 0 23 0 23 0 23 0 23 0 
23 0 23 0 22 0 23 0 23 0 23 0 23 0 23 0 
23 0 23 0 22 0 23 0 23 0 23 0 23 0 23 0 
23 0 23 0 23 0 22 0 23 0 23 0 23 0 23 0 
23 0 23 0 23 1 22 0 23 0 23 0 23 0 23 0 
23 0 23 0 23 1 23 0 22 0 23 0 23 0 23 1 
23 0 23 0 23 1 23 0 23 0 22 1 23 0 23 1 
23 0 23 1 23 1 23 0 23 1 22 1 23 1 23 1 
23 1 23 2 23 1 23 2 23 1 23 2 22 2 23 2 
23 2 23 3 23 3 23 3 23 3 23 4 22 4 23 4 
23 4 23 6 23 5 23 6 23 7 23 7 23 8 22 8 
23 9 23 10 23 11 23 12 23 13 23 14 23 16 22 16 
23 19 23 19 23 22 23 23 23 25 23 27 23 30 23 32 
22 34 23 37 23 41 23 43 23 47 23 51 23 54 23 58 
23 63 22 67 23 71 23 76 23 82 23 86 23 91 23 97 
23 102 22 107 23 112 23 116 23 122 23 126 23 129 23 133 
23 135 23 137 22 137 23 138 23 136 23 134 23 129 23 125 
23 118 23 110 22 101 23 90 23 79 23 65 23 51 23 37 
23 22 23 6 23 -10 22 -25 23 -40 23 -55 23 -68 23 -81 
23 -93 23 -103 23 -112 22 -119 23 -126 23 -131 23 -135 23 -136 
23 -138 23 -137 23 -137 23 -135 22 -132 23 -128 23 -125 23 -120 
23 -116 23 -111 23 -106 23 -100 23 -96 22 -90 23 -85 23 -80 
23 -75 23 -71 23 -66 23 -61 23 -58 22 -53 23 -50 23 -46 
23 -43 23 -39 23 -37 23 -34 23 -31 23 -29 22 -27 23 -25 
23 -22 23 -21 23 -20 23 -17 23 -17 23 -15 22 -14 23 -12 
23 -12 23 -11 23 -10 23 -9 23 -8 23 -8 23 -7 22 -6 
23 -6 23 -6 23 -5 23 -4 23 -4 23 -4 23 -4 22 -3 
23 -3 23 -3 23 -2 23 -2 23 -3 23 -1 23 -2 23 -2 
22 -1 23 -2 23 -1 23 -1 23 -1 23 -1 23 -1 23 -1 
23 0 22 -1 23 -1 23 0 23 -1 23 0 23 -1 23 0 
23 0 22 -1 23 0 23 0 23 -1 23 0 23 0 23 0 
23 -1 23 0 22 0 23 0 23 0 23 0 23 0 23 0 
23 -1 23 0 22 0 23 0 23 0 23 0 23 0 23 0 
23 0 23 0 23 0 22 0 23 0 23 0 23 0 23 0 
23 0 23 0 23 0 1431 6139 300 MP stroke
gr

24 w
c8
gs 1333 1946 7040 4292 rc
1395 6139 mt 1467 6139 L
1431 6103 mt 1431 6175 L
1418 6139 mt 1490 6139 L
1454 6103 mt 1454 6175 L
1441 6139 mt 1513 6139 L
1477 6103 mt 1477 6175 L
1464 6139 mt 1536 6139 L
1500 6103 mt 1500 6175 L
1487 6139 mt 1559 6139 L
1523 6103 mt 1523 6175 L
1510 6139 mt 1582 6139 L
1546 6103 mt 1546 6175 L
1533 6139 mt 1605 6139 L
1569 6103 mt 1569 6175 L
1556 6139 mt 1628 6139 L
1592 6103 mt 1592 6175 L
1578 6139 mt 1650 6139 L
1614 6103 mt 1614 6175 L
1601 6139 mt 1673 6139 L
1637 6103 mt 1637 6175 L
1624 6139 mt 1696 6139 L
1660 6103 mt 1660 6175 L
1647 6139 mt 1719 6139 L
1683 6103 mt 1683 6175 L
1670 6139 mt 1742 6139 L
1706 6103 mt 1706 6175 L
1693 6139 mt 1765 6139 L
1729 6103 mt 1729 6175 L
1716 6139 mt 1788 6139 L
1752 6103 mt 1752 6175 L
1739 6139 mt 1811 6139 L
1775 6103 mt 1775 6175 L
1762 6139 mt 1834 6139 L
1798 6103 mt 1798 6175 L
1784 6139 mt 1856 6139 L
1820 6103 mt 1820 6175 L
1807 6139 mt 1879 6139 L
1843 6103 mt 1843 6175 L
1830 6138 mt 1902 6138 L
1866 6102 mt 1866 6174 L
1853 6138 mt 1925 6138 L
1889 6102 mt 1889 6174 L
1876 6138 mt 1948 6138 L
1912 6102 mt 1912 6174 L
1899 6138 mt 1971 6138 L
1935 6102 mt 1935 6174 L
1922 6138 mt 1994 6138 L
1958 6102 mt 1958 6174 L
1945 6138 mt 2017 6138 L
1981 6102 mt 1981 6174 L
1967 6138 mt 2039 6138 L
2003 6102 mt 2003 6174 L
1990 6138 mt 2062 6138 L
2026 6102 mt 2026 6174 L
2013 6137 mt 2085 6137 L
2049 6101 mt 2049 6173 L
2036 6137 mt 2108 6137 L
2072 6101 mt 2072 6173 L
2059 6137 mt 2131 6137 L
2095 6101 mt 2095 6173 L
2082 6137 mt 2154 6137 L
2118 6101 mt 2118 6173 L
2105 6136 mt 2177 6136 L
2141 6100 mt 2141 6172 L
2128 6136 mt 2200 6136 L
2164 6100 mt 2164 6172 L
2151 6136 mt 2223 6136 L
2187 6100 mt 2187 6172 L
2173 6135 mt 2245 6135 L
2209 6099 mt 2209 6171 L
2196 6135 mt 2268 6135 L
2232 6099 mt 2232 6171 L
2219 6135 mt 2291 6135 L
2255 6099 mt 2255 6171 L
2242 6134 mt 2314 6134 L
2278 6098 mt 2278 6170 L
2265 6134 mt 2337 6134 L
2301 6098 mt 2301 6170 L
2288 6133 mt 2360 6133 L
2324 6097 mt 2324 6169 L
2311 6133 mt 2383 6133 L
2347 6097 mt 2347 6169 L
2334 6132 mt 2406 6132 L
2370 6096 mt 2370 6168 L
2356 6131 mt 2428 6131 L
2392 6095 mt 2392 6167 L
2379 6131 mt 2451 6131 L
2415 6095 mt 2415 6167 L
2402 6130 mt 2474 6130 L
2438 6094 mt 2438 6166 L
2425 6129 mt 2497 6129 L
2461 6093 mt 2461 6165 L
2448 6128 mt 2520 6128 L
2484 6092 mt 2484 6164 L
2471 6127 mt 2543 6127 L
2507 6091 mt 2507 6163 L
2494 6126 mt 2566 6126 L
2530 6090 mt 2530 6162 L
2517 6125 mt 2589 6125 L
2553 6089 mt 2553 6161 L
2540 6123 mt 2612 6123 L
2576 6087 mt 2576 6159 L
2562 6122 mt 2634 6122 L
2598 6086 mt 2598 6158 L
2585 6120 mt 2657 6120 L
2621 6084 mt 2621 6156 L
2608 6118 mt 2680 6118 L
2644 6082 mt 2644 6154 L
2631 6117 mt 2703 6117 L
2667 6081 mt 2667 6153 L
2654 6114 mt 2726 6114 L
2690 6078 mt 2690 6150 L
2677 6112 mt 2749 6112 L
2713 6076 mt 2713 6148 L
2700 6110 mt 2772 6110 L
2736 6074 mt 2736 6146 L
2723 6107 mt 2795 6107 L
2759 6071 mt 2759 6143 L
2746 6104 mt 2818 6104 L
2782 6068 mt 2782 6140 L
2768 6101 mt 2840 6101 L
2804 6065 mt 2804 6137 L
2791 6097 mt 2863 6097 L
2827 6061 mt 2827 6133 L
2814 6093 mt 2886 6093 L
2850 6057 mt 2850 6129 L
2837 6089 mt 2909 6089 L
2873 6053 mt 2873 6125 L
2860 6085 mt 2932 6085 L
2896 6049 mt 2896 6121 L
2883 6080 mt 2955 6080 L
2919 6044 mt 2919 6116 L
2906 6074 mt 2978 6074 L
2942 6038 mt 2942 6110 L
2929 6068 mt 3001 6068 L
2965 6032 mt 2965 6104 L
2951 6062 mt 3023 6062 L
2987 6026 mt 2987 6098 L
2974 6055 mt 3046 6055 L
3010 6019 mt 3010 6091 L
2997 6047 mt 3069 6047 L
3033 6011 mt 3033 6083 L
3020 6039 mt 3092 6039 L
3056 6003 mt 3056 6075 L
3043 6030 mt 3115 6030 L
3079 5994 mt 3079 6066 L
3066 6020 mt 3138 6020 L
3102 5984 mt 3102 6056 L
3089 6009 mt 3161 6009 L
3125 5973 mt 3125 6045 L
3112 5997 mt 3184 5997 L
3148 5961 mt 3148 6033 L
3135 5985 mt 3207 5985 L
3171 5949 mt 3171 6021 L
3157 5971 mt 3229 5971 L
3193 5935 mt 3193 6007 L
3180 5956 mt 3252 5956 L
3216 5920 mt 3216 5992 L
3203 5939 mt 3275 5939 L
3239 5903 mt 3239 5975 L
3226 5922 mt 3298 5922 L
3262 5886 mt 3262 5958 L
3249 5902 mt 3321 5902 L
3285 5866 mt 3285 5938 L
3272 5881 mt 3344 5881 L
3308 5845 mt 3308 5917 L
3295 5859 mt 3367 5859 L
3331 5823 mt 3331 5895 L
3318 5834 mt 3390 5834 L
3354 5798 mt 3354 5870 L
3340 5807 mt 3412 5807 L
3376 5771 mt 3376 5843 L
3363 5778 mt 3435 5778 L
3399 5742 mt 3399 5814 L
3386 5747 mt 3458 5747 L
3422 5711 mt 3422 5783 L
3409 5713 mt 3481 5713 L
3445 5677 mt 3445 5749 L
3432 5676 mt 3504 5676 L
3468 5640 mt 3468 5712 L
3455 5637 mt 3527 5637 L
3491 5601 mt 3491 5673 L
3478 5594 mt 3550 5594 L
3514 5558 mt 3514 5630 L
3501 5548 mt 3573 5548 L
3537 5512 mt 3537 5584 L
3524 5498 mt 3596 5498 L
3560 5462 mt 3560 5534 L
3546 5445 mt 3618 5445 L
3582 5409 mt 3582 5481 L
3569 5387 mt 3641 5387 L
3605 5351 mt 3605 5423 L
3592 5326 mt 3664 5326 L
3628 5290 mt 3628 5362 L
3615 5260 mt 3687 5260 L
3651 5224 mt 3651 5296 L
3638 5189 mt 3710 5189 L
3674 5153 mt 3674 5225 L
3661 5114 mt 3733 5114 L
3697 5078 mt 3697 5150 L
3684 5034 mt 3756 5034 L
3720 4998 mt 3720 5070 L
3707 4949 mt 3779 4949 L
3743 4913 mt 3743 4985 L
3729 4859 mt 3801 4859 L
3765 4823 mt 3765 4895 L
3752 4763 mt 3824 4763 L
3788 4727 mt 3788 4799 L
3775 4663 mt 3847 4663 L
3811 4627 mt 3811 4699 L
3798 4557 mt 3870 4557 L
3834 4521 mt 3834 4593 L
3821 4446 mt 3893 4446 L
3857 4410 mt 3857 4482 L
3844 4330 mt 3916 4330 L
3880 4294 mt 3880 4366 L
3867 4210 mt 3939 4210 L
3903 4174 mt 3903 4246 L
3890 4085 mt 3962 4085 L
3926 4049 mt 3926 4121 L
3913 3957 mt 3985 3957 L
3949 3921 mt 3949 3993 L
3935 3825 mt 4007 3825 L
3971 3789 mt 3971 3861 L
3958 3690 mt 4030 3690 L
3994 3654 mt 3994 3726 L
3981 3553 mt 4053 3553 L
4017 3517 mt 4017 3589 L
4004 3416 mt 4076 3416 L
4040 3380 mt 4040 3452 L
4027 3278 mt 4099 3278 L
4063 3242 mt 4063 3314 L
4050 3142 mt 4122 3142 L
4086 3106 mt 4086 3178 L
4073 3007 mt 4145 3007 L
4109 2971 mt 4109 3043 L
4096 2876 mt 4168 2876 L
4132 2840 mt 4132 2912 L
4119 2750 mt 4191 2750 L
4155 2714 mt 4155 2786 L
4141 2631 mt 4213 2631 L
4177 2595 mt 4177 2667 L
4164 2519 mt 4236 2519 L
4200 2483 mt 4200 2555 L
4187 2416 mt 4259 2416 L
4223 2380 mt 4223 2452 L
4210 2323 mt 4282 2323 L
4246 2287 mt 4246 2359 L
4233 2242 mt 4305 2242 L
4269 2206 mt 4269 2278 L
4256 2174 mt 4328 2174 L
4292 2138 mt 4292 2210 L
4279 2119 mt 4351 2119 L
4315 2083 mt 4315 2155 L
4302 2079 mt 4374 2079 L
4338 2043 mt 4338 2115 L
4324 2054 mt 4396 2054 L
4360 2018 mt 4360 2090 L
4347 2044 mt 4419 2044 L
4383 2008 mt 4383 2080 L
4370 2050 mt 4442 2050 L
4406 2014 mt 4406 2086 L
4393 2072 mt 4465 2072 L
4429 2036 mt 4429 2108 L
4416 2109 mt 4488 2109 L
4452 2073 mt 4452 2145 L
4439 2160 mt 4511 2160 L
4475 2124 mt 4475 2196 L
4462 2225 mt 4534 2225 L
4498 2189 mt 4498 2261 L
4485 2304 mt 4557 2304 L
4521 2268 mt 4521 2340 L
4508 2394 mt 4580 2394 L
4544 2358 mt 4544 2430 L
4530 2495 mt 4602 2495 L
4566 2459 mt 4566 2531 L
4553 2605 mt 4625 2605 L
4589 2569 mt 4589 2641 L
4576 2723 mt 4648 2723 L
4612 2687 mt 4612 2759 L
4599 2848 mt 4671 2848 L
4635 2812 mt 4635 2884 L
4622 2977 mt 4694 2977 L
4658 2941 mt 4658 3013 L
4645 3111 mt 4717 3111 L
4681 3075 mt 4681 3147 L
4668 3247 mt 4740 3247 L
4704 3211 mt 4704 3283 L
4691 3385 mt 4763 3385 L
4727 3349 mt 4727 3421 L
4713 3522 mt 4785 3522 L
4749 3486 mt 4749 3558 L
4736 3659 mt 4808 3659 L
4772 3623 mt 4772 3695 L
4759 3794 mt 4831 3794 L
4795 3758 mt 4795 3830 L
4782 3927 mt 4854 3927 L
4818 3891 mt 4818 3963 L
4805 4056 mt 4877 4056 L
4841 4020 mt 4841 4092 L
4828 4182 mt 4900 4182 L
4864 4146 mt 4864 4218 L
4851 4304 mt 4923 4304 L
4887 4268 mt 4887 4340 L
4874 4420 mt 4946 4420 L
4910 4384 mt 4910 4456 L
4897 4532 mt 4969 4532 L
4933 4496 mt 4933 4568 L
4919 4639 mt 4991 4639 L
4955 4603 mt 4955 4675 L
4942 4741 mt 5014 4741 L
4978 4705 mt 4978 4777 L
4965 4838 mt 5037 4838 L
5001 4802 mt 5001 4874 L
4988 4929 mt 5060 4929 L
5024 4893 mt 5024 4965 L
5011 5015 mt 5083 5015 L
5047 4979 mt 5047 5051 L
5034 5097 mt 5106 5097 L
5070 5061 mt 5070 5133 L
5057 5173 mt 5129 5173 L
5093 5137 mt 5093 5209 L
5080 5244 mt 5152 5244 L
5116 5208 mt 5116 5280 L
5102 5311 mt 5174 5311 L
5138 5275 mt 5138 5347 L
5125 5374 mt 5197 5374 L
5161 5338 mt 5161 5410 L
5148 5432 mt 5220 5432 L
5184 5396 mt 5184 5468 L
5171 5486 mt 5243 5486 L
5207 5450 mt 5207 5522 L
5194 5537 mt 5266 5537 L
5230 5501 mt 5230 5573 L
5217 5584 mt 5289 5584 L
5253 5548 mt 5253 5620 L
5240 5627 mt 5312 5627 L
5276 5591 mt 5276 5663 L
5263 5668 mt 5335 5668 L
5299 5632 mt 5299 5704 L
5286 5705 mt 5358 5705 L
5322 5669 mt 5322 5741 L
5308 5739 mt 5380 5739 L
5344 5703 mt 5344 5775 L
5331 5771 mt 5403 5771 L
5367 5735 mt 5367 5807 L
5354 5801 mt 5426 5801 L
5390 5765 mt 5390 5837 L
5377 5828 mt 5449 5828 L
5413 5792 mt 5413 5864 L
5400 5853 mt 5472 5853 L
5436 5817 mt 5436 5889 L
5423 5876 mt 5495 5876 L
5459 5840 mt 5459 5912 L
5446 5898 mt 5518 5898 L
5482 5862 mt 5482 5934 L
5469 5917 mt 5541 5917 L
5505 5881 mt 5505 5953 L
5492 5936 mt 5564 5936 L
5528 5900 mt 5528 5972 L
5514 5952 mt 5586 5952 L
5550 5916 mt 5550 5988 L
5537 5968 mt 5609 5968 L
5573 5932 mt 5573 6004 L
5560 5982 mt 5632 5982 L
5596 5946 mt 5596 6018 L
5583 5995 mt 5655 5995 L
5619 5959 mt 5619 6031 L
5606 6007 mt 5678 6007 L
5642 5971 mt 5642 6043 L
5629 6018 mt 5701 6018 L
5665 5982 mt 5665 6054 L
5652 6028 mt 5724 6028 L
5688 5992 mt 5688 6064 L
5675 6037 mt 5747 6037 L
5711 6001 mt 5711 6073 L
5697 6045 mt 5769 6045 L
5733 6009 mt 5733 6081 L
5720 6053 mt 5792 6053 L
5756 6017 mt 5756 6089 L
5743 6060 mt 5815 6060 L
5779 6024 mt 5779 6096 L
5766 6067 mt 5838 6067 L
5802 6031 mt 5802 6103 L
5789 6073 mt 5861 6073 L
5825 6037 mt 5825 6109 L
5812 6078 mt 5884 6078 L
5848 6042 mt 5848 6114 L
5835 6084 mt 5907 6084 L
5871 6048 mt 5871 6120 L
5858 6088 mt 5930 6088 L
5894 6052 mt 5894 6124 L
5881 6092 mt 5953 6092 L
5917 6056 mt 5917 6128 L
5903 6096 mt 5975 6096 L
5939 6060 mt 5939 6132 L
5926 6100 mt 5998 6100 L
5962 6064 mt 5962 6136 L
5949 6103 mt 6021 6103 L
5985 6067 mt 5985 6139 L
5972 6106 mt 6044 6106 L
6008 6070 mt 6008 6142 L
5995 6109 mt 6067 6109 L
6031 6073 mt 6031 6145 L
6018 6112 mt 6090 6112 L
6054 6076 mt 6054 6148 L
6041 6114 mt 6113 6114 L
6077 6078 mt 6077 6150 L
6064 6116 mt 6136 6116 L
6100 6080 mt 6100 6152 L
6086 6118 mt 6158 6118 L
6122 6082 mt 6122 6154 L
6109 6120 mt 6181 6120 L
6145 6084 mt 6145 6156 L
6132 6121 mt 6204 6121 L
6168 6085 mt 6168 6157 L
6155 6123 mt 6227 6123 L
6191 6087 mt 6191 6159 L
6178 6124 mt 6250 6124 L
6214 6088 mt 6214 6160 L
6201 6126 mt 6273 6126 L
6237 6090 mt 6237 6162 L
6224 6127 mt 6296 6127 L
6260 6091 mt 6260 6163 L
6247 6128 mt 6319 6128 L
6283 6092 mt 6283 6164 L
6270 6129 mt 6342 6129 L
6306 6093 mt 6306 6165 L
6292 6130 mt 6364 6130 L
6328 6094 mt 6328 6166 L
6315 6131 mt 6387 6131 L
6351 6095 mt 6351 6167 L
6338 6131 mt 6410 6131 L
6374 6095 mt 6374 6167 L
6361 6132 mt 6433 6132 L
6397 6096 mt 6397 6168 L
6384 6133 mt 6456 6133 L
6420 6097 mt 6420 6169 L
6407 6133 mt 6479 6133 L
6443 6097 mt 6443 6169 L
6430 6134 mt 6502 6134 L
6466 6098 mt 6466 6170 L
6453 6134 mt 6525 6134 L
6489 6098 mt 6489 6170 L
6475 6135 mt 6547 6135 L
6511 6099 mt 6511 6171 L
6498 6135 mt 6570 6135 L
6534 6099 mt 6534 6171 L
6521 6135 mt 6593 6135 L
6557 6099 mt 6557 6171 L
6544 6136 mt 6616 6136 L
6580 6100 mt 6580 6172 L
6567 6136 mt 6639 6136 L
6603 6100 mt 6603 6172 L
6590 6136 mt 6662 6136 L
6626 6100 mt 6626 6172 L
6613 6137 mt 6685 6137 L
6649 6101 mt 6649 6173 L
6636 6137 mt 6708 6137 L
6672 6101 mt 6672 6173 L
6659 6137 mt 6731 6137 L
6695 6101 mt 6695 6173 L
6681 6137 mt 6753 6137 L
6717 6101 mt 6717 6173 L
6704 6137 mt 6776 6137 L
6740 6101 mt 6740 6173 L
6727 6138 mt 6799 6138 L
6763 6102 mt 6763 6174 L
6750 6138 mt 6822 6138 L
6786 6102 mt 6786 6174 L
6773 6138 mt 6845 6138 L
6809 6102 mt 6809 6174 L
6796 6138 mt 6868 6138 L
6832 6102 mt 6832 6174 L
6819 6138 mt 6891 6138 L
6855 6102 mt 6855 6174 L
6842 6138 mt 6914 6138 L
6878 6102 mt 6878 6174 L
6865 6138 mt 6937 6138 L
6901 6102 mt 6901 6174 L
6887 6138 mt 6959 6138 L
6923 6102 mt 6923 6174 L
6910 6139 mt 6982 6139 L
6946 6103 mt 6946 6175 L
6933 6139 mt 7005 6139 L
6969 6103 mt 6969 6175 L
6956 6139 mt 7028 6139 L
6992 6103 mt 6992 6175 L
6979 6139 mt 7051 6139 L
7015 6103 mt 7015 6175 L
7002 6139 mt 7074 6139 L
7038 6103 mt 7038 6175 L
7025 6139 mt 7097 6139 L
7061 6103 mt 7061 6175 L
7048 6139 mt 7120 6139 L
7084 6103 mt 7084 6175 L
7070 6139 mt 7142 6139 L
7106 6103 mt 7106 6175 L
7093 6139 mt 7165 6139 L
7129 6103 mt 7129 6175 L
7116 6139 mt 7188 6139 L
7152 6103 mt 7152 6175 L
7139 6139 mt 7211 6139 L
7175 6103 mt 7175 6175 L
7162 6139 mt 7234 6139 L
7198 6103 mt 7198 6175 L
7185 6139 mt 7257 6139 L
7221 6103 mt 7221 6175 L
7208 6139 mt 7280 6139 L
7244 6103 mt 7244 6175 L
7231 6139 mt 7303 6139 L
7267 6103 mt 7267 6175 L
7254 6139 mt 7326 6139 L
7290 6103 mt 7290 6175 L
7276 6139 mt 7348 6139 L
7312 6103 mt 7312 6175 L
7299 6139 mt 7371 6139 L
7335 6103 mt 7335 6175 L
7322 6139 mt 7394 6139 L
7358 6103 mt 7358 6175 L
7345 6139 mt 7417 6139 L
7381 6103 mt 7381 6175 L
7368 6139 mt 7440 6139 L
7404 6103 mt 7404 6175 L
7391 6139 mt 7463 6139 L
7427 6103 mt 7427 6175 L
7414 6139 mt 7486 6139 L
7450 6103 mt 7450 6175 L
7437 6139 mt 7509 6139 L
7473 6103 mt 7473 6175 L
7459 6139 mt 7531 6139 L
7495 6103 mt 7495 6175 L
7482 6139 mt 7554 6139 L
7518 6103 mt 7518 6175 L
7505 6139 mt 7577 6139 L
7541 6103 mt 7541 6175 L
7528 6139 mt 7600 6139 L
7564 6103 mt 7564 6175 L
7551 6139 mt 7623 6139 L
7587 6103 mt 7587 6175 L
7574 6139 mt 7646 6139 L
7610 6103 mt 7610 6175 L
7597 6139 mt 7669 6139 L
7633 6103 mt 7633 6175 L
7620 6139 mt 7692 6139 L
7656 6103 mt 7656 6175 L
7643 6139 mt 7715 6139 L
7679 6103 mt 7679 6175 L
7665 6139 mt 7737 6139 L
7701 6103 mt 7701 6175 L
7688 6139 mt 7760 6139 L
7724 6103 mt 7724 6175 L
7711 6139 mt 7783 6139 L
7747 6103 mt 7747 6175 L
7734 6139 mt 7806 6139 L
7770 6103 mt 7770 6175 L
7757 6139 mt 7829 6139 L
7793 6103 mt 7793 6175 L
7780 6139 mt 7852 6139 L
7816 6103 mt 7816 6175 L
7803 6139 mt 7875 6139 L
7839 6103 mt 7839 6175 L
7826 6139 mt 7898 6139 L
7862 6103 mt 7862 6175 L
7848 6139 mt 7920 6139 L
7884 6103 mt 7884 6175 L
7871 6139 mt 7943 6139 L
7907 6103 mt 7907 6175 L
7894 6139 mt 7966 6139 L
7930 6103 mt 7930 6175 L
7917 6139 mt 7989 6139 L
7953 6103 mt 7953 6175 L
7940 6139 mt 8012 6139 L
7976 6103 mt 7976 6175 L
7963 6139 mt 8035 6139 L
7999 6103 mt 7999 6175 L
7986 6139 mt 8058 6139 L
8022 6103 mt 8022 6175 L
8009 6139 mt 8081 6139 L
8045 6103 mt 8045 6175 L
8032 6139 mt 8104 6139 L
8068 6103 mt 8068 6175 L
8054 6139 mt 8126 6139 L
8090 6103 mt 8090 6175 L
8077 6139 mt 8149 6139 L
8113 6103 mt 8113 6175 L
8100 6139 mt 8172 6139 L
8136 6103 mt 8136 6175 L
8123 6139 mt 8195 6139 L
8159 6103 mt 8159 6175 L
8146 6139 mt 8218 6139 L
8182 6103 mt 8182 6175 L
8169 6139 mt 8241 6139 L
8205 6103 mt 8205 6175 L
8192 6139 mt 8264 6139 L
8228 6103 mt 8228 6175 L
8215 6139 mt 8287 6139 L
8251 6103 mt 8251 6175 L
8238 6139 mt 8310 6139 L
8274 6103 mt 8274 6175 L
1406 6114 mt 1456 6164 L
1456 6114 mt 1406 6164 L
1429 6114 mt 1479 6164 L
1479 6114 mt 1429 6164 L
1452 6114 mt 1502 6164 L
1502 6114 mt 1452 6164 L
1475 6114 mt 1525 6164 L
1525 6114 mt 1475 6164 L
1498 6114 mt 1548 6164 L
1548 6114 mt 1498 6164 L
1521 6114 mt 1571 6164 L
1571 6114 mt 1521 6164 L
1544 6114 mt 1594 6164 L
1594 6114 mt 1544 6164 L
1567 6114 mt 1617 6164 L
1617 6114 mt 1567 6164 L
1589 6114 mt 1639 6164 L
1639 6114 mt 1589 6164 L
1612 6114 mt 1662 6164 L
1662 6114 mt 1612 6164 L
1635 6114 mt 1685 6164 L
1685 6114 mt 1635 6164 L
1658 6114 mt 1708 6164 L
1708 6114 mt 1658 6164 L
1681 6114 mt 1731 6164 L
1731 6114 mt 1681 6164 L
1704 6114 mt 1754 6164 L
1754 6114 mt 1704 6164 L
1727 6114 mt 1777 6164 L
1777 6114 mt 1727 6164 L
1750 6114 mt 1800 6164 L
1800 6114 mt 1750 6164 L
1773 6114 mt 1823 6164 L
1823 6114 mt 1773 6164 L
1795 6114 mt 1845 6164 L
1845 6114 mt 1795 6164 L
1818 6114 mt 1868 6164 L
1868 6114 mt 1818 6164 L
1841 6113 mt 1891 6163 L
1891 6113 mt 1841 6163 L
1864 6113 mt 1914 6163 L
1914 6113 mt 1864 6163 L
1887 6113 mt 1937 6163 L
1937 6113 mt 1887 6163 L
1910 6113 mt 1960 6163 L
1960 6113 mt 1910 6163 L
1933 6113 mt 1983 6163 L
1983 6113 mt 1933 6163 L
1956 6113 mt 2006 6163 L
2006 6113 mt 1956 6163 L
1978 6113 mt 2028 6163 L
2028 6113 mt 1978 6163 L
2001 6113 mt 2051 6163 L
2051 6113 mt 2001 6163 L
2024 6112 mt 2074 6162 L
2074 6112 mt 2024 6162 L
2047 6112 mt 2097 6162 L
2097 6112 mt 2047 6162 L
2070 6112 mt 2120 6162 L
2120 6112 mt 2070 6162 L
2093 6112 mt 2143 6162 L
2143 6112 mt 2093 6162 L
2116 6111 mt 2166 6161 L
2166 6111 mt 2116 6161 L
2139 6111 mt 2189 6161 L
2189 6111 mt 2139 6161 L
2162 6111 mt 2212 6161 L
2212 6111 mt 2162 6161 L
2184 6110 mt 2234 6160 L
2234 6110 mt 2184 6160 L
2207 6110 mt 2257 6160 L
2257 6110 mt 2207 6160 L
2230 6110 mt 2280 6160 L
2280 6110 mt 2230 6160 L
2253 6109 mt 2303 6159 L
2303 6109 mt 2253 6159 L
2276 6109 mt 2326 6159 L
2326 6109 mt 2276 6159 L
2299 6108 mt 2349 6158 L
2349 6108 mt 2299 6158 L
2322 6108 mt 2372 6158 L
2372 6108 mt 2322 6158 L
2345 6107 mt 2395 6157 L
2395 6107 mt 2345 6157 L
2367 6106 mt 2417 6156 L
2417 6106 mt 2367 6156 L
2390 6106 mt 2440 6156 L
2440 6106 mt 2390 6156 L
2413 6105 mt 2463 6155 L
2463 6105 mt 2413 6155 L
2436 6104 mt 2486 6154 L
2486 6104 mt 2436 6154 L
2459 6103 mt 2509 6153 L
2509 6103 mt 2459 6153 L
2482 6102 mt 2532 6152 L
2532 6102 mt 2482 6152 L
2505 6101 mt 2555 6151 L
2555 6101 mt 2505 6151 L
2528 6100 mt 2578 6150 L
2578 6100 mt 2528 6150 L
2551 6098 mt 2601 6148 L
2601 6098 mt 2551 6148 L
2573 6097 mt 2623 6147 L
2623 6097 mt 2573 6147 L
2596 6095 mt 2646 6145 L
2646 6095 mt 2596 6145 L
2619 6093 mt 2669 6143 L
2669 6093 mt 2619 6143 L
2642 6092 mt 2692 6142 L
2692 6092 mt 2642 6142 L
2665 6089 mt 2715 6139 L
2715 6089 mt 2665 6139 L
2688 6087 mt 2738 6137 L
2738 6087 mt 2688 6137 L
2711 6085 mt 2761 6135 L
2761 6085 mt 2711 6135 L
2734 6082 mt 2784 6132 L
2784 6082 mt 2734 6132 L
2757 6079 mt 2807 6129 L
2807 6079 mt 2757 6129 L
2779 6076 mt 2829 6126 L
2829 6076 mt 2779 6126 L
2802 6072 mt 2852 6122 L
2852 6072 mt 2802 6122 L
2825 6068 mt 2875 6118 L
2875 6068 mt 2825 6118 L
2848 6064 mt 2898 6114 L
2898 6064 mt 2848 6114 L
2871 6060 mt 2921 6110 L
2921 6060 mt 2871 6110 L
2894 6055 mt 2944 6105 L
2944 6055 mt 2894 6105 L
2917 6049 mt 2967 6099 L
2967 6049 mt 2917 6099 L
2940 6043 mt 2990 6093 L
2990 6043 mt 2940 6093 L
2962 6037 mt 3012 6087 L
3012 6037 mt 2962 6087 L
2985 6030 mt 3035 6080 L
3035 6030 mt 2985 6080 L
3008 6022 mt 3058 6072 L
3058 6022 mt 3008 6072 L
3031 6014 mt 3081 6064 L
3081 6014 mt 3031 6064 L
3054 6005 mt 3104 6055 L
3104 6005 mt 3054 6055 L
3077 5995 mt 3127 6045 L
3127 5995 mt 3077 6045 L
3100 5984 mt 3150 6034 L
3150 5984 mt 3100 6034 L
3123 5972 mt 3173 6022 L
3173 5972 mt 3123 6022 L
3146 5960 mt 3196 6010 L
3196 5960 mt 3146 6010 L
3168 5946 mt 3218 5996 L
3218 5946 mt 3168 5996 L
3191 5931 mt 3241 5981 L
3241 5931 mt 3191 5981 L
3214 5914 mt 3264 5964 L
3264 5914 mt 3214 5964 L
3237 5897 mt 3287 5947 L
3287 5897 mt 3237 5947 L
3260 5877 mt 3310 5927 L
3310 5877 mt 3260 5927 L
3283 5856 mt 3333 5906 L
3333 5856 mt 3283 5906 L
3306 5834 mt 3356 5884 L
3356 5834 mt 3306 5884 L
3329 5809 mt 3379 5859 L
3379 5809 mt 3329 5859 L
3351 5782 mt 3401 5832 L
3401 5782 mt 3351 5832 L
3374 5753 mt 3424 5803 L
3424 5753 mt 3374 5803 L
3397 5722 mt 3447 5772 L
3447 5722 mt 3397 5772 L
3420 5688 mt 3470 5738 L
3470 5688 mt 3420 5738 L
3443 5651 mt 3493 5701 L
3493 5651 mt 3443 5701 L
3466 5612 mt 3516 5662 L
3516 5612 mt 3466 5662 L
3489 5569 mt 3539 5619 L
3539 5569 mt 3489 5619 L
3512 5523 mt 3562 5573 L
3562 5523 mt 3512 5573 L
3535 5473 mt 3585 5523 L
3585 5473 mt 3535 5523 L
3557 5420 mt 3607 5470 L
3607 5420 mt 3557 5470 L
3580 5362 mt 3630 5412 L
3630 5362 mt 3580 5412 L
3603 5301 mt 3653 5351 L
3653 5301 mt 3603 5351 L
3626 5235 mt 3676 5285 L
3676 5235 mt 3626 5285 L
3649 5164 mt 3699 5214 L
3699 5164 mt 3649 5214 L
3672 5089 mt 3722 5139 L
3722 5089 mt 3672 5139 L
3695 5009 mt 3745 5059 L
3745 5009 mt 3695 5059 L
3718 4924 mt 3768 4974 L
3768 4924 mt 3718 4974 L
3740 4834 mt 3790 4884 L
3790 4834 mt 3740 4884 L
3763 4738 mt 3813 4788 L
3813 4738 mt 3763 4788 L
3786 4638 mt 3836 4688 L
3836 4638 mt 3786 4688 L
3809 4532 mt 3859 4582 L
3859 4532 mt 3809 4582 L
3832 4421 mt 3882 4471 L
3882 4421 mt 3832 4471 L
3855 4305 mt 3905 4355 L
3905 4305 mt 3855 4355 L
3878 4185 mt 3928 4235 L
3928 4185 mt 3878 4235 L
3901 4060 mt 3951 4110 L
3951 4060 mt 3901 4110 L
3924 3932 mt 3974 3982 L
3974 3932 mt 3924 3982 L
3946 3800 mt 3996 3850 L
3996 3800 mt 3946 3850 L
3969 3665 mt 4019 3715 L
4019 3665 mt 3969 3715 L
3992 3528 mt 4042 3578 L
4042 3528 mt 3992 3578 L
4015 3391 mt 4065 3441 L
4065 3391 mt 4015 3441 L
4038 3253 mt 4088 3303 L
4088 3253 mt 4038 3303 L
4061 3117 mt 4111 3167 L
4111 3117 mt 4061 3167 L
4084 2982 mt 4134 3032 L
4134 2982 mt 4084 3032 L
4107 2851 mt 4157 2901 L
4157 2851 mt 4107 2901 L
4130 2725 mt 4180 2775 L
4180 2725 mt 4130 2775 L
4152 2606 mt 4202 2656 L
4202 2606 mt 4152 2656 L
4175 2494 mt 4225 2544 L
4225 2494 mt 4175 2544 L
4198 2391 mt 4248 2441 L
4248 2391 mt 4198 2441 L
4221 2298 mt 4271 2348 L
4271 2298 mt 4221 2348 L
4244 2217 mt 4294 2267 L
4294 2217 mt 4244 2267 L
4267 2149 mt 4317 2199 L
4317 2149 mt 4267 2199 L
4290 2094 mt 4340 2144 L
4340 2094 mt 4290 2144 L
4313 2054 mt 4363 2104 L
4363 2054 mt 4313 2104 L
4335 2029 mt 4385 2079 L
4385 2029 mt 4335 2079 L
4358 2019 mt 4408 2069 L
4408 2019 mt 4358 2069 L
4381 2025 mt 4431 2075 L
4431 2025 mt 4381 2075 L
4404 2047 mt 4454 2097 L
4454 2047 mt 4404 2097 L
4427 2084 mt 4477 2134 L
4477 2084 mt 4427 2134 L
4450 2135 mt 4500 2185 L
4500 2135 mt 4450 2185 L
4473 2200 mt 4523 2250 L
4523 2200 mt 4473 2250 L
4496 2279 mt 4546 2329 L
4546 2279 mt 4496 2329 L
4519 2369 mt 4569 2419 L
4569 2369 mt 4519 2419 L
4541 2470 mt 4591 2520 L
4591 2470 mt 4541 2520 L
4564 2580 mt 4614 2630 L
4614 2580 mt 4564 2630 L
4587 2698 mt 4637 2748 L
4637 2698 mt 4587 2748 L
4610 2823 mt 4660 2873 L
4660 2823 mt 4610 2873 L
4633 2952 mt 4683 3002 L
4683 2952 mt 4633 3002 L
4656 3086 mt 4706 3136 L
4706 3086 mt 4656 3136 L
4679 3222 mt 4729 3272 L
4729 3222 mt 4679 3272 L
4702 3360 mt 4752 3410 L
4752 3360 mt 4702 3410 L
4724 3497 mt 4774 3547 L
4774 3497 mt 4724 3547 L
4747 3634 mt 4797 3684 L
4797 3634 mt 4747 3684 L
4770 3769 mt 4820 3819 L
4820 3769 mt 4770 3819 L
4793 3902 mt 4843 3952 L
4843 3902 mt 4793 3952 L
4816 4031 mt 4866 4081 L
4866 4031 mt 4816 4081 L
4839 4157 mt 4889 4207 L
4889 4157 mt 4839 4207 L
4862 4279 mt 4912 4329 L
4912 4279 mt 4862 4329 L
4885 4395 mt 4935 4445 L
4935 4395 mt 4885 4445 L
4908 4507 mt 4958 4557 L
4958 4507 mt 4908 4557 L
4930 4614 mt 4980 4664 L
4980 4614 mt 4930 4664 L
4953 4716 mt 5003 4766 L
5003 4716 mt 4953 4766 L
4976 4813 mt 5026 4863 L
5026 4813 mt 4976 4863 L
4999 4904 mt 5049 4954 L
5049 4904 mt 4999 4954 L
5022 4990 mt 5072 5040 L
5072 4990 mt 5022 5040 L
5045 5072 mt 5095 5122 L
5095 5072 mt 5045 5122 L
5068 5148 mt 5118 5198 L
5118 5148 mt 5068 5198 L
5091 5219 mt 5141 5269 L
5141 5219 mt 5091 5269 L
5113 5286 mt 5163 5336 L
5163 5286 mt 5113 5336 L
5136 5349 mt 5186 5399 L
5186 5349 mt 5136 5399 L
5159 5407 mt 5209 5457 L
5209 5407 mt 5159 5457 L
5182 5461 mt 5232 5511 L
5232 5461 mt 5182 5511 L
5205 5512 mt 5255 5562 L
5255 5512 mt 5205 5562 L
5228 5559 mt 5278 5609 L
5278 5559 mt 5228 5609 L
5251 5602 mt 5301 5652 L
5301 5602 mt 5251 5652 L
5274 5643 mt 5324 5693 L
5324 5643 mt 5274 5693 L
5297 5680 mt 5347 5730 L
5347 5680 mt 5297 5730 L
5319 5714 mt 5369 5764 L
5369 5714 mt 5319 5764 L
5342 5746 mt 5392 5796 L
5392 5746 mt 5342 5796 L
5365 5776 mt 5415 5826 L
5415 5776 mt 5365 5826 L
5388 5803 mt 5438 5853 L
5438 5803 mt 5388 5853 L
5411 5828 mt 5461 5878 L
5461 5828 mt 5411 5878 L
5434 5851 mt 5484 5901 L
5484 5851 mt 5434 5901 L
5457 5873 mt 5507 5923 L
5507 5873 mt 5457 5923 L
5480 5892 mt 5530 5942 L
5530 5892 mt 5480 5942 L
5503 5911 mt 5553 5961 L
5553 5911 mt 5503 5961 L
5525 5927 mt 5575 5977 L
5575 5927 mt 5525 5977 L
5548 5943 mt 5598 5993 L
5598 5943 mt 5548 5993 L
5571 5957 mt 5621 6007 L
5621 5957 mt 5571 6007 L
5594 5970 mt 5644 6020 L
5644 5970 mt 5594 6020 L
5617 5982 mt 5667 6032 L
5667 5982 mt 5617 6032 L
5640 5993 mt 5690 6043 L
5690 5993 mt 5640 6043 L
5663 6003 mt 5713 6053 L
5713 6003 mt 5663 6053 L
5686 6012 mt 5736 6062 L
5736 6012 mt 5686 6062 L
5708 6020 mt 5758 6070 L
5758 6020 mt 5708 6070 L
5731 6028 mt 5781 6078 L
5781 6028 mt 5731 6078 L
5754 6035 mt 5804 6085 L
5804 6035 mt 5754 6085 L
5777 6042 mt 5827 6092 L
5827 6042 mt 5777 6092 L
5800 6048 mt 5850 6098 L
5850 6048 mt 5800 6098 L
5823 6053 mt 5873 6103 L
5873 6053 mt 5823 6103 L
5846 6059 mt 5896 6109 L
5896 6059 mt 5846 6109 L
5869 6063 mt 5919 6113 L
5919 6063 mt 5869 6113 L
5892 6067 mt 5942 6117 L
5942 6067 mt 5892 6117 L
5914 6071 mt 5964 6121 L
5964 6071 mt 5914 6121 L
5937 6075 mt 5987 6125 L
5987 6075 mt 5937 6125 L
5960 6078 mt 6010 6128 L
6010 6078 mt 5960 6128 L
5983 6081 mt 6033 6131 L
6033 6081 mt 5983 6131 L
6006 6084 mt 6056 6134 L
6056 6084 mt 6006 6134 L
6029 6087 mt 6079 6137 L
6079 6087 mt 6029 6137 L
6052 6089 mt 6102 6139 L
6102 6089 mt 6052 6139 L
6075 6091 mt 6125 6141 L
6125 6091 mt 6075 6141 L
6097 6093 mt 6147 6143 L
6147 6093 mt 6097 6143 L
6120 6095 mt 6170 6145 L
6170 6095 mt 6120 6145 L
6143 6096 mt 6193 6146 L
6193 6096 mt 6143 6146 L
6166 6098 mt 6216 6148 L
6216 6098 mt 6166 6148 L
6189 6099 mt 6239 6149 L
6239 6099 mt 6189 6149 L
6212 6101 mt 6262 6151 L
6262 6101 mt 6212 6151 L
6235 6102 mt 6285 6152 L
6285 6102 mt 6235 6152 L
6258 6103 mt 6308 6153 L
6308 6103 mt 6258 6153 L
6281 6104 mt 6331 6154 L
6331 6104 mt 6281 6154 L
6303 6105 mt 6353 6155 L
6353 6105 mt 6303 6155 L
6326 6106 mt 6376 6156 L
6376 6106 mt 6326 6156 L
6349 6106 mt 6399 6156 L
6399 6106 mt 6349 6156 L
6372 6107 mt 6422 6157 L
6422 6107 mt 6372 6157 L
6395 6108 mt 6445 6158 L
6445 6108 mt 6395 6158 L
6418 6108 mt 6468 6158 L
6468 6108 mt 6418 6158 L
6441 6109 mt 6491 6159 L
6491 6109 mt 6441 6159 L
6464 6109 mt 6514 6159 L
6514 6109 mt 6464 6159 L
6486 6110 mt 6536 6160 L
6536 6110 mt 6486 6160 L
6509 6110 mt 6559 6160 L
6559 6110 mt 6509 6160 L
6532 6110 mt 6582 6160 L
6582 6110 mt 6532 6160 L
6555 6111 mt 6605 6161 L
6605 6111 mt 6555 6161 L
6578 6111 mt 6628 6161 L
6628 6111 mt 6578 6161 L
6601 6111 mt 6651 6161 L
6651 6111 mt 6601 6161 L
6624 6112 mt 6674 6162 L
6674 6112 mt 6624 6162 L
6647 6112 mt 6697 6162 L
6697 6112 mt 6647 6162 L
6670 6112 mt 6720 6162 L
6720 6112 mt 6670 6162 L
6692 6112 mt 6742 6162 L
6742 6112 mt 6692 6162 L
6715 6112 mt 6765 6162 L
6765 6112 mt 6715 6162 L
6738 6113 mt 6788 6163 L
6788 6113 mt 6738 6163 L
6761 6113 mt 6811 6163 L
6811 6113 mt 6761 6163 L
6784 6113 mt 6834 6163 L
6834 6113 mt 6784 6163 L
6807 6113 mt 6857 6163 L
6857 6113 mt 6807 6163 L
6830 6113 mt 6880 6163 L
6880 6113 mt 6830 6163 L
6853 6113 mt 6903 6163 L
6903 6113 mt 6853 6163 L
6876 6113 mt 6926 6163 L
6926 6113 mt 6876 6163 L
6898 6113 mt 6948 6163 L
6948 6113 mt 6898 6163 L
6921 6114 mt 6971 6164 L
6971 6114 mt 6921 6164 L
6944 6114 mt 6994 6164 L
6994 6114 mt 6944 6164 L
6967 6114 mt 7017 6164 L
7017 6114 mt 6967 6164 L
6990 6114 mt 7040 6164 L
7040 6114 mt 6990 6164 L
7013 6114 mt 7063 6164 L
7063 6114 mt 7013 6164 L
7036 6114 mt 7086 6164 L
7086 6114 mt 7036 6164 L
7059 6114 mt 7109 6164 L
7109 6114 mt 7059 6164 L
7081 6114 mt 7131 6164 L
7131 6114 mt 7081 6164 L
7104 6114 mt 7154 6164 L
7154 6114 mt 7104 6164 L
7127 6114 mt 7177 6164 L
7177 6114 mt 7127 6164 L
7150 6114 mt 7200 6164 L
7200 6114 mt 7150 6164 L
7173 6114 mt 7223 6164 L
7223 6114 mt 7173 6164 L
7196 6114 mt 7246 6164 L
7246 6114 mt 7196 6164 L
7219 6114 mt 7269 6164 L
7269 6114 mt 7219 6164 L
7242 6114 mt 7292 6164 L
7292 6114 mt 7242 6164 L
7265 6114 mt 7315 6164 L
7315 6114 mt 7265 6164 L
7287 6114 mt 7337 6164 L
7337 6114 mt 7287 6164 L
7310 6114 mt 7360 6164 L
7360 6114 mt 7310 6164 L
7333 6114 mt 7383 6164 L
7383 6114 mt 7333 6164 L
7356 6114 mt 7406 6164 L
7406 6114 mt 7356 6164 L
7379 6114 mt 7429 6164 L
7429 6114 mt 7379 6164 L
7402 6114 mt 7452 6164 L
7452 6114 mt 7402 6164 L
7425 6114 mt 7475 6164 L
7475 6114 mt 7425 6164 L
7448 6114 mt 7498 6164 L
7498 6114 mt 7448 6164 L
7470 6114 mt 7520 6164 L
7520 6114 mt 7470 6164 L
7493 6114 mt 7543 6164 L
7543 6114 mt 7493 6164 L
7516 6114 mt 7566 6164 L
7566 6114 mt 7516 6164 L
7539 6114 mt 7589 6164 L
7589 6114 mt 7539 6164 L
7562 6114 mt 7612 6164 L
7612 6114 mt 7562 6164 L
7585 6114 mt 7635 6164 L
7635 6114 mt 7585 6164 L
7608 6114 mt 7658 6164 L
7658 6114 mt 7608 6164 L
7631 6114 mt 7681 6164 L
7681 6114 mt 7631 6164 L
7654 6114 mt 7704 6164 L
7704 6114 mt 7654 6164 L
7676 6114 mt 7726 6164 L
7726 6114 mt 7676 6164 L
7699 6114 mt 7749 6164 L
7749 6114 mt 7699 6164 L
7722 6114 mt 7772 6164 L
7772 6114 mt 7722 6164 L
7745 6114 mt 7795 6164 L
7795 6114 mt 7745 6164 L
7768 6114 mt 7818 6164 L
7818 6114 mt 7768 6164 L
7791 6114 mt 7841 6164 L
7841 6114 mt 7791 6164 L
7814 6114 mt 7864 6164 L
7864 6114 mt 7814 6164 L
7837 6114 mt 7887 6164 L
7887 6114 mt 7837 6164 L
7859 6114 mt 7909 6164 L
7909 6114 mt 7859 6164 L
7882 6114 mt 7932 6164 L
7932 6114 mt 7882 6164 L
7905 6114 mt 7955 6164 L
7955 6114 mt 7905 6164 L
7928 6114 mt 7978 6164 L
7978 6114 mt 7928 6164 L
7951 6114 mt 8001 6164 L
8001 6114 mt 7951 6164 L
7974 6114 mt 8024 6164 L
8024 6114 mt 7974 6164 L
7997 6114 mt 8047 6164 L
8047 6114 mt 7997 6164 L
8020 6114 mt 8070 6164 L
8070 6114 mt 8020 6164 L
8043 6114 mt 8093 6164 L
8093 6114 mt 8043 6164 L
8065 6114 mt 8115 6164 L
8115 6114 mt 8065 6164 L
8088 6114 mt 8138 6164 L
8138 6114 mt 8088 6164 L
8111 6114 mt 8161 6164 L
8161 6114 mt 8111 6164 L
8134 6114 mt 8184 6164 L
8184 6114 mt 8134 6164 L
8157 6114 mt 8207 6164 L
8207 6114 mt 8157 6164 L
8180 6114 mt 8230 6164 L
8230 6114 mt 8180 6164 L
8203 6114 mt 8253 6164 L
8253 6114 mt 8203 6164 L
8226 6114 mt 8276 6164 L
8276 6114 mt 8226 6164 L
8249 6114 mt 8299 6164 L
8299 6114 mt 8249 6164 L
gr

gs 1409 518 6866 5623 rc
/c9 { 0.000000 0.000000 1.000000 sr} bdef
c9
23 0 23 0 23 0 23 0 23 0 23 0 23 0 23 0 
22 0 23 0 23 0 23 0 23 0 23 0 23 0 23 0 
23 0 22 0 23 0 23 0 23 0 23 0 23 0 23 0 
23 0 22 0 23 0 23 0 23 0 23 0 23 0 23 0 
23 0 23 0 22 1 23 0 23 0 23 0 23 0 23 0 
23 0 23 0 22 0 23 1 23 0 23 0 23 0 23 0 
23 1 23 0 23 0 22 0 23 1 23 0 23 0 23 1 
23 0 23 1 23 0 22 1 23 0 23 1 23 1 23 0 
23 1 23 1 23 1 23 1 22 1 23 1 23 1 23 2 
23 1 23 2 23 1 23 2 23 2 22 2 23 3 23 2 
23 3 23 3 23 3 23 3 23 4 22 4 23 4 23 4 
23 5 23 6 23 5 23 6 23 7 23 7 22 8 23 8 
23 9 23 10 23 10 23 11 23 12 23 13 22 14 23 15 
23 16 23 17 23 19 23 20 23 21 23 23 23 24 22 27 
23 28 23 30 23 33 23 34 23 37 23 39 23 42 22 45 
23 47 23 51 23 53 23 57 23 60 23 63 23 67 23 70 
22 74 23 77 23 81 23 85 23 87 23 92 23 94 23 97 
23 100 22 101 23 104 23 106 23 106 23 107 23 106 23 106 
23 104 22 101 23 98 23 94 23 90 23 83 23 78 23 69 
23 62 23 53 22 44 23 34 23 24 23 13 23 3 23 -8 
23 -18 23 -29 22 -39 23 -48 23 -57 23 -66 23 -74 23 -80 
23 -87 23 -91 23 -97 22 -100 23 -102 23 -105 23 -106 23 -107 
23 -106 23 -106 23 -105 22 -103 23 -101 23 -98 23 -96 23 -93 
23 -89 23 -86 23 -83 23 -79 22 -76 23 -72 23 -69 23 -65 
23 -62 23 -58 23 -55 23 -52 23 -49 22 -46 23 -43 23 -41 
23 -38 23 -36 23 -33 23 -32 23 -29 22 -27 23 -26 23 -23 
23 -23 23 -20 23 -19 23 -18 23 -17 23 -16 22 -14 23 -13 
23 -13 23 -11 23 -11 23 -10 23 -9 23 -9 22 -8 23 -7 
23 -7 23 -7 23 -6 23 -5 23 -5 23 -5 23 -4 22 -4 
23 -4 23 -4 23 -3 23 -3 23 -3 23 -2 23 -3 22 -2 
23 -2 23 -2 23 -1 23 -2 23 -2 23 -1 23 -1 23 -1 
22 -2 23 -1 23 -1 23 0 23 -1 23 -1 23 -1 23 0 
23 -1 22 -1 23 0 23 -1 23 0 23 0 23 -1 23 0 
23 0 22 -1 23 0 23 0 23 -1 23 0 23 0 23 0 
23 0 23 0 22 -1 23 0 23 0 23 0 23 0 23 0 
23 0 23 0 22 0 23 -1 23 0 23 0 23 0 23 0 
23 0 23 0 23 0 22 0 23 0 23 0 23 0 23 0 
23 0 23 0 23 0 1431 6139 300 MP stroke
gr

c9
gs 1333 2438 7040 3800 rc
1395 6139 mt 1467 6139 L
1431 6103 mt 1431 6175 L
1418 6139 mt 1490 6139 L
1454 6103 mt 1454 6175 L
1441 6139 mt 1513 6139 L
1477 6103 mt 1477 6175 L
1464 6139 mt 1536 6139 L
1500 6103 mt 1500 6175 L
1487 6139 mt 1559 6139 L
1523 6103 mt 1523 6175 L
1510 6139 mt 1582 6139 L
1546 6103 mt 1546 6175 L
1533 6139 mt 1605 6139 L
1569 6103 mt 1569 6175 L
1556 6139 mt 1628 6139 L
1592 6103 mt 1592 6175 L
1578 6139 mt 1650 6139 L
1614 6103 mt 1614 6175 L
1601 6139 mt 1673 6139 L
1637 6103 mt 1637 6175 L
1624 6139 mt 1696 6139 L
1660 6103 mt 1660 6175 L
1647 6139 mt 1719 6139 L
1683 6103 mt 1683 6175 L
1670 6139 mt 1742 6139 L
1706 6103 mt 1706 6175 L
1693 6139 mt 1765 6139 L
1729 6103 mt 1729 6175 L
1716 6139 mt 1788 6139 L
1752 6103 mt 1752 6175 L
1739 6139 mt 1811 6139 L
1775 6103 mt 1775 6175 L
1762 6138 mt 1834 6138 L
1798 6102 mt 1798 6174 L
1784 6138 mt 1856 6138 L
1820 6102 mt 1820 6174 L
1807 6138 mt 1879 6138 L
1843 6102 mt 1843 6174 L
1830 6138 mt 1902 6138 L
1866 6102 mt 1866 6174 L
1853 6138 mt 1925 6138 L
1889 6102 mt 1889 6174 L
1876 6138 mt 1948 6138 L
1912 6102 mt 1912 6174 L
1899 6138 mt 1971 6138 L
1935 6102 mt 1935 6174 L
1922 6138 mt 1994 6138 L
1958 6102 mt 1958 6174 L
1945 6138 mt 2017 6138 L
1981 6102 mt 1981 6174 L
1967 6137 mt 2039 6137 L
2003 6101 mt 2003 6173 L
1990 6137 mt 2062 6137 L
2026 6101 mt 2026 6173 L
2013 6137 mt 2085 6137 L
2049 6101 mt 2049 6173 L
2036 6137 mt 2108 6137 L
2072 6101 mt 2072 6173 L
2059 6137 mt 2131 6137 L
2095 6101 mt 2095 6173 L
2082 6137 mt 2154 6137 L
2118 6101 mt 2118 6173 L
2105 6136 mt 2177 6136 L
2141 6100 mt 2141 6172 L
2128 6136 mt 2200 6136 L
2164 6100 mt 2164 6172 L
2151 6136 mt 2223 6136 L
2187 6100 mt 2187 6172 L
2173 6135 mt 2245 6135 L
2209 6099 mt 2209 6171 L
2196 6135 mt 2268 6135 L
2232 6099 mt 2232 6171 L
2219 6135 mt 2291 6135 L
2255 6099 mt 2255 6171 L
2242 6134 mt 2314 6134 L
2278 6098 mt 2278 6170 L
2265 6134 mt 2337 6134 L
2301 6098 mt 2301 6170 L
2288 6134 mt 2360 6134 L
2324 6098 mt 2324 6170 L
2311 6133 mt 2383 6133 L
2347 6097 mt 2347 6169 L
2334 6133 mt 2406 6133 L
2370 6097 mt 2370 6169 L
2356 6132 mt 2428 6132 L
2392 6096 mt 2392 6168 L
2379 6131 mt 2451 6131 L
2415 6095 mt 2415 6167 L
2402 6131 mt 2474 6131 L
2438 6095 mt 2438 6167 L
2425 6130 mt 2497 6130 L
2461 6094 mt 2461 6166 L
2448 6129 mt 2520 6129 L
2484 6093 mt 2484 6165 L
2471 6128 mt 2543 6128 L
2507 6092 mt 2507 6164 L
2494 6128 mt 2566 6128 L
2530 6092 mt 2530 6164 L
2517 6127 mt 2589 6127 L
2553 6091 mt 2553 6163 L
2540 6126 mt 2612 6126 L
2576 6090 mt 2576 6162 L
2562 6124 mt 2634 6124 L
2598 6088 mt 2598 6160 L
2585 6123 mt 2657 6123 L
2621 6087 mt 2621 6159 L
2608 6122 mt 2680 6122 L
2644 6086 mt 2644 6158 L
2631 6121 mt 2703 6121 L
2667 6085 mt 2667 6157 L
2654 6119 mt 2726 6119 L
2690 6083 mt 2690 6155 L
2677 6117 mt 2749 6117 L
2713 6081 mt 2713 6153 L
2700 6116 mt 2772 6116 L
2736 6080 mt 2736 6152 L
2723 6114 mt 2795 6114 L
2759 6078 mt 2759 6150 L
2746 6112 mt 2818 6112 L
2782 6076 mt 2782 6148 L
2768 6110 mt 2840 6110 L
2804 6074 mt 2804 6146 L
2791 6107 mt 2863 6107 L
2827 6071 mt 2827 6143 L
2814 6105 mt 2886 6105 L
2850 6069 mt 2850 6141 L
2837 6102 mt 2909 6102 L
2873 6066 mt 2873 6138 L
2860 6099 mt 2932 6099 L
2896 6063 mt 2896 6135 L
2883 6096 mt 2955 6096 L
2919 6060 mt 2919 6132 L
2906 6092 mt 2978 6092 L
2942 6056 mt 2942 6128 L
2929 6088 mt 3001 6088 L
2965 6052 mt 2965 6124 L
2951 6084 mt 3023 6084 L
2987 6048 mt 2987 6120 L
2974 6080 mt 3046 6080 L
3010 6044 mt 3010 6116 L
2997 6075 mt 3069 6075 L
3033 6039 mt 3033 6111 L
3020 6070 mt 3092 6070 L
3056 6034 mt 3056 6106 L
3043 6065 mt 3115 6065 L
3079 6029 mt 3079 6101 L
3066 6059 mt 3138 6059 L
3102 6023 mt 3102 6095 L
3089 6052 mt 3161 6052 L
3125 6016 mt 3125 6088 L
3112 6045 mt 3184 6045 L
3148 6009 mt 3148 6081 L
3135 6038 mt 3207 6038 L
3171 6002 mt 3171 6074 L
3157 6030 mt 3229 6030 L
3193 5994 mt 3193 6066 L
3180 6021 mt 3252 6021 L
3216 5985 mt 3216 6057 L
3203 6012 mt 3275 6012 L
3239 5976 mt 3239 6048 L
3226 6002 mt 3298 6002 L
3262 5966 mt 3262 6038 L
3249 5991 mt 3321 5991 L
3285 5955 mt 3285 6027 L
3272 5980 mt 3344 5980 L
3308 5944 mt 3308 6016 L
3295 5967 mt 3367 5967 L
3331 5931 mt 3331 6003 L
3318 5954 mt 3390 5954 L
3354 5918 mt 3354 5990 L
3340 5940 mt 3412 5940 L
3376 5904 mt 3376 5976 L
3363 5924 mt 3435 5924 L
3399 5888 mt 3399 5960 L
3386 5907 mt 3458 5907 L
3422 5871 mt 3422 5943 L
3409 5889 mt 3481 5889 L
3445 5853 mt 3445 5925 L
3432 5870 mt 3504 5870 L
3468 5834 mt 3468 5906 L
3455 5850 mt 3527 5850 L
3491 5814 mt 3491 5886 L
3478 5827 mt 3550 5827 L
3514 5791 mt 3514 5863 L
3501 5804 mt 3573 5804 L
3537 5768 mt 3537 5840 L
3524 5778 mt 3596 5778 L
3560 5742 mt 3560 5814 L
3546 5751 mt 3618 5751 L
3582 5715 mt 3582 5787 L
3569 5722 mt 3641 5722 L
3605 5686 mt 3605 5758 L
3592 5690 mt 3664 5690 L
3628 5654 mt 3628 5726 L
3615 5657 mt 3687 5657 L
3651 5621 mt 3651 5693 L
3638 5621 mt 3710 5621 L
3674 5585 mt 3674 5657 L
3661 5583 mt 3733 5583 L
3697 5547 mt 3697 5619 L
3684 5542 mt 3756 5542 L
3720 5506 mt 3720 5578 L
3707 5499 mt 3779 5499 L
3743 5463 mt 3743 5535 L
3729 5453 mt 3801 5453 L
3765 5417 mt 3765 5489 L
3752 5404 mt 3824 5404 L
3788 5368 mt 3788 5440 L
3775 5352 mt 3847 5352 L
3811 5316 mt 3811 5388 L
3798 5297 mt 3870 5297 L
3834 5261 mt 3834 5333 L
3821 5239 mt 3893 5239 L
3857 5203 mt 3857 5275 L
3844 5177 mt 3916 5177 L
3880 5141 mt 3880 5213 L
3867 5112 mt 3939 5112 L
3903 5076 mt 3903 5148 L
3890 5043 mt 3962 5043 L
3926 5007 mt 3926 5079 L
3913 4971 mt 3985 4971 L
3949 4935 mt 3949 5007 L
3935 4895 mt 4007 4895 L
3971 4859 mt 3971 4931 L
3958 4816 mt 4030 4816 L
3994 4780 mt 3994 4852 L
3981 4733 mt 4053 4733 L
4017 4697 mt 4017 4769 L
4004 4647 mt 4076 4647 L
4040 4611 mt 4040 4683 L
4027 4558 mt 4099 4558 L
4063 4522 mt 4063 4594 L
4050 4465 mt 4122 4465 L
4086 4429 mt 4086 4501 L
4073 4369 mt 4145 4369 L
4109 4333 mt 4109 4405 L
4096 4271 mt 4168 4271 L
4132 4235 mt 4132 4307 L
4119 4170 mt 4191 4170 L
4155 4134 mt 4155 4206 L
4141 4067 mt 4213 4067 L
4177 4031 mt 4177 4103 L
4164 3962 mt 4236 3962 L
4200 3926 mt 4200 3998 L
4187 3856 mt 4259 3856 L
4223 3820 mt 4223 3892 L
4210 3750 mt 4282 3750 L
4246 3714 mt 4246 3786 L
4233 3643 mt 4305 3643 L
4269 3607 mt 4269 3679 L
4256 3537 mt 4328 3537 L
4292 3501 mt 4292 3573 L
4279 3432 mt 4351 3432 L
4315 3396 mt 4315 3468 L
4302 3330 mt 4374 3330 L
4338 3294 mt 4338 3366 L
4324 3230 mt 4396 3230 L
4360 3194 mt 4360 3266 L
4347 3133 mt 4419 3133 L
4383 3097 mt 4383 3169 L
4370 3042 mt 4442 3042 L
4406 3006 mt 4406 3078 L
4393 2955 mt 4465 2955 L
4429 2919 mt 4429 2991 L
4416 2875 mt 4488 2875 L
4452 2839 mt 4452 2911 L
4439 2801 mt 4511 2801 L
4475 2765 mt 4475 2837 L
4462 2735 mt 4534 2735 L
4498 2699 mt 4498 2771 L
4485 2678 mt 4557 2678 L
4521 2642 mt 4521 2714 L
4508 2630 mt 4580 2630 L
4544 2594 mt 4544 2666 L
4530 2591 mt 4602 2591 L
4566 2555 mt 4566 2627 L
4553 2562 mt 4625 2562 L
4589 2526 mt 4589 2598 L
4576 2544 mt 4648 2544 L
4612 2508 mt 4612 2580 L
4599 2536 mt 4671 2536 L
4635 2500 mt 4635 2572 L
4622 2539 mt 4694 2539 L
4658 2503 mt 4658 2575 L
4645 2552 mt 4717 2552 L
4681 2516 mt 4681 2588 L
4668 2576 mt 4740 2576 L
4704 2540 mt 4704 2612 L
4691 2610 mt 4763 2610 L
4727 2574 mt 4727 2646 L
4713 2654 mt 4785 2654 L
4749 2618 mt 4749 2690 L
4736 2707 mt 4808 2707 L
4772 2671 mt 4772 2743 L
4759 2769 mt 4831 2769 L
4795 2733 mt 4795 2805 L
4782 2838 mt 4854 2838 L
4818 2802 mt 4818 2874 L
4805 2916 mt 4877 2916 L
4841 2880 mt 4841 2952 L
4828 2999 mt 4900 2999 L
4864 2963 mt 4864 3035 L
4851 3089 mt 4923 3089 L
4887 3053 mt 4887 3125 L
4874 3183 mt 4946 3183 L
4910 3147 mt 4910 3219 L
4897 3281 mt 4969 3281 L
4933 3245 mt 4933 3317 L
4919 3382 mt 4991 3382 L
4955 3346 mt 4955 3418 L
4942 3486 mt 5014 3486 L
4978 3450 mt 4978 3522 L
4965 3592 mt 5037 3592 L
5001 3556 mt 5001 3628 L
4988 3698 mt 5060 3698 L
5024 3662 mt 5024 3734 L
5011 3805 mt 5083 3805 L
5047 3769 mt 5047 3841 L
5034 3911 mt 5106 3911 L
5070 3875 mt 5070 3947 L
5057 4017 mt 5129 4017 L
5093 3981 mt 5093 4053 L
5080 4121 mt 5152 4121 L
5116 4085 mt 5116 4157 L
5102 4222 mt 5174 4222 L
5138 4186 mt 5138 4258 L
5125 4322 mt 5197 4322 L
5161 4286 mt 5161 4358 L
5148 4419 mt 5220 4419 L
5184 4383 mt 5184 4455 L
5171 4513 mt 5243 4513 L
5207 4477 mt 5207 4549 L
5194 4605 mt 5266 4605 L
5230 4569 mt 5230 4641 L
5217 4692 mt 5289 4692 L
5253 4656 mt 5253 4728 L
5240 4777 mt 5312 4777 L
5276 4741 mt 5276 4813 L
5263 4858 mt 5335 4858 L
5299 4822 mt 5299 4894 L
5286 4935 mt 5358 4935 L
5322 4899 mt 5322 4971 L
5308 5009 mt 5380 5009 L
5344 4973 mt 5344 5045 L
5331 5079 mt 5403 5079 L
5367 5043 mt 5367 5115 L
5354 5146 mt 5426 5146 L
5390 5110 mt 5390 5182 L
5377 5209 mt 5449 5209 L
5413 5173 mt 5413 5245 L
5400 5269 mt 5472 5269 L
5436 5233 mt 5436 5305 L
5423 5326 mt 5495 5326 L
5459 5290 mt 5459 5362 L
5446 5379 mt 5518 5379 L
5482 5343 mt 5482 5415 L
5469 5430 mt 5541 5430 L
5505 5394 mt 5505 5466 L
5492 5477 mt 5564 5477 L
5528 5441 mt 5528 5513 L
5514 5522 mt 5586 5522 L
5550 5486 mt 5550 5558 L
5537 5564 mt 5609 5564 L
5573 5528 mt 5573 5600 L
5560 5603 mt 5632 5603 L
5596 5567 mt 5596 5639 L
5583 5640 mt 5655 5640 L
5619 5604 mt 5619 5676 L
5606 5674 mt 5678 5674 L
5642 5638 mt 5642 5710 L
5629 5707 mt 5701 5707 L
5665 5671 mt 5665 5743 L
5652 5737 mt 5724 5737 L
5688 5701 mt 5688 5773 L
5675 5765 mt 5747 5765 L
5711 5729 mt 5711 5801 L
5697 5792 mt 5769 5792 L
5733 5756 mt 5733 5828 L
5720 5816 mt 5792 5816 L
5756 5780 mt 5756 5852 L
5743 5839 mt 5815 5839 L
5779 5803 mt 5779 5875 L
5766 5860 mt 5838 5860 L
5802 5824 mt 5802 5896 L
5789 5880 mt 5861 5880 L
5825 5844 mt 5825 5916 L
5812 5899 mt 5884 5899 L
5848 5863 mt 5848 5935 L
5835 5916 mt 5907 5916 L
5871 5880 mt 5871 5952 L
5858 5932 mt 5930 5932 L
5894 5896 mt 5894 5968 L
5881 5947 mt 5953 5947 L
5917 5911 mt 5917 5983 L
5903 5961 mt 5975 5961 L
5939 5925 mt 5939 5997 L
5926 5974 mt 5998 5974 L
5962 5938 mt 5962 6010 L
5949 5986 mt 6021 5986 L
5985 5950 mt 5985 6022 L
5972 5997 mt 6044 5997 L
6008 5961 mt 6008 6033 L
5995 6007 mt 6067 6007 L
6031 5971 mt 6031 6043 L
6018 6017 mt 6090 6017 L
6054 5981 mt 6054 6053 L
6041 6026 mt 6113 6026 L
6077 5990 mt 6077 6062 L
6064 6034 mt 6136 6034 L
6100 5998 mt 6100 6070 L
6086 6042 mt 6158 6042 L
6122 6006 mt 6122 6078 L
6109 6049 mt 6181 6049 L
6145 6013 mt 6145 6085 L
6132 6056 mt 6204 6056 L
6168 6020 mt 6168 6092 L
6155 6062 mt 6227 6062 L
6191 6026 mt 6191 6098 L
6178 6067 mt 6250 6067 L
6214 6031 mt 6214 6103 L
6201 6073 mt 6273 6073 L
6237 6037 mt 6237 6109 L
6224 6078 mt 6296 6078 L
6260 6042 mt 6260 6114 L
6247 6082 mt 6319 6082 L
6283 6046 mt 6283 6118 L
6270 6086 mt 6342 6086 L
6306 6050 mt 6306 6122 L
6292 6090 mt 6364 6090 L
6328 6054 mt 6328 6126 L
6315 6094 mt 6387 6094 L
6351 6058 mt 6351 6130 L
6338 6097 mt 6410 6097 L
6374 6061 mt 6374 6133 L
6361 6100 mt 6433 6100 L
6397 6064 mt 6397 6136 L
6384 6103 mt 6456 6103 L
6420 6067 mt 6420 6139 L
6407 6106 mt 6479 6106 L
6443 6070 mt 6443 6142 L
6430 6108 mt 6502 6108 L
6466 6072 mt 6466 6144 L
6453 6111 mt 6525 6111 L
6489 6075 mt 6489 6147 L
6475 6113 mt 6547 6113 L
6511 6077 mt 6511 6149 L
6498 6115 mt 6570 6115 L
6534 6079 mt 6534 6151 L
6521 6117 mt 6593 6117 L
6557 6081 mt 6557 6153 L
6544 6118 mt 6616 6118 L
6580 6082 mt 6580 6154 L
6567 6120 mt 6639 6120 L
6603 6084 mt 6603 6156 L
6590 6121 mt 6662 6121 L
6626 6085 mt 6626 6157 L
6613 6123 mt 6685 6123 L
6649 6087 mt 6649 6159 L
6636 6124 mt 6708 6124 L
6672 6088 mt 6672 6160 L
6659 6125 mt 6731 6125 L
6695 6089 mt 6695 6161 L
6681 6126 mt 6753 6126 L
6717 6090 mt 6717 6162 L
6704 6127 mt 6776 6127 L
6740 6091 mt 6740 6163 L
6727 6128 mt 6799 6128 L
6763 6092 mt 6763 6164 L
6750 6129 mt 6822 6129 L
6786 6093 mt 6786 6165 L
6773 6130 mt 6845 6130 L
6809 6094 mt 6809 6166 L
6796 6130 mt 6868 6130 L
6832 6094 mt 6832 6166 L
6819 6131 mt 6891 6131 L
6855 6095 mt 6855 6167 L
6842 6132 mt 6914 6132 L
6878 6096 mt 6878 6168 L
6865 6132 mt 6937 6132 L
6901 6096 mt 6901 6168 L
6887 6133 mt 6959 6133 L
6923 6097 mt 6923 6169 L
6910 6133 mt 6982 6133 L
6946 6097 mt 6946 6169 L
6933 6134 mt 7005 6134 L
6969 6098 mt 6969 6170 L
6956 6134 mt 7028 6134 L
6992 6098 mt 6992 6170 L
6979 6135 mt 7051 6135 L
7015 6099 mt 7015 6171 L
7002 6135 mt 7074 6135 L
7038 6099 mt 7038 6171 L
7025 6135 mt 7097 6135 L
7061 6099 mt 7061 6171 L
7048 6136 mt 7120 6136 L
7084 6100 mt 7084 6172 L
7070 6136 mt 7142 6136 L
7106 6100 mt 7106 6172 L
7093 6136 mt 7165 6136 L
7129 6100 mt 7129 6172 L
7116 6136 mt 7188 6136 L
7152 6100 mt 7152 6172 L
7139 6137 mt 7211 6137 L
7175 6101 mt 7175 6173 L
7162 6137 mt 7234 6137 L
7198 6101 mt 7198 6173 L
7185 6137 mt 7257 6137 L
7221 6101 mt 7221 6173 L
7208 6137 mt 7280 6137 L
7244 6101 mt 7244 6173 L
7231 6137 mt 7303 6137 L
7267 6101 mt 7267 6173 L
7254 6138 mt 7326 6138 L
7290 6102 mt 7290 6174 L
7276 6138 mt 7348 6138 L
7312 6102 mt 7312 6174 L
7299 6138 mt 7371 6138 L
7335 6102 mt 7335 6174 L
7322 6138 mt 7394 6138 L
7358 6102 mt 7358 6174 L
7345 6138 mt 7417 6138 L
7381 6102 mt 7381 6174 L
7368 6138 mt 7440 6138 L
7404 6102 mt 7404 6174 L
7391 6138 mt 7463 6138 L
7427 6102 mt 7427 6174 L
7414 6138 mt 7486 6138 L
7450 6102 mt 7450 6174 L
7437 6138 mt 7509 6138 L
7473 6102 mt 7473 6174 L
7459 6139 mt 7531 6139 L
7495 6103 mt 7495 6175 L
7482 6139 mt 7554 6139 L
7518 6103 mt 7518 6175 L
7505 6139 mt 7577 6139 L
7541 6103 mt 7541 6175 L
7528 6139 mt 7600 6139 L
7564 6103 mt 7564 6175 L
7551 6139 mt 7623 6139 L
7587 6103 mt 7587 6175 L
7574 6139 mt 7646 6139 L
7610 6103 mt 7610 6175 L
7597 6139 mt 7669 6139 L
7633 6103 mt 7633 6175 L
7620 6139 mt 7692 6139 L
7656 6103 mt 7656 6175 L
7643 6139 mt 7715 6139 L
7679 6103 mt 7679 6175 L
7665 6139 mt 7737 6139 L
7701 6103 mt 7701 6175 L
7688 6139 mt 7760 6139 L
7724 6103 mt 7724 6175 L
7711 6139 mt 7783 6139 L
7747 6103 mt 7747 6175 L
7734 6139 mt 7806 6139 L
7770 6103 mt 7770 6175 L
7757 6139 mt 7829 6139 L
7793 6103 mt 7793 6175 L
7780 6139 mt 7852 6139 L
7816 6103 mt 7816 6175 L
7803 6139 mt 7875 6139 L
7839 6103 mt 7839 6175 L
7826 6139 mt 7898 6139 L
7862 6103 mt 7862 6175 L
7848 6139 mt 7920 6139 L
7884 6103 mt 7884 6175 L
7871 6139 mt 7943 6139 L
7907 6103 mt 7907 6175 L
7894 6139 mt 7966 6139 L
7930 6103 mt 7930 6175 L
7917 6139 mt 7989 6139 L
7953 6103 mt 7953 6175 L
7940 6139 mt 8012 6139 L
7976 6103 mt 7976 6175 L
7963 6139 mt 8035 6139 L
7999 6103 mt 7999 6175 L
7986 6139 mt 8058 6139 L
8022 6103 mt 8022 6175 L
8009 6139 mt 8081 6139 L
8045 6103 mt 8045 6175 L
8032 6139 mt 8104 6139 L
8068 6103 mt 8068 6175 L
8054 6139 mt 8126 6139 L
8090 6103 mt 8090 6175 L
8077 6139 mt 8149 6139 L
8113 6103 mt 8113 6175 L
8100 6139 mt 8172 6139 L
8136 6103 mt 8136 6175 L
8123 6139 mt 8195 6139 L
8159 6103 mt 8159 6175 L
8146 6139 mt 8218 6139 L
8182 6103 mt 8182 6175 L
8169 6139 mt 8241 6139 L
8205 6103 mt 8205 6175 L
8192 6139 mt 8264 6139 L
8228 6103 mt 8228 6175 L
8215 6139 mt 8287 6139 L
8251 6103 mt 8251 6175 L
8238 6139 mt 8310 6139 L
8274 6103 mt 8274 6175 L
gr

gs 1409 518 6866 5623 rc
gr

0 sg
%%IncludeResource: font Helvetica
/Helvetica /ISOLatin1Encoding 108 FMSR

2553  289 mt 
(Fit by: 300Days. Fitted sensor: 130 Random: 141 Shift: 11 v\
.s. Truth Sensor: 135 Random: 141 Shift: 6) s
%%IncludeResource: font Helvetica
/Helvetica /ISOLatin1Encoding 360 FMSR

4555 6829 mt 
(day) s
 338 4370 mt  -90 rotate
(daily incident) s
90 rotate
%%IncludeResource: font Helvetica
/Helvetica /ISOLatin1Encoding 96 FMSR

1396 6175 mt 
( ) s
8262  552 mt 
( ) s
6 w
1 sg
0 890 2966 0 0 -890 5249 1468 4 MP
PP
-2966 0 0 890 2966 0 0 -890 5249 1468 5 MP stroke
4 w
DO
SO
6 w
0 sg
5249 1468 mt 8215 1468 L
5249  578 mt 8215  578 L
5249 1468 mt 5249  578 L
8215 1468 mt 8215  578 L
5249 1468 mt 8215 1468 L
5249 1468 mt 5249  578 L
5249 1468 mt 8215 1468 L
5249  578 mt 8215  578 L
5249 1468 mt 5249  578 L
8215 1468 mt 8215  578 L
%%IncludeResource: font Helvetica
/Helvetica /ISOLatin1Encoding 360 FMSR

5708  937 mt 
(Sensor Group) s
gs 5249 578 2967 891 rc
24 w
c8
353 0 5319 809 2 MP stroke
gs 5398 711 197 197 rc
5460  809 mt 5532  809 L
5496  773 mt 5496  845 L
5471  784 mt 5521  834 L
5521  784 mt 5471  834 L
gr

gr

24 w
c8
0 sg
5708 1364 mt 
(Random Group) s
gs 5249 578 2967 891 rc
c9
353 0 5319 1236 2 MP stroke
gs 5398 1138 197 197 rc
5460 1236 mt 5532 1236 L
5496 1200 mt 5496 1272 L
gr

6 w
gr

6 w
c9

end %%Color Dict

eplot
%%EndObject

epage
end

showpage

%%Trailer
%%EOF
