%!PS-Adobe-3.0 EPSF-3.0
%%Creator: MATLAB, The MathWorks, Inc. Version 8.3.0.532 (R2014a). Operating System: Darwin 13.3.0 Darwin Kernel Version 13.3.0: Tue Jun  3 21:27:35 PDT 2014; root:xnu-2422.110.17~1/RELEASE_X86_64 x86_64.
%%Title: /Users/huijuans/2015Fall/PLoSOne/MatLabFig/fig2b_1_08272015.eps
%%CreationDate: 08/28/2015  17:26:12
%%DocumentNeededFonts: Helvetica
%%DocumentProcessColors: Cyan Magenta Yellow Black
%%LanguageLevel: 2
%%Pages: 1
%%BoundingBox:   198   288   414   504
%%EndComments

%%BeginProlog
% MathWorks dictionary
/MathWorks 160 dict begin
% definition operators
/bdef {bind def} bind def
/ldef {load def} bind def
/xdef {exch def} bdef
/xstore {exch store} bdef
% operator abbreviations
/c  /clip ldef
/cc /concat ldef
/cp /closepath ldef
/gr /grestore ldef
/gs /gsave ldef
/mt /moveto ldef
/np /newpath ldef
/cm /currentmatrix ldef
/sm /setmatrix ldef
/rm /rmoveto ldef
/rl /rlineto ldef
/s {show newpath} bdef
/sc {setcmykcolor} bdef
/sr /setrgbcolor ldef
/sg /setgray ldef
/w /setlinewidth ldef
/j /setlinejoin ldef
/cap /setlinecap ldef
/rc {rectclip} bdef
/rf {rectfill} bdef
% page state control
/pgsv () def
/bpage {/pgsv save def} bdef
/epage {pgsv restore} bdef
/bplot /gsave ldef
/eplot {stroke grestore} bdef
% orientation switch
/portraitMode 0 def /landscapeMode 1 def /rotateMode 2 def
% coordinate system mappings
/dpi2point 0 def
% font control
/FontSize 0 def
/FMS {/FontSize xstore findfont [FontSize 0 0 FontSize neg 0 0]
  makefont setfont} bdef
/reencode {exch dup where {pop load} {pop StandardEncoding} ifelse
  exch dup 3 1 roll findfont dup length dict begin
  { 1 index /FID ne {def}{pop pop} ifelse } forall
  /Encoding exch def currentdict end definefont pop} bdef
/isroman {findfont /CharStrings get /Agrave known} bdef
/FMSR {3 1 roll 1 index dup isroman {reencode} {pop pop} ifelse
  exch FMS} bdef
/csm {1 dpi2point div -1 dpi2point div scale neg translate
 dup landscapeMode eq {pop -90 rotate}
  {rotateMode eq {90 rotate} if} ifelse} bdef
% line types: solid, dotted, dashed, dotdash
/SO { [] 0 setdash } bdef
/DO { [.5 dpi2point mul 4 dpi2point mul] 0 setdash } bdef
/DA { [6 dpi2point mul] 0 setdash } bdef
/DD { [.5 dpi2point mul 4 dpi2point mul 6 dpi2point mul 4
  dpi2point mul] 0 setdash } bdef
% macros for lines and objects
/L {lineto stroke} bdef
/MP {3 1 roll moveto 1 sub {rlineto} repeat} bdef
/AP {{rlineto} repeat} bdef
/PDlw -1 def
/W {/PDlw currentlinewidth def setlinewidth} def
/PP {closepath eofill} bdef
/DP {closepath stroke} bdef
/MR {4 -2 roll moveto dup  0 exch rlineto exch 0 rlineto
  neg 0 exch rlineto closepath} bdef
/FR {MR stroke} bdef
/PR {MR fill} bdef
/L1i {{currentfile picstr readhexstring pop} image} bdef
/tMatrix matrix def
/MakeOval {newpath tMatrix currentmatrix pop translate scale
0 0 1 0 360 arc tMatrix setmatrix} bdef
/FO {MakeOval stroke} bdef
/PO {MakeOval fill} bdef
/PD {currentlinewidth 2 div 0 360 arc fill
   PDlw -1 eq not {PDlw w /PDlw -1 def} if} def
/FA {newpath tMatrix currentmatrix pop translate scale
  0 0 1 5 -2 roll arc tMatrix setmatrix stroke} bdef
/PA {newpath tMatrix currentmatrix pop	translate 0 0 moveto scale
  0 0 1 5 -2 roll arc closepath tMatrix setmatrix fill} bdef
/FAn {newpath tMatrix currentmatrix pop translate scale
  0 0 1 5 -2 roll arcn tMatrix setmatrix stroke} bdef
/PAn {newpath tMatrix currentmatrix pop translate 0 0 moveto scale
  0 0 1 5 -2 roll arcn closepath tMatrix setmatrix fill} bdef
/vradius 0 def /hradius 0 def /lry 0 def
/lrx 0 def /uly 0 def /ulx 0 def /rad 0 def
/MRR {/vradius xdef /hradius xdef /lry xdef /lrx xdef /uly xdef
  /ulx xdef newpath tMatrix currentmatrix pop ulx hradius add uly
  vradius add translate hradius vradius scale 0 0 1 180 270 arc 
  tMatrix setmatrix lrx hradius sub uly vradius add translate
  hradius vradius scale 0 0 1 270 360 arc tMatrix setmatrix
  lrx hradius sub lry vradius sub translate hradius vradius scale
  0 0 1 0 90 arc tMatrix setmatrix ulx hradius add lry vradius sub
  translate hradius vradius scale 0 0 1 90 180 arc tMatrix setmatrix
  closepath} bdef
/FRR {MRR stroke } bdef
/PRR {MRR fill } bdef
/MlrRR {/lry xdef /lrx xdef /uly xdef /ulx xdef /rad lry uly sub 2 div def
  newpath tMatrix currentmatrix pop ulx rad add uly rad add translate
  rad rad scale 0 0 1 90 270 arc tMatrix setmatrix lrx rad sub lry rad
  sub translate rad rad scale 0 0 1 270 90 arc tMatrix setmatrix
  closepath} bdef
/FlrRR {MlrRR stroke } bdef
/PlrRR {MlrRR fill } bdef
/MtbRR {/lry xdef /lrx xdef /uly xdef /ulx xdef /rad lrx ulx sub 2 div def
  newpath tMatrix currentmatrix pop ulx rad add uly rad add translate
  rad rad scale 0 0 1 180 360 arc tMatrix setmatrix lrx rad sub lry rad
  sub translate rad rad scale 0 0 1 0 180 arc tMatrix setmatrix
  closepath} bdef
/FtbRR {MtbRR stroke } bdef
/PtbRR {MtbRR fill } bdef
/stri 6 array def /dtri 6 array def
/smat 6 array def /dmat 6 array def
/tmat1 6 array def /tmat2 6 array def /dif 3 array def
/asub {/ind2 exch def /ind1 exch def dup dup
  ind1 get exch ind2 get sub exch } bdef
/tri_to_matrix {
  2 0 asub 3 1 asub 4 0 asub 5 1 asub
  dup 0 get exch 1 get 7 -1 roll astore } bdef
/compute_transform {
  dmat dtri tri_to_matrix tmat1 invertmatrix 
  smat stri tri_to_matrix tmat2 concatmatrix } bdef
/ds {stri astore pop} bdef
/dt {dtri astore pop} bdef
/db {2 copy /cols xdef /rows xdef mul dup 3 mul string
  currentfile 
  3 index 0 eq {/ASCIIHexDecode filter}
  {/ASCII85Decode filter 3 index 2 eq {/RunLengthDecode filter} if }
  ifelse exch readstring pop
  dup 0 3 index getinterval /rbmap xdef
  dup 2 index dup getinterval /gbmap xdef
  1 index dup 2 mul exch getinterval /bbmap xdef pop pop}bdef
/it {gs np dtri aload pop moveto lineto lineto cp c
  cols rows 8 compute_transform 
  rbmap gbmap bbmap true 3 colorimage gr}bdef
/il {newpath moveto lineto stroke}bdef
currentdict end def
%%EndProlog

%%BeginSetup
MathWorks begin

0 cap

end
%%EndSetup

%%Page: 1 1
%%BeginPageSetup
%%PageBoundingBox:   198   288   414   504
MathWorks begin
bpage
%%EndPageSetup

%%BeginObject: obj1
bplot

/dpi2point 12 def
portraitMode 2376 6048 csm

    0     0  2592  2592 rc
85 dict begin %Colortable dictionary
/c0 { 0.000000 0.000000 0.000000 sr} bdef
/c1 { 1.000000 1.000000 1.000000 sr} bdef
/c2 { 0.900000 0.000000 0.000000 sr} bdef
/c3 { 0.000000 0.820000 0.000000 sr} bdef
/c4 { 0.000000 0.000000 0.800000 sr} bdef
/c5 { 0.910000 0.820000 0.320000 sr} bdef
/c6 { 1.000000 0.260000 0.820000 sr} bdef
/c7 { 0.000000 0.820000 0.820000 sr} bdef
c0
1 j
1 sg
   0    0 2593 2593 rf
6 w
0 1814 1814 0 0 -1814 605 2160 4 MP
PP
-1814 0 0 1814 1814 0 0 -1814 605 2160 5 MP stroke
4 w
DO
SO
6 w
0 sg
 605 2160 mt 2419 2160 L
 605  346 mt 2419  346 L
 605 2160 mt  605  346 L
2419 2160 mt 2419  346 L
 605 2160 mt 2419 2160 L
 605 2160 mt  605  346 L
 605 2160 mt  605 2141 L
 605  346 mt  605  364 L
%%IncludeResource: font Helvetica
/Helvetica /ISOLatin1Encoding 144 FMSR

 565 2328 mt 
(0) s
1209 2160 mt 1209 2141 L
1209  346 mt 1209  364 L
1089 2328 mt 
(100) s
1814 2160 mt 1814 2141 L
1814  346 mt 1814  364 L
1694 2328 mt 
(200) s
2419 2160 mt 2419 2141 L
2419  346 mt 2419  364 L
2299 2328 mt 
(300) s
 605 2160 mt  623 2160 L
2419 2160 mt 2400 2160 L
 490 2213 mt 
(0) s
 605 1857 mt  623 1857 L
2419 1857 mt 2400 1857 L
 210 1910 mt 
(0.005) s
 605 1555 mt  623 1555 L
2419 1555 mt 2400 1555 L
 290 1608 mt 
(0.01) s
 605 1253 mt  623 1253 L
2419 1253 mt 2400 1253 L
 210 1306 mt 
(0.015) s
 605  950 mt  623  950 L
2419  950 mt 2400  950 L
 290 1003 mt 
(0.02) s
 605  648 mt  623  648 L
2419  648 mt 2400  648 L
 210  701 mt 
(0.025) s
 605  346 mt  623  346 L
2419  346 mt 2400  346 L
 290  399 mt 
(0.03) s
 605 2160 mt 2419 2160 L
 605  346 mt 2419  346 L
 605 2160 mt  605  346 L
2419 2160 mt 2419  346 L
gs 605 346 1815 1815 rc
12 w
/c8 { 1.000000 0.000000 0.000000 sr} bdef
c8
7 0 6 0 6 0 6 0 6 0 6 0 6 0 6 0 
6 0 6 0 6 0 6 0 6 0 6 0 6 0 6 0 
6 0 6 0 6 0 6 0 6 0 7 0 6 0 6 0 
6 0 6 0 6 0 6 0 6 0 6 0 6 0 6 0 
6 0 6 0 6 0 6 0 6 0 6 0 6 0 6 0 
6 0 6 0 7 0 6 0 6 0 6 0 6 0 6 0 
6 0 6 0 6 0 6 0 6 0 6 0 6 0 6 0 
6 0 6 0 6 0 6 0 6 0 6 0 6 0 6 0 
7 0 6 0 6 0 6 0 6 0 6 0 6 0 6 1 
6 0 6 0 6 0 6 0 6 0 6 0 6 0 6 1 
6 0 6 0 6 0 6 0 6 1 7 0 6 0 6 1 
6 0 6 0 6 1 6 0 6 1 6 0 6 1 6 1 
6 1 6 0 6 1 6 1 6 1 6 1 6 2 6 1 
6 2 6 1 6 2 7 2 6 2 6 2 6 3 6 3 
6 3 6 3 6 3 6 4 6 4 6 5 6 5 6 5 
6 6 6 6 6 7 6 8 6 8 6 9 6 9 6 11 
7 11 6 12 6 13 6 14 6 15 6 16 6 18 6 19 
6 20 6 21 6 23 6 25 6 26 6 28 6 30 6 31 
6 33 6 34 6 36 6 38 6 39 6 41 7 41 6 43 
6 44 6 44 6 44 6 45 6 44 6 43 6 42 6 40 
6 38 6 36 6 32 6 29 6 25 6 21 6 17 6 12 
6 7 6 2 6 -3 7 -8 6 -13 6 -18 6 -22 6 -26 
6 -30 6 -33 6 -36 6 -39 6 -41 6 -42 6 -43 6 -44 
6 -45 6 -44 6 -44 6 -44 6 -42 6 -42 6 -40 6 -39 
7 -37 6 -36 6 -34 6 -32 6 -31 6 -29 6 -28 6 -26 
6 -24 6 -23 6 -21 6 -20 6 -18 6 -18 6 -16 6 -14 
6 -14 6 -13 6 -12 6 -11 6 -10 6 -9 7 -9 6 -8 
6 -7 6 -7 6 -6 6 -6 6 -5 6 -5 6 -5 6 -4 
6 -3 6 -4 6 -3 6 -3 6 -3 6 -2 6 -2 6 -3 
6 -1 6 -2 6 -2 7 -1 6 -2 6 -1 6 -1 6 -1 
6 -1 6 -1 6 -1 6 0 6 -1 6 -1 6 0 6 -1 
6 0 6 -1 6 0 6 0 6 -1 6 0 6 0 6 -1 
6 0 7 0 6 0 6 0 6 -1 6 0 6 0 6 0 
6 0 6 0 6 0 6 -1 6 0 6 0 6 0 6 0 
6 0 6 0 6 0 6 0 6 0 6 0 7 0 6 0 
6 0 6 0 6 0 6 0 6 0 6 0 6 0 6 0 
6 0 6 0 6 0 6 0 6 0 6 0 6 0 6 0 
6 0 6 0 6 0 611 2159 300 MP stroke
gr

12 w
c8
gs 586 813 1859 1372 rc
0 j
12 15 -12 15 -12 -15 12 -15 611 2174 5 MP
DP
12 15 -12 15 -12 -15 12 -15 617 2174 5 MP
DP
12 15 -12 15 -12 -15 12 -15 623 2174 5 MP
DP
12 15 -12 15 -12 -15 12 -15 629 2174 5 MP
DP
12 15 -12 15 -12 -15 12 -15 635 2174 5 MP
DP
12 15 -12 15 -12 -15 12 -15 641 2174 5 MP
DP
12 15 -12 15 -12 -15 12 -15 647 2174 5 MP
DP
12 15 -12 15 -12 -15 12 -15 653 2174 5 MP
DP
12 15 -12 15 -12 -15 12 -15 659 2174 5 MP
DP
12 15 -12 15 -12 -15 12 -15 665 2174 5 MP
DP
12 15 -12 15 -12 -15 12 -15 671 2174 5 MP
DP
12 15 -12 15 -12 -15 12 -15 677 2174 5 MP
DP
12 15 -12 15 -12 -15 12 -15 683 2174 5 MP
DP
12 15 -12 15 -12 -15 12 -15 689 2174 5 MP
DP
12 15 -12 15 -12 -15 12 -15 695 2174 5 MP
DP
12 15 -12 15 -12 -15 12 -15 701 2174 5 MP
DP
12 15 -12 15 -12 -15 12 -15 707 2174 5 MP
DP
12 15 -12 15 -12 -15 12 -15 713 2174 5 MP
DP
12 15 -12 15 -12 -15 12 -15 719 2174 5 MP
DP
12 15 -12 15 -12 -15 12 -15 725 2174 5 MP
DP
12 15 -12 15 -12 -15 12 -15 731 2174 5 MP
DP
12 15 -12 15 -12 -15 12 -15 738 2174 5 MP
DP
12 15 -12 15 -12 -15 12 -15 744 2174 5 MP
DP
12 15 -12 15 -12 -15 12 -15 750 2174 5 MP
DP
12 15 -12 15 -12 -15 12 -15 756 2174 5 MP
DP
12 15 -12 15 -12 -15 12 -15 762 2174 5 MP
DP
12 15 -12 15 -12 -15 12 -15 768 2174 5 MP
DP
12 15 -12 15 -12 -15 12 -15 774 2174 5 MP
DP
12 15 -12 15 -12 -15 12 -15 780 2174 5 MP
DP
12 15 -12 15 -12 -15 12 -15 786 2174 5 MP
DP
12 15 -12 15 -12 -15 12 -15 792 2174 5 MP
DP
12 15 -12 15 -12 -15 12 -15 798 2174 5 MP
DP
12 15 -12 15 -12 -15 12 -15 804 2173 5 MP
DP
12 15 -12 15 -12 -15 12 -15 810 2173 5 MP
DP
12 15 -12 15 -12 -15 12 -15 816 2173 5 MP
DP
12 15 -12 15 -12 -15 12 -15 822 2173 5 MP
DP
12 15 -12 15 -12 -15 12 -15 828 2173 5 MP
DP
12 15 -12 15 -12 -15 12 -15 834 2173 5 MP
DP
12 15 -12 15 -12 -15 12 -15 840 2173 5 MP
DP
12 15 -12 15 -12 -15 12 -15 846 2172 5 MP
DP
12 15 -12 15 -12 -15 12 -15 852 2172 5 MP
DP
12 15 -12 15 -12 -15 12 -15 858 2172 5 MP
DP
12 15 -12 15 -12 -15 12 -15 865 2172 5 MP
DP
12 15 -12 15 -12 -15 12 -15 871 2172 5 MP
DP
12 15 -12 15 -12 -15 12 -15 877 2171 5 MP
DP
12 15 -12 15 -12 -15 12 -15 883 2171 5 MP
DP
12 15 -12 15 -12 -15 12 -15 889 2171 5 MP
DP
12 15 -12 15 -12 -15 12 -15 895 2170 5 MP
DP
12 15 -12 15 -12 -15 12 -15 901 2170 5 MP
DP
12 15 -12 15 -12 -15 12 -15 907 2170 5 MP
DP
12 15 -12 15 -12 -15 12 -15 913 2169 5 MP
DP
12 15 -12 15 -12 -15 12 -15 919 2169 5 MP
DP
12 15 -12 15 -12 -15 12 -15 925 2168 5 MP
DP
12 15 -12 15 -12 -15 12 -15 931 2168 5 MP
DP
12 15 -12 15 -12 -15 12 -15 937 2167 5 MP
DP
12 15 -12 15 -12 -15 12 -15 943 2166 5 MP
DP
12 15 -12 15 -12 -15 12 -15 949 2166 5 MP
DP
12 15 -12 15 -12 -15 12 -15 955 2165 5 MP
DP
12 15 -12 15 -12 -15 12 -15 961 2164 5 MP
DP
12 15 -12 15 -12 -15 12 -15 967 2163 5 MP
DP
12 15 -12 15 -12 -15 12 -15 973 2162 5 MP
DP
12 15 -12 15 -12 -15 12 -15 979 2161 5 MP
DP
12 15 -12 15 -12 -15 12 -15 985 2160 5 MP
DP
12 15 -12 15 -12 -15 12 -15 991 2158 5 MP
DP
12 15 -12 15 -12 -15 12 -15 998 2157 5 MP
DP
12 15 -12 15 -12 -15 12 -15 1004 2155 5 MP
DP
12 15 -12 15 -12 -15 12 -15 1010 2153 5 MP
DP
12 15 -12 15 -12 -15 12 -15 1016 2152 5 MP
DP
12 15 -12 15 -12 -15 12 -15 1022 2149 5 MP
DP
12 15 -12 15 -12 -15 12 -15 1028 2147 5 MP
DP
12 15 -12 15 -12 -15 12 -15 1034 2145 5 MP
DP
12 15 -12 15 -12 -15 12 -15 1040 2142 5 MP
DP
12 15 -12 15 -12 -15 12 -15 1046 2139 5 MP
DP
12 15 -12 15 -12 -15 12 -15 1052 2136 5 MP
DP
12 15 -12 15 -12 -15 12 -15 1058 2132 5 MP
DP
12 15 -12 15 -12 -15 12 -15 1064 2129 5 MP
DP
12 15 -12 15 -12 -15 12 -15 1070 2125 5 MP
DP
12 15 -12 15 -12 -15 12 -15 1076 2120 5 MP
DP
12 15 -12 15 -12 -15 12 -15 1082 2115 5 MP
DP
12 15 -12 15 -12 -15 12 -15 1088 2110 5 MP
DP
12 15 -12 15 -12 -15 12 -15 1094 2104 5 MP
DP
12 15 -12 15 -12 -15 12 -15 1100 2098 5 MP
DP
12 15 -12 15 -12 -15 12 -15 1106 2091 5 MP
DP
12 15 -12 15 -12 -15 12 -15 1112 2084 5 MP
DP
12 15 -12 15 -12 -15 12 -15 1118 2076 5 MP
DP
12 15 -12 15 -12 -15 12 -15 1125 2067 5 MP
DP
12 15 -12 15 -12 -15 12 -15 1131 2058 5 MP
DP
12 15 -12 15 -12 -15 12 -15 1137 2048 5 MP
DP
12 15 -12 15 -12 -15 12 -15 1143 2037 5 MP
DP
12 15 -12 15 -12 -15 12 -15 1149 2025 5 MP
DP
12 15 -12 15 -12 -15 12 -15 1155 2012 5 MP
DP
12 15 -12 15 -12 -15 12 -15 1161 1998 5 MP
DP
12 15 -12 15 -12 -15 12 -15 1167 1984 5 MP
DP
12 15 -12 15 -12 -15 12 -15 1173 1968 5 MP
DP
12 15 -12 15 -12 -15 12 -15 1179 1950 5 MP
DP
12 15 -12 15 -12 -15 12 -15 1185 1932 5 MP
DP
12 15 -12 15 -12 -15 12 -15 1191 1912 5 MP
DP
12 15 -12 15 -12 -15 12 -15 1197 1891 5 MP
DP
12 15 -12 15 -12 -15 12 -15 1203 1868 5 MP
DP
12 15 -12 15 -12 -15 12 -15 1209 1844 5 MP
DP
12 15 -12 15 -12 -15 12 -15 1215 1818 5 MP
DP
12 15 -12 15 -12 -15 12 -15 1221 1790 5 MP
DP
12 15 -12 15 -12 -15 12 -15 1227 1761 5 MP
DP
12 15 -12 15 -12 -15 12 -15 1233 1730 5 MP
DP
12 15 -12 15 -12 -15 12 -15 1239 1698 5 MP
DP
12 15 -12 15 -12 -15 12 -15 1245 1664 5 MP
DP
12 15 -12 15 -12 -15 12 -15 1251 1628 5 MP
DP
12 15 -12 15 -12 -15 12 -15 1258 1591 5 MP
DP
12 15 -12 15 -12 -15 12 -15 1264 1552 5 MP
DP
12 15 -12 15 -12 -15 12 -15 1270 1512 5 MP
DP
12 15 -12 15 -12 -15 12 -15 1276 1470 5 MP
DP
12 15 -12 15 -12 -15 12 -15 1282 1428 5 MP
DP
12 15 -12 15 -12 -15 12 -15 1288 1384 5 MP
DP
12 15 -12 15 -12 -15 12 -15 1294 1340 5 MP
DP
12 15 -12 15 -12 -15 12 -15 1300 1296 5 MP
DP
12 15 -12 15 -12 -15 12 -15 1306 1251 5 MP
DP
12 15 -12 15 -12 -15 12 -15 1312 1207 5 MP
DP
12 15 -12 15 -12 -15 12 -15 1318 1164 5 MP
DP
12 15 -12 15 -12 -15 12 -15 1324 1122 5 MP
DP
12 15 -12 15 -12 -15 12 -15 1330 1081 5 MP
DP
12 15 -12 15 -12 -15 12 -15 1336 1042 5 MP
DP
12 15 -12 15 -12 -15 12 -15 1342 1006 5 MP
DP
12 15 -12 15 -12 -15 12 -15 1348 973 5 MP
DP
12 15 -12 15 -12 -15 12 -15 1354 943 5 MP
DP
12 15 -12 15 -12 -15 12 -15 1360 917 5 MP
DP
12 15 -12 15 -12 -15 12 -15 1366 895 5 MP
DP
12 15 -12 15 -12 -15 12 -15 1372 877 5 MP
DP
12 15 -12 15 -12 -15 12 -15 1378 864 5 MP
DP
12 15 -12 15 -12 -15 12 -15 1385 856 5 MP
DP
12 15 -12 15 -12 -15 12 -15 1391 853 5 MP
DP
12 15 -12 15 -12 -15 12 -15 1397 855 5 MP
DP
12 15 -12 15 -12 -15 12 -15 1403 862 5 MP
DP
12 15 -12 15 -12 -15 12 -15 1409 874 5 MP
DP
12 15 -12 15 -12 -15 12 -15 1415 891 5 MP
DP
12 15 -12 15 -12 -15 12 -15 1421 912 5 MP
DP
12 15 -12 15 -12 -15 12 -15 1427 937 5 MP
DP
12 15 -12 15 -12 -15 12 -15 1433 966 5 MP
DP
12 15 -12 15 -12 -15 12 -15 1439 998 5 MP
DP
12 15 -12 15 -12 -15 12 -15 1445 1034 5 MP
DP
12 15 -12 15 -12 -15 12 -15 1451 1072 5 MP
DP
12 15 -12 15 -12 -15 12 -15 1457 1112 5 MP
DP
12 15 -12 15 -12 -15 12 -15 1463 1154 5 MP
DP
12 15 -12 15 -12 -15 12 -15 1469 1197 5 MP
DP
12 15 -12 15 -12 -15 12 -15 1475 1241 5 MP
DP
12 15 -12 15 -12 -15 12 -15 1481 1286 5 MP
DP
12 15 -12 15 -12 -15 12 -15 1487 1330 5 MP
DP
12 15 -12 15 -12 -15 12 -15 1493 1374 5 MP
DP
12 15 -12 15 -12 -15 12 -15 1499 1418 5 MP
DP
12 15 -12 15 -12 -15 12 -15 1505 1461 5 MP
DP
12 15 -12 15 -12 -15 12 -15 1512 1502 5 MP
DP
12 15 -12 15 -12 -15 12 -15 1518 1543 5 MP
DP
12 15 -12 15 -12 -15 12 -15 1524 1582 5 MP
DP
12 15 -12 15 -12 -15 12 -15 1530 1620 5 MP
DP
12 15 -12 15 -12 -15 12 -15 1536 1656 5 MP
DP
12 15 -12 15 -12 -15 12 -15 1542 1690 5 MP
DP
12 15 -12 15 -12 -15 12 -15 1548 1723 5 MP
DP
12 15 -12 15 -12 -15 12 -15 1554 1754 5 MP
DP
12 15 -12 15 -12 -15 12 -15 1560 1784 5 MP
DP
12 15 -12 15 -12 -15 12 -15 1566 1812 5 MP
DP
12 15 -12 15 -12 -15 12 -15 1572 1838 5 MP
DP
12 15 -12 15 -12 -15 12 -15 1578 1863 5 MP
DP
12 15 -12 15 -12 -15 12 -15 1584 1886 5 MP
DP
12 15 -12 15 -12 -15 12 -15 1590 1907 5 MP
DP
12 15 -12 15 -12 -15 12 -15 1596 1927 5 MP
DP
12 15 -12 15 -12 -15 12 -15 1602 1946 5 MP
DP
12 15 -12 15 -12 -15 12 -15 1608 1964 5 MP
DP
12 15 -12 15 -12 -15 12 -15 1614 1980 5 MP
DP
12 15 -12 15 -12 -15 12 -15 1620 1995 5 MP
DP
12 15 -12 15 -12 -15 12 -15 1626 2009 5 MP
DP
12 15 -12 15 -12 -15 12 -15 1632 2022 5 MP
DP
12 15 -12 15 -12 -15 12 -15 1638 2034 5 MP
DP
12 15 -12 15 -12 -15 12 -15 1645 2045 5 MP
DP
12 15 -12 15 -12 -15 12 -15 1651 2056 5 MP
DP
12 15 -12 15 -12 -15 12 -15 1657 2065 5 MP
DP
12 15 -12 15 -12 -15 12 -15 1663 2074 5 MP
DP
12 15 -12 15 -12 -15 12 -15 1669 2082 5 MP
DP
12 15 -12 15 -12 -15 12 -15 1675 2090 5 MP
DP
12 15 -12 15 -12 -15 12 -15 1681 2097 5 MP
DP
12 15 -12 15 -12 -15 12 -15 1687 2103 5 MP
DP
12 15 -12 15 -12 -15 12 -15 1693 2109 5 MP
DP
12 15 -12 15 -12 -15 12 -15 1699 2114 5 MP
DP
12 15 -12 15 -12 -15 12 -15 1705 2119 5 MP
DP
12 15 -12 15 -12 -15 12 -15 1711 2124 5 MP
DP
12 15 -12 15 -12 -15 12 -15 1717 2128 5 MP
DP
12 15 -12 15 -12 -15 12 -15 1723 2132 5 MP
DP
12 15 -12 15 -12 -15 12 -15 1729 2135 5 MP
DP
12 15 -12 15 -12 -15 12 -15 1735 2138 5 MP
DP
12 15 -12 15 -12 -15 12 -15 1741 2141 5 MP
DP
12 15 -12 15 -12 -15 12 -15 1747 2144 5 MP
DP
12 15 -12 15 -12 -15 12 -15 1753 2147 5 MP
DP
12 15 -12 15 -12 -15 12 -15 1759 2149 5 MP
DP
12 15 -12 15 -12 -15 12 -15 1765 2151 5 MP
DP
12 15 -12 15 -12 -15 12 -15 1772 2153 5 MP
DP
12 15 -12 15 -12 -15 12 -15 1778 2155 5 MP
DP
12 15 -12 15 -12 -15 12 -15 1784 2156 5 MP
DP
12 15 -12 15 -12 -15 12 -15 1790 2158 5 MP
DP
12 15 -12 15 -12 -15 12 -15 1796 2159 5 MP
DP
12 15 -12 15 -12 -15 12 -15 1802 2161 5 MP
DP
12 15 -12 15 -12 -15 12 -15 1808 2162 5 MP
DP
12 15 -12 15 -12 -15 12 -15 1814 2163 5 MP
DP
12 15 -12 15 -12 -15 12 -15 1820 2164 5 MP
DP
12 15 -12 15 -12 -15 12 -15 1826 2165 5 MP
DP
12 15 -12 15 -12 -15 12 -15 1832 2165 5 MP
DP
12 15 -12 15 -12 -15 12 -15 1838 2166 5 MP
DP
12 15 -12 15 -12 -15 12 -15 1844 2167 5 MP
DP
12 15 -12 15 -12 -15 12 -15 1850 2168 5 MP
DP
12 15 -12 15 -12 -15 12 -15 1856 2168 5 MP
DP
12 15 -12 15 -12 -15 12 -15 1862 2169 5 MP
DP
12 15 -12 15 -12 -15 12 -15 1868 2169 5 MP
DP
12 15 -12 15 -12 -15 12 -15 1874 2170 5 MP
DP
12 15 -12 15 -12 -15 12 -15 1880 2170 5 MP
DP
12 15 -12 15 -12 -15 12 -15 1886 2170 5 MP
DP
12 15 -12 15 -12 -15 12 -15 1892 2171 5 MP
DP
12 15 -12 15 -12 -15 12 -15 1898 2171 5 MP
DP
12 15 -12 15 -12 -15 12 -15 1905 2171 5 MP
DP
12 15 -12 15 -12 -15 12 -15 1911 2172 5 MP
DP
12 15 -12 15 -12 -15 12 -15 1917 2172 5 MP
DP
12 15 -12 15 -12 -15 12 -15 1923 2172 5 MP
DP
12 15 -12 15 -12 -15 12 -15 1929 2172 5 MP
DP
12 15 -12 15 -12 -15 12 -15 1935 2172 5 MP
DP
12 15 -12 15 -12 -15 12 -15 1941 2173 5 MP
DP
12 15 -12 15 -12 -15 12 -15 1947 2173 5 MP
DP
12 15 -12 15 -12 -15 12 -15 1953 2173 5 MP
DP
12 15 -12 15 -12 -15 12 -15 1959 2173 5 MP
DP
12 15 -12 15 -12 -15 12 -15 1965 2173 5 MP
DP
12 15 -12 15 -12 -15 12 -15 1971 2173 5 MP
DP
12 15 -12 15 -12 -15 12 -15 1977 2173 5 MP
DP
12 15 -12 15 -12 -15 12 -15 1983 2173 5 MP
DP
12 15 -12 15 -12 -15 12 -15 1989 2174 5 MP
DP
12 15 -12 15 -12 -15 12 -15 1995 2174 5 MP
DP
12 15 -12 15 -12 -15 12 -15 2001 2174 5 MP
DP
12 15 -12 15 -12 -15 12 -15 2007 2174 5 MP
DP
12 15 -12 15 -12 -15 12 -15 2013 2174 5 MP
DP
12 15 -12 15 -12 -15 12 -15 2019 2174 5 MP
DP
12 15 -12 15 -12 -15 12 -15 2025 2174 5 MP
DP
12 15 -12 15 -12 -15 12 -15 2032 2174 5 MP
DP
12 15 -12 15 -12 -15 12 -15 2038 2174 5 MP
DP
12 15 -12 15 -12 -15 12 -15 2044 2174 5 MP
DP
12 15 -12 15 -12 -15 12 -15 2050 2174 5 MP
DP
12 15 -12 15 -12 -15 12 -15 2056 2174 5 MP
DP
12 15 -12 15 -12 -15 12 -15 2062 2174 5 MP
DP
12 15 -12 15 -12 -15 12 -15 2068 2174 5 MP
DP
12 15 -12 15 -12 -15 12 -15 2074 2174 5 MP
DP
12 15 -12 15 -12 -15 12 -15 2080 2174 5 MP
DP
12 15 -12 15 -12 -15 12 -15 2086 2174 5 MP
DP
12 15 -12 15 -12 -15 12 -15 2092 2174 5 MP
DP
12 15 -12 15 -12 -15 12 -15 2098 2174 5 MP
DP
12 15 -12 15 -12 -15 12 -15 2104 2174 5 MP
DP
12 15 -12 15 -12 -15 12 -15 2110 2174 5 MP
DP
12 15 -12 15 -12 -15 12 -15 2116 2174 5 MP
DP
12 15 -12 15 -12 -15 12 -15 2122 2174 5 MP
DP
12 15 -12 15 -12 -15 12 -15 2128 2174 5 MP
DP
12 15 -12 15 -12 -15 12 -15 2134 2174 5 MP
DP
12 15 -12 15 -12 -15 12 -15 2140 2174 5 MP
DP
12 15 -12 15 -12 -15 12 -15 2146 2174 5 MP
DP
12 15 -12 15 -12 -15 12 -15 2152 2174 5 MP
DP
12 15 -12 15 -12 -15 12 -15 2158 2174 5 MP
DP
12 15 -12 15 -12 -15 12 -15 2165 2174 5 MP
DP
12 15 -12 15 -12 -15 12 -15 2171 2174 5 MP
DP
12 15 -12 15 -12 -15 12 -15 2177 2174 5 MP
DP
12 15 -12 15 -12 -15 12 -15 2183 2174 5 MP
DP
12 15 -12 15 -12 -15 12 -15 2189 2174 5 MP
DP
12 15 -12 15 -12 -15 12 -15 2195 2174 5 MP
DP
12 15 -12 15 -12 -15 12 -15 2201 2174 5 MP
DP
12 15 -12 15 -12 -15 12 -15 2207 2174 5 MP
DP
12 15 -12 15 -12 -15 12 -15 2213 2174 5 MP
DP
12 15 -12 15 -12 -15 12 -15 2219 2174 5 MP
DP
12 15 -12 15 -12 -15 12 -15 2225 2174 5 MP
DP
12 15 -12 15 -12 -15 12 -15 2231 2174 5 MP
DP
12 15 -12 15 -12 -15 12 -15 2237 2174 5 MP
DP
12 15 -12 15 -12 -15 12 -15 2243 2174 5 MP
DP
12 15 -12 15 -12 -15 12 -15 2249 2174 5 MP
DP
12 15 -12 15 -12 -15 12 -15 2255 2174 5 MP
DP
12 15 -12 15 -12 -15 12 -15 2261 2174 5 MP
DP
12 15 -12 15 -12 -15 12 -15 2267 2174 5 MP
DP
12 15 -12 15 -12 -15 12 -15 2273 2174 5 MP
DP
12 15 -12 15 -12 -15 12 -15 2279 2174 5 MP
DP
12 15 -12 15 -12 -15 12 -15 2285 2174 5 MP
DP
12 15 -12 15 -12 -15 12 -15 2292 2174 5 MP
DP
12 15 -12 15 -12 -15 12 -15 2298 2174 5 MP
DP
12 15 -12 15 -12 -15 12 -15 2304 2174 5 MP
DP
12 15 -12 15 -12 -15 12 -15 2310 2174 5 MP
DP
12 15 -12 15 -12 -15 12 -15 2316 2174 5 MP
DP
12 15 -12 15 -12 -15 12 -15 2322 2174 5 MP
DP
12 15 -12 15 -12 -15 12 -15 2328 2174 5 MP
DP
12 15 -12 15 -12 -15 12 -15 2334 2174 5 MP
DP
12 15 -12 15 -12 -15 12 -15 2340 2174 5 MP
DP
12 15 -12 15 -12 -15 12 -15 2346 2174 5 MP
DP
12 15 -12 15 -12 -15 12 -15 2352 2174 5 MP
DP
12 15 -12 15 -12 -15 12 -15 2358 2174 5 MP
DP
12 15 -12 15 -12 -15 12 -15 2364 2174 5 MP
DP
12 15 -12 15 -12 -15 12 -15 2370 2174 5 MP
DP
12 15 -12 15 -12 -15 12 -15 2376 2174 5 MP
DP
12 15 -12 15 -12 -15 12 -15 2382 2174 5 MP
DP
12 15 -12 15 -12 -15 12 -15 2388 2174 5 MP
DP
12 15 -12 15 -12 -15 12 -15 2394 2174 5 MP
DP
12 15 -12 15 -12 -15 12 -15 2400 2174 5 MP
DP
12 15 -12 15 -12 -15 12 -15 2406 2174 5 MP
DP
12 15 -12 15 -12 -15 12 -15 2412 2174 5 MP
DP
12 15 -12 15 -12 -15 12 -15 2419 2174 5 MP
DP
gr

gs 605 346 1815 1815 rc
/c9 { 0.000000 0.000000 1.000000 sr} bdef
c9
7 0 6 0 6 0 6 0 6 0 6 0 6 0 6 0 
6 0 6 0 6 0 6 0 6 0 6 0 6 0 6 0 
6 0 6 0 6 0 6 0 6 0 7 0 6 0 6 0 
6 0 6 0 6 0 6 0 6 0 6 0 6 0 6 0 
6 0 6 0 6 0 6 0 6 0 6 0 6 0 6 0 
6 0 6 0 7 0 6 0 6 0 6 0 6 0 6 0 
6 1 6 0 6 0 6 0 6 0 6 0 6 0 6 0 
6 0 6 1 6 0 6 0 6 0 6 0 6 0 6 1 
7 0 6 0 6 0 6 1 6 0 6 1 6 0 6 0 
6 1 6 0 6 1 6 0 6 1 6 1 6 1 6 0 
6 1 6 1 6 1 6 1 6 1 7 2 6 1 6 1 
6 2 6 2 6 2 6 2 6 2 6 2 6 2 6 3 
6 3 6 3 6 3 6 4 6 4 6 4 6 5 6 4 
6 6 6 5 6 6 7 7 6 6 6 8 6 8 6 8 
6 9 6 10 6 11 6 11 6 12 6 12 6 14 6 14 
6 15 6 17 6 17 6 18 6 20 6 20 6 22 6 22 
7 24 6 25 6 26 6 27 6 29 6 29 6 31 6 31 
6 32 6 33 6 33 6 34 6 35 6 34 6 35 6 34 
6 33 6 33 6 32 6 30 6 29 6 27 7 25 6 22 
6 20 6 17 6 14 6 11 6 8 6 4 6 1 6 -2 
6 -6 6 -10 6 -12 6 -16 6 -18 6 -21 6 -24 6 -26 
6 -28 6 -30 6 -31 7 -32 6 -33 6 -34 6 -34 6 -34 
6 -35 6 -34 6 -34 6 -33 6 -33 6 -31 6 -31 6 -30 
6 -29 6 -28 6 -27 6 -25 6 -24 6 -24 6 -22 6 -21 
7 -20 6 -19 6 -17 6 -17 6 -16 6 -15 6 -14 6 -13 
6 -12 6 -12 6 -11 6 -10 6 -9 6 -9 6 -8 6 -8 
6 -7 6 -7 6 -6 6 -6 6 -5 6 -5 7 -5 6 -4 
6 -4 6 -4 6 -3 6 -3 6 -3 6 -3 6 -3 6 -2 
6 -2 6 -2 6 -2 6 -2 6 -2 6 -1 6 -2 6 -1 
6 -1 6 -1 6 -1 7 -1 6 -1 6 -1 6 -1 6 -1 
6 0 6 -1 6 0 6 -1 6 0 6 -1 6 0 6 -1 
6 0 6 0 6 -1 6 0 6 0 6 0 6 -1 6 0 
6 0 7 0 6 0 6 -1 6 0 6 0 6 0 6 0 
6 0 6 0 6 0 6 0 6 -1 6 0 6 0 6 0 
6 0 6 0 6 0 6 0 6 0 6 0 7 0 6 0 
6 0 6 0 6 0 6 0 6 0 6 0 6 0 6 0 
6 0 6 0 6 0 6 0 6 0 6 0 6 0 6 0 
6 0 6 0 6 0 611 2159 300 MP stroke
gr

c9
gs 586 972 1859 1213 rc
0 j
0 -20 -20 0 0 20 20 0 601 2149 5 MP
DP
0 -20 -20 0 0 20 20 0 607 2149 5 MP
DP
0 -20 -20 0 0 20 20 0 613 2149 5 MP
DP
0 -20 -20 0 0 20 20 0 619 2149 5 MP
DP
0 -20 -20 0 0 20 20 0 625 2149 5 MP
DP
0 -20 -20 0 0 20 20 0 631 2149 5 MP
DP
0 -20 -20 0 0 20 20 0 637 2149 5 MP
DP
0 -20 -20 0 0 20 20 0 643 2149 5 MP
DP
0 -20 -20 0 0 20 20 0 649 2149 5 MP
DP
0 -20 -20 0 0 20 20 0 655 2149 5 MP
DP
0 -20 -20 0 0 20 20 0 661 2149 5 MP
DP
0 -20 -20 0 0 20 20 0 667 2149 5 MP
DP
0 -20 -20 0 0 20 20 0 673 2149 5 MP
DP
0 -20 -20 0 0 20 20 0 679 2149 5 MP
DP
0 -20 -20 0 0 20 20 0 685 2149 5 MP
DP
0 -20 -20 0 0 20 20 0 691 2149 5 MP
DP
0 -20 -20 0 0 20 20 0 697 2149 5 MP
DP
0 -20 -20 0 0 20 20 0 703 2149 5 MP
DP
0 -20 -20 0 0 20 20 0 709 2149 5 MP
DP
0 -20 -20 0 0 20 20 0 715 2149 5 MP
DP
0 -20 -20 0 0 20 20 0 721 2149 5 MP
DP
0 -20 -20 0 0 20 20 0 728 2149 5 MP
DP
0 -20 -20 0 0 20 20 0 734 2149 5 MP
DP
0 -20 -20 0 0 20 20 0 740 2149 5 MP
DP
0 -20 -20 0 0 20 20 0 746 2149 5 MP
DP
0 -20 -20 0 0 20 20 0 752 2149 5 MP
DP
0 -20 -20 0 0 20 20 0 758 2149 5 MP
DP
0 -20 -20 0 0 20 20 0 764 2149 5 MP
DP
0 -20 -20 0 0 20 20 0 770 2149 5 MP
DP
0 -20 -20 0 0 20 20 0 776 2149 5 MP
DP
0 -20 -20 0 0 20 20 0 782 2149 5 MP
DP
0 -20 -20 0 0 20 20 0 788 2148 5 MP
DP
0 -20 -20 0 0 20 20 0 794 2148 5 MP
DP
0 -20 -20 0 0 20 20 0 800 2148 5 MP
DP
0 -20 -20 0 0 20 20 0 806 2148 5 MP
DP
0 -20 -20 0 0 20 20 0 812 2148 5 MP
DP
0 -20 -20 0 0 20 20 0 818 2148 5 MP
DP
0 -20 -20 0 0 20 20 0 824 2148 5 MP
DP
0 -20 -20 0 0 20 20 0 830 2148 5 MP
DP
0 -20 -20 0 0 20 20 0 836 2148 5 MP
DP
0 -20 -20 0 0 20 20 0 842 2147 5 MP
DP
0 -20 -20 0 0 20 20 0 848 2147 5 MP
DP
0 -20 -20 0 0 20 20 0 855 2147 5 MP
DP
0 -20 -20 0 0 20 20 0 861 2147 5 MP
DP
0 -20 -20 0 0 20 20 0 867 2147 5 MP
DP
0 -20 -20 0 0 20 20 0 873 2146 5 MP
DP
0 -20 -20 0 0 20 20 0 879 2146 5 MP
DP
0 -20 -20 0 0 20 20 0 885 2146 5 MP
DP
0 -20 -20 0 0 20 20 0 891 2146 5 MP
DP
0 -20 -20 0 0 20 20 0 897 2145 5 MP
DP
0 -20 -20 0 0 20 20 0 903 2145 5 MP
DP
0 -20 -20 0 0 20 20 0 909 2145 5 MP
DP
0 -20 -20 0 0 20 20 0 915 2144 5 MP
DP
0 -20 -20 0 0 20 20 0 921 2144 5 MP
DP
0 -20 -20 0 0 20 20 0 927 2143 5 MP
DP
0 -20 -20 0 0 20 20 0 933 2143 5 MP
DP
0 -20 -20 0 0 20 20 0 939 2142 5 MP
DP
0 -20 -20 0 0 20 20 0 945 2142 5 MP
DP
0 -20 -20 0 0 20 20 0 951 2141 5 MP
DP
0 -20 -20 0 0 20 20 0 957 2141 5 MP
DP
0 -20 -20 0 0 20 20 0 963 2140 5 MP
DP
0 -20 -20 0 0 20 20 0 969 2139 5 MP
DP
0 -20 -20 0 0 20 20 0 975 2138 5 MP
DP
0 -20 -20 0 0 20 20 0 981 2137 5 MP
DP
0 -20 -20 0 0 20 20 0 988 2136 5 MP
DP
0 -20 -20 0 0 20 20 0 994 2135 5 MP
DP
0 -20 -20 0 0 20 20 0 1000 2134 5 MP
DP
0 -20 -20 0 0 20 20 0 1006 2133 5 MP
DP
0 -20 -20 0 0 20 20 0 1012 2132 5 MP
DP
0 -20 -20 0 0 20 20 0 1018 2130 5 MP
DP
0 -20 -20 0 0 20 20 0 1024 2129 5 MP
DP
0 -20 -20 0 0 20 20 0 1030 2127 5 MP
DP
0 -20 -20 0 0 20 20 0 1036 2125 5 MP
DP
0 -20 -20 0 0 20 20 0 1042 2123 5 MP
DP
0 -20 -20 0 0 20 20 0 1048 2121 5 MP
DP
0 -20 -20 0 0 20 20 0 1054 2119 5 MP
DP
0 -20 -20 0 0 20 20 0 1060 2117 5 MP
DP
0 -20 -20 0 0 20 20 0 1066 2114 5 MP
DP
0 -20 -20 0 0 20 20 0 1072 2111 5 MP
DP
0 -20 -20 0 0 20 20 0 1078 2108 5 MP
DP
0 -20 -20 0 0 20 20 0 1084 2105 5 MP
DP
0 -20 -20 0 0 20 20 0 1090 2102 5 MP
DP
0 -20 -20 0 0 20 20 0 1096 2098 5 MP
DP
0 -20 -20 0 0 20 20 0 1102 2094 5 MP
DP
0 -20 -20 0 0 20 20 0 1108 2090 5 MP
DP
0 -20 -20 0 0 20 20 0 1115 2085 5 MP
DP
0 -20 -20 0 0 20 20 0 1121 2080 5 MP
DP
0 -20 -20 0 0 20 20 0 1127 2075 5 MP
DP
0 -20 -20 0 0 20 20 0 1133 2069 5 MP
DP
0 -20 -20 0 0 20 20 0 1139 2063 5 MP
DP
0 -20 -20 0 0 20 20 0 1145 2056 5 MP
DP
0 -20 -20 0 0 20 20 0 1151 2049 5 MP
DP
0 -20 -20 0 0 20 20 0 1157 2041 5 MP
DP
0 -20 -20 0 0 20 20 0 1163 2033 5 MP
DP
0 -20 -20 0 0 20 20 0 1169 2024 5 MP
DP
0 -20 -20 0 0 20 20 0 1175 2015 5 MP
DP
0 -20 -20 0 0 20 20 0 1181 2005 5 MP
DP
0 -20 -20 0 0 20 20 0 1187 1994 5 MP
DP
0 -20 -20 0 0 20 20 0 1193 1982 5 MP
DP
0 -20 -20 0 0 20 20 0 1199 1970 5 MP
DP
0 -20 -20 0 0 20 20 0 1205 1957 5 MP
DP
0 -20 -20 0 0 20 20 0 1211 1943 5 MP
DP
0 -20 -20 0 0 20 20 0 1217 1928 5 MP
DP
0 -20 -20 0 0 20 20 0 1223 1912 5 MP
DP
0 -20 -20 0 0 20 20 0 1229 1895 5 MP
DP
0 -20 -20 0 0 20 20 0 1235 1878 5 MP
DP
0 -20 -20 0 0 20 20 0 1241 1859 5 MP
DP
0 -20 -20 0 0 20 20 0 1248 1839 5 MP
DP
0 -20 -20 0 0 20 20 0 1254 1818 5 MP
DP
0 -20 -20 0 0 20 20 0 1260 1796 5 MP
DP
0 -20 -20 0 0 20 20 0 1266 1772 5 MP
DP
0 -20 -20 0 0 20 20 0 1272 1748 5 MP
DP
0 -20 -20 0 0 20 20 0 1278 1723 5 MP
DP
0 -20 -20 0 0 20 20 0 1284 1696 5 MP
DP
0 -20 -20 0 0 20 20 0 1290 1668 5 MP
DP
0 -20 -20 0 0 20 20 0 1296 1639 5 MP
DP
0 -20 -20 0 0 20 20 0 1302 1609 5 MP
DP
0 -20 -20 0 0 20 20 0 1308 1578 5 MP
DP
0 -20 -20 0 0 20 20 0 1314 1547 5 MP
DP
0 -20 -20 0 0 20 20 0 1320 1514 5 MP
DP
0 -20 -20 0 0 20 20 0 1326 1481 5 MP
DP
0 -20 -20 0 0 20 20 0 1332 1447 5 MP
DP
0 -20 -20 0 0 20 20 0 1338 1413 5 MP
DP
0 -20 -20 0 0 20 20 0 1344 1378 5 MP
DP
0 -20 -20 0 0 20 20 0 1350 1344 5 MP
DP
0 -20 -20 0 0 20 20 0 1356 1310 5 MP
DP
0 -20 -20 0 0 20 20 0 1362 1276 5 MP
DP
0 -20 -20 0 0 20 20 0 1368 1243 5 MP
DP
0 -20 -20 0 0 20 20 0 1375 1211 5 MP
DP
0 -20 -20 0 0 20 20 0 1381 1180 5 MP
DP
0 -20 -20 0 0 20 20 0 1387 1150 5 MP
DP
0 -20 -20 0 0 20 20 0 1393 1122 5 MP
DP
0 -20 -20 0 0 20 20 0 1399 1096 5 MP
DP
0 -20 -20 0 0 20 20 0 1405 1072 5 MP
DP
0 -20 -20 0 0 20 20 0 1411 1051 5 MP
DP
0 -20 -20 0 0 20 20 0 1417 1033 5 MP
DP
0 -20 -20 0 0 20 20 0 1423 1017 5 MP
DP
0 -20 -20 0 0 20 20 0 1429 1005 5 MP
DP
0 -20 -20 0 0 20 20 0 1435 995 5 MP
DP
0 -20 -20 0 0 20 20 0 1441 989 5 MP
DP
0 -20 -20 0 0 20 20 0 1447 987 5 MP
DP
0 -20 -20 0 0 20 20 0 1453 988 5 MP
DP
0 -20 -20 0 0 20 20 0 1459 992 5 MP
DP
0 -20 -20 0 0 20 20 0 1465 1000 5 MP
DP
0 -20 -20 0 0 20 20 0 1471 1011 5 MP
DP
0 -20 -20 0 0 20 20 0 1477 1025 5 MP
DP
0 -20 -20 0 0 20 20 0 1483 1042 5 MP
DP
0 -20 -20 0 0 20 20 0 1489 1062 5 MP
DP
0 -20 -20 0 0 20 20 0 1495 1084 5 MP
DP
0 -20 -20 0 0 20 20 0 1502 1109 5 MP
DP
0 -20 -20 0 0 20 20 0 1508 1136 5 MP
DP
0 -20 -20 0 0 20 20 0 1514 1165 5 MP
DP
0 -20 -20 0 0 20 20 0 1520 1195 5 MP
DP
0 -20 -20 0 0 20 20 0 1526 1227 5 MP
DP
0 -20 -20 0 0 20 20 0 1532 1260 5 MP
DP
0 -20 -20 0 0 20 20 0 1538 1293 5 MP
DP
0 -20 -20 0 0 20 20 0 1544 1327 5 MP
DP
0 -20 -20 0 0 20 20 0 1550 1362 5 MP
DP
0 -20 -20 0 0 20 20 0 1556 1396 5 MP
DP
0 -20 -20 0 0 20 20 0 1562 1431 5 MP
DP
0 -20 -20 0 0 20 20 0 1568 1465 5 MP
DP
0 -20 -20 0 0 20 20 0 1574 1498 5 MP
DP
0 -20 -20 0 0 20 20 0 1580 1531 5 MP
DP
0 -20 -20 0 0 20 20 0 1586 1563 5 MP
DP
0 -20 -20 0 0 20 20 0 1592 1594 5 MP
DP
0 -20 -20 0 0 20 20 0 1598 1625 5 MP
DP
0 -20 -20 0 0 20 20 0 1604 1654 5 MP
DP
0 -20 -20 0 0 20 20 0 1610 1683 5 MP
DP
0 -20 -20 0 0 20 20 0 1616 1710 5 MP
DP
0 -20 -20 0 0 20 20 0 1622 1736 5 MP
DP
0 -20 -20 0 0 20 20 0 1628 1761 5 MP
DP
0 -20 -20 0 0 20 20 0 1635 1785 5 MP
DP
0 -20 -20 0 0 20 20 0 1641 1807 5 MP
DP
0 -20 -20 0 0 20 20 0 1647 1829 5 MP
DP
0 -20 -20 0 0 20 20 0 1653 1849 5 MP
DP
0 -20 -20 0 0 20 20 0 1659 1869 5 MP
DP
0 -20 -20 0 0 20 20 0 1665 1887 5 MP
DP
0 -20 -20 0 0 20 20 0 1671 1904 5 MP
DP
0 -20 -20 0 0 20 20 0 1677 1921 5 MP
DP
0 -20 -20 0 0 20 20 0 1683 1936 5 MP
DP
0 -20 -20 0 0 20 20 0 1689 1950 5 MP
DP
0 -20 -20 0 0 20 20 0 1695 1964 5 MP
DP
0 -20 -20 0 0 20 20 0 1701 1976 5 MP
DP
0 -20 -20 0 0 20 20 0 1707 1988 5 MP
DP
0 -20 -20 0 0 20 20 0 1713 1999 5 MP
DP
0 -20 -20 0 0 20 20 0 1719 2010 5 MP
DP
0 -20 -20 0 0 20 20 0 1725 2020 5 MP
DP
0 -20 -20 0 0 20 20 0 1731 2029 5 MP
DP
0 -20 -20 0 0 20 20 0 1737 2037 5 MP
DP
0 -20 -20 0 0 20 20 0 1743 2045 5 MP
DP
0 -20 -20 0 0 20 20 0 1749 2053 5 MP
DP
0 -20 -20 0 0 20 20 0 1755 2059 5 MP
DP
0 -20 -20 0 0 20 20 0 1762 2066 5 MP
DP
0 -20 -20 0 0 20 20 0 1768 2072 5 MP
DP
0 -20 -20 0 0 20 20 0 1774 2077 5 MP
DP
0 -20 -20 0 0 20 20 0 1780 2083 5 MP
DP
0 -20 -20 0 0 20 20 0 1786 2087 5 MP
DP
0 -20 -20 0 0 20 20 0 1792 2092 5 MP
DP
0 -20 -20 0 0 20 20 0 1798 2096 5 MP
DP
0 -20 -20 0 0 20 20 0 1804 2100 5 MP
DP
0 -20 -20 0 0 20 20 0 1810 2104 5 MP
DP
0 -20 -20 0 0 20 20 0 1816 2107 5 MP
DP
0 -20 -20 0 0 20 20 0 1822 2110 5 MP
DP
0 -20 -20 0 0 20 20 0 1828 2113 5 MP
DP
0 -20 -20 0 0 20 20 0 1834 2116 5 MP
DP
0 -20 -20 0 0 20 20 0 1840 2118 5 MP
DP
0 -20 -20 0 0 20 20 0 1846 2120 5 MP
DP
0 -20 -20 0 0 20 20 0 1852 2122 5 MP
DP
0 -20 -20 0 0 20 20 0 1858 2124 5 MP
DP
0 -20 -20 0 0 20 20 0 1864 2126 5 MP
DP
0 -20 -20 0 0 20 20 0 1870 2128 5 MP
DP
0 -20 -20 0 0 20 20 0 1876 2130 5 MP
DP
0 -20 -20 0 0 20 20 0 1882 2131 5 MP
DP
0 -20 -20 0 0 20 20 0 1888 2132 5 MP
DP
0 -20 -20 0 0 20 20 0 1895 2134 5 MP
DP
0 -20 -20 0 0 20 20 0 1901 2135 5 MP
DP
0 -20 -20 0 0 20 20 0 1907 2136 5 MP
DP
0 -20 -20 0 0 20 20 0 1913 2137 5 MP
DP
0 -20 -20 0 0 20 20 0 1919 2138 5 MP
DP
0 -20 -20 0 0 20 20 0 1925 2139 5 MP
DP
0 -20 -20 0 0 20 20 0 1931 2139 5 MP
DP
0 -20 -20 0 0 20 20 0 1937 2140 5 MP
DP
0 -20 -20 0 0 20 20 0 1943 2141 5 MP
DP
0 -20 -20 0 0 20 20 0 1949 2142 5 MP
DP
0 -20 -20 0 0 20 20 0 1955 2142 5 MP
DP
0 -20 -20 0 0 20 20 0 1961 2143 5 MP
DP
0 -20 -20 0 0 20 20 0 1967 2143 5 MP
DP
0 -20 -20 0 0 20 20 0 1973 2144 5 MP
DP
0 -20 -20 0 0 20 20 0 1979 2144 5 MP
DP
0 -20 -20 0 0 20 20 0 1985 2144 5 MP
DP
0 -20 -20 0 0 20 20 0 1991 2145 5 MP
DP
0 -20 -20 0 0 20 20 0 1997 2145 5 MP
DP
0 -20 -20 0 0 20 20 0 2003 2146 5 MP
DP
0 -20 -20 0 0 20 20 0 2009 2146 5 MP
DP
0 -20 -20 0 0 20 20 0 2015 2146 5 MP
DP
0 -20 -20 0 0 20 20 0 2022 2146 5 MP
DP
0 -20 -20 0 0 20 20 0 2028 2147 5 MP
DP
0 -20 -20 0 0 20 20 0 2034 2147 5 MP
DP
0 -20 -20 0 0 20 20 0 2040 2147 5 MP
DP
0 -20 -20 0 0 20 20 0 2046 2147 5 MP
DP
0 -20 -20 0 0 20 20 0 2052 2147 5 MP
DP
0 -20 -20 0 0 20 20 0 2058 2147 5 MP
DP
0 -20 -20 0 0 20 20 0 2064 2148 5 MP
DP
0 -20 -20 0 0 20 20 0 2070 2148 5 MP
DP
0 -20 -20 0 0 20 20 0 2076 2148 5 MP
DP
0 -20 -20 0 0 20 20 0 2082 2148 5 MP
DP
0 -20 -20 0 0 20 20 0 2088 2148 5 MP
DP
0 -20 -20 0 0 20 20 0 2094 2148 5 MP
DP
0 -20 -20 0 0 20 20 0 2100 2148 5 MP
DP
0 -20 -20 0 0 20 20 0 2106 2148 5 MP
DP
0 -20 -20 0 0 20 20 0 2112 2148 5 MP
DP
0 -20 -20 0 0 20 20 0 2118 2149 5 MP
DP
0 -20 -20 0 0 20 20 0 2124 2149 5 MP
DP
0 -20 -20 0 0 20 20 0 2130 2149 5 MP
DP
0 -20 -20 0 0 20 20 0 2136 2149 5 MP
DP
0 -20 -20 0 0 20 20 0 2142 2149 5 MP
DP
0 -20 -20 0 0 20 20 0 2148 2149 5 MP
DP
0 -20 -20 0 0 20 20 0 2155 2149 5 MP
DP
0 -20 -20 0 0 20 20 0 2161 2149 5 MP
DP
0 -20 -20 0 0 20 20 0 2167 2149 5 MP
DP
0 -20 -20 0 0 20 20 0 2173 2149 5 MP
DP
0 -20 -20 0 0 20 20 0 2179 2149 5 MP
DP
0 -20 -20 0 0 20 20 0 2185 2149 5 MP
DP
0 -20 -20 0 0 20 20 0 2191 2149 5 MP
DP
0 -20 -20 0 0 20 20 0 2197 2149 5 MP
DP
0 -20 -20 0 0 20 20 0 2203 2149 5 MP
DP
0 -20 -20 0 0 20 20 0 2209 2149 5 MP
DP
0 -20 -20 0 0 20 20 0 2215 2149 5 MP
DP
0 -20 -20 0 0 20 20 0 2221 2149 5 MP
DP
0 -20 -20 0 0 20 20 0 2227 2149 5 MP
DP
0 -20 -20 0 0 20 20 0 2233 2149 5 MP
DP
0 -20 -20 0 0 20 20 0 2239 2149 5 MP
DP
0 -20 -20 0 0 20 20 0 2245 2149 5 MP
DP
0 -20 -20 0 0 20 20 0 2251 2149 5 MP
DP
0 -20 -20 0 0 20 20 0 2257 2149 5 MP
DP
0 -20 -20 0 0 20 20 0 2263 2149 5 MP
DP
0 -20 -20 0 0 20 20 0 2269 2149 5 MP
DP
0 -20 -20 0 0 20 20 0 2275 2149 5 MP
DP
0 -20 -20 0 0 20 20 0 2282 2149 5 MP
DP
0 -20 -20 0 0 20 20 0 2288 2149 5 MP
DP
0 -20 -20 0 0 20 20 0 2294 2149 5 MP
DP
0 -20 -20 0 0 20 20 0 2300 2149 5 MP
DP
0 -20 -20 0 0 20 20 0 2306 2149 5 MP
DP
0 -20 -20 0 0 20 20 0 2312 2149 5 MP
DP
0 -20 -20 0 0 20 20 0 2318 2149 5 MP
DP
0 -20 -20 0 0 20 20 0 2324 2149 5 MP
DP
0 -20 -20 0 0 20 20 0 2330 2149 5 MP
DP
0 -20 -20 0 0 20 20 0 2336 2149 5 MP
DP
0 -20 -20 0 0 20 20 0 2342 2149 5 MP
DP
0 -20 -20 0 0 20 20 0 2348 2149 5 MP
DP
0 -20 -20 0 0 20 20 0 2354 2149 5 MP
DP
0 -20 -20 0 0 20 20 0 2360 2149 5 MP
DP
0 -20 -20 0 0 20 20 0 2366 2149 5 MP
DP
0 -20 -20 0 0 20 20 0 2372 2149 5 MP
DP
0 -20 -20 0 0 20 20 0 2378 2149 5 MP
DP
0 -20 -20 0 0 20 20 0 2384 2149 5 MP
DP
0 -20 -20 0 0 20 20 0 2390 2149 5 MP
DP
0 -20 -20 0 0 20 20 0 2396 2149 5 MP
DP
0 -20 -20 0 0 20 20 0 2402 2149 5 MP
DP
0 -20 -20 0 0 20 20 0 2409 2149 5 MP
DP
gr

gs 605 346 1815 1815 rc
gr

0 sg
1380 2464 mt 
(Day) s
 209 1697 mt  -90 rotate
(Daily Incident) s
90 rotate
%%IncludeResource: font Helvetica
/Helvetica /ISOLatin1Encoding 96 FMSR

 592 2195 mt 
( ) s
2407  380 mt 
( ) s
6 w
1 sg
0 462 1547 0 0 -462 870 816 4 MP
PP
-1547 0 0 462 1547 0 0 -462 870 816 5 MP stroke
4 w
DO
SO
6 w
0 sg
 870  816 mt 2417  816 L
 870  354 mt 2417  354 L
 870  816 mt  870  354 L
2417  816 mt 2417  354 L
 870  816 mt 2417  816 L
 870  816 mt  870  354 L
 870  816 mt 2417  816 L
 870  354 mt 2417  354 L
 870  816 mt  870  354 L
2417  816 mt 2417  354 L
%%IncludeResource: font Helvetica
/Helvetica /ISOLatin1Encoding 144 FMSR

1338  531 mt 
(Sensor Group) s
gs 870 354 1548 463 rc
12 w
c8
360 0 941 480 2 MP stroke
gs 1096 455 51 51 rc
0 j
12 15 -12 15 -12 -15 12 -15 1121 495 5 MP
DP
gr

gr

12 w
c8
0 sg
1338  742 mt 
(Random Group) s
gs 870 354 1548 463 rc
c9
360 0 941 689 2 MP stroke
gs 1096 664 51 51 rc
0 j
0 -20 -20 0 0 20 20 0 1111 679 5 MP
DP
gr

6 w
gr

6 w
c9

end %%Color Dict

eplot
%%EndObject

epage
end

showpage

%%Trailer
%%EOF
