%!PS-Adobe-3.0 EPSF-3.0
%%Creator: MATLAB, The MathWorks, Inc. Version 8.3.0.532 (R2014a). Operating System: Darwin 13.3.0 Darwin Kernel Version 13.3.0: Tue Jun  3 21:27:35 PDT 2014; root:xnu-2422.110.17~1/RELEASE_X86_64 x86_64.
%%Title: /Users/huijuans/2015Fall/PLoSOne/MatLabFig/fig2a1_08272015.eps
%%CreationDate: 08/28/2015  17:19:14
%%DocumentNeededFonts: Helvetica
%%DocumentProcessColors: Cyan Magenta Yellow Black
%%LanguageLevel: 2
%%Pages: 1
%%BoundingBox:   198   288   414   504
%%EndComments

%%BeginProlog
% MathWorks dictionary
/MathWorks 160 dict begin
% definition operators
/bdef {bind def} bind def
/ldef {load def} bind def
/xdef {exch def} bdef
/xstore {exch store} bdef
% operator abbreviations
/c  /clip ldef
/cc /concat ldef
/cp /closepath ldef
/gr /grestore ldef
/gs /gsave ldef
/mt /moveto ldef
/np /newpath ldef
/cm /currentmatrix ldef
/sm /setmatrix ldef
/rm /rmoveto ldef
/rl /rlineto ldef
/s {show newpath} bdef
/sc {setcmykcolor} bdef
/sr /setrgbcolor ldef
/sg /setgray ldef
/w /setlinewidth ldef
/j /setlinejoin ldef
/cap /setlinecap ldef
/rc {rectclip} bdef
/rf {rectfill} bdef
% page state control
/pgsv () def
/bpage {/pgsv save def} bdef
/epage {pgsv restore} bdef
/bplot /gsave ldef
/eplot {stroke grestore} bdef
% orientation switch
/portraitMode 0 def /landscapeMode 1 def /rotateMode 2 def
% coordinate system mappings
/dpi2point 0 def
% font control
/FontSize 0 def
/FMS {/FontSize xstore findfont [FontSize 0 0 FontSize neg 0 0]
  makefont setfont} bdef
/reencode {exch dup where {pop load} {pop StandardEncoding} ifelse
  exch dup 3 1 roll findfont dup length dict begin
  { 1 index /FID ne {def}{pop pop} ifelse } forall
  /Encoding exch def currentdict end definefont pop} bdef
/isroman {findfont /CharStrings get /Agrave known} bdef
/FMSR {3 1 roll 1 index dup isroman {reencode} {pop pop} ifelse
  exch FMS} bdef
/csm {1 dpi2point div -1 dpi2point div scale neg translate
 dup landscapeMode eq {pop -90 rotate}
  {rotateMode eq {90 rotate} if} ifelse} bdef
% line types: solid, dotted, dashed, dotdash
/SO { [] 0 setdash } bdef
/DO { [.5 dpi2point mul 4 dpi2point mul] 0 setdash } bdef
/DA { [6 dpi2point mul] 0 setdash } bdef
/DD { [.5 dpi2point mul 4 dpi2point mul 6 dpi2point mul 4
  dpi2point mul] 0 setdash } bdef
% macros for lines and objects
/L {lineto stroke} bdef
/MP {3 1 roll moveto 1 sub {rlineto} repeat} bdef
/AP {{rlineto} repeat} bdef
/PDlw -1 def
/W {/PDlw currentlinewidth def setlinewidth} def
/PP {closepath eofill} bdef
/DP {closepath stroke} bdef
/MR {4 -2 roll moveto dup  0 exch rlineto exch 0 rlineto
  neg 0 exch rlineto closepath} bdef
/FR {MR stroke} bdef
/PR {MR fill} bdef
/L1i {{currentfile picstr readhexstring pop} image} bdef
/tMatrix matrix def
/MakeOval {newpath tMatrix currentmatrix pop translate scale
0 0 1 0 360 arc tMatrix setmatrix} bdef
/FO {MakeOval stroke} bdef
/PO {MakeOval fill} bdef
/PD {currentlinewidth 2 div 0 360 arc fill
   PDlw -1 eq not {PDlw w /PDlw -1 def} if} def
/FA {newpath tMatrix currentmatrix pop translate scale
  0 0 1 5 -2 roll arc tMatrix setmatrix stroke} bdef
/PA {newpath tMatrix currentmatrix pop	translate 0 0 moveto scale
  0 0 1 5 -2 roll arc closepath tMatrix setmatrix fill} bdef
/FAn {newpath tMatrix currentmatrix pop translate scale
  0 0 1 5 -2 roll arcn tMatrix setmatrix stroke} bdef
/PAn {newpath tMatrix currentmatrix pop translate 0 0 moveto scale
  0 0 1 5 -2 roll arcn closepath tMatrix setmatrix fill} bdef
/vradius 0 def /hradius 0 def /lry 0 def
/lrx 0 def /uly 0 def /ulx 0 def /rad 0 def
/MRR {/vradius xdef /hradius xdef /lry xdef /lrx xdef /uly xdef
  /ulx xdef newpath tMatrix currentmatrix pop ulx hradius add uly
  vradius add translate hradius vradius scale 0 0 1 180 270 arc 
  tMatrix setmatrix lrx hradius sub uly vradius add translate
  hradius vradius scale 0 0 1 270 360 arc tMatrix setmatrix
  lrx hradius sub lry vradius sub translate hradius vradius scale
  0 0 1 0 90 arc tMatrix setmatrix ulx hradius add lry vradius sub
  translate hradius vradius scale 0 0 1 90 180 arc tMatrix setmatrix
  closepath} bdef
/FRR {MRR stroke } bdef
/PRR {MRR fill } bdef
/MlrRR {/lry xdef /lrx xdef /uly xdef /ulx xdef /rad lry uly sub 2 div def
  newpath tMatrix currentmatrix pop ulx rad add uly rad add translate
  rad rad scale 0 0 1 90 270 arc tMatrix setmatrix lrx rad sub lry rad
  sub translate rad rad scale 0 0 1 270 90 arc tMatrix setmatrix
  closepath} bdef
/FlrRR {MlrRR stroke } bdef
/PlrRR {MlrRR fill } bdef
/MtbRR {/lry xdef /lrx xdef /uly xdef /ulx xdef /rad lrx ulx sub 2 div def
  newpath tMatrix currentmatrix pop ulx rad add uly rad add translate
  rad rad scale 0 0 1 180 360 arc tMatrix setmatrix lrx rad sub lry rad
  sub translate rad rad scale 0 0 1 0 180 arc tMatrix setmatrix
  closepath} bdef
/FtbRR {MtbRR stroke } bdef
/PtbRR {MtbRR fill } bdef
/stri 6 array def /dtri 6 array def
/smat 6 array def /dmat 6 array def
/tmat1 6 array def /tmat2 6 array def /dif 3 array def
/asub {/ind2 exch def /ind1 exch def dup dup
  ind1 get exch ind2 get sub exch } bdef
/tri_to_matrix {
  2 0 asub 3 1 asub 4 0 asub 5 1 asub
  dup 0 get exch 1 get 7 -1 roll astore } bdef
/compute_transform {
  dmat dtri tri_to_matrix tmat1 invertmatrix 
  smat stri tri_to_matrix tmat2 concatmatrix } bdef
/ds {stri astore pop} bdef
/dt {dtri astore pop} bdef
/db {2 copy /cols xdef /rows xdef mul dup 3 mul string
  currentfile 
  3 index 0 eq {/ASCIIHexDecode filter}
  {/ASCII85Decode filter 3 index 2 eq {/RunLengthDecode filter} if }
  ifelse exch readstring pop
  dup 0 3 index getinterval /rbmap xdef
  dup 2 index dup getinterval /gbmap xdef
  1 index dup 2 mul exch getinterval /bbmap xdef pop pop}bdef
/it {gs np dtri aload pop moveto lineto lineto cp c
  cols rows 8 compute_transform 
  rbmap gbmap bbmap true 3 colorimage gr}bdef
/il {newpath moveto lineto stroke}bdef
currentdict end def
%%EndProlog

%%BeginSetup
MathWorks begin

0 cap

end
%%EndSetup

%%Page: 1 1
%%BeginPageSetup
%%PageBoundingBox:   198   288   414   504
MathWorks begin
bpage
%%EndPageSetup

%%BeginObject: obj1
bplot

/dpi2point 12 def
portraitMode 2376 6048 csm

    0     0  2592  2592 rc
85 dict begin %Colortable dictionary
/c0 { 0.000000 0.000000 0.000000 sr} bdef
/c1 { 1.000000 1.000000 1.000000 sr} bdef
/c2 { 0.900000 0.000000 0.000000 sr} bdef
/c3 { 0.000000 0.820000 0.000000 sr} bdef
/c4 { 0.000000 0.000000 0.800000 sr} bdef
/c5 { 0.910000 0.820000 0.320000 sr} bdef
/c6 { 1.000000 0.260000 0.820000 sr} bdef
/c7 { 0.000000 0.820000 0.820000 sr} bdef
c0
1 j
1 sg
   0    0 2593 2593 rf
6 w
0 1814 1814 0 0 -1814 605 2160 4 MP
PP
-1814 0 0 1814 1814 0 0 -1814 605 2160 5 MP stroke
4 w
DO
SO
6 w
0 sg
 605 2160 mt 2419 2160 L
 605  346 mt 2419  346 L
 605 2160 mt  605  346 L
2419 2160 mt 2419  346 L
 605 2160 mt 2419 2160 L
 605 2160 mt  605  346 L
 605 2160 mt  605 2141 L
 605  346 mt  605  364 L
%%IncludeResource: font Helvetica
/Helvetica /ISOLatin1Encoding 144 FMSR

 565 2328 mt 
(0) s
1209 2160 mt 1209 2141 L
1209  346 mt 1209  364 L
1089 2328 mt 
(100) s
1814 2160 mt 1814 2141 L
1814  346 mt 1814  364 L
1694 2328 mt 
(200) s
2419 2160 mt 2419 2141 L
2419  346 mt 2419  364 L
2299 2328 mt 
(300) s
 605 2160 mt  623 2160 L
2419 2160 mt 2400 2160 L
 490 2213 mt 
(0) s
 605 1857 mt  623 1857 L
2419 1857 mt 2400 1857 L
 210 1910 mt 
(0.005) s
 605 1555 mt  623 1555 L
2419 1555 mt 2400 1555 L
 290 1608 mt 
(0.01) s
 605 1253 mt  623 1253 L
2419 1253 mt 2400 1253 L
 210 1306 mt 
(0.015) s
 605  950 mt  623  950 L
2419  950 mt 2400  950 L
 290 1003 mt 
(0.02) s
 605  648 mt  623  648 L
2419  648 mt 2400  648 L
 210  701 mt 
(0.025) s
 605  346 mt  623  346 L
2419  346 mt 2400  346 L
 290  399 mt 
(0.03) s
 605 2160 mt 2419 2160 L
 605  346 mt 2419  346 L
 605 2160 mt  605  346 L
2419 2160 mt 2419  346 L
gs 605 346 1815 1815 rc
12 w
/c8 { 1.000000 0.000000 0.000000 sr} bdef
c8
7 0 6 0 6 0 6 0 6 0 6 0 6 0 6 0 
6 0 6 0 6 0 6 0 6 0 6 0 6 0 6 0 
6 0 6 0 6 0 6 0 6 0 7 0 6 0 6 0 
6 0 6 0 6 0 6 0 6 0 6 0 6 0 6 0 
6 0 6 0 6 0 6 0 6 0 6 0 6 0 6 0 
6 0 6 0 7 0 6 0 6 0 6 0 6 0 6 0 
6 1 6 -1 6 0 6 0 6 0 6 1 6 -1 6 0 
6 0 6 0 6 1 6 0 6 -1 6 0 6 0 6 1 
7 -1 6 1 6 0 6 -1 6 0 6 2 6 -1 6 0 
6 -1 6 0 6 2 6 0 6 1 6 -3 6 1 6 2 
6 -3 6 0 6 0 6 0 6 0 7 4 6 -1 6 -1 
6 1 6 1 6 0 6 1 6 -2 6 2 6 0 6 0 
6 6 6 -2 6 1 6 -1 6 -2 6 2 6 7 6 0 
6 -1 6 -1 6 5 7 -1 6 -1 6 10 6 0 6 -2 
6 6 6 0 6 7 6 8 6 -8 6 16 6 10 6 -14 
6 24 6 -6 6 5 6 1 6 1 6 26 6 7 6 6 
7 7 6 11 6 39 6 1 6 16 6 40 6 13 6 23 
6 56 6 -10 6 52 6 21 6 56 6 41 6 6 6 35 
6 93 6 3 6 66 6 90 6 47 6 59 7 -3 6 93 
6 44 6 -7 6 92 6 5 6 29 6 85 6 -23 6 78 
6 46 6 -25 6 -8 6 7 6 64 6 -78 6 24 6 -45 
6 89 6 -39 6 -101 7 64 6 -48 6 -57 6 -23 6 -70 
6 -65 6 40 6 -48 6 -84 6 -42 6 4 6 -43 6 -65 
6 -47 6 -29 6 -57 6 24 6 -59 6 -23 6 -63 6 -48 
7 -4 6 -23 6 -64 6 -23 6 4 6 -46 6 -3 6 -31 
6 -18 6 -4 6 -19 6 -14 6 -37 6 3 6 3 6 -32 
6 -7 6 -5 6 2 6 -18 6 -6 6 -15 7 16 6 -36 
6 10 6 -13 6 -10 6 -3 6 -10 6 10 6 -19 6 -6 
6 -9 6 -9 6 4 6 2 6 3 6 -24 6 10 6 -2 
6 4 6 -7 6 1 7 -6 6 4 6 2 6 -7 6 1 
6 3 6 0 6 -8 6 0 6 -2 6 8 6 -6 6 -2 
6 -6 6 6 6 -2 6 0 6 5 6 -8 6 3 6 2 
6 -4 7 -1 6 3 6 -6 6 5 6 0 6 -4 6 -2 
6 3 6 1 6 -1 6 -1 6 0 6 1 6 -3 6 2 
6 -2 6 0 6 0 6 3 6 -3 6 1 7 -1 6 1 
6 -1 6 0 6 0 6 0 6 0 6 0 6 1 6 0 
6 -1 6 0 6 1 6 -1 6 0 6 0 6 0 6 0 
6 0 6 0 6 0 611 2160 300 MP stroke
gr

12 w
c8
gs 586 779 1859 1407 rc
0 j
12 15 -12 15 -12 -15 12 -15 611 2175 5 MP
DP
12 15 -12 15 -12 -15 12 -15 617 2175 5 MP
DP
12 15 -12 15 -12 -15 12 -15 623 2175 5 MP
DP
12 15 -12 15 -12 -15 12 -15 629 2175 5 MP
DP
12 15 -12 15 -12 -15 12 -15 635 2175 5 MP
DP
12 15 -12 15 -12 -15 12 -15 641 2175 5 MP
DP
12 15 -12 15 -12 -15 12 -15 647 2175 5 MP
DP
12 15 -12 15 -12 -15 12 -15 653 2175 5 MP
DP
12 15 -12 15 -12 -15 12 -15 659 2174 5 MP
DP
12 15 -12 15 -12 -15 12 -15 665 2175 5 MP
DP
12 15 -12 15 -12 -15 12 -15 671 2175 5 MP
DP
12 15 -12 15 -12 -15 12 -15 677 2174 5 MP
DP
12 15 -12 15 -12 -15 12 -15 683 2174 5 MP
DP
12 15 -12 15 -12 -15 12 -15 689 2175 5 MP
DP
12 15 -12 15 -12 -15 12 -15 695 2175 5 MP
DP
12 15 -12 15 -12 -15 12 -15 701 2175 5 MP
DP
12 15 -12 15 -12 -15 12 -15 707 2175 5 MP
DP
12 15 -12 15 -12 -15 12 -15 713 2175 5 MP
DP
12 15 -12 15 -12 -15 12 -15 719 2175 5 MP
DP
12 15 -12 15 -12 -15 12 -15 725 2174 5 MP
DP
12 15 -12 15 -12 -15 12 -15 731 2175 5 MP
DP
12 15 -12 15 -12 -15 12 -15 738 2174 5 MP
DP
12 15 -12 15 -12 -15 12 -15 744 2175 5 MP
DP
12 15 -12 15 -12 -15 12 -15 750 2172 5 MP
DP
12 15 -12 15 -12 -15 12 -15 756 2175 5 MP
DP
12 15 -12 15 -12 -15 12 -15 762 2175 5 MP
DP
12 15 -12 15 -12 -15 12 -15 768 2175 5 MP
DP
12 15 -12 15 -12 -15 12 -15 774 2173 5 MP
DP
12 15 -12 15 -12 -15 12 -15 780 2175 5 MP
DP
12 15 -12 15 -12 -15 12 -15 786 2172 5 MP
DP
12 15 -12 15 -12 -15 12 -15 792 2173 5 MP
DP
12 15 -12 15 -12 -15 12 -15 798 2173 5 MP
DP
12 15 -12 15 -12 -15 12 -15 804 2172 5 MP
DP
12 15 -12 15 -12 -15 12 -15 810 2171 5 MP
DP
12 15 -12 15 -12 -15 12 -15 816 2172 5 MP
DP
12 15 -12 15 -12 -15 12 -15 822 2175 5 MP
DP
12 15 -12 15 -12 -15 12 -15 828 2173 5 MP
DP
12 15 -12 15 -12 -15 12 -15 834 2169 5 MP
DP
12 15 -12 15 -12 -15 12 -15 840 2169 5 MP
DP
12 15 -12 15 -12 -15 12 -15 846 2174 5 MP
DP
12 15 -12 15 -12 -15 12 -15 852 2168 5 MP
DP
12 15 -12 15 -12 -15 12 -15 858 2171 5 MP
DP
12 15 -12 15 -12 -15 12 -15 865 2170 5 MP
DP
12 15 -12 15 -12 -15 12 -15 871 2166 5 MP
DP
12 15 -12 15 -12 -15 12 -15 877 2168 5 MP
DP
12 15 -12 15 -12 -15 12 -15 883 2171 5 MP
DP
12 15 -12 15 -12 -15 12 -15 889 2163 5 MP
DP
12 15 -12 15 -12 -15 12 -15 895 2168 5 MP
DP
12 15 -12 15 -12 -15 12 -15 901 2168 5 MP
DP
12 15 -12 15 -12 -15 12 -15 907 2166 5 MP
DP
12 15 -12 15 -12 -15 12 -15 913 2172 5 MP
DP
12 15 -12 15 -12 -15 12 -15 919 2166 5 MP
DP
12 15 -12 15 -12 -15 12 -15 925 2164 5 MP
DP
12 15 -12 15 -12 -15 12 -15 931 2158 5 MP
DP
12 15 -12 15 -12 -15 12 -15 937 2166 5 MP
DP
12 15 -12 15 -12 -15 12 -15 943 2164 5 MP
DP
12 15 -12 15 -12 -15 12 -15 949 2164 5 MP
DP
12 15 -12 15 -12 -15 12 -15 955 2156 5 MP
DP
12 15 -12 15 -12 -15 12 -15 961 2156 5 MP
DP
12 15 -12 15 -12 -15 12 -15 967 2159 5 MP
DP
12 15 -12 15 -12 -15 12 -15 973 2160 5 MP
DP
12 15 -12 15 -12 -15 12 -15 979 2153 5 MP
DP
12 15 -12 15 -12 -15 12 -15 985 2155 5 MP
DP
12 15 -12 15 -12 -15 12 -15 991 2159 5 MP
DP
12 15 -12 15 -12 -15 12 -15 998 2153 5 MP
DP
12 15 -12 15 -12 -15 12 -15 1004 2154 5 MP
DP
12 15 -12 15 -12 -15 12 -15 1010 2147 5 MP
DP
12 15 -12 15 -12 -15 12 -15 1016 2151 5 MP
DP
12 15 -12 15 -12 -15 12 -15 1022 2149 5 MP
DP
12 15 -12 15 -12 -15 12 -15 1028 2159 5 MP
DP
12 15 -12 15 -12 -15 12 -15 1034 2135 5 MP
DP
12 15 -12 15 -12 -15 12 -15 1040 2138 5 MP
DP
12 15 -12 15 -12 -15 12 -15 1046 2140 5 MP
DP
12 15 -12 15 -12 -15 12 -15 1052 2144 5 MP
DP
12 15 -12 15 -12 -15 12 -15 1058 2135 5 MP
DP
12 15 -12 15 -12 -15 12 -15 1064 2126 5 MP
DP
12 15 -12 15 -12 -15 12 -15 1070 2120 5 MP
DP
12 15 -12 15 -12 -15 12 -15 1076 2101 5 MP
DP
12 15 -12 15 -12 -15 12 -15 1082 2111 5 MP
DP
12 15 -12 15 -12 -15 12 -15 1088 2101 5 MP
DP
12 15 -12 15 -12 -15 12 -15 1094 2098 5 MP
DP
12 15 -12 15 -12 -15 12 -15 1100 2088 5 MP
DP
12 15 -12 15 -12 -15 12 -15 1106 2075 5 MP
DP
12 15 -12 15 -12 -15 12 -15 1112 2085 5 MP
DP
12 15 -12 15 -12 -15 12 -15 1118 2049 5 MP
DP
12 15 -12 15 -12 -15 12 -15 1125 2065 5 MP
DP
12 15 -12 15 -12 -15 12 -15 1131 2050 5 MP
DP
12 15 -12 15 -12 -15 12 -15 1137 2044 5 MP
DP
12 15 -12 15 -12 -15 12 -15 1143 2026 5 MP
DP
12 15 -12 15 -12 -15 12 -15 1149 2028 5 MP
DP
12 15 -12 15 -12 -15 12 -15 1155 2023 5 MP
DP
12 15 -12 15 -12 -15 12 -15 1161 2016 5 MP
DP
12 15 -12 15 -12 -15 12 -15 1167 1984 5 MP
DP
12 15 -12 15 -12 -15 12 -15 1173 1987 5 MP
DP
12 15 -12 15 -12 -15 12 -15 1179 1990 5 MP
DP
12 15 -12 15 -12 -15 12 -15 1185 1953 5 MP
DP
12 15 -12 15 -12 -15 12 -15 1191 1939 5 MP
DP
12 15 -12 15 -12 -15 12 -15 1197 1920 5 MP
DP
12 15 -12 15 -12 -15 12 -15 1203 1916 5 MP
DP
12 15 -12 15 -12 -15 12 -15 1209 1898 5 MP
DP
12 15 -12 15 -12 -15 12 -15 1215 1867 5 MP
DP
12 15 -12 15 -12 -15 12 -15 1221 1864 5 MP
DP
12 15 -12 15 -12 -15 12 -15 1227 1818 5 MP
DP
12 15 -12 15 -12 -15 12 -15 1233 1822 5 MP
DP
12 15 -12 15 -12 -15 12 -15 1239 1799 5 MP
DP
12 15 -12 15 -12 -15 12 -15 1245 1735 5 MP
DP
12 15 -12 15 -12 -15 12 -15 1251 1712 5 MP
DP
12 15 -12 15 -12 -15 12 -15 1258 1708 5 MP
DP
12 15 -12 15 -12 -15 12 -15 1264 1660 5 MP
DP
12 15 -12 15 -12 -15 12 -15 1270 1597 5 MP
DP
12 15 -12 15 -12 -15 12 -15 1276 1574 5 MP
DP
12 15 -12 15 -12 -15 12 -15 1282 1515 5 MP
DP
12 15 -12 15 -12 -15 12 -15 1288 1539 5 MP
DP
12 15 -12 15 -12 -15 12 -15 1294 1482 5 MP
DP
12 15 -12 15 -12 -15 12 -15 1300 1453 5 MP
DP
12 15 -12 15 -12 -15 12 -15 1306 1406 5 MP
DP
12 15 -12 15 -12 -15 12 -15 1312 1341 5 MP
DP
12 15 -12 15 -12 -15 12 -15 1318 1298 5 MP
DP
12 15 -12 15 -12 -15 12 -15 1324 1302 5 MP
DP
12 15 -12 15 -12 -15 12 -15 1330 1260 5 MP
DP
12 15 -12 15 -12 -15 12 -15 1336 1176 5 MP
DP
12 15 -12 15 -12 -15 12 -15 1342 1128 5 MP
DP
12 15 -12 15 -12 -15 12 -15 1348 1168 5 MP
DP
12 15 -12 15 -12 -15 12 -15 1354 1103 5 MP
DP
12 15 -12 15 -12 -15 12 -15 1360 1033 5 MP
DP
12 15 -12 15 -12 -15 12 -15 1366 1010 5 MP
DP
12 15 -12 15 -12 -15 12 -15 1372 953 5 MP
DP
12 15 -12 15 -12 -15 12 -15 1378 905 5 MP
DP
12 15 -12 15 -12 -15 12 -15 1385 969 5 MP
DP
12 15 -12 15 -12 -15 12 -15 1391 868 5 MP
DP
12 15 -12 15 -12 -15 12 -15 1397 829 5 MP
DP
12 15 -12 15 -12 -15 12 -15 1403 918 5 MP
DP
12 15 -12 15 -12 -15 12 -15 1409 873 5 MP
DP
12 15 -12 15 -12 -15 12 -15 1415 897 5 MP
DP
12 15 -12 15 -12 -15 12 -15 1421 819 5 MP
DP
12 15 -12 15 -12 -15 12 -15 1427 883 5 MP
DP
12 15 -12 15 -12 -15 12 -15 1433 890 5 MP
DP
12 15 -12 15 -12 -15 12 -15 1439 882 5 MP
DP
12 15 -12 15 -12 -15 12 -15 1445 857 5 MP
DP
12 15 -12 15 -12 -15 12 -15 1451 903 5 MP
DP
12 15 -12 15 -12 -15 12 -15 1457 981 5 MP
DP
12 15 -12 15 -12 -15 12 -15 1463 958 5 MP
DP
12 15 -12 15 -12 -15 12 -15 1469 1043 5 MP
DP
12 15 -12 15 -12 -15 12 -15 1475 1072 5 MP
DP
12 15 -12 15 -12 -15 12 -15 1481 1077 5 MP
DP
12 15 -12 15 -12 -15 12 -15 1487 1169 5 MP
DP
12 15 -12 15 -12 -15 12 -15 1493 1162 5 MP
DP
12 15 -12 15 -12 -15 12 -15 1499 1206 5 MP
DP
12 15 -12 15 -12 -15 12 -15 1505 1299 5 MP
DP
12 15 -12 15 -12 -15 12 -15 1512 1296 5 MP
DP
12 15 -12 15 -12 -15 12 -15 1518 1355 5 MP
DP
12 15 -12 15 -12 -15 12 -15 1524 1402 5 MP
DP
12 15 -12 15 -12 -15 12 -15 1530 1492 5 MP
DP
12 15 -12 15 -12 -15 12 -15 1536 1558 5 MP
DP
12 15 -12 15 -12 -15 12 -15 1542 1561 5 MP
DP
12 15 -12 15 -12 -15 12 -15 1548 1654 5 MP
DP
12 15 -12 15 -12 -15 12 -15 1554 1689 5 MP
DP
12 15 -12 15 -12 -15 12 -15 1560 1695 5 MP
DP
12 15 -12 15 -12 -15 12 -15 1566 1736 5 MP
DP
12 15 -12 15 -12 -15 12 -15 1572 1792 5 MP
DP
12 15 -12 15 -12 -15 12 -15 1578 1813 5 MP
DP
12 15 -12 15 -12 -15 12 -15 1584 1865 5 MP
DP
12 15 -12 15 -12 -15 12 -15 1590 1855 5 MP
DP
12 15 -12 15 -12 -15 12 -15 1596 1911 5 MP
DP
12 15 -12 15 -12 -15 12 -15 1602 1934 5 MP
DP
12 15 -12 15 -12 -15 12 -15 1608 1947 5 MP
DP
12 15 -12 15 -12 -15 12 -15 1614 1987 5 MP
DP
12 15 -12 15 -12 -15 12 -15 1620 2003 5 MP
DP
12 15 -12 15 -12 -15 12 -15 1626 2004 5 MP
DP
12 15 -12 15 -12 -15 12 -15 1632 2043 5 MP
DP
12 15 -12 15 -12 -15 12 -15 1638 2054 5 MP
DP
12 15 -12 15 -12 -15 12 -15 1645 2061 5 MP
DP
12 15 -12 15 -12 -15 12 -15 1651 2067 5 MP
DP
12 15 -12 15 -12 -15 12 -15 1657 2074 5 MP
DP
12 15 -12 15 -12 -15 12 -15 1663 2100 5 MP
DP
12 15 -12 15 -12 -15 12 -15 1669 2101 5 MP
DP
12 15 -12 15 -12 -15 12 -15 1675 2102 5 MP
DP
12 15 -12 15 -12 -15 12 -15 1681 2107 5 MP
DP
12 15 -12 15 -12 -15 12 -15 1687 2101 5 MP
DP
12 15 -12 15 -12 -15 12 -15 1693 2125 5 MP
DP
12 15 -12 15 -12 -15 12 -15 1699 2111 5 MP
DP
12 15 -12 15 -12 -15 12 -15 1705 2121 5 MP
DP
12 15 -12 15 -12 -15 12 -15 1711 2137 5 MP
DP
12 15 -12 15 -12 -15 12 -15 1717 2129 5 MP
DP
12 15 -12 15 -12 -15 12 -15 1723 2137 5 MP
DP
12 15 -12 15 -12 -15 12 -15 1729 2144 5 MP
DP
12 15 -12 15 -12 -15 12 -15 1735 2144 5 MP
DP
12 15 -12 15 -12 -15 12 -15 1741 2150 5 MP
DP
12 15 -12 15 -12 -15 12 -15 1747 2148 5 MP
DP
12 15 -12 15 -12 -15 12 -15 1753 2148 5 MP
DP
12 15 -12 15 -12 -15 12 -15 1759 2158 5 MP
DP
12 15 -12 15 -12 -15 12 -15 1765 2157 5 MP
DP
12 15 -12 15 -12 -15 12 -15 1772 2156 5 MP
DP
12 15 -12 15 -12 -15 12 -15 1778 2161 5 MP
DP
12 15 -12 15 -12 -15 12 -15 1784 2160 5 MP
DP
12 15 -12 15 -12 -15 12 -15 1790 2159 5 MP
DP
12 15 -12 15 -12 -15 12 -15 1796 2159 5 MP
DP
12 15 -12 15 -12 -15 12 -15 1802 2166 5 MP
DP
12 15 -12 15 -12 -15 12 -15 1808 2168 5 MP
DP
12 15 -12 15 -12 -15 12 -15 1814 2166 5 MP
DP
12 15 -12 15 -12 -15 12 -15 1820 2165 5 MP
DP
12 15 -12 15 -12 -15 12 -15 1826 2166 5 MP
DP
12 15 -12 15 -12 -15 12 -15 1832 2164 5 MP
DP
12 15 -12 15 -12 -15 12 -15 1838 2170 5 MP
DP
12 15 -12 15 -12 -15 12 -15 1844 2170 5 MP
DP
12 15 -12 15 -12 -15 12 -15 1850 2170 5 MP
DP
12 15 -12 15 -12 -15 12 -15 1856 2172 5 MP
DP
12 15 -12 15 -12 -15 12 -15 1862 2170 5 MP
DP
12 15 -12 15 -12 -15 12 -15 1868 2171 5 MP
DP
12 15 -12 15 -12 -15 12 -15 1874 2171 5 MP
DP
12 15 -12 15 -12 -15 12 -15 1880 2172 5 MP
DP
12 15 -12 15 -12 -15 12 -15 1886 2173 5 MP
DP
12 15 -12 15 -12 -15 12 -15 1892 2172 5 MP
DP
12 15 -12 15 -12 -15 12 -15 1898 2171 5 MP
DP
12 15 -12 15 -12 -15 12 -15 1905 2175 5 MP
DP
12 15 -12 15 -12 -15 12 -15 1911 2175 5 MP
DP
12 15 -12 15 -12 -15 12 -15 1917 2175 5 MP
DP
12 15 -12 15 -12 -15 12 -15 1923 2175 5 MP
DP
12 15 -12 15 -12 -15 12 -15 1929 2175 5 MP
DP
12 15 -12 15 -12 -15 12 -15 1935 2172 5 MP
DP
12 15 -12 15 -12 -15 12 -15 1941 2174 5 MP
DP
12 15 -12 15 -12 -15 12 -15 1947 2175 5 MP
DP
12 15 -12 15 -12 -15 12 -15 1953 2172 5 MP
DP
12 15 -12 15 -12 -15 12 -15 1959 2173 5 MP
DP
12 15 -12 15 -12 -15 12 -15 1965 2173 5 MP
DP
12 15 -12 15 -12 -15 12 -15 1971 2175 5 MP
DP
12 15 -12 15 -12 -15 12 -15 1977 2175 5 MP
DP
12 15 -12 15 -12 -15 12 -15 1983 2174 5 MP
DP
12 15 -12 15 -12 -15 12 -15 1989 2174 5 MP
DP
12 15 -12 15 -12 -15 12 -15 1995 2173 5 MP
DP
12 15 -12 15 -12 -15 12 -15 2001 2175 5 MP
DP
12 15 -12 15 -12 -15 12 -15 2007 2175 5 MP
DP
12 15 -12 15 -12 -15 12 -15 2013 2174 5 MP
DP
12 15 -12 15 -12 -15 12 -15 2019 2174 5 MP
DP
12 15 -12 15 -12 -15 12 -15 2025 2175 5 MP
DP
12 15 -12 15 -12 -15 12 -15 2032 2174 5 MP
DP
12 15 -12 15 -12 -15 12 -15 2038 2175 5 MP
DP
12 15 -12 15 -12 -15 12 -15 2044 2175 5 MP
DP
12 15 -12 15 -12 -15 12 -15 2050 2175 5 MP
DP
12 15 -12 15 -12 -15 12 -15 2056 2174 5 MP
DP
12 15 -12 15 -12 -15 12 -15 2062 2174 5 MP
DP
12 15 -12 15 -12 -15 12 -15 2068 2175 5 MP
DP
12 15 -12 15 -12 -15 12 -15 2074 2175 5 MP
DP
12 15 -12 15 -12 -15 12 -15 2080 2175 5 MP
DP
12 15 -12 15 -12 -15 12 -15 2086 2175 5 MP
DP
12 15 -12 15 -12 -15 12 -15 2092 2174 5 MP
DP
12 15 -12 15 -12 -15 12 -15 2098 2175 5 MP
DP
12 15 -12 15 -12 -15 12 -15 2104 2175 5 MP
DP
12 15 -12 15 -12 -15 12 -15 2110 2175 5 MP
DP
12 15 -12 15 -12 -15 12 -15 2116 2175 5 MP
DP
12 15 -12 15 -12 -15 12 -15 2122 2174 5 MP
DP
12 15 -12 15 -12 -15 12 -15 2128 2175 5 MP
DP
12 15 -12 15 -12 -15 12 -15 2134 2175 5 MP
DP
12 15 -12 15 -12 -15 12 -15 2140 2175 5 MP
DP
12 15 -12 15 -12 -15 12 -15 2146 2175 5 MP
DP
12 15 -12 15 -12 -15 12 -15 2152 2175 5 MP
DP
12 15 -12 15 -12 -15 12 -15 2158 2175 5 MP
DP
12 15 -12 15 -12 -15 12 -15 2165 2175 5 MP
DP
12 15 -12 15 -12 -15 12 -15 2171 2175 5 MP
DP
12 15 -12 15 -12 -15 12 -15 2177 2175 5 MP
DP
12 15 -12 15 -12 -15 12 -15 2183 2175 5 MP
DP
12 15 -12 15 -12 -15 12 -15 2189 2175 5 MP
DP
12 15 -12 15 -12 -15 12 -15 2195 2175 5 MP
DP
12 15 -12 15 -12 -15 12 -15 2201 2175 5 MP
DP
12 15 -12 15 -12 -15 12 -15 2207 2175 5 MP
DP
12 15 -12 15 -12 -15 12 -15 2213 2175 5 MP
DP
12 15 -12 15 -12 -15 12 -15 2219 2175 5 MP
DP
12 15 -12 15 -12 -15 12 -15 2225 2175 5 MP
DP
12 15 -12 15 -12 -15 12 -15 2231 2175 5 MP
DP
12 15 -12 15 -12 -15 12 -15 2237 2175 5 MP
DP
12 15 -12 15 -12 -15 12 -15 2243 2175 5 MP
DP
12 15 -12 15 -12 -15 12 -15 2249 2175 5 MP
DP
12 15 -12 15 -12 -15 12 -15 2255 2175 5 MP
DP
12 15 -12 15 -12 -15 12 -15 2261 2175 5 MP
DP
12 15 -12 15 -12 -15 12 -15 2267 2175 5 MP
DP
12 15 -12 15 -12 -15 12 -15 2273 2175 5 MP
DP
12 15 -12 15 -12 -15 12 -15 2279 2175 5 MP
DP
12 15 -12 15 -12 -15 12 -15 2285 2175 5 MP
DP
12 15 -12 15 -12 -15 12 -15 2292 2175 5 MP
DP
12 15 -12 15 -12 -15 12 -15 2298 2175 5 MP
DP
12 15 -12 15 -12 -15 12 -15 2304 2175 5 MP
DP
12 15 -12 15 -12 -15 12 -15 2310 2175 5 MP
DP
12 15 -12 15 -12 -15 12 -15 2316 2175 5 MP
DP
12 15 -12 15 -12 -15 12 -15 2322 2175 5 MP
DP
12 15 -12 15 -12 -15 12 -15 2328 2175 5 MP
DP
12 15 -12 15 -12 -15 12 -15 2334 2175 5 MP
DP
12 15 -12 15 -12 -15 12 -15 2340 2175 5 MP
DP
12 15 -12 15 -12 -15 12 -15 2346 2175 5 MP
DP
12 15 -12 15 -12 -15 12 -15 2352 2175 5 MP
DP
12 15 -12 15 -12 -15 12 -15 2358 2175 5 MP
DP
12 15 -12 15 -12 -15 12 -15 2364 2175 5 MP
DP
12 15 -12 15 -12 -15 12 -15 2370 2175 5 MP
DP
12 15 -12 15 -12 -15 12 -15 2376 2175 5 MP
DP
12 15 -12 15 -12 -15 12 -15 2382 2175 5 MP
DP
12 15 -12 15 -12 -15 12 -15 2388 2175 5 MP
DP
12 15 -12 15 -12 -15 12 -15 2394 2175 5 MP
DP
12 15 -12 15 -12 -15 12 -15 2400 2175 5 MP
DP
12 15 -12 15 -12 -15 12 -15 2406 2175 5 MP
DP
12 15 -12 15 -12 -15 12 -15 2412 2175 5 MP
DP
12 15 -12 15 -12 -15 12 -15 2419 2175 5 MP
DP
gr

gs 605 346 1815 1815 rc
/c9 { 0.000000 0.000000 1.000000 sr} bdef
c9
7 0 6 0 6 0 6 0 6 0 6 0 6 0 6 0 
6 0 6 0 6 0 6 0 6 0 6 0 6 0 6 0 
6 0 6 0 6 0 6 0 6 0 7 0 6 0 6 0 
6 0 6 0 6 0 6 3 6 -3 6 0 6 0 6 0 
6 0 6 0 6 0 6 0 6 0 6 0 6 0 6 0 
6 0 6 0 7 5 6 -5 6 0 6 3 6 -3 6 5 
6 -2 6 0 6 0 6 2 6 -5 6 3 6 2 6 -5 
6 0 6 0 6 3 6 0 6 -3 6 0 6 0 6 5 
7 2 6 -2 6 -2 6 2 6 2 6 -2 6 0 6 0 
6 6 6 2 6 -2 6 0 6 7 6 10 6 -19 6 4 
6 11 6 -11 6 2 6 0 6 0 7 9 6 -2 6 0 
6 0 6 15 6 4 6 -4 6 0 6 2 6 0 6 -9 
6 15 6 13 6 4 6 -4 6 19 6 -8 6 17 6 4 
6 2 6 2 6 19 7 -10 6 -5 6 24 6 74 6 -27 
6 2 6 -4 6 49 6 12 6 -15 6 47 6 -4 6 -43 
6 71 6 -4 6 -9 6 64 6 0 6 79 6 -15 6 19 
7 40 6 -6 6 87 6 64 6 -64 6 41 6 130 6 -17 
6 -2 6 134 6 -32 6 8 6 51 6 111 6 -89 6 21 
6 49 6 141 6 -20 6 -68 6 96 6 -4 7 -17 6 123 
6 -64 6 20 6 47 6 -147 6 132 6 -83 6 108 6 -108 
6 -20 6 -68 6 79 6 -23 6 -77 6 25 6 -21 6 -108 
6 -73 6 -17 6 9 7 -17 6 -32 6 -54 6 -17 6 -2 
6 -6 6 -64 6 -34 6 -4 6 -69 6 -17 6 -55 6 43 
6 -41 6 -17 6 -74 6 -9 6 -11 6 -51 6 22 6 -15 
7 -28 6 -15 6 -23 6 -3 6 -21 6 -23 6 -4 6 -15 
6 8 6 -17 6 -8 6 -15 6 -32 6 21 6 -9 6 -6 
6 0 6 -8 6 -9 6 -32 6 47 6 -19 7 -22 6 13 
6 -19 6 -8 6 -5 6 9 6 -2 6 -7 6 -4 6 0 
6 -13 6 11 6 6 6 -10 6 4 6 -11 6 5 6 -3 
6 0 6 -2 6 -4 7 0 6 -2 6 6 6 5 6 -3 
6 -2 6 -8 6 6 6 -2 6 6 6 -6 6 -2 6 2 
6 -6 6 0 6 0 6 -3 6 7 6 0 6 -4 6 2 
6 -5 7 0 6 5 6 -5 6 3 6 2 6 -2 6 -3 
6 9 6 -9 6 0 6 0 6 0 6 0 6 3 6 -3 
6 0 6 0 6 0 6 0 6 0 6 3 7 -3 6 3 
6 -3 6 0 6 3 6 -3 6 3 6 -3 6 0 6 0 
6 0 6 0 6 3 6 -3 6 0 6 0 6 0 6 0 
6 0 6 0 6 0 611 2160 300 MP stroke
gr

c9
0 j
0 -20 -20 0 0 20 20 0 601 2150 5 MP
DP
0 -20 -20 0 0 20 20 0 607 2150 5 MP
DP
0 -20 -20 0 0 20 20 0 613 2150 5 MP
DP
0 -20 -20 0 0 20 20 0 619 2150 5 MP
DP
0 -20 -20 0 0 20 20 0 625 2150 5 MP
DP
0 -20 -20 0 0 20 20 0 631 2150 5 MP
DP
0 -20 -20 0 0 20 20 0 637 2150 5 MP
DP
0 -20 -20 0 0 20 20 0 643 2150 5 MP
DP
0 -20 -20 0 0 20 20 0 649 2147 5 MP
DP
0 -20 -20 0 0 20 20 0 655 2150 5 MP
DP
0 -20 -20 0 0 20 20 0 661 2150 5 MP
DP
0 -20 -20 0 0 20 20 0 667 2150 5 MP
DP
0 -20 -20 0 0 20 20 0 673 2150 5 MP
DP
0 -20 -20 0 0 20 20 0 679 2150 5 MP
DP
0 -20 -20 0 0 20 20 0 685 2147 5 MP
DP
0 -20 -20 0 0 20 20 0 691 2150 5 MP
DP
0 -20 -20 0 0 20 20 0 697 2147 5 MP
DP
0 -20 -20 0 0 20 20 0 703 2150 5 MP
DP
0 -20 -20 0 0 20 20 0 709 2150 5 MP
DP
0 -20 -20 0 0 20 20 0 715 2147 5 MP
DP
0 -20 -20 0 0 20 20 0 721 2150 5 MP
DP
0 -20 -20 0 0 20 20 0 728 2147 5 MP
DP
0 -20 -20 0 0 20 20 0 734 2150 5 MP
DP
0 -20 -20 0 0 20 20 0 740 2150 5 MP
DP
0 -20 -20 0 0 20 20 0 746 2150 5 MP
DP
0 -20 -20 0 0 20 20 0 752 2150 5 MP
DP
0 -20 -20 0 0 20 20 0 758 2150 5 MP
DP
0 -20 -20 0 0 20 20 0 764 2150 5 MP
DP
0 -20 -20 0 0 20 20 0 770 2147 5 MP
DP
0 -20 -20 0 0 20 20 0 776 2150 5 MP
DP
0 -20 -20 0 0 20 20 0 782 2150 5 MP
DP
0 -20 -20 0 0 20 20 0 788 2150 5 MP
DP
0 -20 -20 0 0 20 20 0 794 2150 5 MP
DP
0 -20 -20 0 0 20 20 0 800 2150 5 MP
DP
0 -20 -20 0 0 20 20 0 806 2141 5 MP
DP
0 -20 -20 0 0 20 20 0 812 2150 5 MP
DP
0 -20 -20 0 0 20 20 0 818 2147 5 MP
DP
0 -20 -20 0 0 20 20 0 824 2145 5 MP
DP
0 -20 -20 0 0 20 20 0 830 2147 5 MP
DP
0 -20 -20 0 0 20 20 0 836 2150 5 MP
DP
0 -20 -20 0 0 20 20 0 842 2145 5 MP
DP
0 -20 -20 0 0 20 20 0 848 2150 5 MP
DP
0 -20 -20 0 0 20 20 0 855 2150 5 MP
DP
0 -20 -20 0 0 20 20 0 861 2145 5 MP
DP
0 -20 -20 0 0 20 20 0 867 2147 5 MP
DP
0 -20 -20 0 0 20 20 0 873 2143 5 MP
DP
0 -20 -20 0 0 20 20 0 879 2143 5 MP
DP
0 -20 -20 0 0 20 20 0 885 2150 5 MP
DP
0 -20 -20 0 0 20 20 0 891 2147 5 MP
DP
0 -20 -20 0 0 20 20 0 897 2147 5 MP
DP
0 -20 -20 0 0 20 20 0 903 2147 5 MP
DP
0 -20 -20 0 0 20 20 0 909 2141 5 MP
DP
0 -20 -20 0 0 20 20 0 915 2143 5 MP
DP
0 -20 -20 0 0 20 20 0 921 2141 5 MP
DP
0 -20 -20 0 0 20 20 0 927 2135 5 MP
DP
0 -20 -20 0 0 20 20 0 933 2141 5 MP
DP
0 -20 -20 0 0 20 20 0 939 2139 5 MP
DP
0 -20 -20 0 0 20 20 0 945 2145 5 MP
DP
0 -20 -20 0 0 20 20 0 951 2137 5 MP
DP
0 -20 -20 0 0 20 20 0 957 2135 5 MP
DP
0 -20 -20 0 0 20 20 0 963 2132 5 MP
DP
0 -20 -20 0 0 20 20 0 969 2137 5 MP
DP
0 -20 -20 0 0 20 20 0 975 2143 5 MP
DP
0 -20 -20 0 0 20 20 0 981 2141 5 MP
DP
0 -20 -20 0 0 20 20 0 988 2141 5 MP
DP
0 -20 -20 0 0 20 20 0 994 2137 5 MP
DP
0 -20 -20 0 0 20 20 0 1000 2135 5 MP
DP
0 -20 -20 0 0 20 20 0 1006 2135 5 MP
DP
0 -20 -20 0 0 20 20 0 1012 2132 5 MP
DP
0 -20 -20 0 0 20 20 0 1018 2137 5 MP
DP
0 -20 -20 0 0 20 20 0 1024 2126 5 MP
DP
0 -20 -20 0 0 20 20 0 1030 2130 5 MP
DP
0 -20 -20 0 0 20 20 0 1036 2120 5 MP
DP
0 -20 -20 0 0 20 20 0 1042 2126 5 MP
DP
0 -20 -20 0 0 20 20 0 1048 2137 5 MP
DP
0 -20 -20 0 0 20 20 0 1054 2124 5 MP
DP
0 -20 -20 0 0 20 20 0 1060 2124 5 MP
DP
0 -20 -20 0 0 20 20 0 1066 2120 5 MP
DP
0 -20 -20 0 0 20 20 0 1072 2113 5 MP
DP
0 -20 -20 0 0 20 20 0 1078 2111 5 MP
DP
0 -20 -20 0 0 20 20 0 1084 2120 5 MP
DP
0 -20 -20 0 0 20 20 0 1090 2115 5 MP
DP
0 -20 -20 0 0 20 20 0 1096 2107 5 MP
DP
0 -20 -20 0 0 20 20 0 1102 2088 5 MP
DP
0 -20 -20 0 0 20 20 0 1108 2101 5 MP
DP
0 -20 -20 0 0 20 20 0 1115 2079 5 MP
DP
0 -20 -20 0 0 20 20 0 1121 2060 5 MP
DP
0 -20 -20 0 0 20 20 0 1127 2107 5 MP
DP
0 -20 -20 0 0 20 20 0 1133 2075 5 MP
DP
0 -20 -20 0 0 20 20 0 1139 2066 5 MP
DP
0 -20 -20 0 0 20 20 0 1145 2058 5 MP
DP
0 -20 -20 0 0 20 20 0 1151 2058 5 MP
DP
0 -20 -20 0 0 20 20 0 1157 2052 5 MP
DP
0 -20 -20 0 0 20 20 0 1163 2043 5 MP
DP
0 -20 -20 0 0 20 20 0 1169 2064 5 MP
DP
0 -20 -20 0 0 20 20 0 1175 2032 5 MP
DP
0 -20 -20 0 0 20 20 0 1181 2017 5 MP
DP
0 -20 -20 0 0 20 20 0 1187 2009 5 MP
DP
0 -20 -20 0 0 20 20 0 1193 1992 5 MP
DP
0 -20 -20 0 0 20 20 0 1199 2000 5 MP
DP
0 -20 -20 0 0 20 20 0 1205 1985 5 MP
DP
0 -20 -20 0 0 20 20 0 1211 1981 5 MP
DP
0 -20 -20 0 0 20 20 0 1217 1958 5 MP
DP
0 -20 -20 0 0 20 20 0 1223 1937 5 MP
DP
0 -20 -20 0 0 20 20 0 1229 1934 5 MP
DP
0 -20 -20 0 0 20 20 0 1235 1911 5 MP
DP
0 -20 -20 0 0 20 20 0 1241 1896 5 MP
DP
0 -20 -20 0 0 20 20 0 1248 1868 5 MP
DP
0 -20 -20 0 0 20 20 0 1254 1853 5 MP
DP
0 -20 -20 0 0 20 20 0 1260 1875 5 MP
DP
0 -20 -20 0 0 20 20 0 1266 1824 5 MP
DP
0 -20 -20 0 0 20 20 0 1272 1813 5 MP
DP
0 -20 -20 0 0 20 20 0 1278 1804 5 MP
DP
0 -20 -20 0 0 20 20 0 1284 1730 5 MP
DP
0 -20 -20 0 0 20 20 0 1290 1713 5 MP
DP
0 -20 -20 0 0 20 20 0 1296 1672 5 MP
DP
0 -20 -20 0 0 20 20 0 1302 1715 5 MP
DP
0 -20 -20 0 0 20 20 0 1308 1660 5 MP
DP
0 -20 -20 0 0 20 20 0 1314 1643 5 MP
DP
0 -20 -20 0 0 20 20 0 1320 1574 5 MP
DP
0 -20 -20 0 0 20 20 0 1326 1570 5 MP
DP
0 -20 -20 0 0 20 20 0 1332 1536 5 MP
DP
0 -20 -20 0 0 20 20 0 1338 1472 5 MP
DP
0 -20 -20 0 0 20 20 0 1344 1466 5 MP
DP
0 -20 -20 0 0 20 20 0 1350 1464 5 MP
DP
0 -20 -20 0 0 20 20 0 1356 1447 5 MP
DP
0 -20 -20 0 0 20 20 0 1362 1393 5 MP
DP
0 -20 -20 0 0 20 20 0 1368 1361 5 MP
DP
0 -20 -20 0 0 20 20 0 1375 1344 5 MP
DP
0 -20 -20 0 0 20 20 0 1381 1353 5 MP
DP
0 -20 -20 0 0 20 20 0 1387 1336 5 MP
DP
0 -20 -20 0 0 20 20 0 1393 1263 5 MP
DP
0 -20 -20 0 0 20 20 0 1399 1155 5 MP
DP
0 -20 -20 0 0 20 20 0 1405 1134 5 MP
DP
0 -20 -20 0 0 20 20 0 1411 1159 5 MP
DP
0 -20 -20 0 0 20 20 0 1417 1082 5 MP
DP
0 -20 -20 0 0 20 20 0 1423 1059 5 MP
DP
0 -20 -20 0 0 20 20 0 1429 1138 5 MP
DP
0 -20 -20 0 0 20 20 0 1435 1070 5 MP
DP
0 -20 -20 0 0 20 20 0 1441 1050 5 MP
DP
0 -20 -20 0 0 20 20 0 1447 942 5 MP
DP
0 -20 -20 0 0 20 20 0 1453 1050 5 MP
DP
0 -20 -20 0 0 20 20 0 1459 967 5 MP
DP
0 -20 -20 0 0 20 20 0 1465 1099 5 MP
DP
0 -20 -20 0 0 20 20 0 1471 952 5 MP
DP
0 -20 -20 0 0 20 20 0 1477 999 5 MP
DP
0 -20 -20 0 0 20 20 0 1483 1019 5 MP
DP
0 -20 -20 0 0 20 20 0 1489 955 5 MP
DP
0 -20 -20 0 0 20 20 0 1495 1078 5 MP
DP
0 -20 -20 0 0 20 20 0 1502 1061 5 MP
DP
0 -20 -20 0 0 20 20 0 1508 1057 5 MP
DP
0 -20 -20 0 0 20 20 0 1514 1153 5 MP
DP
0 -20 -20 0 0 20 20 0 1520 1085 5 MP
DP
0 -20 -20 0 0 20 20 0 1526 1065 5 MP
DP
0 -20 -20 0 0 20 20 0 1532 1206 5 MP
DP
0 -20 -20 0 0 20 20 0 1538 1255 5 MP
DP
0 -20 -20 0 0 20 20 0 1544 1276 5 MP
DP
0 -20 -20 0 0 20 20 0 1550 1187 5 MP
DP
0 -20 -20 0 0 20 20 0 1556 1298 5 MP
DP
0 -20 -20 0 0 20 20 0 1562 1349 5 MP
DP
0 -20 -20 0 0 20 20 0 1568 1357 5 MP
DP
0 -20 -20 0 0 20 20 0 1574 1325 5 MP
DP
0 -20 -20 0 0 20 20 0 1580 1459 5 MP
DP
0 -20 -20 0 0 20 20 0 1586 1457 5 MP
DP
0 -20 -20 0 0 20 20 0 1592 1440 5 MP
DP
0 -20 -20 0 0 20 20 0 1598 1570 5 MP
DP
0 -20 -20 0 0 20 20 0 1604 1611 5 MP
DP
0 -20 -20 0 0 20 20 0 1610 1547 5 MP
DP
0 -20 -20 0 0 20 20 0 1616 1611 5 MP
DP
0 -20 -20 0 0 20 20 0 1622 1698 5 MP
DP
0 -20 -20 0 0 20 20 0 1628 1692 5 MP
DP
0 -20 -20 0 0 20 20 0 1635 1732 5 MP
DP
0 -20 -20 0 0 20 20 0 1641 1751 5 MP
DP
0 -20 -20 0 0 20 20 0 1647 1736 5 MP
DP
0 -20 -20 0 0 20 20 0 1653 1815 5 MP
DP
0 -20 -20 0 0 20 20 0 1659 1815 5 MP
DP
0 -20 -20 0 0 20 20 0 1665 1879 5 MP
DP
0 -20 -20 0 0 20 20 0 1671 1870 5 MP
DP
0 -20 -20 0 0 20 20 0 1677 1866 5 MP
DP
0 -20 -20 0 0 20 20 0 1683 1937 5 MP
DP
0 -20 -20 0 0 20 20 0 1689 1894 5 MP
DP
0 -20 -20 0 0 20 20 0 1695 1890 5 MP
DP
0 -20 -20 0 0 20 20 0 1701 1937 5 MP
DP
0 -20 -20 0 0 20 20 0 1707 1922 5 MP
DP
0 -20 -20 0 0 20 20 0 1713 1934 5 MP
DP
0 -20 -20 0 0 20 20 0 1719 1983 5 MP
DP
0 -20 -20 0 0 20 20 0 1725 1979 5 MP
DP
0 -20 -20 0 0 20 20 0 1731 1981 5 MP
DP
0 -20 -20 0 0 20 20 0 1737 1954 5 MP
DP
0 -20 -20 0 0 20 20 0 1743 2028 5 MP
DP
0 -20 -20 0 0 20 20 0 1749 2052 5 MP
DP
0 -20 -20 0 0 20 20 0 1755 2047 5 MP
DP
0 -20 -20 0 0 20 20 0 1762 2037 5 MP
DP
0 -20 -20 0 0 20 20 0 1768 2056 5 MP
DP
0 -20 -20 0 0 20 20 0 1774 2058 5 MP
DP
0 -20 -20 0 0 20 20 0 1780 2060 5 MP
DP
0 -20 -20 0 0 20 20 0 1786 2064 5 MP
DP
0 -20 -20 0 0 20 20 0 1792 2081 5 MP
DP
0 -20 -20 0 0 20 20 0 1798 2073 5 MP
DP
0 -20 -20 0 0 20 20 0 1804 2092 5 MP
DP
0 -20 -20 0 0 20 20 0 1810 2088 5 MP
DP
0 -20 -20 0 0 20 20 0 1816 2092 5 MP
DP
0 -20 -20 0 0 20 20 0 1822 2105 5 MP
DP
0 -20 -20 0 0 20 20 0 1828 2120 5 MP
DP
0 -20 -20 0 0 20 20 0 1834 2111 5 MP
DP
0 -20 -20 0 0 20 20 0 1840 2111 5 MP
DP
0 -20 -20 0 0 20 20 0 1846 2113 5 MP
DP
0 -20 -20 0 0 20 20 0 1852 2113 5 MP
DP
0 -20 -20 0 0 20 20 0 1858 2109 5 MP
DP
0 -20 -20 0 0 20 20 0 1864 2113 5 MP
DP
0 -20 -20 0 0 20 20 0 1870 2128 5 MP
DP
0 -20 -20 0 0 20 20 0 1876 2128 5 MP
DP
0 -20 -20 0 0 20 20 0 1882 2128 5 MP
DP
0 -20 -20 0 0 20 20 0 1888 2126 5 MP
DP
0 -20 -20 0 0 20 20 0 1895 2135 5 MP
DP
0 -20 -20 0 0 20 20 0 1901 2135 5 MP
DP
0 -20 -20 0 0 20 20 0 1907 2135 5 MP
DP
0 -20 -20 0 0 20 20 0 1913 2137 5 MP
DP
0 -20 -20 0 0 20 20 0 1919 2126 5 MP
DP
0 -20 -20 0 0 20 20 0 1925 2137 5 MP
DP
0 -20 -20 0 0 20 20 0 1931 2141 5 MP
DP
0 -20 -20 0 0 20 20 0 1937 2122 5 MP
DP
0 -20 -20 0 0 20 20 0 1943 2132 5 MP
DP
0 -20 -20 0 0 20 20 0 1949 2139 5 MP
DP
0 -20 -20 0 0 20 20 0 1955 2139 5 MP
DP
0 -20 -20 0 0 20 20 0 1961 2137 5 MP
DP
0 -20 -20 0 0 20 20 0 1967 2139 5 MP
DP
0 -20 -20 0 0 20 20 0 1973 2145 5 MP
DP
0 -20 -20 0 0 20 20 0 1979 2145 5 MP
DP
0 -20 -20 0 0 20 20 0 1985 2145 5 MP
DP
0 -20 -20 0 0 20 20 0 1991 2143 5 MP
DP
0 -20 -20 0 0 20 20 0 1997 2145 5 MP
DP
0 -20 -20 0 0 20 20 0 2003 2147 5 MP
DP
0 -20 -20 0 0 20 20 0 2009 2145 5 MP
DP
0 -20 -20 0 0 20 20 0 2015 2143 5 MP
DP
0 -20 -20 0 0 20 20 0 2022 2145 5 MP
DP
0 -20 -20 0 0 20 20 0 2028 2150 5 MP
DP
0 -20 -20 0 0 20 20 0 2034 2150 5 MP
DP
0 -20 -20 0 0 20 20 0 2040 2150 5 MP
DP
0 -20 -20 0 0 20 20 0 2046 2147 5 MP
DP
0 -20 -20 0 0 20 20 0 2052 2147 5 MP
DP
0 -20 -20 0 0 20 20 0 2058 2150 5 MP
DP
0 -20 -20 0 0 20 20 0 2064 2150 5 MP
DP
0 -20 -20 0 0 20 20 0 2070 2150 5 MP
DP
0 -20 -20 0 0 20 20 0 2076 2145 5 MP
DP
0 -20 -20 0 0 20 20 0 2082 2147 5 MP
DP
0 -20 -20 0 0 20 20 0 2088 2150 5 MP
DP
0 -20 -20 0 0 20 20 0 2094 2145 5 MP
DP
0 -20 -20 0 0 20 20 0 2100 2147 5 MP
DP
0 -20 -20 0 0 20 20 0 2106 2147 5 MP
DP
0 -20 -20 0 0 20 20 0 2112 2147 5 MP
DP
0 -20 -20 0 0 20 20 0 2118 2145 5 MP
DP
0 -20 -20 0 0 20 20 0 2124 2150 5 MP
DP
0 -20 -20 0 0 20 20 0 2130 2147 5 MP
DP
0 -20 -20 0 0 20 20 0 2136 2150 5 MP
DP
0 -20 -20 0 0 20 20 0 2142 2150 5 MP
DP
0 -20 -20 0 0 20 20 0 2148 2145 5 MP
DP
0 -20 -20 0 0 20 20 0 2155 2150 5 MP
DP
0 -20 -20 0 0 20 20 0 2161 2150 5 MP
DP
0 -20 -20 0 0 20 20 0 2167 2150 5 MP
DP
0 -20 -20 0 0 20 20 0 2173 2150 5 MP
DP
0 -20 -20 0 0 20 20 0 2179 2150 5 MP
DP
0 -20 -20 0 0 20 20 0 2185 2150 5 MP
DP
0 -20 -20 0 0 20 20 0 2191 2150 5 MP
DP
0 -20 -20 0 0 20 20 0 2197 2150 5 MP
DP
0 -20 -20 0 0 20 20 0 2203 2150 5 MP
DP
0 -20 -20 0 0 20 20 0 2209 2150 5 MP
DP
0 -20 -20 0 0 20 20 0 2215 2150 5 MP
DP
0 -20 -20 0 0 20 20 0 2221 2150 5 MP
DP
0 -20 -20 0 0 20 20 0 2227 2150 5 MP
DP
0 -20 -20 0 0 20 20 0 2233 2150 5 MP
DP
0 -20 -20 0 0 20 20 0 2239 2147 5 MP
DP
0 -20 -20 0 0 20 20 0 2245 2150 5 MP
DP
0 -20 -20 0 0 20 20 0 2251 2150 5 MP
DP
0 -20 -20 0 0 20 20 0 2257 2150 5 MP
DP
0 -20 -20 0 0 20 20 0 2263 2150 5 MP
DP
0 -20 -20 0 0 20 20 0 2269 2150 5 MP
DP
0 -20 -20 0 0 20 20 0 2275 2150 5 MP
DP
0 -20 -20 0 0 20 20 0 2282 2150 5 MP
DP
0 -20 -20 0 0 20 20 0 2288 2150 5 MP
DP
0 -20 -20 0 0 20 20 0 2294 2150 5 MP
DP
0 -20 -20 0 0 20 20 0 2300 2150 5 MP
DP
0 -20 -20 0 0 20 20 0 2306 2150 5 MP
DP
0 -20 -20 0 0 20 20 0 2312 2150 5 MP
DP
0 -20 -20 0 0 20 20 0 2318 2150 5 MP
DP
0 -20 -20 0 0 20 20 0 2324 2150 5 MP
DP
0 -20 -20 0 0 20 20 0 2330 2150 5 MP
DP
0 -20 -20 0 0 20 20 0 2336 2150 5 MP
DP
0 -20 -20 0 0 20 20 0 2342 2150 5 MP
DP
0 -20 -20 0 0 20 20 0 2348 2150 5 MP
DP
0 -20 -20 0 0 20 20 0 2354 2150 5 MP
DP
0 -20 -20 0 0 20 20 0 2360 2150 5 MP
DP
0 -20 -20 0 0 20 20 0 2366 2150 5 MP
DP
0 -20 -20 0 0 20 20 0 2372 2150 5 MP
DP
0 -20 -20 0 0 20 20 0 2378 2150 5 MP
DP
0 -20 -20 0 0 20 20 0 2384 2150 5 MP
DP
0 -20 -20 0 0 20 20 0 2390 2150 5 MP
DP
0 -20 -20 0 0 20 20 0 2396 2150 5 MP
DP
0 -20 -20 0 0 20 20 0 2402 2150 5 MP
DP
0 -20 -20 0 0 20 20 0 2409 2150 5 MP
DP
gs 605 346 1815 1815 rc
gr

0 sg
1380 2488 mt 
(Day) s
 123 1686 mt  -90 rotate
(Daily Incident) s
90 rotate
%%IncludeResource: font Helvetica
/Helvetica /ISOLatin1Encoding 96 FMSR

 592 2195 mt 
( ) s
2407  380 mt 
( ) s
6 w
1 sg
0 462 1547 0 0 -462 882 810 4 MP
PP
-1547 0 0 462 1547 0 0 -462 882 810 5 MP stroke
4 w
DO
SO
6 w
0 sg
 882  810 mt 2429  810 L
 882  348 mt 2429  348 L
 882  810 mt  882  348 L
2429  810 mt 2429  348 L
 882  810 mt 2429  810 L
 882  810 mt  882  348 L
 882  810 mt 2429  810 L
 882  348 mt 2429  348 L
 882  810 mt  882  348 L
2429  810 mt 2429  348 L
%%IncludeResource: font Helvetica
/Helvetica /ISOLatin1Encoding 144 FMSR

1350  525 mt 
(Sensor Group) s
gs 882 348 1548 463 rc
12 w
c8
360 0 953 474 2 MP stroke
gs 1108 449 51 51 rc
12 15 -12 15 -12 -15 12 -15 1133 489 5 MP
DP
gr

gr

12 w
c8
0 sg
1350  736 mt 
(Random Group) s
gs 882 348 1548 463 rc
c9
360 0 953 683 2 MP stroke
gs 1108 658 51 51 rc
0 -20 -20 0 0 20 20 0 1123 673 5 MP
DP
gr

6 w
gr

6 w
c9

end %%Color Dict

eplot
%%EndObject

epage
end

showpage

%%Trailer
%%EOF
