%!PS-Adobe-3.0 EPSF-3.0
%%Creator: MATLAB, The MathWorks, Inc. Version 8.3.0.532 (R2014a). Operating System: Darwin 13.3.0 Darwin Kernel Version 13.3.0: Tue Jun  3 21:27:35 PDT 2014; root:xnu-2422.110.17~1/RELEASE_X86_64 x86_64.
%%Title: /Users/huijuans/2015Fall/PLoSOne/MatLabFig/fig2a_08272015.eps
%%CreationDate: 08/27/2015  19:58:29
%%DocumentNeededFonts: Helvetica
%%DocumentProcessColors: Cyan Magenta Yellow Black
%%LanguageLevel: 2
%%Pages: 1
%%BoundingBox:   -74   108   687   684
%%EndComments

%%BeginProlog
% MathWorks dictionary
/MathWorks 160 dict begin
% definition operators
/bdef {bind def} bind def
/ldef {load def} bind def
/xdef {exch def} bdef
/xstore {exch store} bdef
% operator abbreviations
/c  /clip ldef
/cc /concat ldef
/cp /closepath ldef
/gr /grestore ldef
/gs /gsave ldef
/mt /moveto ldef
/np /newpath ldef
/cm /currentmatrix ldef
/sm /setmatrix ldef
/rm /rmoveto ldef
/rl /rlineto ldef
/s {show newpath} bdef
/sc {setcmykcolor} bdef
/sr /setrgbcolor ldef
/sg /setgray ldef
/w /setlinewidth ldef
/j /setlinejoin ldef
/cap /setlinecap ldef
/rc {rectclip} bdef
/rf {rectfill} bdef
% page state control
/pgsv () def
/bpage {/pgsv save def} bdef
/epage {pgsv restore} bdef
/bplot /gsave ldef
/eplot {stroke grestore} bdef
% orientation switch
/portraitMode 0 def /landscapeMode 1 def /rotateMode 2 def
% coordinate system mappings
/dpi2point 0 def
% font control
/FontSize 0 def
/FMS {/FontSize xstore findfont [FontSize 0 0 FontSize neg 0 0]
  makefont setfont} bdef
/reencode {exch dup where {pop load} {pop StandardEncoding} ifelse
  exch dup 3 1 roll findfont dup length dict begin
  { 1 index /FID ne {def}{pop pop} ifelse } forall
  /Encoding exch def currentdict end definefont pop} bdef
/isroman {findfont /CharStrings get /Agrave known} bdef
/FMSR {3 1 roll 1 index dup isroman {reencode} {pop pop} ifelse
  exch FMS} bdef
/csm {1 dpi2point div -1 dpi2point div scale neg translate
 dup landscapeMode eq {pop -90 rotate}
  {rotateMode eq {90 rotate} if} ifelse} bdef
% line types: solid, dotted, dashed, dotdash
/SO { [] 0 setdash } bdef
/DO { [.5 dpi2point mul 4 dpi2point mul] 0 setdash } bdef
/DA { [6 dpi2point mul] 0 setdash } bdef
/DD { [.5 dpi2point mul 4 dpi2point mul 6 dpi2point mul 4
  dpi2point mul] 0 setdash } bdef
% macros for lines and objects
/L {lineto stroke} bdef
/MP {3 1 roll moveto 1 sub {rlineto} repeat} bdef
/AP {{rlineto} repeat} bdef
/PDlw -1 def
/W {/PDlw currentlinewidth def setlinewidth} def
/PP {closepath eofill} bdef
/DP {closepath stroke} bdef
/MR {4 -2 roll moveto dup  0 exch rlineto exch 0 rlineto
  neg 0 exch rlineto closepath} bdef
/FR {MR stroke} bdef
/PR {MR fill} bdef
/L1i {{currentfile picstr readhexstring pop} image} bdef
/tMatrix matrix def
/MakeOval {newpath tMatrix currentmatrix pop translate scale
0 0 1 0 360 arc tMatrix setmatrix} bdef
/FO {MakeOval stroke} bdef
/PO {MakeOval fill} bdef
/PD {currentlinewidth 2 div 0 360 arc fill
   PDlw -1 eq not {PDlw w /PDlw -1 def} if} def
/FA {newpath tMatrix currentmatrix pop translate scale
  0 0 1 5 -2 roll arc tMatrix setmatrix stroke} bdef
/PA {newpath tMatrix currentmatrix pop	translate 0 0 moveto scale
  0 0 1 5 -2 roll arc closepath tMatrix setmatrix fill} bdef
/FAn {newpath tMatrix currentmatrix pop translate scale
  0 0 1 5 -2 roll arcn tMatrix setmatrix stroke} bdef
/PAn {newpath tMatrix currentmatrix pop translate 0 0 moveto scale
  0 0 1 5 -2 roll arcn closepath tMatrix setmatrix fill} bdef
/vradius 0 def /hradius 0 def /lry 0 def
/lrx 0 def /uly 0 def /ulx 0 def /rad 0 def
/MRR {/vradius xdef /hradius xdef /lry xdef /lrx xdef /uly xdef
  /ulx xdef newpath tMatrix currentmatrix pop ulx hradius add uly
  vradius add translate hradius vradius scale 0 0 1 180 270 arc 
  tMatrix setmatrix lrx hradius sub uly vradius add translate
  hradius vradius scale 0 0 1 270 360 arc tMatrix setmatrix
  lrx hradius sub lry vradius sub translate hradius vradius scale
  0 0 1 0 90 arc tMatrix setmatrix ulx hradius add lry vradius sub
  translate hradius vradius scale 0 0 1 90 180 arc tMatrix setmatrix
  closepath} bdef
/FRR {MRR stroke } bdef
/PRR {MRR fill } bdef
/MlrRR {/lry xdef /lrx xdef /uly xdef /ulx xdef /rad lry uly sub 2 div def
  newpath tMatrix currentmatrix pop ulx rad add uly rad add translate
  rad rad scale 0 0 1 90 270 arc tMatrix setmatrix lrx rad sub lry rad
  sub translate rad rad scale 0 0 1 270 90 arc tMatrix setmatrix
  closepath} bdef
/FlrRR {MlrRR stroke } bdef
/PlrRR {MlrRR fill } bdef
/MtbRR {/lry xdef /lrx xdef /uly xdef /ulx xdef /rad lrx ulx sub 2 div def
  newpath tMatrix currentmatrix pop ulx rad add uly rad add translate
  rad rad scale 0 0 1 180 360 arc tMatrix setmatrix lrx rad sub lry rad
  sub translate rad rad scale 0 0 1 0 180 arc tMatrix setmatrix
  closepath} bdef
/FtbRR {MtbRR stroke } bdef
/PtbRR {MtbRR fill } bdef
/stri 6 array def /dtri 6 array def
/smat 6 array def /dmat 6 array def
/tmat1 6 array def /tmat2 6 array def /dif 3 array def
/asub {/ind2 exch def /ind1 exch def dup dup
  ind1 get exch ind2 get sub exch } bdef
/tri_to_matrix {
  2 0 asub 3 1 asub 4 0 asub 5 1 asub
  dup 0 get exch 1 get 7 -1 roll astore } bdef
/compute_transform {
  dmat dtri tri_to_matrix tmat1 invertmatrix 
  smat stri tri_to_matrix tmat2 concatmatrix } bdef
/ds {stri astore pop} bdef
/dt {dtri astore pop} bdef
/db {2 copy /cols xdef /rows xdef mul dup 3 mul string
  currentfile 
  3 index 0 eq {/ASCIIHexDecode filter}
  {/ASCII85Decode filter 3 index 2 eq {/RunLengthDecode filter} if }
  ifelse exch readstring pop
  dup 0 3 index getinterval /rbmap xdef
  dup 2 index dup getinterval /gbmap xdef
  1 index dup 2 mul exch getinterval /bbmap xdef pop pop}bdef
/it {gs np dtri aload pop moveto lineto lineto cp c
  cols rows 8 compute_transform 
  rbmap gbmap bbmap true 3 colorimage gr}bdef
/il {newpath moveto lineto stroke}bdef
currentdict end def
%%EndProlog

%%BeginSetup
MathWorks begin

0 cap

end
%%EndSetup

%%Page: 1 1
%%BeginPageSetup
%%PageBoundingBox:   -74   108   687   684
MathWorks begin
bpage
%%EndPageSetup

%%BeginObject: obj1
bplot

/dpi2point 12 def
portraitMode -0888 8208 csm

    0     0  9143  6912 rc
85 dict begin %Colortable dictionary
/c0 { 0.000000 0.000000 0.000000 sr} bdef
/c1 { 1.000000 1.000000 1.000000 sr} bdef
/c2 { 0.900000 0.000000 0.000000 sr} bdef
/c3 { 0.000000 0.820000 0.000000 sr} bdef
/c4 { 0.000000 0.000000 0.800000 sr} bdef
/c5 { 0.910000 0.820000 0.320000 sr} bdef
/c6 { 1.000000 0.260000 0.820000 sr} bdef
/c7 { 0.000000 0.820000 0.820000 sr} bdef
c0
1 j
1 sg
   0    0 9144 6913 rf
6 w
0 5622 6865 0 0 -5622 1409 6140 4 MP
PP
-6865 0 0 5622 6865 0 0 -5622 1409 6140 5 MP stroke
4 w
DO
SO
6 w
0 sg
1409 6140 mt 8274 6140 L
1409  518 mt 8274  518 L
1409 6140 mt 1409  518 L
8274 6140 mt 8274  518 L
1409 6140 mt 8274 6140 L
1409 6140 mt 1409  518 L
1409 6140 mt 1409 6071 L
1409  518 mt 1409  586 L
%%IncludeResource: font Helvetica
/Helvetica /ISOLatin1Encoding 360 FMSR

1309 6509 mt 
(0) s
3697 6140 mt 3697 6071 L
3697  518 mt 3697  586 L
3397 6509 mt 
(100) s
5985 6140 mt 5985 6071 L
5985  518 mt 5985  586 L
5685 6509 mt 
(200) s
8274 6140 mt 8274 6071 L
8274  518 mt 8274  586 L
7974 6509 mt 
(300) s
1409 6140 mt 1477 6140 L
8274 6140 mt 8205 6140 L
1174 6274 mt 
(0) s
1409 5203 mt 1477 5203 L
8274 5203 mt 8205 5203 L
 474 5337 mt 
(0.005) s
1409 4266 mt 1477 4266 L
8274 4266 mt 8205 4266 L
 674 4400 mt 
(0.01) s
1409 3329 mt 1477 3329 L
8274 3329 mt 8205 3329 L
 474 3463 mt 
(0.015) s
1409 2391 mt 1477 2391 L
8274 2391 mt 8205 2391 L
 674 2525 mt 
(0.02) s
1409 1455 mt 1477 1455 L
8274 1455 mt 8205 1455 L
 474 1589 mt 
(0.025) s
1409  518 mt 1477  518 L
8274  518 mt 8205  518 L
 674  652 mt 
(0.03) s
1409 6140 mt 8274 6140 L
1409  518 mt 8274  518 L
1409 6140 mt 1409  518 L
8274 6140 mt 8274  518 L
gs 1409 518 6866 5623 rc
24 w
/c8 { 1.000000 0.000000 0.000000 sr} bdef
c8
23 0 23 0 23 0 23 0 23 0 23 0 23 0 23 0 
22 0 23 0 23 0 23 0 23 0 23 0 23 0 23 0 
23 0 22 0 23 0 23 0 23 0 23 0 23 0 23 0 
23 0 22 0 23 0 23 0 23 0 23 0 23 0 23 0 
23 0 23 0 22 0 23 0 23 0 23 0 23 0 23 0 
23 0 23 0 22 0 23 0 23 0 23 0 23 0 23 0 
23 3 23 -3 23 0 22 0 23 0 23 3 23 -3 23 0 
23 0 23 0 23 3 22 0 23 -3 23 0 23 0 23 3 
23 -3 23 3 23 0 23 -3 22 0 23 6 23 -3 23 0 
23 -3 23 0 23 6 23 0 23 3 22 -9 23 3 23 6 
23 -9 23 0 23 0 23 0 23 0 22 12 23 -3 23 -3 
23 3 23 3 23 0 23 2 23 -5 23 5 22 0 23 0 
23 20 23 -9 23 6 23 -6 23 -5 23 8 22 19 23 0 
23 -2 23 -3 23 16 23 -2 23 -3 23 30 23 0 22 -5 
23 16 23 0 23 22 23 25 23 -25 23 50 23 30 22 -41 
23 75 23 -20 23 14 23 6 23 2 23 80 23 22 23 17 
22 22 23 36 23 121 23 3 23 50 23 121 23 42 23 71 
23 174 22 -30 23 160 23 64 23 173 23 127 23 20 23 110 
23 287 22 8 23 205 23 278 23 147 23 182 23 -8 23 289 
23 136 23 -22 22 284 23 16 23 92 23 262 23 -72 23 243 
23 141 23 -78 22 -24 23 22 23 198 23 -240 23 72 23 -138 
23 276 23 -121 23 -312 22 198 23 -149 23 -176 23 -72 23 -218 
23 -202 23 125 23 -149 22 -260 23 -130 23 11 23 -132 23 -202 
23 -146 23 -88 23 -177 23 72 22 -182 23 -72 23 -193 23 -149 
23 -14 23 -69 23 -199 23 -72 23 12 22 -141 23 -11 23 -97 
23 -55 23 -11 23 -61 23 -41 23 -116 22 8 23 11 23 -99 
23 -22 23 -14 23 5 23 -55 23 -19 23 -47 22 50 23 -111 
23 31 23 -42 23 -30 23 -8 23 -34 23 31 22 -58 23 -19 
23 -28 23 -28 23 14 23 6 23 8 23 -75 23 34 22 -9 
23 14 23 -22 23 3 23 -20 23 14 23 6 23 -22 22 2 
23 11 23 0 23 -24 23 0 23 -6 23 22 23 -16 23 -9 
22 -16 23 16 23 -5 23 0 23 16 23 -24 23 8 23 5 
23 -11 22 -2 23 8 23 -17 23 14 23 0 23 -11 23 -6 
23 9 22 3 23 -3 23 -3 23 0 23 3 23 -9 23 6 
23 -6 23 0 22 0 23 9 23 -9 23 3 23 -3 23 3 
23 -3 23 0 22 0 23 0 23 0 23 0 23 3 23 0 
23 -3 23 0 23 3 22 -3 23 0 23 0 23 0 23 0 
23 0 23 0 23 0 1431 6140 300 MP stroke
gr

24 w
c8
gs 1333 1841 7040 4398 rc
1395 6140 mt 1467 6140 L
1431 6104 mt 1431 6176 L
1418 6140 mt 1490 6140 L
1454 6104 mt 1454 6176 L
1441 6140 mt 1513 6140 L
1477 6104 mt 1477 6176 L
1464 6140 mt 1536 6140 L
1500 6104 mt 1500 6176 L
1487 6140 mt 1559 6140 L
1523 6104 mt 1523 6176 L
1510 6140 mt 1582 6140 L
1546 6104 mt 1546 6176 L
1533 6140 mt 1605 6140 L
1569 6104 mt 1569 6176 L
1556 6140 mt 1628 6140 L
1592 6104 mt 1592 6176 L
1578 6137 mt 1650 6137 L
1614 6101 mt 1614 6173 L
1601 6140 mt 1673 6140 L
1637 6104 mt 1637 6176 L
1624 6140 mt 1696 6140 L
1660 6104 mt 1660 6176 L
1647 6137 mt 1719 6137 L
1683 6101 mt 1683 6173 L
1670 6137 mt 1742 6137 L
1706 6101 mt 1706 6173 L
1693 6140 mt 1765 6140 L
1729 6104 mt 1729 6176 L
1716 6140 mt 1788 6140 L
1752 6104 mt 1752 6176 L
1739 6140 mt 1811 6140 L
1775 6104 mt 1775 6176 L
1762 6140 mt 1834 6140 L
1798 6104 mt 1798 6176 L
1784 6140 mt 1856 6140 L
1820 6104 mt 1820 6176 L
1807 6140 mt 1879 6140 L
1843 6104 mt 1843 6176 L
1830 6137 mt 1902 6137 L
1866 6101 mt 1866 6173 L
1853 6140 mt 1925 6140 L
1889 6104 mt 1889 6176 L
1876 6137 mt 1948 6137 L
1912 6101 mt 1912 6173 L
1899 6140 mt 1971 6140 L
1935 6104 mt 1935 6176 L
1922 6131 mt 1994 6131 L
1958 6095 mt 1958 6167 L
1945 6140 mt 2017 6140 L
1981 6104 mt 1981 6176 L
1967 6140 mt 2039 6140 L
2003 6104 mt 2003 6176 L
1990 6140 mt 2062 6140 L
2026 6104 mt 2026 6176 L
2013 6134 mt 2085 6134 L
2049 6098 mt 2049 6170 L
2036 6140 mt 2108 6140 L
2072 6104 mt 2072 6176 L
2059 6131 mt 2131 6131 L
2095 6095 mt 2095 6167 L
2082 6134 mt 2154 6134 L
2118 6098 mt 2118 6170 L
2105 6134 mt 2177 6134 L
2141 6098 mt 2141 6170 L
2128 6131 mt 2200 6131 L
2164 6095 mt 2164 6167 L
2151 6128 mt 2223 6128 L
2187 6092 mt 2187 6164 L
2173 6131 mt 2245 6131 L
2209 6095 mt 2209 6167 L
2196 6140 mt 2268 6140 L
2232 6104 mt 2232 6176 L
2219 6134 mt 2291 6134 L
2255 6098 mt 2255 6170 L
2242 6123 mt 2314 6123 L
2278 6087 mt 2278 6159 L
2265 6123 mt 2337 6123 L
2301 6087 mt 2301 6159 L
2288 6137 mt 2360 6137 L
2324 6101 mt 2324 6173 L
2311 6120 mt 2383 6120 L
2347 6084 mt 2347 6156 L
2334 6128 mt 2406 6128 L
2370 6092 mt 2370 6164 L
2356 6126 mt 2428 6126 L
2392 6090 mt 2392 6162 L
2379 6115 mt 2451 6115 L
2415 6079 mt 2415 6151 L
2402 6120 mt 2474 6120 L
2438 6084 mt 2438 6156 L
2425 6128 mt 2497 6128 L
2461 6092 mt 2461 6164 L
2448 6104 mt 2520 6104 L
2484 6068 mt 2484 6140 L
2471 6120 mt 2543 6120 L
2507 6084 mt 2507 6156 L
2494 6120 mt 2566 6120 L
2530 6084 mt 2530 6156 L
2517 6115 mt 2589 6115 L
2553 6079 mt 2553 6151 L
2540 6131 mt 2612 6131 L
2576 6095 mt 2576 6167 L
2562 6115 mt 2634 6115 L
2598 6079 mt 2598 6151 L
2585 6106 mt 2657 6106 L
2621 6070 mt 2621 6142 L
2608 6090 mt 2680 6090 L
2644 6054 mt 2644 6126 L
2631 6112 mt 2703 6112 L
2667 6076 mt 2667 6148 L
2654 6106 mt 2726 6106 L
2690 6070 mt 2690 6142 L
2677 6106 mt 2749 6106 L
2713 6070 mt 2713 6142 L
2700 6082 mt 2772 6082 L
2736 6046 mt 2736 6118 L
2723 6082 mt 2795 6082 L
2759 6046 mt 2759 6118 L
2746 6093 mt 2818 6093 L
2782 6057 mt 2782 6129 L
2768 6095 mt 2840 6095 L
2804 6059 mt 2804 6131 L
2791 6073 mt 2863 6073 L
2827 6037 mt 2827 6109 L
2814 6079 mt 2886 6079 L
2850 6043 mt 2850 6115 L
2837 6093 mt 2909 6093 L
2873 6057 mt 2873 6129 L
2860 6073 mt 2932 6073 L
2896 6037 mt 2896 6109 L
2883 6076 mt 2955 6076 L
2919 6040 mt 2919 6112 L
2906 6054 mt 2978 6054 L
2942 6018 mt 2942 6090 L
2929 6068 mt 3001 6068 L
2965 6032 mt 2965 6104 L
2951 6059 mt 3023 6059 L
2987 6023 mt 2987 6095 L
2974 6093 mt 3046 6093 L
3010 6057 mt 3010 6129 L
2997 6018 mt 3069 6018 L
3033 5982 mt 3033 6054 L
3020 6026 mt 3092 6026 L
3056 5990 mt 3056 6062 L
3043 6032 mt 3115 6032 L
3079 5996 mt 3079 6068 L
3066 6046 mt 3138 6046 L
3102 6010 mt 3102 6082 L
3089 6018 mt 3161 6018 L
3125 5982 mt 3125 6054 L
3112 5990 mt 3184 5990 L
3148 5954 mt 3148 6026 L
3135 5971 mt 3207 5971 L
3171 5935 mt 3171 6007 L
3157 5913 mt 3229 5913 L
3193 5877 mt 3193 5949 L
3180 5944 mt 3252 5944 L
3216 5908 mt 3216 5980 L
3203 5910 mt 3275 5910 L
3239 5874 mt 3239 5946 L
3226 5902 mt 3298 5902 L
3262 5866 mt 3262 5938 L
3249 5872 mt 3321 5872 L
3285 5836 mt 3285 5908 L
3272 5830 mt 3344 5830 L
3308 5794 mt 3308 5866 L
3295 5861 mt 3367 5861 L
3331 5825 mt 3331 5897 L
3318 5750 mt 3390 5750 L
3354 5714 mt 3354 5786 L
3340 5800 mt 3412 5800 L
3376 5764 mt 3376 5836 L
3363 5753 mt 3435 5753 L
3399 5717 mt 3399 5789 L
3386 5734 mt 3458 5734 L
3422 5698 mt 3422 5770 L
3409 5679 mt 3481 5679 L
3445 5643 mt 3445 5715 L
3432 5684 mt 3504 5684 L
3468 5648 mt 3468 5720 L
3455 5670 mt 3527 5670 L
3491 5634 mt 3491 5706 L
3478 5648 mt 3550 5648 L
3514 5612 mt 3514 5684 L
3501 5549 mt 3573 5549 L
3537 5513 mt 3537 5585 L
3524 5560 mt 3596 5560 L
3560 5524 mt 3560 5596 L
3546 5568 mt 3618 5568 L
3582 5532 mt 3582 5604 L
3569 5452 mt 3641 5452 L
3605 5416 mt 3605 5488 L
3592 5411 mt 3664 5411 L
3628 5375 mt 3628 5447 L
3615 5350 mt 3687 5350 L
3651 5314 mt 3651 5386 L
3638 5339 mt 3710 5339 L
3674 5303 mt 3674 5375 L
3661 5284 mt 3733 5284 L
3697 5248 mt 3697 5320 L
3684 5187 mt 3756 5187 L
3720 5151 mt 3720 5223 L
3707 5176 mt 3779 5176 L
3743 5140 mt 3743 5212 L
3729 5035 mt 3801 5035 L
3765 4999 mt 3765 5071 L
3752 5047 mt 3824 5047 L
3788 5011 mt 3788 5083 L
3775 4975 mt 3847 4975 L
3811 4939 mt 3811 5011 L
3798 4776 mt 3870 4776 L
3834 4740 mt 3834 4812 L
3821 4707 mt 3893 4707 L
3857 4671 mt 3857 4743 L
3844 4693 mt 3916 4693 L
3880 4657 mt 3880 4729 L
3867 4544 mt 3939 4544 L
3903 4508 mt 3903 4580 L
3890 4351 mt 3962 4351 L
3926 4315 mt 3926 4387 L
3913 4279 mt 3985 4279 L
3949 4243 mt 3949 4315 L
3935 4097 mt 4007 4097 L
3971 4061 mt 3971 4133 L
3958 4169 mt 4030 4169 L
3994 4133 mt 3994 4205 L
3981 3992 mt 4053 3992 L
4017 3956 mt 4017 4028 L
4004 3904 mt 4076 3904 L
4040 3868 mt 4040 3940 L
4027 3758 mt 4099 3758 L
4063 3722 mt 4063 3794 L
4050 3556 mt 4122 3556 L
4086 3520 mt 4086 3592 L
4073 3424 mt 4145 3424 L
4109 3388 mt 4109 3460 L
4096 3435 mt 4168 3435 L
4132 3399 mt 4132 3471 L
4119 3305 mt 4191 3305 L
4155 3269 mt 4155 3341 L
4141 3045 mt 4213 3045 L
4177 3009 mt 4177 3081 L
4164 2896 mt 4236 2896 L
4200 2860 mt 4200 2932 L
4187 3021 mt 4259 3021 L
4223 2985 mt 4223 3057 L
4210 2819 mt 4282 2819 L
4246 2783 mt 4246 2855 L
4233 2601 mt 4305 2601 L
4269 2565 mt 4269 2637 L
4256 2529 mt 4328 2529 L
4292 2493 mt 4292 2565 L
4279 2353 mt 4351 2353 L
4315 2317 mt 4315 2389 L
4302 2204 mt 4374 2204 L
4338 2168 mt 4338 2240 L
4324 2402 mt 4396 2402 L
4360 2366 mt 4360 2438 L
4347 2090 mt 4419 2090 L
4383 2054 mt 4383 2126 L
4370 1969 mt 4442 1969 L
4406 1933 mt 4406 2005 L
4393 2245 mt 4465 2245 L
4429 2209 mt 4429 2281 L
4416 2107 mt 4488 2107 L
4452 2071 mt 4452 2143 L
4439 2179 mt 4511 2179 L
4475 2143 mt 4475 2215 L
4462 1939 mt 4534 1939 L
4498 1903 mt 4498 1975 L
4485 2137 mt 4557 2137 L
4521 2101 mt 4521 2173 L
4508 2159 mt 4580 2159 L
4544 2123 mt 4544 2195 L
4530 2135 mt 4602 2135 L
4566 2099 mt 4566 2171 L
4553 2057 mt 4625 2057 L
4589 2021 mt 4589 2093 L
4576 2198 mt 4648 2198 L
4612 2162 mt 4612 2234 L
4599 2441 mt 4671 2441 L
4635 2405 mt 4635 2477 L
4622 2369 mt 4694 2369 L
4658 2333 mt 4658 2405 L
4645 2631 mt 4717 2631 L
4681 2595 mt 4681 2667 L
4668 2723 mt 4740 2723 L
4704 2687 mt 4704 2759 L
4691 2739 mt 4763 2739 L
4727 2703 mt 4727 2775 L
4713 3023 mt 4785 3023 L
4749 2987 mt 4749 3059 L
4736 3001 mt 4808 3001 L
4772 2965 mt 4772 3037 L
4759 3137 mt 4831 3137 L
4795 3101 mt 4795 3173 L
4782 3426 mt 4854 3426 L
4818 3390 mt 4818 3462 L
4805 3418 mt 4877 3418 L
4841 3382 mt 4841 3454 L
4828 3600 mt 4900 3600 L
4864 3564 mt 4864 3636 L
4851 3747 mt 4923 3747 L
4887 3711 mt 4887 3783 L
4874 4025 mt 4946 4025 L
4910 3989 mt 4910 4061 L
4897 4230 mt 4969 4230 L
4933 4194 mt 4933 4266 L
4919 4238 mt 4991 4238 L
4955 4202 mt 4955 4274 L
4942 4525 mt 5014 4525 L
4978 4489 mt 4978 4561 L
4965 4635 mt 5037 4635 L
5001 4599 mt 5001 4671 L
4988 4655 mt 5060 4655 L
5024 4619 mt 5024 4691 L
5011 4782 mt 5083 4782 L
5047 4746 mt 5047 4818 L
5034 4955 mt 5106 4955 L
5070 4919 mt 5070 4991 L
5057 5019 mt 5129 5019 L
5093 4983 mt 5093 5055 L
5080 5179 mt 5152 5179 L
5116 5143 mt 5116 5215 L
5102 5149 mt 5174 5149 L
5138 5113 mt 5138 5185 L
5125 5323 mt 5197 5323 L
5161 5287 mt 5161 5359 L
5148 5394 mt 5220 5394 L
5184 5358 mt 5184 5430 L
5171 5436 mt 5243 5436 L
5207 5400 mt 5207 5472 L
5194 5557 mt 5266 5557 L
5230 5521 mt 5230 5593 L
5217 5607 mt 5289 5607 L
5253 5571 mt 5253 5643 L
5240 5610 mt 5312 5610 L
5276 5574 mt 5276 5646 L
5263 5731 mt 5335 5731 L
5299 5695 mt 5299 5767 L
5286 5767 mt 5358 5767 L
5322 5731 mt 5322 5803 L
5308 5789 mt 5380 5789 L
5344 5753 mt 5344 5825 L
5331 5806 mt 5403 5806 L
5367 5770 mt 5367 5842 L
5354 5828 mt 5426 5828 L
5390 5792 mt 5390 5864 L
5377 5908 mt 5449 5908 L
5413 5872 mt 5413 5944 L
5400 5910 mt 5472 5910 L
5436 5874 mt 5436 5946 L
5423 5916 mt 5495 5916 L
5459 5880 mt 5459 5952 L
5446 5930 mt 5518 5930 L
5482 5894 mt 5482 5966 L
5469 5910 mt 5541 5910 L
5505 5874 mt 5505 5946 L
5492 5985 mt 5564 5985 L
5528 5949 mt 5528 6021 L
5514 5944 mt 5586 5944 L
5550 5908 mt 5550 5980 L
5537 5974 mt 5609 5974 L
5573 5938 mt 5573 6010 L
5560 6024 mt 5632 6024 L
5596 5988 mt 5596 6060 L
5583 5999 mt 5655 5999 L
5619 5963 mt 5619 6035 L
5606 6024 mt 5678 6024 L
5642 5988 mt 5642 6060 L
5629 6046 mt 5701 6046 L
5665 6010 mt 5665 6082 L
5652 6046 mt 5724 6046 L
5688 6010 mt 5688 6082 L
5675 6062 mt 5747 6062 L
5711 6026 mt 5711 6098 L
5697 6057 mt 5769 6057 L
5733 6021 mt 5733 6093 L
5720 6057 mt 5792 6057 L
5756 6021 mt 5756 6093 L
5743 6087 mt 5815 6087 L
5779 6051 mt 5779 6123 L
5766 6084 mt 5838 6084 L
5802 6048 mt 5802 6120 L
5789 6082 mt 5861 6082 L
5825 6046 mt 5825 6118 L
5812 6098 mt 5884 6098 L
5848 6062 mt 5848 6134 L
5835 6095 mt 5907 6095 L
5871 6059 mt 5871 6131 L
5858 6093 mt 5930 6093 L
5894 6057 mt 5894 6129 L
5881 6093 mt 5953 6093 L
5917 6057 mt 5917 6129 L
5903 6112 mt 5975 6112 L
5939 6076 mt 5939 6148 L
5926 6120 mt 5998 6120 L
5962 6084 mt 5962 6156 L
5949 6115 mt 6021 6115 L
5985 6079 mt 5985 6151 L
5972 6109 mt 6044 6109 L
6008 6073 mt 6008 6145 L
5995 6115 mt 6067 6115 L
6031 6079 mt 6031 6151 L
6018 6106 mt 6090 6106 L
6054 6070 mt 6054 6142 L
6041 6126 mt 6113 6126 L
6077 6090 mt 6077 6162 L
6064 6126 mt 6136 6126 L
6100 6090 mt 6100 6162 L
6086 6126 mt 6158 6126 L
6122 6090 mt 6122 6162 L
6109 6131 mt 6181 6131 L
6145 6095 mt 6145 6167 L
6132 6126 mt 6204 6126 L
6168 6090 mt 6168 6162 L
6155 6128 mt 6227 6128 L
6191 6092 mt 6191 6164 L
6178 6128 mt 6250 6128 L
6214 6092 mt 6214 6164 L
6201 6131 mt 6273 6131 L
6237 6095 mt 6237 6167 L
6224 6134 mt 6296 6134 L
6260 6098 mt 6260 6170 L
6247 6131 mt 6319 6131 L
6283 6095 mt 6283 6167 L
6270 6128 mt 6342 6128 L
6306 6092 mt 6306 6164 L
6292 6140 mt 6364 6140 L
6328 6104 mt 6328 6176 L
6315 6140 mt 6387 6140 L
6351 6104 mt 6351 6176 L
6338 6140 mt 6410 6140 L
6374 6104 mt 6374 6176 L
6361 6140 mt 6433 6140 L
6397 6104 mt 6397 6176 L
6384 6140 mt 6456 6140 L
6420 6104 mt 6420 6176 L
6407 6131 mt 6479 6131 L
6443 6095 mt 6443 6167 L
6430 6137 mt 6502 6137 L
6466 6101 mt 6466 6173 L
6453 6140 mt 6525 6140 L
6489 6104 mt 6489 6176 L
6475 6131 mt 6547 6131 L
6511 6095 mt 6511 6167 L
6498 6134 mt 6570 6134 L
6534 6098 mt 6534 6170 L
6521 6134 mt 6593 6134 L
6557 6098 mt 6557 6170 L
6544 6140 mt 6616 6140 L
6580 6104 mt 6580 6176 L
6567 6140 mt 6639 6140 L
6603 6104 mt 6603 6176 L
6590 6137 mt 6662 6137 L
6626 6101 mt 6626 6173 L
6613 6137 mt 6685 6137 L
6649 6101 mt 6649 6173 L
6636 6134 mt 6708 6134 L
6672 6098 mt 6672 6170 L
6659 6140 mt 6731 6140 L
6695 6104 mt 6695 6176 L
6681 6140 mt 6753 6140 L
6717 6104 mt 6717 6176 L
6704 6137 mt 6776 6137 L
6740 6101 mt 6740 6173 L
6727 6137 mt 6799 6137 L
6763 6101 mt 6763 6173 L
6750 6140 mt 6822 6140 L
6786 6104 mt 6786 6176 L
6773 6137 mt 6845 6137 L
6809 6101 mt 6809 6173 L
6796 6140 mt 6868 6140 L
6832 6104 mt 6832 6176 L
6819 6140 mt 6891 6140 L
6855 6104 mt 6855 6176 L
6842 6140 mt 6914 6140 L
6878 6104 mt 6878 6176 L
6865 6137 mt 6937 6137 L
6901 6101 mt 6901 6173 L
6887 6137 mt 6959 6137 L
6923 6101 mt 6923 6173 L
6910 6140 mt 6982 6140 L
6946 6104 mt 6946 6176 L
6933 6140 mt 7005 6140 L
6969 6104 mt 6969 6176 L
6956 6140 mt 7028 6140 L
6992 6104 mt 6992 6176 L
6979 6140 mt 7051 6140 L
7015 6104 mt 7015 6176 L
7002 6137 mt 7074 6137 L
7038 6101 mt 7038 6173 L
7025 6140 mt 7097 6140 L
7061 6104 mt 7061 6176 L
7048 6140 mt 7120 6140 L
7084 6104 mt 7084 6176 L
7070 6140 mt 7142 6140 L
7106 6104 mt 7106 6176 L
7093 6140 mt 7165 6140 L
7129 6104 mt 7129 6176 L
7116 6137 mt 7188 6137 L
7152 6101 mt 7152 6173 L
7139 6140 mt 7211 6140 L
7175 6104 mt 7175 6176 L
7162 6140 mt 7234 6140 L
7198 6104 mt 7198 6176 L
7185 6140 mt 7257 6140 L
7221 6104 mt 7221 6176 L
7208 6140 mt 7280 6140 L
7244 6104 mt 7244 6176 L
7231 6140 mt 7303 6140 L
7267 6104 mt 7267 6176 L
7254 6140 mt 7326 6140 L
7290 6104 mt 7290 6176 L
7276 6140 mt 7348 6140 L
7312 6104 mt 7312 6176 L
7299 6140 mt 7371 6140 L
7335 6104 mt 7335 6176 L
7322 6140 mt 7394 6140 L
7358 6104 mt 7358 6176 L
7345 6140 mt 7417 6140 L
7381 6104 mt 7381 6176 L
7368 6140 mt 7440 6140 L
7404 6104 mt 7404 6176 L
7391 6140 mt 7463 6140 L
7427 6104 mt 7427 6176 L
7414 6140 mt 7486 6140 L
7450 6104 mt 7450 6176 L
7437 6140 mt 7509 6140 L
7473 6104 mt 7473 6176 L
7459 6140 mt 7531 6140 L
7495 6104 mt 7495 6176 L
7482 6140 mt 7554 6140 L
7518 6104 mt 7518 6176 L
7505 6140 mt 7577 6140 L
7541 6104 mt 7541 6176 L
7528 6140 mt 7600 6140 L
7564 6104 mt 7564 6176 L
7551 6140 mt 7623 6140 L
7587 6104 mt 7587 6176 L
7574 6140 mt 7646 6140 L
7610 6104 mt 7610 6176 L
7597 6140 mt 7669 6140 L
7633 6104 mt 7633 6176 L
7620 6140 mt 7692 6140 L
7656 6104 mt 7656 6176 L
7643 6140 mt 7715 6140 L
7679 6104 mt 7679 6176 L
7665 6140 mt 7737 6140 L
7701 6104 mt 7701 6176 L
7688 6140 mt 7760 6140 L
7724 6104 mt 7724 6176 L
7711 6140 mt 7783 6140 L
7747 6104 mt 7747 6176 L
7734 6140 mt 7806 6140 L
7770 6104 mt 7770 6176 L
7757 6140 mt 7829 6140 L
7793 6104 mt 7793 6176 L
7780 6140 mt 7852 6140 L
7816 6104 mt 7816 6176 L
7803 6140 mt 7875 6140 L
7839 6104 mt 7839 6176 L
7826 6140 mt 7898 6140 L
7862 6104 mt 7862 6176 L
7848 6140 mt 7920 6140 L
7884 6104 mt 7884 6176 L
7871 6140 mt 7943 6140 L
7907 6104 mt 7907 6176 L
7894 6140 mt 7966 6140 L
7930 6104 mt 7930 6176 L
7917 6140 mt 7989 6140 L
7953 6104 mt 7953 6176 L
7940 6140 mt 8012 6140 L
7976 6104 mt 7976 6176 L
7963 6140 mt 8035 6140 L
7999 6104 mt 7999 6176 L
7986 6140 mt 8058 6140 L
8022 6104 mt 8022 6176 L
8009 6140 mt 8081 6140 L
8045 6104 mt 8045 6176 L
8032 6140 mt 8104 6140 L
8068 6104 mt 8068 6176 L
8054 6140 mt 8126 6140 L
8090 6104 mt 8090 6176 L
8077 6140 mt 8149 6140 L
8113 6104 mt 8113 6176 L
8100 6140 mt 8172 6140 L
8136 6104 mt 8136 6176 L
8123 6140 mt 8195 6140 L
8159 6104 mt 8159 6176 L
8146 6140 mt 8218 6140 L
8182 6104 mt 8182 6176 L
8169 6140 mt 8241 6140 L
8205 6104 mt 8205 6176 L
8192 6140 mt 8264 6140 L
8228 6104 mt 8228 6176 L
8215 6140 mt 8287 6140 L
8251 6104 mt 8251 6176 L
8238 6140 mt 8310 6140 L
8274 6104 mt 8274 6176 L
1406 6115 mt 1456 6165 L
1456 6115 mt 1406 6165 L
1429 6115 mt 1479 6165 L
1479 6115 mt 1429 6165 L
1452 6115 mt 1502 6165 L
1502 6115 mt 1452 6165 L
1475 6115 mt 1525 6165 L
1525 6115 mt 1475 6165 L
1498 6115 mt 1548 6165 L
1548 6115 mt 1498 6165 L
1521 6115 mt 1571 6165 L
1571 6115 mt 1521 6165 L
1544 6115 mt 1594 6165 L
1594 6115 mt 1544 6165 L
1567 6115 mt 1617 6165 L
1617 6115 mt 1567 6165 L
1589 6112 mt 1639 6162 L
1639 6112 mt 1589 6162 L
1612 6115 mt 1662 6165 L
1662 6115 mt 1612 6165 L
1635 6115 mt 1685 6165 L
1685 6115 mt 1635 6165 L
1658 6112 mt 1708 6162 L
1708 6112 mt 1658 6162 L
1681 6112 mt 1731 6162 L
1731 6112 mt 1681 6162 L
1704 6115 mt 1754 6165 L
1754 6115 mt 1704 6165 L
1727 6115 mt 1777 6165 L
1777 6115 mt 1727 6165 L
1750 6115 mt 1800 6165 L
1800 6115 mt 1750 6165 L
1773 6115 mt 1823 6165 L
1823 6115 mt 1773 6165 L
1795 6115 mt 1845 6165 L
1845 6115 mt 1795 6165 L
1818 6115 mt 1868 6165 L
1868 6115 mt 1818 6165 L
1841 6112 mt 1891 6162 L
1891 6112 mt 1841 6162 L
1864 6115 mt 1914 6165 L
1914 6115 mt 1864 6165 L
1887 6112 mt 1937 6162 L
1937 6112 mt 1887 6162 L
1910 6115 mt 1960 6165 L
1960 6115 mt 1910 6165 L
1933 6106 mt 1983 6156 L
1983 6106 mt 1933 6156 L
1956 6115 mt 2006 6165 L
2006 6115 mt 1956 6165 L
1978 6115 mt 2028 6165 L
2028 6115 mt 1978 6165 L
2001 6115 mt 2051 6165 L
2051 6115 mt 2001 6165 L
2024 6109 mt 2074 6159 L
2074 6109 mt 2024 6159 L
2047 6115 mt 2097 6165 L
2097 6115 mt 2047 6165 L
2070 6106 mt 2120 6156 L
2120 6106 mt 2070 6156 L
2093 6109 mt 2143 6159 L
2143 6109 mt 2093 6159 L
2116 6109 mt 2166 6159 L
2166 6109 mt 2116 6159 L
2139 6106 mt 2189 6156 L
2189 6106 mt 2139 6156 L
2162 6103 mt 2212 6153 L
2212 6103 mt 2162 6153 L
2184 6106 mt 2234 6156 L
2234 6106 mt 2184 6156 L
2207 6115 mt 2257 6165 L
2257 6115 mt 2207 6165 L
2230 6109 mt 2280 6159 L
2280 6109 mt 2230 6159 L
2253 6098 mt 2303 6148 L
2303 6098 mt 2253 6148 L
2276 6098 mt 2326 6148 L
2326 6098 mt 2276 6148 L
2299 6112 mt 2349 6162 L
2349 6112 mt 2299 6162 L
2322 6095 mt 2372 6145 L
2372 6095 mt 2322 6145 L
2345 6103 mt 2395 6153 L
2395 6103 mt 2345 6153 L
2367 6101 mt 2417 6151 L
2417 6101 mt 2367 6151 L
2390 6090 mt 2440 6140 L
2440 6090 mt 2390 6140 L
2413 6095 mt 2463 6145 L
2463 6095 mt 2413 6145 L
2436 6103 mt 2486 6153 L
2486 6103 mt 2436 6153 L
2459 6079 mt 2509 6129 L
2509 6079 mt 2459 6129 L
2482 6095 mt 2532 6145 L
2532 6095 mt 2482 6145 L
2505 6095 mt 2555 6145 L
2555 6095 mt 2505 6145 L
2528 6090 mt 2578 6140 L
2578 6090 mt 2528 6140 L
2551 6106 mt 2601 6156 L
2601 6106 mt 2551 6156 L
2573 6090 mt 2623 6140 L
2623 6090 mt 2573 6140 L
2596 6081 mt 2646 6131 L
2646 6081 mt 2596 6131 L
2619 6065 mt 2669 6115 L
2669 6065 mt 2619 6115 L
2642 6087 mt 2692 6137 L
2692 6087 mt 2642 6137 L
2665 6081 mt 2715 6131 L
2715 6081 mt 2665 6131 L
2688 6081 mt 2738 6131 L
2738 6081 mt 2688 6131 L
2711 6057 mt 2761 6107 L
2761 6057 mt 2711 6107 L
2734 6057 mt 2784 6107 L
2784 6057 mt 2734 6107 L
2757 6068 mt 2807 6118 L
2807 6068 mt 2757 6118 L
2779 6070 mt 2829 6120 L
2829 6070 mt 2779 6120 L
2802 6048 mt 2852 6098 L
2852 6048 mt 2802 6098 L
2825 6054 mt 2875 6104 L
2875 6054 mt 2825 6104 L
2848 6068 mt 2898 6118 L
2898 6068 mt 2848 6118 L
2871 6048 mt 2921 6098 L
2921 6048 mt 2871 6098 L
2894 6051 mt 2944 6101 L
2944 6051 mt 2894 6101 L
2917 6029 mt 2967 6079 L
2967 6029 mt 2917 6079 L
2940 6043 mt 2990 6093 L
2990 6043 mt 2940 6093 L
2962 6034 mt 3012 6084 L
3012 6034 mt 2962 6084 L
2985 6068 mt 3035 6118 L
3035 6068 mt 2985 6118 L
3008 5993 mt 3058 6043 L
3058 5993 mt 3008 6043 L
3031 6001 mt 3081 6051 L
3081 6001 mt 3031 6051 L
3054 6007 mt 3104 6057 L
3104 6007 mt 3054 6057 L
3077 6021 mt 3127 6071 L
3127 6021 mt 3077 6071 L
3100 5993 mt 3150 6043 L
3150 5993 mt 3100 6043 L
3123 5965 mt 3173 6015 L
3173 5965 mt 3123 6015 L
3146 5946 mt 3196 5996 L
3196 5946 mt 3146 5996 L
3168 5888 mt 3218 5938 L
3218 5888 mt 3168 5938 L
3191 5919 mt 3241 5969 L
3241 5919 mt 3191 5969 L
3214 5885 mt 3264 5935 L
3264 5885 mt 3214 5935 L
3237 5877 mt 3287 5927 L
3287 5877 mt 3237 5927 L
3260 5847 mt 3310 5897 L
3310 5847 mt 3260 5897 L
3283 5805 mt 3333 5855 L
3333 5805 mt 3283 5855 L
3306 5836 mt 3356 5886 L
3356 5836 mt 3306 5886 L
3329 5725 mt 3379 5775 L
3379 5725 mt 3329 5775 L
3351 5775 mt 3401 5825 L
3401 5775 mt 3351 5825 L
3374 5728 mt 3424 5778 L
3424 5728 mt 3374 5778 L
3397 5709 mt 3447 5759 L
3447 5709 mt 3397 5759 L
3420 5654 mt 3470 5704 L
3470 5654 mt 3420 5704 L
3443 5659 mt 3493 5709 L
3493 5659 mt 3443 5709 L
3466 5645 mt 3516 5695 L
3516 5645 mt 3466 5695 L
3489 5623 mt 3539 5673 L
3539 5623 mt 3489 5673 L
3512 5524 mt 3562 5574 L
3562 5524 mt 3512 5574 L
3535 5535 mt 3585 5585 L
3585 5535 mt 3535 5585 L
3557 5543 mt 3607 5593 L
3607 5543 mt 3557 5593 L
3580 5427 mt 3630 5477 L
3630 5427 mt 3580 5477 L
3603 5386 mt 3653 5436 L
3653 5386 mt 3603 5436 L
3626 5325 mt 3676 5375 L
3676 5325 mt 3626 5375 L
3649 5314 mt 3699 5364 L
3699 5314 mt 3649 5364 L
3672 5259 mt 3722 5309 L
3722 5259 mt 3672 5309 L
3695 5162 mt 3745 5212 L
3745 5162 mt 3695 5212 L
3718 5151 mt 3768 5201 L
3768 5151 mt 3718 5201 L
3740 5010 mt 3790 5060 L
3790 5010 mt 3740 5060 L
3763 5022 mt 3813 5072 L
3813 5022 mt 3763 5072 L
3786 4950 mt 3836 5000 L
3836 4950 mt 3786 5000 L
3809 4751 mt 3859 4801 L
3859 4751 mt 3809 4801 L
3832 4682 mt 3882 4732 L
3882 4682 mt 3832 4732 L
3855 4668 mt 3905 4718 L
3905 4668 mt 3855 4718 L
3878 4519 mt 3928 4569 L
3928 4519 mt 3878 4569 L
3901 4326 mt 3951 4376 L
3951 4326 mt 3901 4376 L
3924 4254 mt 3974 4304 L
3974 4254 mt 3924 4304 L
3946 4072 mt 3996 4122 L
3996 4072 mt 3946 4122 L
3969 4144 mt 4019 4194 L
4019 4144 mt 3969 4194 L
3992 3967 mt 4042 4017 L
4042 3967 mt 3992 4017 L
4015 3879 mt 4065 3929 L
4065 3879 mt 4015 3929 L
4038 3733 mt 4088 3783 L
4088 3733 mt 4038 3783 L
4061 3531 mt 4111 3581 L
4111 3531 mt 4061 3581 L
4084 3399 mt 4134 3449 L
4134 3399 mt 4084 3449 L
4107 3410 mt 4157 3460 L
4157 3410 mt 4107 3460 L
4130 3280 mt 4180 3330 L
4180 3280 mt 4130 3330 L
4152 3020 mt 4202 3070 L
4202 3020 mt 4152 3070 L
4175 2871 mt 4225 2921 L
4225 2871 mt 4175 2921 L
4198 2996 mt 4248 3046 L
4248 2996 mt 4198 3046 L
4221 2794 mt 4271 2844 L
4271 2794 mt 4221 2844 L
4244 2576 mt 4294 2626 L
4294 2576 mt 4244 2626 L
4267 2504 mt 4317 2554 L
4317 2504 mt 4267 2554 L
4290 2328 mt 4340 2378 L
4340 2328 mt 4290 2378 L
4313 2179 mt 4363 2229 L
4363 2179 mt 4313 2229 L
4335 2377 mt 4385 2427 L
4385 2377 mt 4335 2427 L
4358 2065 mt 4408 2115 L
4408 2065 mt 4358 2115 L
4381 1944 mt 4431 1994 L
4431 1944 mt 4381 1994 L
4404 2220 mt 4454 2270 L
4454 2220 mt 4404 2270 L
4427 2082 mt 4477 2132 L
4477 2082 mt 4427 2132 L
4450 2154 mt 4500 2204 L
4500 2154 mt 4450 2204 L
4473 1914 mt 4523 1964 L
4523 1914 mt 4473 1964 L
4496 2112 mt 4546 2162 L
4546 2112 mt 4496 2162 L
4519 2134 mt 4569 2184 L
4569 2134 mt 4519 2184 L
4541 2110 mt 4591 2160 L
4591 2110 mt 4541 2160 L
4564 2032 mt 4614 2082 L
4614 2032 mt 4564 2082 L
4587 2173 mt 4637 2223 L
4637 2173 mt 4587 2223 L
4610 2416 mt 4660 2466 L
4660 2416 mt 4610 2466 L
4633 2344 mt 4683 2394 L
4683 2344 mt 4633 2394 L
4656 2606 mt 4706 2656 L
4706 2606 mt 4656 2656 L
4679 2698 mt 4729 2748 L
4729 2698 mt 4679 2748 L
4702 2714 mt 4752 2764 L
4752 2714 mt 4702 2764 L
4724 2998 mt 4774 3048 L
4774 2998 mt 4724 3048 L
4747 2976 mt 4797 3026 L
4797 2976 mt 4747 3026 L
4770 3112 mt 4820 3162 L
4820 3112 mt 4770 3162 L
4793 3401 mt 4843 3451 L
4843 3401 mt 4793 3451 L
4816 3393 mt 4866 3443 L
4866 3393 mt 4816 3443 L
4839 3575 mt 4889 3625 L
4889 3575 mt 4839 3625 L
4862 3722 mt 4912 3772 L
4912 3722 mt 4862 3772 L
4885 4000 mt 4935 4050 L
4935 4000 mt 4885 4050 L
4908 4205 mt 4958 4255 L
4958 4205 mt 4908 4255 L
4930 4213 mt 4980 4263 L
4980 4213 mt 4930 4263 L
4953 4500 mt 5003 4550 L
5003 4500 mt 4953 4550 L
4976 4610 mt 5026 4660 L
5026 4610 mt 4976 4660 L
4999 4630 mt 5049 4680 L
5049 4630 mt 4999 4680 L
5022 4757 mt 5072 4807 L
5072 4757 mt 5022 4807 L
5045 4930 mt 5095 4980 L
5095 4930 mt 5045 4980 L
5068 4994 mt 5118 5044 L
5118 4994 mt 5068 5044 L
5091 5154 mt 5141 5204 L
5141 5154 mt 5091 5204 L
5113 5124 mt 5163 5174 L
5163 5124 mt 5113 5174 L
5136 5298 mt 5186 5348 L
5186 5298 mt 5136 5348 L
5159 5369 mt 5209 5419 L
5209 5369 mt 5159 5419 L
5182 5411 mt 5232 5461 L
5232 5411 mt 5182 5461 L
5205 5532 mt 5255 5582 L
5255 5532 mt 5205 5582 L
5228 5582 mt 5278 5632 L
5278 5582 mt 5228 5632 L
5251 5585 mt 5301 5635 L
5301 5585 mt 5251 5635 L
5274 5706 mt 5324 5756 L
5324 5706 mt 5274 5756 L
5297 5742 mt 5347 5792 L
5347 5742 mt 5297 5792 L
5319 5764 mt 5369 5814 L
5369 5764 mt 5319 5814 L
5342 5781 mt 5392 5831 L
5392 5781 mt 5342 5831 L
5365 5803 mt 5415 5853 L
5415 5803 mt 5365 5853 L
5388 5883 mt 5438 5933 L
5438 5883 mt 5388 5933 L
5411 5885 mt 5461 5935 L
5461 5885 mt 5411 5935 L
5434 5891 mt 5484 5941 L
5484 5891 mt 5434 5941 L
5457 5905 mt 5507 5955 L
5507 5905 mt 5457 5955 L
5480 5885 mt 5530 5935 L
5530 5885 mt 5480 5935 L
5503 5960 mt 5553 6010 L
5553 5960 mt 5503 6010 L
5525 5919 mt 5575 5969 L
5575 5919 mt 5525 5969 L
5548 5949 mt 5598 5999 L
5598 5949 mt 5548 5999 L
5571 5999 mt 5621 6049 L
5621 5999 mt 5571 6049 L
5594 5974 mt 5644 6024 L
5644 5974 mt 5594 6024 L
5617 5999 mt 5667 6049 L
5667 5999 mt 5617 6049 L
5640 6021 mt 5690 6071 L
5690 6021 mt 5640 6071 L
5663 6021 mt 5713 6071 L
5713 6021 mt 5663 6071 L
5686 6037 mt 5736 6087 L
5736 6037 mt 5686 6087 L
5708 6032 mt 5758 6082 L
5758 6032 mt 5708 6082 L
5731 6032 mt 5781 6082 L
5781 6032 mt 5731 6082 L
5754 6062 mt 5804 6112 L
5804 6062 mt 5754 6112 L
5777 6059 mt 5827 6109 L
5827 6059 mt 5777 6109 L
5800 6057 mt 5850 6107 L
5850 6057 mt 5800 6107 L
5823 6073 mt 5873 6123 L
5873 6073 mt 5823 6123 L
5846 6070 mt 5896 6120 L
5896 6070 mt 5846 6120 L
5869 6068 mt 5919 6118 L
5919 6068 mt 5869 6118 L
5892 6068 mt 5942 6118 L
5942 6068 mt 5892 6118 L
5914 6087 mt 5964 6137 L
5964 6087 mt 5914 6137 L
5937 6095 mt 5987 6145 L
5987 6095 mt 5937 6145 L
5960 6090 mt 6010 6140 L
6010 6090 mt 5960 6140 L
5983 6084 mt 6033 6134 L
6033 6084 mt 5983 6134 L
6006 6090 mt 6056 6140 L
6056 6090 mt 6006 6140 L
6029 6081 mt 6079 6131 L
6079 6081 mt 6029 6131 L
6052 6101 mt 6102 6151 L
6102 6101 mt 6052 6151 L
6075 6101 mt 6125 6151 L
6125 6101 mt 6075 6151 L
6097 6101 mt 6147 6151 L
6147 6101 mt 6097 6151 L
6120 6106 mt 6170 6156 L
6170 6106 mt 6120 6156 L
6143 6101 mt 6193 6151 L
6193 6101 mt 6143 6151 L
6166 6103 mt 6216 6153 L
6216 6103 mt 6166 6153 L
6189 6103 mt 6239 6153 L
6239 6103 mt 6189 6153 L
6212 6106 mt 6262 6156 L
6262 6106 mt 6212 6156 L
6235 6109 mt 6285 6159 L
6285 6109 mt 6235 6159 L
6258 6106 mt 6308 6156 L
6308 6106 mt 6258 6156 L
6281 6103 mt 6331 6153 L
6331 6103 mt 6281 6153 L
6303 6115 mt 6353 6165 L
6353 6115 mt 6303 6165 L
6326 6115 mt 6376 6165 L
6376 6115 mt 6326 6165 L
6349 6115 mt 6399 6165 L
6399 6115 mt 6349 6165 L
6372 6115 mt 6422 6165 L
6422 6115 mt 6372 6165 L
6395 6115 mt 6445 6165 L
6445 6115 mt 6395 6165 L
6418 6106 mt 6468 6156 L
6468 6106 mt 6418 6156 L
6441 6112 mt 6491 6162 L
6491 6112 mt 6441 6162 L
6464 6115 mt 6514 6165 L
6514 6115 mt 6464 6165 L
6486 6106 mt 6536 6156 L
6536 6106 mt 6486 6156 L
6509 6109 mt 6559 6159 L
6559 6109 mt 6509 6159 L
6532 6109 mt 6582 6159 L
6582 6109 mt 6532 6159 L
6555 6115 mt 6605 6165 L
6605 6115 mt 6555 6165 L
6578 6115 mt 6628 6165 L
6628 6115 mt 6578 6165 L
6601 6112 mt 6651 6162 L
6651 6112 mt 6601 6162 L
6624 6112 mt 6674 6162 L
6674 6112 mt 6624 6162 L
6647 6109 mt 6697 6159 L
6697 6109 mt 6647 6159 L
6670 6115 mt 6720 6165 L
6720 6115 mt 6670 6165 L
6692 6115 mt 6742 6165 L
6742 6115 mt 6692 6165 L
6715 6112 mt 6765 6162 L
6765 6112 mt 6715 6162 L
6738 6112 mt 6788 6162 L
6788 6112 mt 6738 6162 L
6761 6115 mt 6811 6165 L
6811 6115 mt 6761 6165 L
6784 6112 mt 6834 6162 L
6834 6112 mt 6784 6162 L
6807 6115 mt 6857 6165 L
6857 6115 mt 6807 6165 L
6830 6115 mt 6880 6165 L
6880 6115 mt 6830 6165 L
6853 6115 mt 6903 6165 L
6903 6115 mt 6853 6165 L
6876 6112 mt 6926 6162 L
6926 6112 mt 6876 6162 L
6898 6112 mt 6948 6162 L
6948 6112 mt 6898 6162 L
6921 6115 mt 6971 6165 L
6971 6115 mt 6921 6165 L
6944 6115 mt 6994 6165 L
6994 6115 mt 6944 6165 L
6967 6115 mt 7017 6165 L
7017 6115 mt 6967 6165 L
6990 6115 mt 7040 6165 L
7040 6115 mt 6990 6165 L
7013 6112 mt 7063 6162 L
7063 6112 mt 7013 6162 L
7036 6115 mt 7086 6165 L
7086 6115 mt 7036 6165 L
7059 6115 mt 7109 6165 L
7109 6115 mt 7059 6165 L
7081 6115 mt 7131 6165 L
7131 6115 mt 7081 6165 L
7104 6115 mt 7154 6165 L
7154 6115 mt 7104 6165 L
7127 6112 mt 7177 6162 L
7177 6112 mt 7127 6162 L
7150 6115 mt 7200 6165 L
7200 6115 mt 7150 6165 L
7173 6115 mt 7223 6165 L
7223 6115 mt 7173 6165 L
7196 6115 mt 7246 6165 L
7246 6115 mt 7196 6165 L
7219 6115 mt 7269 6165 L
7269 6115 mt 7219 6165 L
7242 6115 mt 7292 6165 L
7292 6115 mt 7242 6165 L
7265 6115 mt 7315 6165 L
7315 6115 mt 7265 6165 L
7287 6115 mt 7337 6165 L
7337 6115 mt 7287 6165 L
7310 6115 mt 7360 6165 L
7360 6115 mt 7310 6165 L
7333 6115 mt 7383 6165 L
7383 6115 mt 7333 6165 L
7356 6115 mt 7406 6165 L
7406 6115 mt 7356 6165 L
7379 6115 mt 7429 6165 L
7429 6115 mt 7379 6165 L
7402 6115 mt 7452 6165 L
7452 6115 mt 7402 6165 L
7425 6115 mt 7475 6165 L
7475 6115 mt 7425 6165 L
7448 6115 mt 7498 6165 L
7498 6115 mt 7448 6165 L
7470 6115 mt 7520 6165 L
7520 6115 mt 7470 6165 L
7493 6115 mt 7543 6165 L
7543 6115 mt 7493 6165 L
7516 6115 mt 7566 6165 L
7566 6115 mt 7516 6165 L
7539 6115 mt 7589 6165 L
7589 6115 mt 7539 6165 L
7562 6115 mt 7612 6165 L
7612 6115 mt 7562 6165 L
7585 6115 mt 7635 6165 L
7635 6115 mt 7585 6165 L
7608 6115 mt 7658 6165 L
7658 6115 mt 7608 6165 L
7631 6115 mt 7681 6165 L
7681 6115 mt 7631 6165 L
7654 6115 mt 7704 6165 L
7704 6115 mt 7654 6165 L
7676 6115 mt 7726 6165 L
7726 6115 mt 7676 6165 L
7699 6115 mt 7749 6165 L
7749 6115 mt 7699 6165 L
7722 6115 mt 7772 6165 L
7772 6115 mt 7722 6165 L
7745 6115 mt 7795 6165 L
7795 6115 mt 7745 6165 L
7768 6115 mt 7818 6165 L
7818 6115 mt 7768 6165 L
7791 6115 mt 7841 6165 L
7841 6115 mt 7791 6165 L
7814 6115 mt 7864 6165 L
7864 6115 mt 7814 6165 L
7837 6115 mt 7887 6165 L
7887 6115 mt 7837 6165 L
7859 6115 mt 7909 6165 L
7909 6115 mt 7859 6165 L
7882 6115 mt 7932 6165 L
7932 6115 mt 7882 6165 L
7905 6115 mt 7955 6165 L
7955 6115 mt 7905 6165 L
7928 6115 mt 7978 6165 L
7978 6115 mt 7928 6165 L
7951 6115 mt 8001 6165 L
8001 6115 mt 7951 6165 L
7974 6115 mt 8024 6165 L
8024 6115 mt 7974 6165 L
7997 6115 mt 8047 6165 L
8047 6115 mt 7997 6165 L
8020 6115 mt 8070 6165 L
8070 6115 mt 8020 6165 L
8043 6115 mt 8093 6165 L
8093 6115 mt 8043 6165 L
8065 6115 mt 8115 6165 L
8115 6115 mt 8065 6165 L
8088 6115 mt 8138 6165 L
8138 6115 mt 8088 6165 L
8111 6115 mt 8161 6165 L
8161 6115 mt 8111 6165 L
8134 6115 mt 8184 6165 L
8184 6115 mt 8134 6165 L
8157 6115 mt 8207 6165 L
8207 6115 mt 8157 6165 L
8180 6115 mt 8230 6165 L
8230 6115 mt 8180 6165 L
8203 6115 mt 8253 6165 L
8253 6115 mt 8203 6165 L
8226 6115 mt 8276 6165 L
8276 6115 mt 8226 6165 L
8249 6115 mt 8299 6165 L
8299 6115 mt 8249 6165 L
gr

gs 1409 518 6866 5623 rc
/c9 { 0.000000 0.000000 1.000000 sr} bdef
c9
23 0 23 0 23 0 23 0 23 0 23 0 23 0 23 0 
22 0 23 0 23 0 23 0 23 0 23 0 23 0 23 0 
23 0 22 0 23 0 23 0 23 0 23 0 23 0 23 0 
23 0 22 0 23 0 23 7 23 -7 23 0 23 0 23 0 
23 0 23 0 22 0 23 0 23 0 23 0 23 0 23 0 
23 0 23 0 22 14 23 -14 23 0 23 7 23 -7 23 14 
23 -7 23 0 23 0 22 7 23 -14 23 7 23 7 23 -14 
23 0 23 0 23 7 22 0 23 -7 23 0 23 0 23 14 
23 6 23 -6 23 -7 23 7 22 6 23 -6 23 0 23 0 
23 20 23 6 23 -6 23 0 23 19 22 33 23 -59 23 13 
23 33 23 -33 23 7 23 0 23 0 22 26 23 -6 23 0 
23 0 23 46 23 13 23 -13 23 0 23 6 22 0 23 -26 
23 46 23 40 23 13 23 -13 23 59 23 -26 22 53 23 13 
23 6 23 7 23 59 23 -33 23 -13 23 73 23 231 22 -86 
23 7 23 -14 23 152 23 40 23 -46 23 145 23 -13 22 -132 
23 217 23 -13 23 -26 23 198 23 0 23 244 23 -46 23 59 
22 126 23 -20 23 271 23 198 23 -198 23 125 23 403 23 -53 
23 -7 22 416 23 -99 23 27 23 158 23 343 23 -277 23 66 
23 152 22 435 23 -59 23 -211 23 297 23 -13 23 -53 23 383 
23 -198 23 59 22 145 23 -455 23 409 23 -257 23 336 23 -336 
23 -60 23 -211 22 244 23 -72 23 -238 23 79 23 -66 23 -336 
23 -225 23 -53 23 27 22 -53 23 -99 23 -165 23 -53 23 -7 
23 -19 23 -198 23 -106 22 -13 23 -211 23 -53 23 -172 23 132 
23 -125 23 -53 23 -231 23 -27 22 -33 23 -158 23 66 23 -46 
23 -86 23 -46 23 -73 23 -6 23 -66 22 -73 23 -13 23 -46 
23 26 23 -53 23 -26 23 -46 23 -99 22 66 23 -27 23 -20 
23 0 23 -26 23 -26 23 -99 23 145 23 -60 22 -66 23 40 
23 -59 23 -27 23 -13 23 26 23 -6 23 -20 22 -13 23 0 
23 -40 23 33 23 20 23 -33 23 13 23 -33 23 13 22 -6 
23 0 23 -7 23 -13 23 0 23 -7 23 20 23 13 22 -6 
23 -7 23 -26 23 20 23 -7 23 20 23 -20 23 -7 23 7 
22 -20 23 0 23 0 23 -7 23 20 23 0 23 -13 23 7 
23 -14 22 0 23 14 23 -14 23 7 23 7 23 -7 23 -7 
23 27 22 -27 23 0 23 0 23 0 23 0 23 7 23 -7 
23 0 23 0 22 0 23 0 23 0 23 7 23 -7 23 7 
23 -7 23 0 22 7 23 -7 23 7 23 -7 23 0 23 0 
23 0 23 0 23 7 22 -7 23 0 23 0 23 0 23 0 
23 0 23 0 23 0 1431 6140 300 MP stroke
gr

c9
gs 1333 2299 7040 3940 rc
1395 6140 mt 1467 6140 L
1431 6104 mt 1431 6176 L
1418 6140 mt 1490 6140 L
1454 6104 mt 1454 6176 L
1441 6140 mt 1513 6140 L
1477 6104 mt 1477 6176 L
1464 6140 mt 1536 6140 L
1500 6104 mt 1500 6176 L
1487 6140 mt 1559 6140 L
1523 6104 mt 1523 6176 L
1510 6140 mt 1582 6140 L
1546 6104 mt 1546 6176 L
1533 6140 mt 1605 6140 L
1569 6104 mt 1569 6176 L
1556 6140 mt 1628 6140 L
1592 6104 mt 1592 6176 L
1578 6133 mt 1650 6133 L
1614 6097 mt 1614 6169 L
1601 6140 mt 1673 6140 L
1637 6104 mt 1637 6176 L
1624 6140 mt 1696 6140 L
1660 6104 mt 1660 6176 L
1647 6140 mt 1719 6140 L
1683 6104 mt 1683 6176 L
1670 6140 mt 1742 6140 L
1706 6104 mt 1706 6176 L
1693 6140 mt 1765 6140 L
1729 6104 mt 1729 6176 L
1716 6133 mt 1788 6133 L
1752 6097 mt 1752 6169 L
1739 6140 mt 1811 6140 L
1775 6104 mt 1775 6176 L
1762 6133 mt 1834 6133 L
1798 6097 mt 1798 6169 L
1784 6140 mt 1856 6140 L
1820 6104 mt 1820 6176 L
1807 6140 mt 1879 6140 L
1843 6104 mt 1843 6176 L
1830 6133 mt 1902 6133 L
1866 6097 mt 1866 6169 L
1853 6140 mt 1925 6140 L
1889 6104 mt 1889 6176 L
1876 6133 mt 1948 6133 L
1912 6097 mt 1912 6169 L
1899 6140 mt 1971 6140 L
1935 6104 mt 1935 6176 L
1922 6140 mt 1994 6140 L
1958 6104 mt 1958 6176 L
1945 6140 mt 2017 6140 L
1981 6104 mt 1981 6176 L
1967 6140 mt 2039 6140 L
2003 6104 mt 2003 6176 L
1990 6140 mt 2062 6140 L
2026 6104 mt 2026 6176 L
2013 6140 mt 2085 6140 L
2049 6104 mt 2049 6176 L
2036 6133 mt 2108 6133 L
2072 6097 mt 2072 6169 L
2059 6140 mt 2131 6140 L
2095 6104 mt 2095 6176 L
2082 6140 mt 2154 6140 L
2118 6104 mt 2118 6176 L
2105 6140 mt 2177 6140 L
2141 6104 mt 2141 6176 L
2128 6140 mt 2200 6140 L
2164 6104 mt 2164 6176 L
2151 6140 mt 2223 6140 L
2187 6104 mt 2187 6176 L
2173 6113 mt 2245 6113 L
2209 6077 mt 2209 6149 L
2196 6140 mt 2268 6140 L
2232 6104 mt 2232 6176 L
2219 6133 mt 2291 6133 L
2255 6097 mt 2255 6169 L
2242 6126 mt 2314 6126 L
2278 6090 mt 2278 6162 L
2265 6133 mt 2337 6133 L
2301 6097 mt 2301 6169 L
2288 6140 mt 2360 6140 L
2324 6104 mt 2324 6176 L
2311 6126 mt 2383 6126 L
2347 6090 mt 2347 6162 L
2334 6140 mt 2406 6140 L
2370 6104 mt 2370 6176 L
2356 6140 mt 2428 6140 L
2392 6104 mt 2392 6176 L
2379 6126 mt 2451 6126 L
2415 6090 mt 2415 6162 L
2402 6133 mt 2474 6133 L
2438 6097 mt 2438 6169 L
2425 6120 mt 2497 6120 L
2461 6084 mt 2461 6156 L
2448 6120 mt 2520 6120 L
2484 6084 mt 2484 6156 L
2471 6140 mt 2543 6140 L
2507 6104 mt 2507 6176 L
2494 6133 mt 2566 6133 L
2530 6097 mt 2530 6169 L
2517 6133 mt 2589 6133 L
2553 6097 mt 2553 6169 L
2540 6133 mt 2612 6133 L
2576 6097 mt 2576 6169 L
2562 6113 mt 2634 6113 L
2598 6077 mt 2598 6149 L
2585 6120 mt 2657 6120 L
2621 6084 mt 2621 6156 L
2608 6113 mt 2680 6113 L
2644 6077 mt 2644 6149 L
2631 6093 mt 2703 6093 L
2667 6057 mt 2667 6129 L
2654 6113 mt 2726 6113 L
2690 6077 mt 2690 6149 L
2677 6106 mt 2749 6106 L
2713 6070 mt 2713 6142 L
2700 6126 mt 2772 6126 L
2736 6090 mt 2736 6162 L
2723 6100 mt 2795 6100 L
2759 6064 mt 2759 6136 L
2746 6093 mt 2818 6093 L
2782 6057 mt 2782 6129 L
2768 6087 mt 2840 6087 L
2804 6051 mt 2804 6123 L
2791 6100 mt 2863 6100 L
2827 6064 mt 2827 6136 L
2814 6120 mt 2886 6120 L
2850 6084 mt 2850 6156 L
2837 6113 mt 2909 6113 L
2873 6077 mt 2873 6149 L
2860 6113 mt 2932 6113 L
2896 6077 mt 2896 6149 L
2883 6100 mt 2955 6100 L
2919 6064 mt 2919 6136 L
2906 6093 mt 2978 6093 L
2942 6057 mt 2942 6129 L
2929 6093 mt 3001 6093 L
2965 6057 mt 2965 6129 L
2951 6087 mt 3023 6087 L
2987 6051 mt 2987 6123 L
2974 6100 mt 3046 6100 L
3010 6064 mt 3010 6136 L
2997 6067 mt 3069 6067 L
3033 6031 mt 3033 6103 L
3020 6080 mt 3092 6080 L
3056 6044 mt 3056 6116 L
3043 6047 mt 3115 6047 L
3079 6011 mt 3079 6083 L
3066 6067 mt 3138 6067 L
3102 6031 mt 3102 6103 L
3089 6100 mt 3161 6100 L
3125 6064 mt 3125 6136 L
3112 6060 mt 3184 6060 L
3148 6024 mt 3148 6096 L
3135 6060 mt 3207 6060 L
3171 6024 mt 3171 6096 L
3157 6047 mt 3229 6047 L
3193 6011 mt 3193 6083 L
3180 6027 mt 3252 6027 L
3216 5991 mt 3216 6063 L
3203 6021 mt 3275 6021 L
3239 5985 mt 3239 6057 L
3226 6047 mt 3298 6047 L
3262 6011 mt 3262 6083 L
3249 6034 mt 3321 6034 L
3285 5998 mt 3285 6070 L
3272 6007 mt 3344 6007 L
3308 5971 mt 3308 6043 L
3295 5948 mt 3367 5948 L
3331 5912 mt 3331 5984 L
3318 5988 mt 3390 5988 L
3354 5952 mt 3354 6024 L
3340 5922 mt 3412 5922 L
3376 5886 mt 3376 5958 L
3363 5862 mt 3435 5862 L
3399 5826 mt 3399 5898 L
3386 6007 mt 3458 6007 L
3422 5971 mt 3422 6043 L
3409 5908 mt 3481 5908 L
3445 5872 mt 3445 5944 L
3432 5882 mt 3504 5882 L
3468 5846 mt 3468 5918 L
3455 5856 mt 3527 5856 L
3491 5820 mt 3491 5892 L
3478 5856 mt 3550 5856 L
3514 5820 mt 3514 5892 L
3501 5836 mt 3573 5836 L
3537 5800 mt 3537 5872 L
3524 5809 mt 3596 5809 L
3560 5773 mt 3560 5845 L
3546 5875 mt 3618 5875 L
3582 5839 mt 3582 5911 L
3569 5776 mt 3641 5776 L
3605 5740 mt 3605 5812 L
3592 5730 mt 3664 5730 L
3628 5694 mt 3628 5766 L
3615 5704 mt 3687 5704 L
3651 5668 mt 3651 5740 L
3638 5651 mt 3710 5651 L
3674 5615 mt 3674 5687 L
3661 5677 mt 3733 5677 L
3697 5641 mt 3697 5713 L
3684 5631 mt 3756 5631 L
3720 5595 mt 3720 5667 L
3707 5618 mt 3779 5618 L
3743 5582 mt 3743 5654 L
3729 5545 mt 3801 5545 L
3765 5509 mt 3765 5581 L
3752 5479 mt 3824 5479 L
3788 5443 mt 3788 5515 L
3775 5473 mt 3847 5473 L
3811 5437 mt 3811 5509 L
3798 5400 mt 3870 5400 L
3834 5364 mt 3834 5436 L
3821 5354 mt 3893 5354 L
3857 5318 mt 3857 5390 L
3844 5268 mt 3916 5268 L
3880 5232 mt 3880 5304 L
3867 5222 mt 3939 5222 L
3903 5186 mt 3903 5258 L
3890 5288 mt 3962 5288 L
3926 5252 mt 3926 5324 L
3913 5130 mt 3985 5130 L
3949 5094 mt 3949 5166 L
3935 5097 mt 4007 5097 L
3971 5061 mt 3971 5133 L
3958 5070 mt 4030 5070 L
3994 5034 mt 3994 5106 L
3981 4839 mt 4053 4839 L
4017 4803 mt 4017 4875 L
4004 4786 mt 4076 4786 L
4040 4750 mt 4040 4822 L
4027 4661 mt 4099 4661 L
4063 4625 mt 4063 4697 L
4050 4793 mt 4122 4793 L
4086 4757 mt 4086 4829 L
4073 4621 mt 4145 4621 L
4109 4585 mt 4109 4657 L
4096 4568 mt 4168 4568 L
4132 4532 mt 4132 4604 L
4119 4357 mt 4191 4357 L
4155 4321 mt 4155 4393 L
4141 4344 mt 4213 4344 L
4177 4308 mt 4177 4380 L
4164 4238 mt 4236 4238 L
4200 4202 mt 4200 4274 L
4187 4040 mt 4259 4040 L
4223 4004 mt 4223 4076 L
4210 4021 mt 4282 4021 L
4246 3985 mt 4246 4057 L
4233 4014 mt 4305 4014 L
4269 3978 mt 4269 4050 L
4256 3961 mt 4328 3961 L
4292 3925 mt 4292 3997 L
4279 3796 mt 4351 3796 L
4315 3760 mt 4315 3832 L
4302 3697 mt 4374 3697 L
4338 3661 mt 4338 3733 L
4324 3644 mt 4396 3644 L
4360 3608 mt 4360 3680 L
4347 3671 mt 4419 3671 L
4383 3635 mt 4383 3707 L
4370 3618 mt 4442 3618 L
4406 3582 mt 4406 3654 L
4393 3393 mt 4465 3393 L
4429 3357 mt 4429 3429 L
4416 3057 mt 4488 3057 L
4452 3021 mt 4452 3093 L
4439 2991 mt 4511 2991 L
4475 2955 mt 4475 3027 L
4462 3070 mt 4534 3070 L
4498 3034 mt 4498 3106 L
4485 2832 mt 4557 2832 L
4521 2796 mt 4521 2868 L
4508 2760 mt 4580 2760 L
4544 2724 mt 4544 2796 L
4530 3004 mt 4602 3004 L
4566 2968 mt 4566 3040 L
4553 2793 mt 4625 2793 L
4589 2757 mt 4589 2829 L
4576 2733 mt 4648 2733 L
4612 2697 mt 4612 2769 L
4599 2397 mt 4671 2397 L
4635 2361 mt 4635 2433 L
4622 2733 mt 4694 2733 L
4658 2697 mt 4658 2769 L
4645 2476 mt 4717 2476 L
4681 2440 mt 4681 2512 L
4668 2885 mt 4740 2885 L
4704 2849 mt 4704 2921 L
4691 2430 mt 4763 2430 L
4727 2394 mt 4727 2466 L
4713 2575 mt 4785 2575 L
4749 2539 mt 4749 2611 L
4736 2634 mt 4808 2634 L
4772 2598 mt 4772 2670 L
4759 2436 mt 4831 2436 L
4795 2400 mt 4795 2472 L
4782 2819 mt 4854 2819 L
4818 2783 mt 4818 2855 L
4805 2766 mt 4877 2766 L
4841 2730 mt 4841 2802 L
4828 2753 mt 4900 2753 L
4864 2717 mt 4864 2789 L
4851 3050 mt 4923 3050 L
4887 3014 mt 4887 3086 L
4874 2839 mt 4946 2839 L
4910 2803 mt 4910 2875 L
4897 2780 mt 4969 2780 L
4933 2744 mt 4933 2816 L
4919 3215 mt 4991 3215 L
4955 3179 mt 4955 3251 L
4942 3367 mt 5014 3367 L
4978 3331 mt 4978 3403 L
4965 3433 mt 5037 3433 L
5001 3397 mt 5001 3469 L
4988 3156 mt 5060 3156 L
5024 3120 mt 5024 3192 L
5011 3499 mt 5083 3499 L
5047 3463 mt 5047 3535 L
5034 3657 mt 5106 3657 L
5070 3621 mt 5070 3693 L
5057 3684 mt 5129 3684 L
5093 3648 mt 5093 3720 L
5080 3585 mt 5152 3585 L
5116 3549 mt 5116 3621 L
5102 4001 mt 5174 4001 L
5138 3965 mt 5138 4037 L
5125 3994 mt 5197 3994 L
5161 3958 mt 5161 4030 L
5148 3941 mt 5220 3941 L
5184 3905 mt 5184 3977 L
5171 4344 mt 5243 4344 L
5207 4308 mt 5207 4380 L
5194 4469 mt 5266 4469 L
5230 4433 mt 5230 4505 L
5217 4271 mt 5289 4271 L
5253 4235 mt 5253 4307 L
5240 4469 mt 5312 4469 L
5276 4433 mt 5276 4505 L
5263 4740 mt 5335 4740 L
5299 4704 mt 5299 4776 L
5286 4720 mt 5358 4720 L
5322 4684 mt 5322 4756 L
5308 4846 mt 5380 4846 L
5344 4810 mt 5344 4882 L
5331 4905 mt 5403 4905 L
5367 4869 mt 5367 4941 L
5354 4859 mt 5426 4859 L
5390 4823 mt 5390 4895 L
5377 5103 mt 5449 5103 L
5413 5067 mt 5413 5139 L
5400 5103 mt 5472 5103 L
5436 5067 mt 5436 5139 L
5423 5301 mt 5495 5301 L
5459 5265 mt 5459 5337 L
5446 5275 mt 5518 5275 L
5482 5239 mt 5482 5311 L
5469 5262 mt 5541 5262 L
5505 5226 mt 5505 5298 L
5492 5479 mt 5564 5479 L
5528 5443 mt 5528 5515 L
5514 5347 mt 5586 5347 L
5550 5311 mt 5550 5383 L
5537 5334 mt 5609 5334 L
5573 5298 mt 5573 5370 L
5560 5479 mt 5632 5479 L
5596 5443 mt 5596 5515 L
5583 5433 mt 5655 5433 L
5619 5397 mt 5619 5469 L
5606 5473 mt 5678 5473 L
5642 5437 mt 5642 5509 L
5629 5625 mt 5701 5625 L
5665 5589 mt 5665 5661 L
5652 5611 mt 5724 5611 L
5688 5575 mt 5688 5647 L
5675 5618 mt 5747 5618 L
5711 5582 mt 5711 5654 L
5697 5532 mt 5769 5532 L
5733 5496 mt 5733 5568 L
5720 5763 mt 5792 5763 L
5756 5727 mt 5756 5799 L
5743 5836 mt 5815 5836 L
5779 5800 mt 5779 5872 L
5766 5823 mt 5838 5823 L
5802 5787 mt 5802 5859 L
5789 5790 mt 5861 5790 L
5825 5754 mt 5825 5826 L
5812 5849 mt 5884 5849 L
5848 5813 mt 5848 5885 L
5835 5856 mt 5907 5856 L
5871 5820 mt 5871 5892 L
5858 5862 mt 5930 5862 L
5894 5826 mt 5894 5898 L
5881 5875 mt 5953 5875 L
5917 5839 mt 5917 5911 L
5903 5928 mt 5975 5928 L
5939 5892 mt 5939 5964 L
5926 5902 mt 5998 5902 L
5962 5866 mt 5962 5938 L
5949 5961 mt 6021 5961 L
5985 5925 mt 5985 5997 L
5972 5948 mt 6044 5948 L
6008 5912 mt 6008 5984 L
5995 5961 mt 6067 5961 L
6031 5925 mt 6031 5997 L
6018 6001 mt 6090 6001 L
6054 5965 mt 6054 6037 L
6041 6047 mt 6113 6047 L
6077 6011 mt 6077 6083 L
6064 6021 mt 6136 6021 L
6100 5985 mt 6100 6057 L
6086 6021 mt 6158 6021 L
6122 5985 mt 6122 6057 L
6109 6027 mt 6181 6027 L
6145 5991 mt 6145 6063 L
6132 6027 mt 6204 6027 L
6168 5991 mt 6168 6063 L
6155 6014 mt 6227 6014 L
6191 5978 mt 6191 6050 L
6178 6027 mt 6250 6027 L
6214 5991 mt 6214 6063 L
6201 6073 mt 6273 6073 L
6237 6037 mt 6237 6109 L
6224 6073 mt 6296 6073 L
6260 6037 mt 6260 6109 L
6247 6073 mt 6319 6073 L
6283 6037 mt 6283 6109 L
6270 6067 mt 6342 6067 L
6306 6031 mt 6306 6103 L
6292 6093 mt 6364 6093 L
6328 6057 mt 6328 6129 L
6315 6093 mt 6387 6093 L
6351 6057 mt 6351 6129 L
6338 6093 mt 6410 6093 L
6374 6057 mt 6374 6129 L
6361 6100 mt 6433 6100 L
6397 6064 mt 6397 6136 L
6384 6067 mt 6456 6067 L
6420 6031 mt 6420 6103 L
6407 6100 mt 6479 6100 L
6443 6064 mt 6443 6136 L
6430 6113 mt 6502 6113 L
6466 6077 mt 6466 6149 L
6453 6054 mt 6525 6054 L
6489 6018 mt 6489 6090 L
6475 6087 mt 6547 6087 L
6511 6051 mt 6511 6123 L
6498 6106 mt 6570 6106 L
6534 6070 mt 6534 6142 L
6521 6106 mt 6593 6106 L
6557 6070 mt 6557 6142 L
6544 6100 mt 6616 6100 L
6580 6064 mt 6580 6136 L
6567 6106 mt 6639 6106 L
6603 6070 mt 6603 6142 L
6590 6126 mt 6662 6126 L
6626 6090 mt 6626 6162 L
6613 6126 mt 6685 6126 L
6649 6090 mt 6649 6162 L
6636 6126 mt 6708 6126 L
6672 6090 mt 6672 6162 L
6659 6120 mt 6731 6120 L
6695 6084 mt 6695 6156 L
6681 6126 mt 6753 6126 L
6717 6090 mt 6717 6162 L
6704 6133 mt 6776 6133 L
6740 6097 mt 6740 6169 L
6727 6126 mt 6799 6126 L
6763 6090 mt 6763 6162 L
6750 6120 mt 6822 6120 L
6786 6084 mt 6786 6156 L
6773 6126 mt 6845 6126 L
6809 6090 mt 6809 6162 L
6796 6140 mt 6868 6140 L
6832 6104 mt 6832 6176 L
6819 6140 mt 6891 6140 L
6855 6104 mt 6855 6176 L
6842 6140 mt 6914 6140 L
6878 6104 mt 6878 6176 L
6865 6133 mt 6937 6133 L
6901 6097 mt 6901 6169 L
6887 6133 mt 6959 6133 L
6923 6097 mt 6923 6169 L
6910 6140 mt 6982 6140 L
6946 6104 mt 6946 6176 L
6933 6140 mt 7005 6140 L
6969 6104 mt 6969 6176 L
6956 6140 mt 7028 6140 L
6992 6104 mt 6992 6176 L
6979 6126 mt 7051 6126 L
7015 6090 mt 7015 6162 L
7002 6133 mt 7074 6133 L
7038 6097 mt 7038 6169 L
7025 6140 mt 7097 6140 L
7061 6104 mt 7061 6176 L
7048 6126 mt 7120 6126 L
7084 6090 mt 7084 6162 L
7070 6133 mt 7142 6133 L
7106 6097 mt 7106 6169 L
7093 6133 mt 7165 6133 L
7129 6097 mt 7129 6169 L
7116 6133 mt 7188 6133 L
7152 6097 mt 7152 6169 L
7139 6126 mt 7211 6126 L
7175 6090 mt 7175 6162 L
7162 6140 mt 7234 6140 L
7198 6104 mt 7198 6176 L
7185 6133 mt 7257 6133 L
7221 6097 mt 7221 6169 L
7208 6140 mt 7280 6140 L
7244 6104 mt 7244 6176 L
7231 6140 mt 7303 6140 L
7267 6104 mt 7267 6176 L
7254 6126 mt 7326 6126 L
7290 6090 mt 7290 6162 L
7276 6140 mt 7348 6140 L
7312 6104 mt 7312 6176 L
7299 6140 mt 7371 6140 L
7335 6104 mt 7335 6176 L
7322 6140 mt 7394 6140 L
7358 6104 mt 7358 6176 L
7345 6140 mt 7417 6140 L
7381 6104 mt 7381 6176 L
7368 6140 mt 7440 6140 L
7404 6104 mt 7404 6176 L
7391 6140 mt 7463 6140 L
7427 6104 mt 7427 6176 L
7414 6140 mt 7486 6140 L
7450 6104 mt 7450 6176 L
7437 6140 mt 7509 6140 L
7473 6104 mt 7473 6176 L
7459 6140 mt 7531 6140 L
7495 6104 mt 7495 6176 L
7482 6140 mt 7554 6140 L
7518 6104 mt 7518 6176 L
7505 6140 mt 7577 6140 L
7541 6104 mt 7541 6176 L
7528 6140 mt 7600 6140 L
7564 6104 mt 7564 6176 L
7551 6140 mt 7623 6140 L
7587 6104 mt 7587 6176 L
7574 6140 mt 7646 6140 L
7610 6104 mt 7610 6176 L
7597 6133 mt 7669 6133 L
7633 6097 mt 7633 6169 L
7620 6140 mt 7692 6140 L
7656 6104 mt 7656 6176 L
7643 6140 mt 7715 6140 L
7679 6104 mt 7679 6176 L
7665 6140 mt 7737 6140 L
7701 6104 mt 7701 6176 L
7688 6140 mt 7760 6140 L
7724 6104 mt 7724 6176 L
7711 6140 mt 7783 6140 L
7747 6104 mt 7747 6176 L
7734 6140 mt 7806 6140 L
7770 6104 mt 7770 6176 L
7757 6140 mt 7829 6140 L
7793 6104 mt 7793 6176 L
7780 6140 mt 7852 6140 L
7816 6104 mt 7816 6176 L
7803 6140 mt 7875 6140 L
7839 6104 mt 7839 6176 L
7826 6140 mt 7898 6140 L
7862 6104 mt 7862 6176 L
7848 6140 mt 7920 6140 L
7884 6104 mt 7884 6176 L
7871 6140 mt 7943 6140 L
7907 6104 mt 7907 6176 L
7894 6140 mt 7966 6140 L
7930 6104 mt 7930 6176 L
7917 6140 mt 7989 6140 L
7953 6104 mt 7953 6176 L
7940 6140 mt 8012 6140 L
7976 6104 mt 7976 6176 L
7963 6140 mt 8035 6140 L
7999 6104 mt 7999 6176 L
7986 6140 mt 8058 6140 L
8022 6104 mt 8022 6176 L
8009 6140 mt 8081 6140 L
8045 6104 mt 8045 6176 L
8032 6140 mt 8104 6140 L
8068 6104 mt 8068 6176 L
8054 6140 mt 8126 6140 L
8090 6104 mt 8090 6176 L
8077 6140 mt 8149 6140 L
8113 6104 mt 8113 6176 L
8100 6140 mt 8172 6140 L
8136 6104 mt 8136 6176 L
8123 6140 mt 8195 6140 L
8159 6104 mt 8159 6176 L
8146 6140 mt 8218 6140 L
8182 6104 mt 8182 6176 L
8169 6140 mt 8241 6140 L
8205 6104 mt 8205 6176 L
8192 6140 mt 8264 6140 L
8228 6104 mt 8228 6176 L
8215 6140 mt 8287 6140 L
8251 6104 mt 8251 6176 L
8238 6140 mt 8310 6140 L
8274 6104 mt 8274 6176 L
gr

gs 1409 518 6866 5623 rc
gr

0 sg
1727  392 mt 
(True Sensor: 135 Random: 141 Shift: 6) s
4555 6829 mt 
(day) s
 338 4370 mt  -90 rotate
(daily incident) s
90 rotate
%%IncludeResource: font Helvetica
/Helvetica /ISOLatin1Encoding 96 FMSR

1396 6175 mt 
( ) s
8262  552 mt 
( ) s
6 w
1 sg
0 890 2966 0 0 -890 5249 1468 4 MP
PP
-2966 0 0 890 2966 0 0 -890 5249 1468 5 MP stroke
4 w
DO
SO
6 w
0 sg
5249 1468 mt 8215 1468 L
5249  578 mt 8215  578 L
5249 1468 mt 5249  578 L
8215 1468 mt 8215  578 L
5249 1468 mt 8215 1468 L
5249 1468 mt 5249  578 L
5249 1468 mt 8215 1468 L
5249  578 mt 8215  578 L
5249 1468 mt 5249  578 L
8215 1468 mt 8215  578 L
%%IncludeResource: font Helvetica
/Helvetica /ISOLatin1Encoding 360 FMSR

5708  937 mt 
(Sensor Group) s
gs 5249 578 2967 891 rc
24 w
c8
353 0 5319 809 2 MP stroke
gs 5398 711 197 197 rc
5460  809 mt 5532  809 L
5496  773 mt 5496  845 L
5471  784 mt 5521  834 L
5521  784 mt 5471  834 L
gr

gr

24 w
c8
0 sg
5708 1364 mt 
(Random Group) s
gs 5249 578 2967 891 rc
c9
353 0 5319 1236 2 MP stroke
gs 5398 1138 197 197 rc
5460 1236 mt 5532 1236 L
5496 1200 mt 5496 1272 L
gr

6 w
gr

6 w
c9

end %%Color Dict

eplot
%%EndObject

epage
end

showpage

%%Trailer
%%EOF
