%!PS-Adobe-3.0 EPSF-3.0
%%Creator: MATLAB, The MathWorks, Inc. Version 8.3.0.532 (R2014a). Operating System: Darwin 13.3.0 Darwin Kernel Version 13.3.0: Tue Jun  3 21:27:35 PDT 2014; root:xnu-2422.110.17~1/RELEASE_X86_64 x86_64.
%%Title: /Users/huijuans/2015Fall/PLoSOne/MatLabFig/la_08272015.eps
%%CreationDate: 08/27/2015  20:16:49
%%DocumentNeededFonts: Helvetica
%%DocumentProcessColors: Cyan Magenta Yellow Black
%%LanguageLevel: 2
%%Pages: 1
%%BoundingBox:   -74   108   687   684
%%EndComments

%%BeginProlog
% MathWorks dictionary
/MathWorks 160 dict begin
% definition operators
/bdef {bind def} bind def
/ldef {load def} bind def
/xdef {exch def} bdef
/xstore {exch store} bdef
% operator abbreviations
/c  /clip ldef
/cc /concat ldef
/cp /closepath ldef
/gr /grestore ldef
/gs /gsave ldef
/mt /moveto ldef
/np /newpath ldef
/cm /currentmatrix ldef
/sm /setmatrix ldef
/rm /rmoveto ldef
/rl /rlineto ldef
/s {show newpath} bdef
/sc {setcmykcolor} bdef
/sr /setrgbcolor ldef
/sg /setgray ldef
/w /setlinewidth ldef
/j /setlinejoin ldef
/cap /setlinecap ldef
/rc {rectclip} bdef
/rf {rectfill} bdef
% page state control
/pgsv () def
/bpage {/pgsv save def} bdef
/epage {pgsv restore} bdef
/bplot /gsave ldef
/eplot {stroke grestore} bdef
% orientation switch
/portraitMode 0 def /landscapeMode 1 def /rotateMode 2 def
% coordinate system mappings
/dpi2point 0 def
% font control
/FontSize 0 def
/FMS {/FontSize xstore findfont [FontSize 0 0 FontSize neg 0 0]
  makefont setfont} bdef
/reencode {exch dup where {pop load} {pop StandardEncoding} ifelse
  exch dup 3 1 roll findfont dup length dict begin
  { 1 index /FID ne {def}{pop pop} ifelse } forall
  /Encoding exch def currentdict end definefont pop} bdef
/isroman {findfont /CharStrings get /Agrave known} bdef
/FMSR {3 1 roll 1 index dup isroman {reencode} {pop pop} ifelse
  exch FMS} bdef
/csm {1 dpi2point div -1 dpi2point div scale neg translate
 dup landscapeMode eq {pop -90 rotate}
  {rotateMode eq {90 rotate} if} ifelse} bdef
% line types: solid, dotted, dashed, dotdash
/SO { [] 0 setdash } bdef
/DO { [.5 dpi2point mul 4 dpi2point mul] 0 setdash } bdef
/DA { [6 dpi2point mul] 0 setdash } bdef
/DD { [.5 dpi2point mul 4 dpi2point mul 6 dpi2point mul 4
  dpi2point mul] 0 setdash } bdef
% macros for lines and objects
/L {lineto stroke} bdef
/MP {3 1 roll moveto 1 sub {rlineto} repeat} bdef
/AP {{rlineto} repeat} bdef
/PDlw -1 def
/W {/PDlw currentlinewidth def setlinewidth} def
/PP {closepath eofill} bdef
/DP {closepath stroke} bdef
/MR {4 -2 roll moveto dup  0 exch rlineto exch 0 rlineto
  neg 0 exch rlineto closepath} bdef
/FR {MR stroke} bdef
/PR {MR fill} bdef
/L1i {{currentfile picstr readhexstring pop} image} bdef
/tMatrix matrix def
/MakeOval {newpath tMatrix currentmatrix pop translate scale
0 0 1 0 360 arc tMatrix setmatrix} bdef
/FO {MakeOval stroke} bdef
/PO {MakeOval fill} bdef
/PD {currentlinewidth 2 div 0 360 arc fill
   PDlw -1 eq not {PDlw w /PDlw -1 def} if} def
/FA {newpath tMatrix currentmatrix pop translate scale
  0 0 1 5 -2 roll arc tMatrix setmatrix stroke} bdef
/PA {newpath tMatrix currentmatrix pop	translate 0 0 moveto scale
  0 0 1 5 -2 roll arc closepath tMatrix setmatrix fill} bdef
/FAn {newpath tMatrix currentmatrix pop translate scale
  0 0 1 5 -2 roll arcn tMatrix setmatrix stroke} bdef
/PAn {newpath tMatrix currentmatrix pop translate 0 0 moveto scale
  0 0 1 5 -2 roll arcn closepath tMatrix setmatrix fill} bdef
/vradius 0 def /hradius 0 def /lry 0 def
/lrx 0 def /uly 0 def /ulx 0 def /rad 0 def
/MRR {/vradius xdef /hradius xdef /lry xdef /lrx xdef /uly xdef
  /ulx xdef newpath tMatrix currentmatrix pop ulx hradius add uly
  vradius add translate hradius vradius scale 0 0 1 180 270 arc 
  tMatrix setmatrix lrx hradius sub uly vradius add translate
  hradius vradius scale 0 0 1 270 360 arc tMatrix setmatrix
  lrx hradius sub lry vradius sub translate hradius vradius scale
  0 0 1 0 90 arc tMatrix setmatrix ulx hradius add lry vradius sub
  translate hradius vradius scale 0 0 1 90 180 arc tMatrix setmatrix
  closepath} bdef
/FRR {MRR stroke } bdef
/PRR {MRR fill } bdef
/MlrRR {/lry xdef /lrx xdef /uly xdef /ulx xdef /rad lry uly sub 2 div def
  newpath tMatrix currentmatrix pop ulx rad add uly rad add translate
  rad rad scale 0 0 1 90 270 arc tMatrix setmatrix lrx rad sub lry rad
  sub translate rad rad scale 0 0 1 270 90 arc tMatrix setmatrix
  closepath} bdef
/FlrRR {MlrRR stroke } bdef
/PlrRR {MlrRR fill } bdef
/MtbRR {/lry xdef /lrx xdef /uly xdef /ulx xdef /rad lrx ulx sub 2 div def
  newpath tMatrix currentmatrix pop ulx rad add uly rad add translate
  rad rad scale 0 0 1 180 360 arc tMatrix setmatrix lrx rad sub lry rad
  sub translate rad rad scale 0 0 1 0 180 arc tMatrix setmatrix
  closepath} bdef
/FtbRR {MtbRR stroke } bdef
/PtbRR {MtbRR fill } bdef
/stri 6 array def /dtri 6 array def
/smat 6 array def /dmat 6 array def
/tmat1 6 array def /tmat2 6 array def /dif 3 array def
/asub {/ind2 exch def /ind1 exch def dup dup
  ind1 get exch ind2 get sub exch } bdef
/tri_to_matrix {
  2 0 asub 3 1 asub 4 0 asub 5 1 asub
  dup 0 get exch 1 get 7 -1 roll astore } bdef
/compute_transform {
  dmat dtri tri_to_matrix tmat1 invertmatrix 
  smat stri tri_to_matrix tmat2 concatmatrix } bdef
/ds {stri astore pop} bdef
/dt {dtri astore pop} bdef
/db {2 copy /cols xdef /rows xdef mul dup 3 mul string
  currentfile 
  3 index 0 eq {/ASCIIHexDecode filter}
  {/ASCII85Decode filter 3 index 2 eq {/RunLengthDecode filter} if }
  ifelse exch readstring pop
  dup 0 3 index getinterval /rbmap xdef
  dup 2 index dup getinterval /gbmap xdef
  1 index dup 2 mul exch getinterval /bbmap xdef pop pop}bdef
/it {gs np dtri aload pop moveto lineto lineto cp c
  cols rows 8 compute_transform 
  rbmap gbmap bbmap true 3 colorimage gr}bdef
/il {newpath moveto lineto stroke}bdef
currentdict end def
%%EndProlog

%%BeginSetup
MathWorks begin

0 cap

end
%%EndSetup

%%Page: 1 1
%%BeginPageSetup
%%PageBoundingBox:   -74   108   687   684
MathWorks begin
bpage
%%EndPageSetup

%%BeginObject: obj1
bplot

/dpi2point 12 def
portraitMode -0888 8208 csm

    0     0  9143  6912 rc
85 dict begin %Colortable dictionary
/c0 { 0.000000 0.000000 0.000000 sr} bdef
/c1 { 1.000000 1.000000 1.000000 sr} bdef
/c2 { 0.900000 0.000000 0.000000 sr} bdef
/c3 { 0.000000 0.820000 0.000000 sr} bdef
/c4 { 0.000000 0.000000 0.800000 sr} bdef
/c5 { 0.910000 0.820000 0.320000 sr} bdef
/c6 { 1.000000 0.260000 0.820000 sr} bdef
/c7 { 0.000000 0.820000 0.820000 sr} bdef
c0
1 j
1 sg
   0    0 9144 6913 rf
6 w
0 5466 7085 0 0 -5466 1357 5816 4 MP
PP
-7085 0 0 5466 7085 0 0 -5466 1357 5816 5 MP stroke
4 w
DO
SO
6 w
0 sg
1357 5816 mt 8442 5816 L
1357  350 mt 8442  350 L
1357 5816 mt 1357  350 L
8442 5816 mt 8442  350 L
1357 5816 mt 8442 5816 L
1357 5816 mt 1357  350 L
1947 5816 mt 1947 5745 L
1947  350 mt 1947  420 L
3128 5816 mt 3128 5745 L
3128  350 mt 3128  420 L
4309 5816 mt 4309 5745 L
4309  350 mt 4309  420 L
5489 5816 mt 5489 5745 L
5489  350 mt 5489  420 L
6670 5816 mt 6670 5745 L
6670  350 mt 6670  420 L
7851 5816 mt 7851 5745 L
7851  350 mt 7851  420 L
1357 4933 mt 1427 4933 L
8442 4933 mt 8371 4933 L
%%IncludeResource: font Helvetica
/Helvetica /ISOLatin1Encoding 360 FMSR

 912 5067 mt 
(-5) s
1357 3875 mt 1427 3875 L
8442 3875 mt 8371 3875 L
1122 4009 mt 
(5) s
1357 2818 mt 1427 2818 L
8442 2818 mt 8371 2818 L
 922 2952 mt 
(15) s
1357 1761 mt 1427 1761 L
8442 1761 mt 8371 1761 L
 922 1895 mt 
(25) s
1357  704 mt 1427  704 L
8442  704 mt 8371  704 L
 922  838 mt 
(35) s
1357 5816 mt 8442 5816 L
1357  350 mt 8442  350 L
1357 5816 mt 1357  350 L
8442 5816 mt 8442  350 L
gs 1357 350 7086 5467 rc
DA
24 w
0 -925 1947 3849 2 MP stroke
0 -740 3128 3770 2 MP stroke
0 -1057 4309 3664 2 MP stroke
0 -952 5489 3347 2 MP stroke
0 -634 6670 3558 2 MP stroke
0 -1057 7851 2184 2 MP stroke
0 -846 1947 5356 2 MP stroke
0 -634 3128 5250 2 MP stroke
0 -714 4309 5144 2 MP stroke
0 -845 5489 5038 2 MP stroke
0 -634 6670 4827 2 MP stroke
0 -1057 7851 3981 2 MP stroke
SO
296 0 1799 2924 2 MP stroke
295 0 2980 3030 2 MP stroke
295 0 4161 2607 2 MP stroke
295 0 5342 2395 2 MP stroke
295 0 6523 2924 2 MP stroke
296 0 7703 1127 2 MP stroke
296 0 1799 5356 2 MP stroke
295 0 2980 5250 2 MP stroke
295 0 4161 5144 2 MP stroke
295 0 5342 5038 2 MP stroke
295 0 6523 4827 2 MP stroke
296 0 7703 3981 2 MP stroke
/c8 { 0.000000 0.000000 1.000000 sr} bdef
c8
147 -105 0 -212 -590 0 0 212 147 105 -147 106 0 238 590 0 
0 -238 -147 -106 1799 4193 11 MP stroke
147 -134 0 -289 -590 0 0 289 148 134 -148 135 0 288 590 0 
0 -288 -147 -135 2980 4193 11 MP stroke
148 -122 0 -221 -591 0 0 221 148 122 -148 122 0 301 591 0 
0 -301 -148 -122 4161 4087 11 MP stroke
148 -135 0 -288 -591 0 0 288 148 135 -148 135 0 288 591 0 
0 -288 -148 -135 5342 3770 11 MP stroke
148 -102 0 -216 -590 0 0 216 147 102 -147 101 0 216 590 0 
0 -216 -148 -101 6523 3875 11 MP stroke
147 -118 0 -199 -590 0 0 199 147 118 -147 118 0 305 590 0 
0 -305 -147 -118 7703 2607 11 MP stroke
/c9 { 1.000000 0.000000 0.000000 sr} bdef
c9
296 0 1799 4193 2 MP stroke
295 0 2980 4193 2 MP stroke
295 0 4161 4087 2 MP stroke
295 0 5342 3770 2 MP stroke
295 0 6523 3875 2 MP stroke
296 0 7703 2607 2 MP stroke
gs 1849 5469 197 197 rc
1911 5567 mt 1983 5567 L
1947 5531 mt 1947 5603 L
gr

gs 6572 1980 197 514 rc
6634 2395 mt 6706 2395 L
6670 2359 mt 6670 2431 L
6634 2078 mt 6706 2078 L
6670 2042 mt 6670 2114 L
gr

gs 7753 500 197 620 rc
7815 1021 mt 7887 1021 L
7851  985 mt 7851 1057 L
7815  598 mt 7887  598 L
7851  562 mt 7851  634 L
gr

gr

24 w
c9
0 sg
%%IncludeResource: font Helvetica
/Helvetica /ISOLatin1Encoding 96 FMSR

1920 5964 mt 
(1) s
3101 5964 mt 
(2) s
4282 5964 mt 
(3) s
5463 5964 mt 
(4) s
6644 5964 mt 
(5) s
7825 5964 mt 
(6) s
%%IncludeResource: font Helvetica
/Helvetica /ISOLatin1Encoding 360 FMSR

 776 4380 mt  -90 rotate
(Lead Time \(day\)) s
90 rotate
 148 6526 mt  -16 rotate
(distr demogr) s
16 rotate
1768 6384 mt  -16 rotate
(distr inter) s
16 rotate
2202 6602 mt  -16 rotate
(CART demogr) s
16 rotate
3894 6495 mt  -16 rotate
(CART inter) s
16 rotate
4066 6860 mt  -16 rotate
(CART demogr+inter) s
16 rotate
7239 6170 mt  -16 rotate
(trans) s
16 rotate
6 w

end %%Color Dict

eplot
%%EndObject

epage
end

showpage

%%Trailer
%%EOF
