%!PS-Adobe-3.0 EPSF-3.0
%%Creator: MATLAB, The MathWorks, Inc. Version 8.3.0.532 (R2014a). Operating System: Darwin 13.3.0 Darwin Kernel Version 13.3.0: Tue Jun  3 21:27:35 PDT 2014; root:xnu-2422.110.17~1/RELEASE_X86_64 x86_64.
%%Title: /Users/huijuans/2015Fall/PLoSOne/MatLabFig/nyc_08282015.eps
%%CreationDate: 08/28/2015  15:08:22
%%DocumentNeededFonts: Helvetica
%%DocumentProcessColors: Cyan Magenta Yellow Black
%%LanguageLevel: 2
%%Pages: 1
%%BoundingBox:   155   257   456   533
%%EndComments

%%BeginProlog
% MathWorks dictionary
/MathWorks 160 dict begin
% definition operators
/bdef {bind def} bind def
/ldef {load def} bind def
/xdef {exch def} bdef
/xstore {exch store} bdef
% operator abbreviations
/c  /clip ldef
/cc /concat ldef
/cp /closepath ldef
/gr /grestore ldef
/gs /gsave ldef
/mt /moveto ldef
/np /newpath ldef
/cm /currentmatrix ldef
/sm /setmatrix ldef
/rm /rmoveto ldef
/rl /rlineto ldef
/s {show newpath} bdef
/sc {setcmykcolor} bdef
/sr /setrgbcolor ldef
/sg /setgray ldef
/w /setlinewidth ldef
/j /setlinejoin ldef
/cap /setlinecap ldef
/rc {rectclip} bdef
/rf {rectfill} bdef
% page state control
/pgsv () def
/bpage {/pgsv save def} bdef
/epage {pgsv restore} bdef
/bplot /gsave ldef
/eplot {stroke grestore} bdef
% orientation switch
/portraitMode 0 def /landscapeMode 1 def /rotateMode 2 def
% coordinate system mappings
/dpi2point 0 def
% font control
/FontSize 0 def
/FMS {/FontSize xstore findfont [FontSize 0 0 FontSize neg 0 0]
  makefont setfont} bdef
/reencode {exch dup where {pop load} {pop StandardEncoding} ifelse
  exch dup 3 1 roll findfont dup length dict begin
  { 1 index /FID ne {def}{pop pop} ifelse } forall
  /Encoding exch def currentdict end definefont pop} bdef
/isroman {findfont /CharStrings get /Agrave known} bdef
/FMSR {3 1 roll 1 index dup isroman {reencode} {pop pop} ifelse
  exch FMS} bdef
/csm {1 dpi2point div -1 dpi2point div scale neg translate
 dup landscapeMode eq {pop -90 rotate}
  {rotateMode eq {90 rotate} if} ifelse} bdef
% line types: solid, dotted, dashed, dotdash
/SO { [] 0 setdash } bdef
/DO { [.5 dpi2point mul 4 dpi2point mul] 0 setdash } bdef
/DA { [6 dpi2point mul] 0 setdash } bdef
/DD { [.5 dpi2point mul 4 dpi2point mul 6 dpi2point mul 4
  dpi2point mul] 0 setdash } bdef
% macros for lines and objects
/L {lineto stroke} bdef
/MP {3 1 roll moveto 1 sub {rlineto} repeat} bdef
/AP {{rlineto} repeat} bdef
/PDlw -1 def
/W {/PDlw currentlinewidth def setlinewidth} def
/PP {closepath eofill} bdef
/DP {closepath stroke} bdef
/MR {4 -2 roll moveto dup  0 exch rlineto exch 0 rlineto
  neg 0 exch rlineto closepath} bdef
/FR {MR stroke} bdef
/PR {MR fill} bdef
/L1i {{currentfile picstr readhexstring pop} image} bdef
/tMatrix matrix def
/MakeOval {newpath tMatrix currentmatrix pop translate scale
0 0 1 0 360 arc tMatrix setmatrix} bdef
/FO {MakeOval stroke} bdef
/PO {MakeOval fill} bdef
/PD {currentlinewidth 2 div 0 360 arc fill
   PDlw -1 eq not {PDlw w /PDlw -1 def} if} def
/FA {newpath tMatrix currentmatrix pop translate scale
  0 0 1 5 -2 roll arc tMatrix setmatrix stroke} bdef
/PA {newpath tMatrix currentmatrix pop	translate 0 0 moveto scale
  0 0 1 5 -2 roll arc closepath tMatrix setmatrix fill} bdef
/FAn {newpath tMatrix currentmatrix pop translate scale
  0 0 1 5 -2 roll arcn tMatrix setmatrix stroke} bdef
/PAn {newpath tMatrix currentmatrix pop translate 0 0 moveto scale
  0 0 1 5 -2 roll arcn closepath tMatrix setmatrix fill} bdef
/vradius 0 def /hradius 0 def /lry 0 def
/lrx 0 def /uly 0 def /ulx 0 def /rad 0 def
/MRR {/vradius xdef /hradius xdef /lry xdef /lrx xdef /uly xdef
  /ulx xdef newpath tMatrix currentmatrix pop ulx hradius add uly
  vradius add translate hradius vradius scale 0 0 1 180 270 arc 
  tMatrix setmatrix lrx hradius sub uly vradius add translate
  hradius vradius scale 0 0 1 270 360 arc tMatrix setmatrix
  lrx hradius sub lry vradius sub translate hradius vradius scale
  0 0 1 0 90 arc tMatrix setmatrix ulx hradius add lry vradius sub
  translate hradius vradius scale 0 0 1 90 180 arc tMatrix setmatrix
  closepath} bdef
/FRR {MRR stroke } bdef
/PRR {MRR fill } bdef
/MlrRR {/lry xdef /lrx xdef /uly xdef /ulx xdef /rad lry uly sub 2 div def
  newpath tMatrix currentmatrix pop ulx rad add uly rad add translate
  rad rad scale 0 0 1 90 270 arc tMatrix setmatrix lrx rad sub lry rad
  sub translate rad rad scale 0 0 1 270 90 arc tMatrix setmatrix
  closepath} bdef
/FlrRR {MlrRR stroke } bdef
/PlrRR {MlrRR fill } bdef
/MtbRR {/lry xdef /lrx xdef /uly xdef /ulx xdef /rad lrx ulx sub 2 div def
  newpath tMatrix currentmatrix pop ulx rad add uly rad add translate
  rad rad scale 0 0 1 180 360 arc tMatrix setmatrix lrx rad sub lry rad
  sub translate rad rad scale 0 0 1 0 180 arc tMatrix setmatrix
  closepath} bdef
/FtbRR {MtbRR stroke } bdef
/PtbRR {MtbRR fill } bdef
/stri 6 array def /dtri 6 array def
/smat 6 array def /dmat 6 array def
/tmat1 6 array def /tmat2 6 array def /dif 3 array def
/asub {/ind2 exch def /ind1 exch def dup dup
  ind1 get exch ind2 get sub exch } bdef
/tri_to_matrix {
  2 0 asub 3 1 asub 4 0 asub 5 1 asub
  dup 0 get exch 1 get 7 -1 roll astore } bdef
/compute_transform {
  dmat dtri tri_to_matrix tmat1 invertmatrix 
  smat stri tri_to_matrix tmat2 concatmatrix } bdef
/ds {stri astore pop} bdef
/dt {dtri astore pop} bdef
/db {2 copy /cols xdef /rows xdef mul dup 3 mul string
  currentfile 
  3 index 0 eq {/ASCIIHexDecode filter}
  {/ASCII85Decode filter 3 index 2 eq {/RunLengthDecode filter} if }
  ifelse exch readstring pop
  dup 0 3 index getinterval /rbmap xdef
  dup 2 index dup getinterval /gbmap xdef
  1 index dup 2 mul exch getinterval /bbmap xdef pop pop}bdef
/it {gs np dtri aload pop moveto lineto lineto cp c
  cols rows 8 compute_transform 
  rbmap gbmap bbmap true 3 colorimage gr}bdef
/il {newpath moveto lineto stroke}bdef
currentdict end def
%%EndProlog

%%BeginSetup
MathWorks begin

0 cap

end
%%EndSetup

%%Page: 1 1
%%BeginPageSetup
%%PageBoundingBox:   155   257   456   533
MathWorks begin
bpage
%%EndPageSetup

%%BeginObject: obj1
bplot

/dpi2point 12 def
portraitMode 1860 6396 csm

    0     0  3612  3312 rc
85 dict begin %Colortable dictionary
/c0 { 0.000000 0.000000 0.000000 sr} bdef
/c1 { 1.000000 1.000000 1.000000 sr} bdef
/c2 { 0.900000 0.000000 0.000000 sr} bdef
/c3 { 0.000000 0.820000 0.000000 sr} bdef
/c4 { 0.000000 0.000000 0.800000 sr} bdef
/c5 { 0.910000 0.820000 0.320000 sr} bdef
/c6 { 1.000000 0.260000 0.820000 sr} bdef
/c7 { 0.000000 0.820000 0.820000 sr} bdef
c0
1 j
1 sg
   0    0 3613 3313 rf
6 w
0 2591 2592 0 0 -2591 864 2448 4 MP
PP
-2592 0 0 2591 2592 0 0 -2591 864 2448 5 MP stroke
4 w
DO
SO
6 w
0 sg
 864 2448 mt 3456 2448 L
 864 -143 mt 3456 -143 L
 864 2448 mt  864 -143 L
3456 2448 mt 3456 -143 L
 864 2448 mt 3456 2448 L
 864 2448 mt  864 -143 L
1080 2448 mt 1080 2422 L
1080 -144 mt 1080 -119 L
1512 2448 mt 1512 2422 L
1512 -144 mt 1512 -119 L
1944 2448 mt 1944 2422 L
1944 -144 mt 1944 -119 L
2376 2448 mt 2376 2422 L
2376 -144 mt 2376 -119 L
2808 2448 mt 2808 2422 L
2808 -144 mt 2808 -119 L
3240 2448 mt 3240 2422 L
3240 -144 mt 3240 -119 L
 864 2375 mt  889 2375 L
3456 2375 mt 3430 2375 L
%%IncludeResource: font Helvetica
/Helvetica /ISOLatin1Encoding 192 FMSR

 504 2446 mt 
(-15) s
 864 1922 mt  889 1922 L
3456 1922 mt 3430 1922 L
 611 1993 mt 
(-5) s
 864 1469 mt  889 1469 L
3456 1469 mt 3430 1469 L
 723 1540 mt 
(5) s
 864 1016 mt  889 1016 L
3456 1016 mt 3430 1016 L
 616 1087 mt 
(15) s
 864  562 mt  889  562 L
3456  562 mt 3430  562 L
 616  633 mt 
(25) s
 864  109 mt  889  109 L
3456  109 mt 3430  109 L
 616  180 mt 
(35) s
 864 2448 mt 3456 2448 L
 864 -143 mt 3456 -143 L
 864 2448 mt  864 -143 L
3456 2448 mt 3456 -143 L
gs 864 0 2593 2593 rc
DA
24 w
0 -408 1080 1378 2 MP stroke
0 -306 1512 1412 2 MP stroke
0 -453 1944 1333 2 MP stroke
0 -271 2376 1287 2 MP stroke
0 -272 2808 1242 2 MP stroke
0 -363 3240 789 2 MP stroke
0 -453 1080 2194 2 MP stroke
0 -544 1512 2330 2 MP stroke
0 -453 1944 2148 2 MP stroke
0 -408 2376 1967 2 MP stroke
0 -362 2808 1967 2 MP stroke
0 -453 3240 1559 2 MP stroke
SO
108 0 1026 970 2 MP stroke
108 0 1458 1106 2 MP stroke
108 0 1890 880 2 MP stroke
108 0 2322 1016 2 MP stroke
108 0 2754 970 2 MP stroke
108 0 3186 426 2 MP stroke
108 0 1026 2194 2 MP stroke
108 0 1458 2330 2 MP stroke
108 0 1890 2148 2 MP stroke
108 0 2322 1967 2 MP stroke
108 0 2754 1967 2 MP stroke
108 0 3186 1559 2 MP stroke
/c8 { 0.000000 0.000000 1.000000 sr} bdef
c8
54 -61 0 -121 -216 0 0 121 54 61 -54 60 0 121 216 0 
0 -121 -54 -60 1026 1559 11 MP stroke
54 -63 0 -164 -216 0 0 164 54 63 -54 62 0 85 216 0 
0 -85 -54 -62 1458 1559 11 MP stroke
54 -60 0 -121 -216 0 0 121 54 60 -54 60 0 121 216 0 
0 -121 -54 -60 1890 1514 11 MP stroke
54 -46 0 -90 -216 0 0 90 54 46 -54 45 0 91 216 0 
0 -91 -54 -45 2322 1423 11 MP stroke
54 -60 0 -167 -216 0 0 167 54 60 -54 60 0 76 216 0 
0 -76 -54 -60 2754 1378 11 MP stroke
54 -53 0 -128 -216 0 0 128 54 53 -54 53 0 83 216 0 
0 -83 -54 -53 3186 925 11 MP stroke
/c9 { 1.000000 0.000000 0.000000 sr} bdef
c9
108 0 1026 1559 2 MP stroke
108 0 1458 1559 2 MP stroke
108 0 1890 1514 2 MP stroke
108 0 2322 1423 2 MP stroke
108 0 2754 1378 2 MP stroke
108 0 3186 925 2 MP stroke
gs 982 555 197 197 rc
1044  653 mt 1116  653 L
1080  617 mt 1080  689 L
gr

gs 2278 736 197 1466 rc
2340 2103 mt 2412 2103 L
2376 2067 mt 2376 2139 L
2340 2012 mt 2412 2012 L
2376 1976 mt 2376 2048 L
2340  834 mt 2412  834 L
2376  798 mt 2376  870 L
gr

gs 3142 0 197 196 rc
3204  -26 mt 3276  -26 L
3240  -62 mt 3240    9 L
gr

gr

24 w
c9
0 sg
%%IncludeResource: font Helvetica
/Helvetica /ISOLatin1Encoding 96 FMSR

1053 2596 mt 
(1) s
1485 2596 mt 
(2) s
1917 2596 mt 
(3) s
2349 2596 mt 
(4) s
2781 2596 mt 
(5) s
3213 2596 mt 
(6) s
%%IncludeResource: font Helvetica
/Helvetica /ISOLatin1Encoding 192 FMSR

 489 1855 mt  -90 rotate
(Lead Time \(day\)) s
90 rotate
 121 2997 mt  -25 rotate
(distr demogr) s
25 rotate
 845 2891 mt  -25 rotate
(distr inter) s
25 rotate
 904 3053 mt  -25 rotate
(CART demogr) s
25 rotate
1605 2911 mt  -25 rotate
(CART inter) s
25 rotate
1309 3276 mt  -25 rotate
(CART demogr+inter) s
25 rotate
2909 2729 mt  -25 rotate
(trans) s
25 rotate
6 w

end %%Color Dict

eplot
%%EndObject

epage
end

showpage

%%Trailer
%%EOF
