%!PS-Adobe-3.0 EPSF-3.0
%%Creator: MATLAB, The MathWorks, Inc. Version 8.3.0.532 (R2014a). Operating System: Darwin 13.3.0 Darwin Kernel Version 13.3.0: Tue Jun  3 21:27:35 PDT 2014; root:xnu-2422.110.17~1/RELEASE_X86_64 x86_64.
%%Title: /Users/huijuans/2015Fall/GodBlessPLoSOne/MatLabFig/oregon_shift_distribution_08282015.eps
%%CreationDate: 08/31/2015  17:49:33
%%DocumentNeededFonts: Helvetica
%%DocumentProcessColors: Cyan Magenta Yellow Black
%%LanguageLevel: 2
%%Pages: 1
%%BoundingBox:   198   288   414   504
%%EndComments

%%BeginProlog
% MathWorks dictionary
/MathWorks 160 dict begin
% definition operators
/bdef {bind def} bind def
/ldef {load def} bind def
/xdef {exch def} bdef
/xstore {exch store} bdef
% operator abbreviations
/c  /clip ldef
/cc /concat ldef
/cp /closepath ldef
/gr /grestore ldef
/gs /gsave ldef
/mt /moveto ldef
/np /newpath ldef
/cm /currentmatrix ldef
/sm /setmatrix ldef
/rm /rmoveto ldef
/rl /rlineto ldef
/s {show newpath} bdef
/sc {setcmykcolor} bdef
/sr /setrgbcolor ldef
/sg /setgray ldef
/w /setlinewidth ldef
/j /setlinejoin ldef
/cap /setlinecap ldef
/rc {rectclip} bdef
/rf {rectfill} bdef
% page state control
/pgsv () def
/bpage {/pgsv save def} bdef
/epage {pgsv restore} bdef
/bplot /gsave ldef
/eplot {stroke grestore} bdef
% orientation switch
/portraitMode 0 def /landscapeMode 1 def /rotateMode 2 def
% coordinate system mappings
/dpi2point 0 def
% font control
/FontSize 0 def
/FMS {/FontSize xstore findfont [FontSize 0 0 FontSize neg 0 0]
  makefont setfont} bdef
/reencode {exch dup where {pop load} {pop StandardEncoding} ifelse
  exch dup 3 1 roll findfont dup length dict begin
  { 1 index /FID ne {def}{pop pop} ifelse } forall
  /Encoding exch def currentdict end definefont pop} bdef
/isroman {findfont /CharStrings get /Agrave known} bdef
/FMSR {3 1 roll 1 index dup isroman {reencode} {pop pop} ifelse
  exch FMS} bdef
/csm {1 dpi2point div -1 dpi2point div scale neg translate
 dup landscapeMode eq {pop -90 rotate}
  {rotateMode eq {90 rotate} if} ifelse} bdef
% line types: solid, dotted, dashed, dotdash
/SO { [] 0 setdash } bdef
/DO { [.5 dpi2point mul 4 dpi2point mul] 0 setdash } bdef
/DA { [6 dpi2point mul] 0 setdash } bdef
/DD { [.5 dpi2point mul 4 dpi2point mul 6 dpi2point mul 4
  dpi2point mul] 0 setdash } bdef
% macros for lines and objects
/L {lineto stroke} bdef
/MP {3 1 roll moveto 1 sub {rlineto} repeat} bdef
/AP {{rlineto} repeat} bdef
/PDlw -1 def
/W {/PDlw currentlinewidth def setlinewidth} def
/PP {closepath eofill} bdef
/DP {closepath stroke} bdef
/MR {4 -2 roll moveto dup  0 exch rlineto exch 0 rlineto
  neg 0 exch rlineto closepath} bdef
/FR {MR stroke} bdef
/PR {MR fill} bdef
/L1i {{currentfile picstr readhexstring pop} image} bdef
/tMatrix matrix def
/MakeOval {newpath tMatrix currentmatrix pop translate scale
0 0 1 0 360 arc tMatrix setmatrix} bdef
/FO {MakeOval stroke} bdef
/PO {MakeOval fill} bdef
/PD {currentlinewidth 2 div 0 360 arc fill
   PDlw -1 eq not {PDlw w /PDlw -1 def} if} def
/FA {newpath tMatrix currentmatrix pop translate scale
  0 0 1 5 -2 roll arc tMatrix setmatrix stroke} bdef
/PA {newpath tMatrix currentmatrix pop	translate 0 0 moveto scale
  0 0 1 5 -2 roll arc closepath tMatrix setmatrix fill} bdef
/FAn {newpath tMatrix currentmatrix pop translate scale
  0 0 1 5 -2 roll arcn tMatrix setmatrix stroke} bdef
/PAn {newpath tMatrix currentmatrix pop translate 0 0 moveto scale
  0 0 1 5 -2 roll arcn closepath tMatrix setmatrix fill} bdef
/vradius 0 def /hradius 0 def /lry 0 def
/lrx 0 def /uly 0 def /ulx 0 def /rad 0 def
/MRR {/vradius xdef /hradius xdef /lry xdef /lrx xdef /uly xdef
  /ulx xdef newpath tMatrix currentmatrix pop ulx hradius add uly
  vradius add translate hradius vradius scale 0 0 1 180 270 arc 
  tMatrix setmatrix lrx hradius sub uly vradius add translate
  hradius vradius scale 0 0 1 270 360 arc tMatrix setmatrix
  lrx hradius sub lry vradius sub translate hradius vradius scale
  0 0 1 0 90 arc tMatrix setmatrix ulx hradius add lry vradius sub
  translate hradius vradius scale 0 0 1 90 180 arc tMatrix setmatrix
  closepath} bdef
/FRR {MRR stroke } bdef
/PRR {MRR fill } bdef
/MlrRR {/lry xdef /lrx xdef /uly xdef /ulx xdef /rad lry uly sub 2 div def
  newpath tMatrix currentmatrix pop ulx rad add uly rad add translate
  rad rad scale 0 0 1 90 270 arc tMatrix setmatrix lrx rad sub lry rad
  sub translate rad rad scale 0 0 1 270 90 arc tMatrix setmatrix
  closepath} bdef
/FlrRR {MlrRR stroke } bdef
/PlrRR {MlrRR fill } bdef
/MtbRR {/lry xdef /lrx xdef /uly xdef /ulx xdef /rad lrx ulx sub 2 div def
  newpath tMatrix currentmatrix pop ulx rad add uly rad add translate
  rad rad scale 0 0 1 180 360 arc tMatrix setmatrix lrx rad sub lry rad
  sub translate rad rad scale 0 0 1 0 180 arc tMatrix setmatrix
  closepath} bdef
/FtbRR {MtbRR stroke } bdef
/PtbRR {MtbRR fill } bdef
/stri 6 array def /dtri 6 array def
/smat 6 array def /dmat 6 array def
/tmat1 6 array def /tmat2 6 array def /dif 3 array def
/asub {/ind2 exch def /ind1 exch def dup dup
  ind1 get exch ind2 get sub exch } bdef
/tri_to_matrix {
  2 0 asub 3 1 asub 4 0 asub 5 1 asub
  dup 0 get exch 1 get 7 -1 roll astore } bdef
/compute_transform {
  dmat dtri tri_to_matrix tmat1 invertmatrix 
  smat stri tri_to_matrix tmat2 concatmatrix } bdef
/ds {stri astore pop} bdef
/dt {dtri astore pop} bdef
/db {2 copy /cols xdef /rows xdef mul dup 3 mul string
  currentfile 
  3 index 0 eq {/ASCIIHexDecode filter}
  {/ASCII85Decode filter 3 index 2 eq {/RunLengthDecode filter} if }
  ifelse exch readstring pop
  dup 0 3 index getinterval /rbmap xdef
  dup 2 index dup getinterval /gbmap xdef
  1 index dup 2 mul exch getinterval /bbmap xdef pop pop}bdef
/it {gs np dtri aload pop moveto lineto lineto cp c
  cols rows 8 compute_transform 
  rbmap gbmap bbmap true 3 colorimage gr}bdef
/il {newpath moveto lineto stroke}bdef
currentdict end def
%%EndProlog

%%BeginSetup
MathWorks begin

0 cap

end
%%EndSetup

%%Page: 1 1
%%BeginPageSetup
%%PageBoundingBox:   198   288   414   504
MathWorks begin
bpage
%%EndPageSetup

%%BeginObject: obj1
bplot

/dpi2point 12 def
portraitMode 2376 6048 csm

    0     0  2592  2592 rc
85 dict begin %Colortable dictionary
/c0 { 0.000000 0.000000 0.000000 sr} bdef
/c1 { 1.000000 1.000000 1.000000 sr} bdef
/c2 { 0.900000 0.000000 0.000000 sr} bdef
/c3 { 0.000000 0.820000 0.000000 sr} bdef
/c4 { 0.000000 0.000000 0.800000 sr} bdef
/c5 { 0.910000 0.820000 0.320000 sr} bdef
/c6 { 1.000000 0.260000 0.820000 sr} bdef
/c7 { 0.000000 0.820000 0.820000 sr} bdef
c0
1 j
1 sg
   0    0 2593 2593 rf
6 w
0 1814 1814 0 0 -1814 605 2160 4 MP
PP
-1814 0 0 1814 1814 0 0 -1814 605 2160 5 MP stroke
4 w
DO
SO
6 w
0 sg
 605 2160 mt 2419 2160 L
 605  346 mt 2419  346 L
 605 2160 mt  605  346 L
2419 2160 mt 2419  346 L
 605 2160 mt 2419 2160 L
 605 2160 mt  605  346 L
 605 2160 mt  605 2141 L
 605  346 mt  605  364 L
%%IncludeResource: font Helvetica
/Helvetica /ISOLatin1Encoding 144 FMSR

 565 2328 mt 
(0) s
1209 2160 mt 1209 2141 L
1209  346 mt 1209  364 L
1169 2328 mt 
(5) s
1814 2160 mt 1814 2141 L
1814  346 mt 1814  364 L
1734 2328 mt 
(10) s
2419 2160 mt 2419 2141 L
2419  346 mt 2419  364 L
2339 2328 mt 
(15) s
 605 2160 mt  623 2160 L
2419 2160 mt 2400 2160 L
 490 2213 mt 
(0) s
 605 1797 mt  623 1797 L
2419 1797 mt 2400 1797 L
 410 1850 mt 
(20) s
 605 1434 mt  623 1434 L
2419 1434 mt 2400 1434 L
 410 1487 mt 
(40) s
 605 1071 mt  623 1071 L
2419 1071 mt 2400 1071 L
 410 1124 mt 
(60) s
 605  708 mt  623  708 L
2419  708 mt 2400  708 L
 410  761 mt 
(80) s
 605  346 mt  623  346 L
2419  346 mt 2400  346 L
 330  399 mt 
(100) s
 605 2160 mt 2419 2160 L
 605  346 mt 2419  346 L
 605 2160 mt  605  346 L
2419 2160 mt 2419  346 L
gs 605 346 1815 1815 rc
/c8 { 0.000000 0.000000 0.562500 sr} bdef
c8
0 19 36 0 0 -19 605 2160 4 MP
PP
0 sg
-36 0 0 19 36 0 0 -19 605 2160 5 MP stroke
c8
0 0 37 0 0 0 641 2160 4 MP
PP
0 sg
-37 0 0 0 37 0 0 0 641 2160 5 MP stroke
c8
0 0 37 0 0 0 678 2160 4 MP
PP
0 sg
-37 0 0 0 37 0 0 0 678 2160 5 MP stroke
c8
0 0 37 0 0 0 715 2160 4 MP
PP
0 sg
-37 0 0 0 37 0 0 0 715 2160 5 MP stroke
c8
0 19 37 0 0 -19 752 2160 4 MP
PP
0 sg
-37 0 0 19 37 0 0 -19 752 2160 5 MP stroke
c8
0 91 37 0 0 -91 789 2160 4 MP
PP
0 sg
-37 0 0 91 37 0 0 -91 789 2160 5 MP stroke
c8
0 309 37 0 0 -309 826 2160 4 MP
PP
0 sg
-37 0 0 309 37 0 0 -309 826 2160 5 MP stroke
c8
0 654 37 0 0 -654 863 2160 4 MP
PP
0 sg
-37 0 0 654 37 0 0 -654 863 2160 5 MP stroke
c8
0 617 37 0 0 -617 900 2160 4 MP
PP
0 sg
-37 0 0 617 37 0 0 -617 900 2160 5 MP stroke
c8
0 1198 37 0 0 -1198 937 2160 4 MP
PP
0 sg
-37 0 0 1198 37 0 0 -1198 937 2160 5 MP stroke
c8
0 1434 37 0 0 -1434 974 2160 4 MP
PP
0 sg
-37 0 0 1434 37 0 0 -1434 974 2160 5 MP stroke
c8
0 1597 37 0 0 -1597 1011 2160 4 MP
PP
0 sg
-37 0 0 1597 37 0 0 -1597 1011 2160 5 MP stroke
c8
0 1415 36 0 0 -1415 1048 2160 4 MP
PP
0 sg
-36 0 0 1415 36 0 0 -1415 1048 2160 5 MP stroke
c8
0 1234 37 0 0 -1234 1084 2160 4 MP
PP
0 sg
-37 0 0 1234 37 0 0 -1234 1084 2160 5 MP stroke
c8
0 1034 37 0 0 -1034 1121 2160 4 MP
PP
0 sg
-37 0 0 1034 37 0 0 -1034 1121 2160 5 MP stroke
c8
0 1325 37 0 0 -1325 1158 2160 4 MP
PP
0 sg
-37 0 0 1325 37 0 0 -1325 1158 2160 5 MP stroke
c8
0 1234 37 0 0 -1234 1195 2160 4 MP
PP
0 sg
-37 0 0 1234 37 0 0 -1234 1195 2160 5 MP stroke
c8
0 835 37 0 0 -835 1232 2160 4 MP
PP
0 sg
-37 0 0 835 37 0 0 -835 1232 2160 5 MP stroke
c8
0 762 37 0 0 -762 1269 2160 4 MP
PP
0 sg
-37 0 0 762 37 0 0 -762 1269 2160 5 MP stroke
c8
0 545 37 0 0 -545 1306 2160 4 MP
PP
0 sg
-37 0 0 545 37 0 0 -545 1306 2160 5 MP stroke
c8
0 454 37 0 0 -454 1343 2160 4 MP
PP
0 sg
-37 0 0 454 37 0 0 -454 1343 2160 5 MP stroke
c8
0 345 37 0 0 -345 1380 2160 4 MP
PP
0 sg
-37 0 0 345 37 0 0 -345 1380 2160 5 MP stroke
c8
0 436 37 0 0 -436 1417 2160 4 MP
PP
0 sg
-37 0 0 436 37 0 0 -436 1417 2160 5 MP stroke
c8
0 345 37 0 0 -345 1454 2160 4 MP
PP
0 sg
-37 0 0 345 37 0 0 -345 1454 2160 5 MP stroke
c8
0 472 36 0 0 -472 1491 2160 4 MP
PP
0 sg
-36 0 0 472 36 0 0 -472 1491 2160 5 MP stroke
c8
0 273 37 0 0 -273 1527 2160 4 MP
PP
0 sg
-37 0 0 273 37 0 0 -273 1527 2160 5 MP stroke
c8
0 508 37 0 0 -508 1564 2160 4 MP
PP
0 sg
-37 0 0 508 37 0 0 -508 1564 2160 5 MP stroke
c8
0 309 37 0 0 -309 1601 2160 4 MP
PP
0 sg
-37 0 0 309 37 0 0 -309 1601 2160 5 MP stroke
c8
0 164 37 0 0 -164 1638 2160 4 MP
PP
0 sg
-37 0 0 164 37 0 0 -164 1638 2160 5 MP stroke
c8
0 164 37 0 0 -164 1675 2160 4 MP
PP
0 sg
-37 0 0 164 37 0 0 -164 1675 2160 5 MP stroke
c8
0 109 37 0 0 -109 1712 2160 4 MP
PP
0 sg
-37 0 0 109 37 0 0 -109 1712 2160 5 MP stroke
c8
0 37 37 0 0 -37 1749 2160 4 MP
PP
0 sg
-37 0 0 37 37 0 0 -37 1749 2160 5 MP stroke
c8
0 55 37 0 0 -55 1786 2160 4 MP
PP
0 sg
-37 0 0 55 37 0 0 -55 1786 2160 5 MP stroke
c8
0 19 37 0 0 -19 1823 2160 4 MP
PP
0 sg
-37 0 0 19 37 0 0 -19 1823 2160 5 MP stroke
c8
0 0 37 0 0 0 1860 2160 4 MP
PP
0 sg
-37 0 0 0 37 0 0 0 1860 2160 5 MP stroke
c8
0 19 37 0 0 -19 1897 2160 4 MP
PP
0 sg
-37 0 0 19 37 0 0 -19 1897 2160 5 MP stroke
c8
0 0 36 0 0 0 1934 2160 4 MP
PP
0 sg
-36 0 0 0 36 0 0 0 1934 2160 5 MP stroke
c8
0 19 37 0 0 -19 1970 2160 4 MP
PP
0 sg
-37 0 0 19 37 0 0 -19 1970 2160 5 MP stroke
c8
0 19 37 0 0 -19 2007 2160 4 MP
PP
0 sg
-37 0 0 19 37 0 0 -19 2007 2160 5 MP stroke
c8
0 0 37 0 0 0 2044 2160 4 MP
PP
0 sg
-37 0 0 0 37 0 0 0 2044 2160 5 MP stroke
c8
0 0 37 0 0 0 2081 2160 4 MP
PP
0 sg
-37 0 0 0 37 0 0 0 2081 2160 5 MP stroke
c8
0 19 37 0 0 -19 2118 2160 4 MP
PP
0 sg
-37 0 0 19 37 0 0 -19 2118 2160 5 MP stroke
c8
0 37 37 0 0 -37 2155 2160 4 MP
PP
0 sg
-37 0 0 37 37 0 0 -37 2155 2160 5 MP stroke
c8
0 0 37 0 0 0 2192 2160 4 MP
PP
0 sg
-37 0 0 0 37 0 0 0 2192 2160 5 MP stroke
c8
0 0 37 0 0 0 2229 2160 4 MP
PP
0 sg
-37 0 0 0 37 0 0 0 2229 2160 5 MP stroke
c8
0 0 37 0 0 0 2266 2160 4 MP
PP
0 sg
-37 0 0 0 37 0 0 0 2266 2160 5 MP stroke
c8
0 19 37 0 0 -19 2303 2160 4 MP
PP
0 sg
-37 0 0 19 37 0 0 -19 2303 2160 5 MP stroke
c8
0 0 37 0 0 0 2340 2160 4 MP
PP
0 sg
-37 0 0 0 37 0 0 0 2340 2160 5 MP stroke
c8
0 0 36 0 0 0 2377 2160 4 MP
PP
0 sg
-36 0 0 0 36 0 0 0 2377 2160 5 MP stroke
c8
0 19 37 0 0 -19 2413 2160 4 MP
PP
0 sg
-37 0 0 19 37 0 0 -19 2413 2160 5 MP stroke
gr

 982 2456 mt 
(Lead Time \(day\)) s
 243 1591 mt  -90 rotate
(Frequency) s
90 rotate

end %%Color Dict

eplot
%%EndObject

epage
end

showpage

%%Trailer
%%EOF
