%!PS-Adobe-3.0 EPSF-3.0
%%Creator: MATLAB, The MathWorks, Inc. Version 8.3.0.532 (R2014a). Operating System: Darwin 13.3.0 Darwin Kernel Version 13.3.0: Tue Jun  3 21:27:35 PDT 2014; root:xnu-2422.110.17~1/RELEASE_X86_64 x86_64.
%%Title: /Users/huijuans/2015Fall/PLoSOne/MatLabFig/trans6cities_08312015.eps
%%CreationDate: 08/31/2015  15:59:52
%%DocumentNeededFonts: Helvetica
%%DocumentProcessColors: Cyan Magenta Yellow Black
%%LanguageLevel: 2
%%Pages: 1
%%BoundingBox:   198   288   414   504
%%EndComments

%%BeginProlog
% MathWorks dictionary
/MathWorks 160 dict begin
% definition operators
/bdef {bind def} bind def
/ldef {load def} bind def
/xdef {exch def} bdef
/xstore {exch store} bdef
% operator abbreviations
/c  /clip ldef
/cc /concat ldef
/cp /closepath ldef
/gr /grestore ldef
/gs /gsave ldef
/mt /moveto ldef
/np /newpath ldef
/cm /currentmatrix ldef
/sm /setmatrix ldef
/rm /rmoveto ldef
/rl /rlineto ldef
/s {show newpath} bdef
/sc {setcmykcolor} bdef
/sr /setrgbcolor ldef
/sg /setgray ldef
/w /setlinewidth ldef
/j /setlinejoin ldef
/cap /setlinecap ldef
/rc {rectclip} bdef
/rf {rectfill} bdef
% page state control
/pgsv () def
/bpage {/pgsv save def} bdef
/epage {pgsv restore} bdef
/bplot /gsave ldef
/eplot {stroke grestore} bdef
% orientation switch
/portraitMode 0 def /landscapeMode 1 def /rotateMode 2 def
% coordinate system mappings
/dpi2point 0 def
% font control
/FontSize 0 def
/FMS {/FontSize xstore findfont [FontSize 0 0 FontSize neg 0 0]
  makefont setfont} bdef
/reencode {exch dup where {pop load} {pop StandardEncoding} ifelse
  exch dup 3 1 roll findfont dup length dict begin
  { 1 index /FID ne {def}{pop pop} ifelse } forall
  /Encoding exch def currentdict end definefont pop} bdef
/isroman {findfont /CharStrings get /Agrave known} bdef
/FMSR {3 1 roll 1 index dup isroman {reencode} {pop pop} ifelse
  exch FMS} bdef
/csm {1 dpi2point div -1 dpi2point div scale neg translate
 dup landscapeMode eq {pop -90 rotate}
  {rotateMode eq {90 rotate} if} ifelse} bdef
% line types: solid, dotted, dashed, dotdash
/SO { [] 0 setdash } bdef
/DO { [.5 dpi2point mul 4 dpi2point mul] 0 setdash } bdef
/DA { [6 dpi2point mul] 0 setdash } bdef
/DD { [.5 dpi2point mul 4 dpi2point mul 6 dpi2point mul 4
  dpi2point mul] 0 setdash } bdef
% macros for lines and objects
/L {lineto stroke} bdef
/MP {3 1 roll moveto 1 sub {rlineto} repeat} bdef
/AP {{rlineto} repeat} bdef
/PDlw -1 def
/W {/PDlw currentlinewidth def setlinewidth} def
/PP {closepath eofill} bdef
/DP {closepath stroke} bdef
/MR {4 -2 roll moveto dup  0 exch rlineto exch 0 rlineto
  neg 0 exch rlineto closepath} bdef
/FR {MR stroke} bdef
/PR {MR fill} bdef
/L1i {{currentfile picstr readhexstring pop} image} bdef
/tMatrix matrix def
/MakeOval {newpath tMatrix currentmatrix pop translate scale
0 0 1 0 360 arc tMatrix setmatrix} bdef
/FO {MakeOval stroke} bdef
/PO {MakeOval fill} bdef
/PD {currentlinewidth 2 div 0 360 arc fill
   PDlw -1 eq not {PDlw w /PDlw -1 def} if} def
/FA {newpath tMatrix currentmatrix pop translate scale
  0 0 1 5 -2 roll arc tMatrix setmatrix stroke} bdef
/PA {newpath tMatrix currentmatrix pop	translate 0 0 moveto scale
  0 0 1 5 -2 roll arc closepath tMatrix setmatrix fill} bdef
/FAn {newpath tMatrix currentmatrix pop translate scale
  0 0 1 5 -2 roll arcn tMatrix setmatrix stroke} bdef
/PAn {newpath tMatrix currentmatrix pop translate 0 0 moveto scale
  0 0 1 5 -2 roll arcn closepath tMatrix setmatrix fill} bdef
/vradius 0 def /hradius 0 def /lry 0 def
/lrx 0 def /uly 0 def /ulx 0 def /rad 0 def
/MRR {/vradius xdef /hradius xdef /lry xdef /lrx xdef /uly xdef
  /ulx xdef newpath tMatrix currentmatrix pop ulx hradius add uly
  vradius add translate hradius vradius scale 0 0 1 180 270 arc 
  tMatrix setmatrix lrx hradius sub uly vradius add translate
  hradius vradius scale 0 0 1 270 360 arc tMatrix setmatrix
  lrx hradius sub lry vradius sub translate hradius vradius scale
  0 0 1 0 90 arc tMatrix setmatrix ulx hradius add lry vradius sub
  translate hradius vradius scale 0 0 1 90 180 arc tMatrix setmatrix
  closepath} bdef
/FRR {MRR stroke } bdef
/PRR {MRR fill } bdef
/MlrRR {/lry xdef /lrx xdef /uly xdef /ulx xdef /rad lry uly sub 2 div def
  newpath tMatrix currentmatrix pop ulx rad add uly rad add translate
  rad rad scale 0 0 1 90 270 arc tMatrix setmatrix lrx rad sub lry rad
  sub translate rad rad scale 0 0 1 270 90 arc tMatrix setmatrix
  closepath} bdef
/FlrRR {MlrRR stroke } bdef
/PlrRR {MlrRR fill } bdef
/MtbRR {/lry xdef /lrx xdef /uly xdef /ulx xdef /rad lrx ulx sub 2 div def
  newpath tMatrix currentmatrix pop ulx rad add uly rad add translate
  rad rad scale 0 0 1 180 360 arc tMatrix setmatrix lrx rad sub lry rad
  sub translate rad rad scale 0 0 1 0 180 arc tMatrix setmatrix
  closepath} bdef
/FtbRR {MtbRR stroke } bdef
/PtbRR {MtbRR fill } bdef
/stri 6 array def /dtri 6 array def
/smat 6 array def /dmat 6 array def
/tmat1 6 array def /tmat2 6 array def /dif 3 array def
/asub {/ind2 exch def /ind1 exch def dup dup
  ind1 get exch ind2 get sub exch } bdef
/tri_to_matrix {
  2 0 asub 3 1 asub 4 0 asub 5 1 asub
  dup 0 get exch 1 get 7 -1 roll astore } bdef
/compute_transform {
  dmat dtri tri_to_matrix tmat1 invertmatrix 
  smat stri tri_to_matrix tmat2 concatmatrix } bdef
/ds {stri astore pop} bdef
/dt {dtri astore pop} bdef
/db {2 copy /cols xdef /rows xdef mul dup 3 mul string
  currentfile 
  3 index 0 eq {/ASCIIHexDecode filter}
  {/ASCII85Decode filter 3 index 2 eq {/RunLengthDecode filter} if }
  ifelse exch readstring pop
  dup 0 3 index getinterval /rbmap xdef
  dup 2 index dup getinterval /gbmap xdef
  1 index dup 2 mul exch getinterval /bbmap xdef pop pop}bdef
/it {gs np dtri aload pop moveto lineto lineto cp c
  cols rows 8 compute_transform 
  rbmap gbmap bbmap true 3 colorimage gr}bdef
/il {newpath moveto lineto stroke}bdef
currentdict end def
%%EndProlog

%%BeginSetup
MathWorks begin

0 cap

end
%%EndSetup

%%Page: 1 1
%%BeginPageSetup
%%PageBoundingBox:   198   288   414   504
MathWorks begin
bpage
%%EndPageSetup

%%BeginObject: obj1
bplot

/dpi2point 12 def
portraitMode 2376 6048 csm

    0     0  2592  2592 rc
90 dict begin %Colortable dictionary
/c0 { 0.000000 0.000000 0.000000 sr} bdef
/c1 { 1.000000 1.000000 1.000000 sr} bdef
/c2 { 0.900000 0.000000 0.000000 sr} bdef
/c3 { 0.000000 0.820000 0.000000 sr} bdef
/c4 { 0.000000 0.000000 0.800000 sr} bdef
/c5 { 0.910000 0.820000 0.320000 sr} bdef
/c6 { 1.000000 0.260000 0.820000 sr} bdef
/c7 { 0.000000 0.820000 0.820000 sr} bdef
c0
1 j
1 sg
   0    0 2593 2593 rf
6 w
0 1901 1901 0 0 -1901 613 1970 4 MP
PP
-1901 0 0 1901 1901 0 0 -1901 613 1970 5 MP stroke
4 w
DO
SO
6 w
0 sg
 613 1970 mt 2514 1970 L
 613   69 mt 2514   69 L
 613 1970 mt  613   69 L
2514 1970 mt 2514   69 L
 613 1970 mt 2514 1970 L
 613 1970 mt  613   69 L
 683 1970 mt  683 1950 L
 683   69 mt  683   88 L
1035 1970 mt 1035 1950 L
1035   69 mt 1035   88 L
1387 1970 mt 1387 1950 L
1387   69 mt 1387   88 L
1739 1970 mt 1739 1950 L
1739   69 mt 1739   88 L
2091 1970 mt 2091 1950 L
2091   69 mt 2091   88 L
2443 1970 mt 2443 1950 L
2443   69 mt 2443   88 L
 613 1970 mt  632 1970 L
2514 1970 mt 2494 1970 L
%%IncludeResource: font Helvetica
/Helvetica /ISOLatin1Encoding 144 FMSR

 498 2023 mt 
(0) s
 613 1653 mt  632 1653 L
2514 1653 mt 2494 1653 L
 498 1706 mt 
(5) s
 613 1336 mt  632 1336 L
2514 1336 mt 2494 1336 L
 418 1389 mt 
(10) s
 613 1019 mt  632 1019 L
2514 1019 mt 2494 1019 L
 418 1072 mt 
(15) s
 613  702 mt  632  702 L
2514  702 mt 2494  702 L
 418  755 mt 
(20) s
 613  385 mt  632  385 L
2514  385 mt 2494  385 L
 418  438 mt 
(25) s
 613   69 mt  632   69 L
2514   69 mt 2494   69 L
 418  122 mt 
(30) s
 613 1970 mt 2514 1970 L
 613   69 mt 2514   69 L
 613 1970 mt  613   69 L
2514 1970 mt 2514   69 L
gs 613 69 1902 1902 rc
12 w
/c8 { 0.933333 0.050704 0.537255 sr} bdef
c8
0 253 683 1653 2 MP stroke
36 0 665 1653 2 MP stroke
36 0 665 1906 2 MP stroke
0 228 1035 1564 2 MP stroke
36 0 1017 1564 2 MP stroke
36 0 1017 1792 2 MP stroke
0 128 1387 1576 2 MP stroke
36 0 1369 1576 2 MP stroke
36 0 1369 1704 2 MP stroke
0 501 1739 1039 2 MP stroke
36 0 1721 1039 2 MP stroke
36 0 1721 1540 2 MP stroke
0 253 2091 1146 2 MP stroke
36 0 2073 1146 2 MP stroke
36 0 2073 1399 2 MP stroke
0 317 2443 670 2 MP stroke
36 0 2425 670 2 MP stroke
36 0 2425 987 2 MP stroke
352 -443 352 -18 352 -350 352 -38 352 -101 683 1779 6 MP stroke
gr

12 w
c8
0 j
-27 47 -27 -47 54 0 656 1795 4 MP
gs
PP
gr
DP
-27 47 -27 -47 54 0 1008 1694 4 MP
gs
PP
gr
DP
-27 47 -27 -47 54 0 1360 1656 4 MP
gs
PP
gr
DP
-27 47 -27 -47 54 0 1712 1306 4 MP
gs
PP
gr
DP
-27 47 -27 -47 54 0 2064 1288 4 MP
gs
PP
gr
DP
-27 47 -27 -47 54 0 2416 845 4 MP
gs
PP
gr
DP
gs 613 69 1902 1902 rc
/c9 { 0.333333 0.101961 0.545098 sr} bdef
c9
0 101 683 1710 2 MP stroke
36 0 665 1710 2 MP stroke
36 0 665 1811 2 MP stroke
0 240 1035 1577 2 MP stroke
36 0 1017 1577 2 MP stroke
36 0 1017 1817 2 MP stroke
0 220 1387 1571 2 MP stroke
36 0 1369 1571 2 MP stroke
36 0 1369 1791 2 MP stroke
0 239 1739 1405 2 MP stroke
36 0 1721 1405 2 MP stroke
36 0 1721 1644 2 MP stroke
0 199 2091 1354 2 MP stroke
36 0 2073 1354 2 MP stroke
36 0 2073 1553 2 MP stroke
0 298 2443 691 2 MP stroke
36 0 2425 691 2 MP stroke
36 0 2425 989 2 MP stroke
352 -613 352 -72 352 -156 352 -16 352 -63 683 1760 6 MP stroke
gr

c9
-27 47 -27 -47 54 0 656 1776 4 MP
gs
PP
gr
DP
-27 47 -27 -47 54 0 1008 1713 4 MP
gs
PP
gr
DP
-27 47 -27 -47 54 0 1360 1697 4 MP
gs
PP
gr
DP
-27 47 -27 -47 54 0 1712 1541 4 MP
gs
PP
gr
DP
-27 47 -27 -47 54 0 2064 1469 4 MP
gs
PP
gr
DP
-27 47 -27 -47 54 0 2416 856 4 MP
gs
PP
gr
DP
gs 613 69 1902 1902 rc
/c10 { 0.098039 0.098039 0.439216 sr} bdef
c10
0 216 683 1700 2 MP stroke
36 0 665 1700 2 MP stroke
36 0 665 1916 2 MP stroke
0 203 1035 1642 2 MP stroke
36 0 1017 1642 2 MP stroke
36 0 1017 1845 2 MP stroke
0 238 1387 1312 2 MP stroke
36 0 1369 1312 2 MP stroke
36 0 1369 1550 2 MP stroke
0 198 1739 1294 2 MP stroke
36 0 1721 1294 2 MP stroke
36 0 1721 1492 2 MP stroke
0 235 2091 1326 2 MP stroke
36 0 2073 1326 2 MP stroke
36 0 2073 1561 2 MP stroke
0 323 2443 588 2 MP stroke
36 0 2425 588 2 MP stroke
36 0 2425 911 2 MP stroke
352 -694 352 51 352 -38 352 -312 352 -65 683 1808 6 MP stroke
gr

c10
-27 47 -27 -47 54 0 656 1824 4 MP
gs
PP
gr
DP
-27 47 -27 -47 54 0 1008 1759 4 MP
gs
PP
gr
DP
-27 47 -27 -47 54 0 1360 1447 4 MP
gs
PP
gr
DP
-27 47 -27 -47 54 0 1712 1409 4 MP
gs
PP
gr
DP
-27 47 -27 -47 54 0 2064 1460 4 MP
gs
PP
gr
DP
-27 47 -27 -47 54 0 2416 766 4 MP
gs
PP
gr
DP
gs 613 69 1902 1902 rc
/c11 { 0.000000 1.000000 1.000000 sr} bdef
c11
0 266 683 1691 2 MP stroke
36 0 665 1691 2 MP stroke
36 0 665 1957 2 MP stroke
0 186 1035 1662 2 MP stroke
36 0 1017 1662 2 MP stroke
36 0 1017 1848 2 MP stroke
0 60 1387 1368 2 MP stroke
36 0 1369 1368 2 MP stroke
36 0 1369 1428 2 MP stroke
0 327 1739 1267 2 MP stroke
36 0 1721 1267 2 MP stroke
36 0 1721 1594 2 MP stroke
0 214 2091 1320 2 MP stroke
36 0 2073 1320 2 MP stroke
36 0 2073 1534 2 MP stroke
0 334 2443 497 2 MP stroke
36 0 2425 497 2 MP stroke
36 0 2425 831 2 MP stroke
352 -763 352 -4 352 33 352 -357 352 -69 683 1824 6 MP stroke
gr

c11
-27 47 -27 -47 54 0 656 1840 4 MP
gs
PP
gr
DP
-27 47 -27 -47 54 0 1008 1771 4 MP
gs
PP
gr
DP
-27 47 -27 -47 54 0 1360 1414 4 MP
gs
PP
gr
DP
-27 47 -27 -47 54 0 1712 1447 4 MP
gs
PP
gr
DP
-27 47 -27 -47 54 0 2064 1443 4 MP
gs
PP
gr
DP
-27 47 -27 -47 54 0 2416 680 4 MP
gs
PP
gr
DP
gs 613 69 1902 1902 rc
/c12 { 0.000000 0.803922 0.000000 sr} bdef
c12
0 136 683 1752 2 MP stroke
36 0 665 1752 2 MP stroke
36 0 665 1888 2 MP stroke
0 248 1035 1685 2 MP stroke
36 0 1017 1685 2 MP stroke
36 0 1017 1933 2 MP stroke
0 161 1387 1669 2 MP stroke
36 0 1369 1669 2 MP stroke
36 0 1369 1830 2 MP stroke
0 198 1739 1396 2 MP stroke
36 0 1721 1396 2 MP stroke
36 0 1721 1594 2 MP stroke
0 170 2091 1438 2 MP stroke
36 0 2073 1438 2 MP stroke
36 0 2073 1608 2 MP stroke
0 492 2443 307 2 MP stroke
36 0 2425 307 2 MP stroke
36 0 2425 799 2 MP stroke
352 -970 352 28 352 -255 352 -59 352 -11 683 1820 6 MP stroke
gr

c12
-27 47 -27 -47 54 0 656 1836 4 MP
gs
PP
gr
DP
-27 47 -27 -47 54 0 1008 1825 4 MP
gs
PP
gr
DP
-27 47 -27 -47 54 0 1360 1766 4 MP
gs
PP
gr
DP
-27 47 -27 -47 54 0 1712 1511 4 MP
gs
PP
gr
DP
-27 47 -27 -47 54 0 2064 1539 4 MP
gs
PP
gr
DP
-27 47 -27 -47 54 0 2416 569 4 MP
gs
PP
gr
DP
gs 613 69 1902 1902 rc
/c13 { 1.000000 0.000000 0.000000 sr} bdef
c13
0 267 683 1704 2 MP stroke
36 0 665 1704 2 MP stroke
0 183 1035 1788 2 MP stroke
36 0 1017 1788 2 MP stroke
0 240 1387 1617 2 MP stroke
36 0 1369 1617 2 MP stroke
36 0 1369 1857 2 MP stroke
0 195 1739 1503 2 MP stroke
36 0 1721 1503 2 MP stroke
36 0 1721 1698 2 MP stroke
0 257 2091 1406 2 MP stroke
36 0 2073 1406 2 MP stroke
36 0 2073 1663 2 MP stroke
0 431 2443 328 2 MP stroke
36 0 2425 328 2 MP stroke
36 0 2425 759 2 MP stroke
352 -991 352 -66 352 -136 352 -168 352 62 683 1843 6 MP stroke
gr

c13
-27 47 -27 -47 54 0 656 1859 4 MP
gs
PP
gr
DP
-27 47 -27 -47 54 0 1008 1921 4 MP
gs
PP
gr
DP
-27 47 -27 -47 54 0 1360 1753 4 MP
gs
PP
gr
DP
-27 47 -27 -47 54 0 1712 1617 4 MP
gs
PP
gr
DP
-27 47 -27 -47 54 0 2064 1551 4 MP
gs
PP
gr
DP
-27 47 -27 -47 54 0 2416 560 4 MP
gs
PP
gr
DP
gs 613 69 1902 1902 rc
gr

0 sg
 260 1559 mt  -90 rotate
(Lead Time \(day\)) s
90 rotate
%%IncludeResource: font Helvetica
/Helvetica /ISOLatin1Encoding 96 FMSR

 600 2005 mt 
( ) s
2502  103 mt 
( ) s
%%IncludeResource: font Helvetica
/Helvetica /ISOLatin1Encoding 144 FMSR

  32 2375 mt  -25 rotate
(distr demogr) s
25 rotate
 552 2286 mt  -25 rotate
(distr inter) s
25 rotate
 605 2433 mt  -25 rotate
(CART demogr) s
25 rotate
1152 2333 mt  -25 rotate
(CART inter) s
25 rotate
 989 2577 mt  -25 rotate
(CART demogr+inter) s
25 rotate
2207 2172 mt  -25 rotate
(trans) s
25 rotate
6 w
1 sg
0 1229 996 0 0 -1229 613 1301 4 MP
PP
-996 0 0 1229 996 0 0 -1229 613 1301 5 MP stroke
4 w
DO
SO
6 w
0 sg
 613 1301 mt 1609 1301 L
 613   72 mt 1609   72 L
 613 1301 mt  613   72 L
1609 1301 mt 1609   72 L
 613 1301 mt 1609 1301 L
 613 1301 mt  613   72 L
 613 1301 mt 1609 1301 L
 613   72 mt 1609   72 L
 613 1301 mt  613   72 L
1609 1301 mt 1609   72 L
%%IncludeResource: font Helvetica
/Helvetica /ISOLatin1Encoding 132 FMSR

1082  239 mt 
(miami) s
gs 613 72 997 1230 rc
12 w
c8
360 0 685 191 2 MP stroke
6 w
gs 816 142 99 99 rc
-27 47 -27 -47 54 0 838 207 4 MP
gs
PP
gr
DP
gr

gr

c8
0 sg
1082  437 mt 
(boston) s
gs 613 72 997 1230 rc
12 w
c9
360 0 685 389 2 MP stroke
6 w
gs 816 340 99 99 rc
-27 47 -27 -47 54 0 838 405 4 MP
gs
PP
gr
DP
gr

gr

c9
0 sg
1082  635 mt 
(dallas) s
gs 613 72 997 1230 rc
12 w
c10
360 0 685 587 2 MP stroke
6 w
gs 816 538 99 99 rc
-27 47 -27 -47 54 0 838 603 4 MP
gs
PP
gr
DP
gr

gr

c10
0 sg
1082  833 mt 
(chicago) s
gs 613 72 997 1230 rc
12 w
c11
360 0 685 785 2 MP stroke
6 w
gs 816 736 99 99 rc
-27 47 -27 -47 54 0 838 801 4 MP
gs
PP
gr
DP
gr

gr

c11
0 sg
1082 1031 mt 
(la) s
gs 613 72 997 1230 rc
12 w
c12
360 0 685 983 2 MP stroke
6 w
gs 816 934 99 99 rc
-27 47 -27 -47 54 0 838 999 4 MP
gs
PP
gr
DP
gr

gr

c12
0 sg
1082 1229 mt 
(nyc) s
gs 613 72 997 1230 rc
12 w
c13
360 0 685 1181 2 MP stroke
6 w
gs 816 1132 99 99 rc
-27 47 -27 -47 54 0 838 1197 4 MP
gs
PP
gr
DP
gr

gr

c13

end %%Color Dict

eplot
%%EndObject

epage
end

showpage

%%Trailer
%%EOF
